<?xml version="1.0" encoding="UTF-8" standalone="no"?>
<!-- Created using Karbon, part of Calligra: http://www.calligra.org/karbon -->

<svg
   xmlns:dc="http://purl.org/dc/elements/1.1/"
   xmlns:cc="http://creativecommons.org/ns#"
   xmlns:rdf="http://www.w3.org/1999/02/22-rdf-syntax-ns#"
   xmlns:svg="http://www.w3.org/2000/svg"
   xmlns="http://www.w3.org/2000/svg"
   xmlns:sodipodi="http://sodipodi.sourceforge.net/DTD/sodipodi-0.dtd"
   xmlns:inkscape="http://www.inkscape.org/namespaces/inkscape"
   width="38.4pt"
   height="38.4pt"
   id="svg2"
   version="1.1"
   inkscape:version="0.48.4 r9939"
   sodipodi:docname="application-x-ms-dos-executable.svg">
  <metadata
     id="metadata17">
    <rdf:RDF>
      <cc:Work
         rdf:about="">
        <dc:format>image/svg+xml</dc:format>
        <dc:type
           rdf:resource="http://purl.org/dc/dcmitype/StillImage" />
      </cc:Work>
    </rdf:RDF>
  </metadata>
  <sodipodi:namedview
     pagecolor="#ffffff"
     bordercolor="#666666"
     borderopacity="1"
     objecttolerance="10"
     gridtolerance="10"
     guidetolerance="10"
     inkscape:pageopacity="0"
     inkscape:pageshadow="2"
     inkscape:window-width="1366"
     inkscape:window-height="709"
     id="namedview15"
     showgrid="false"
     inkscape:zoom="7.9743455"
     inkscape:cx="3.5662605"
     inkscape:cy="27.672023"
     inkscape:window-x="0"
     inkscape:window-y="-3"
     inkscape:window-maximized="1"
     inkscape:current-layer="svg2" />
  <defs
     id="defs4" />
  <path
     sodipodi:nodetypes="cccccc"
     style="fill:#203040;fill-opacity:1"
     inkscape:connector-curvature="0"
     d="m 4.5170003,5.6406983 0,36.7208317 38.9610387,0 0,-36.6957578 -12.605042,-0.025074 z"
     id="rect4090" />
  <rect
     style="fill:#cccccc"
     y="15.82008"
     x="10.199812"
     height="25.312376"
     width="32.313984"
     id="rect813" />
  <rect
     style="fill:none"
     y="20.410185"
     x="26.242592"
     height="10.098228"
     width="2.2918258"
     id="rect3288" />
  <text
     transform="scale(0.95674452,1.0452111)"
     sodipodi:linespacing="125%"
     style="font-size:14.05298327999999941px;font-style:normal;font-variant:normal;font-weight:bold;font-stretch:condensed;text-align:start;line-height:125%;writing-mode:lr-tb;text-anchor:start;fill:#203040;font-family:Roboto Condensed;-inkscape-font-specification:'Roboto Condensed, Bold Condensed';fill-opacity:1"
     y="33.544247"
     x="11.541835"
     font-size="16.00000000000pt"
     id="shape0">
    <tspan
       style="font-size:14.05298327999999941px;font-style:normal;font-variant:normal;font-weight:bold;font-stretch:condensed;text-align:start;line-height:125%;writing-mode:lr-tb;text-anchor:start;font-family:Roboto Condensed;-inkscape-font-specification:'Roboto Condensed, Bold Condensed';fill:#203040;fill-opacity:1"
       id="tspan13">DOS</tspan>
  </text>
</svg>
