<?xml version="1.0" encoding="UTF-8" standalone="no"?>
<!-- Created using Karbon, part of Calligra: http://www.calligra.org/karbon -->

<svg
   xmlns:dc="http://purl.org/dc/elements/1.1/"
   xmlns:cc="http://creativecommons.org/ns#"
   xmlns:rdf="http://www.w3.org/1999/02/22-rdf-syntax-ns#"
   xmlns:svg="http://www.w3.org/2000/svg"
   xmlns="http://www.w3.org/2000/svg"
   xmlns:sodipodi="http://sodipodi.sourceforge.net/DTD/sodipodi-0.dtd"
   xmlns:inkscape="http://www.inkscape.org/namespaces/inkscape"
   width="38.4pt"
   height="38.4pt"
   id="svg2"
   version="1.1"
   inkscape:version="0.48.4 r9939"
   sodipodi:docname="application-x-qet-project.svg">
  <metadata
     id="metadata30">
    <rdf:RDF>
      <cc:Work
         rdf:about="">
        <dc:format>image/svg+xml</dc:format>
        <dc:type
           rdf:resource="http://purl.org/dc/dcmitype/StillImage" />
      </cc:Work>
    </rdf:RDF>
  </metadata>
  <sodipodi:namedview
     pagecolor="#ffffff"
     bordercolor="#666666"
     borderopacity="1"
     objecttolerance="10"
     gridtolerance="10"
     guidetolerance="10"
     inkscape:pageopacity="0"
     inkscape:pageshadow="2"
     inkscape:window-width="1366"
     inkscape:window-height="709"
     id="namedview28"
     showgrid="false"
     inkscape:zoom="11.318426"
     inkscape:cx="28.766318"
     inkscape:cy="24.826902"
     inkscape:current-layer="svg2"
     inkscape:window-x="0"
     inkscape:window-y="-3"
     inkscape:window-maximized="1" />
  <defs
     id="defs4" />
  <path
     sodipodi:nodetypes="cccccc"
     style="fill:#a0892c"
     inkscape:connector-curvature="0"
     d="m 4.499996,5.6271117 0,36.7457773 39.000009,0 0,-36.8005167 -12.61765,0.054739 z"
     id="rect4090" />
  <rect
     style="fill:#2c3e50;fill-rule:evenodd;stroke:#003bc3;stroke-width:0;stroke-linecap:square;stroke-linejoin:miter;stroke-miterlimit:2"
     y="19.586189"
     x="18.989187"
     height="8.3698444"
     width="10.45095"
     stroke-miterlimit="2.00000000000"
     id="shape0" />
  <rect
     style="fill:#f1c40f;fill-rule:evenodd;stroke:#003bc3;stroke-width:0;stroke-linecap:square;stroke-linejoin:miter;stroke-miterlimit:2"
     y="15.755718"
     x="20.383324"
     height="3.3673282"
     width="1.1826"
     stroke-miterlimit="2.00000000000"
     id="rect11" />
  <rect
     style="fill:#f1c40f;fill-rule:evenodd;stroke:#003bc3;stroke-width:0;stroke-linecap:square;stroke-linejoin:miter;stroke-miterlimit:2"
     y="15.766925"
     x="22.566635"
     height="3.3595202"
     width="1.1826"
     stroke-miterlimit="2.00000000000"
     id="shape1" />
  <rect
     style="fill:#f1c40f;fill-rule:evenodd;stroke:#003bc3;stroke-width:0;stroke-linecap:square;stroke-linejoin:miter;stroke-miterlimit:2"
     y="15.766925"
     x="24.690416"
     height="3.3530655"
     width="1.1826"
     stroke-miterlimit="2.00000000000"
     id="shape2" />
  <rect
     style="fill:#f1c40f;fill-rule:evenodd;stroke:#003bc3;stroke-width:0;stroke-linecap:square;stroke-linejoin:miter;stroke-miterlimit:2"
     y="15.771702"
     x="26.923855"
     height="3.3530655"
     width="1.1826"
     stroke-miterlimit="2.00000000000"
     id="shape3" />
  <rect
     style="fill:#f1c40f;fill-rule:evenodd;stroke:#003bc3;stroke-width:0;stroke-linecap:square;stroke-linejoin:miter;stroke-miterlimit:2"
     y="-34.343719"
     x="20.689573"
     height="4.2045913"
     width="0.94710809"
     stroke-miterlimit="2.00000000000"
     transform="matrix(0,1,-1,0,0,0)"
     id="shape4" />
  <rect
     style="fill:#f1c40f;fill-rule:evenodd;stroke:#003bc3;stroke-width:0;stroke-linecap:square;stroke-linejoin:miter;stroke-miterlimit:2"
     y="-34.329727"
     x="22.438122"
     height="4.1948419"
     width="0.94710809"
     stroke-miterlimit="2.00000000000"
     transform="matrix(0,1,-1,0,0,0)"
     id="shape5" />
  <rect
     style="fill:#f1c40f;fill-rule:evenodd;stroke:#003bc3;stroke-width:0;stroke-linecap:square;stroke-linejoin:miter;stroke-miterlimit:2"
     y="-34.329727"
     x="24.13899"
     height="4.1867824"
     width="0.94710809"
     stroke-miterlimit="2.00000000000"
     transform="matrix(0,1,-1,0,0,0)"
     id="shape6" />
  <rect
     style="fill:#f1c40f;fill-rule:evenodd;stroke:#003bc3;stroke-width:0;stroke-linecap:square;stroke-linejoin:miter;stroke-miterlimit:2"
     y="-34.323761"
     x="25.927685"
     height="4.1867824"
     width="0.94710809"
     stroke-miterlimit="2.00000000000"
     transform="matrix(0,1,-1,0,0,0)"
     id="shape7" />
  <rect
     style="fill:#f1c40f;fill-rule:evenodd;stroke:#003bc3;stroke-width:0;stroke-linecap:square;stroke-linejoin:miter;stroke-miterlimit:2"
     y="-31.788452"
     x="-28.275549"
     height="3.3673282"
     width="1.1826"
     stroke-miterlimit="2.00000000000"
     transform="scale(-1,-1)"
     id="shape8" />
  <rect
     style="fill:#f1c40f;fill-rule:evenodd;stroke:#003bc3;stroke-width:0;stroke-linecap:square;stroke-linejoin:miter;stroke-miterlimit:2"
     y="-31.777245"
     x="-26.092236"
     height="3.3595202"
     width="1.1826"
     stroke-miterlimit="2.00000000000"
     transform="scale(-1,-1)"
     id="shape9" />
  <rect
     style="fill:#f1c40f;fill-rule:evenodd;stroke:#003bc3;stroke-width:0;stroke-linecap:square;stroke-linejoin:miter;stroke-miterlimit:2"
     y="-31.777245"
     x="-23.968571"
     height="3.3530655"
     width="1.1826"
     stroke-miterlimit="2.00000000000"
     transform="scale(-1,-1)"
     id="shape10" />
  <rect
     style="fill:#f1c40f;fill-rule:evenodd;stroke:#003bc3;stroke-width:0;stroke-linecap:square;stroke-linejoin:miter;stroke-miterlimit:2"
     y="-31.772558"
     x="-21.735018"
     height="3.3530655"
     width="1.1826"
     stroke-miterlimit="2.00000000000"
     transform="scale(-1,-1)"
     id="shape11" />
  <rect
     style="fill:#f1c40f;fill-rule:evenodd;stroke:#003bc3;stroke-width:0;stroke-linecap:square;stroke-linejoin:miter;stroke-miterlimit:2"
     y="14.315266"
     x="-26.854689"
     height="4.2045913"
     width="0.94710809"
     stroke-miterlimit="2.00000000000"
     transform="matrix(0,-1,1,0,0,0)"
     id="shape12" />
  <rect
     style="fill:#f1c40f;fill-rule:evenodd;stroke:#003bc3;stroke-width:0;stroke-linecap:square;stroke-linejoin:miter;stroke-miterlimit:2"
     y="14.32926"
     x="-25.10614"
     height="4.1948419"
     width="0.94710809"
     stroke-miterlimit="2.00000000000"
     transform="matrix(0,-1,1,0,0,0)"
     id="shape13" />
  <rect
     style="fill:#f1c40f;fill-rule:evenodd;stroke:#003bc3;stroke-width:0;stroke-linecap:square;stroke-linejoin:miter;stroke-miterlimit:2"
     y="14.32926"
     x="-23.40527"
     height="4.1867824"
     width="0.94710809"
     stroke-miterlimit="2.00000000000"
     transform="matrix(0,-1,1,0,0,0)"
     id="shape14" />
  <rect
     style="fill:#f1c40f;fill-rule:evenodd;stroke:#003bc3;stroke-width:0;stroke-linecap:square;stroke-linejoin:miter;stroke-miterlimit:2"
     y="14.33511"
     x="-21.616486"
     height="4.1867824"
     width="0.94710809"
     stroke-miterlimit="2.00000000000"
     transform="matrix(0,-1,1,0,0,0)"
     id="shape15" />
</svg>
