<?xml version="1.0" encoding="UTF-8" standalone="no"?>
<!-- Created using Karbon, part of Calligra: http://www.calligra.org/karbon -->

<svg
   xmlns:dc="http://purl.org/dc/elements/1.1/"
   xmlns:cc="http://creativecommons.org/ns#"
   xmlns:rdf="http://www.w3.org/1999/02/22-rdf-syntax-ns#"
   xmlns:svg="http://www.w3.org/2000/svg"
   xmlns="http://www.w3.org/2000/svg"
   xmlns:sodipodi="http://sodipodi.sourceforge.net/DTD/sodipodi-0.dtd"
   xmlns:inkscape="http://www.inkscape.org/namespaces/inkscape"
   width="38.4pt"
   height="38.4pt"
   id="svg2"
   version="1.1"
   inkscape:version="0.48.4 r9939"
   sodipodi:docname="application-x-plasma.svg">
  <metadata
     id="metadata16">
    <rdf:RDF>
      <cc:Work
         rdf:about="">
        <dc:format>image/svg+xml</dc:format>
        <dc:type
           rdf:resource="http://purl.org/dc/dcmitype/StillImage" />
      </cc:Work>
    </rdf:RDF>
  </metadata>
  <sodipodi:namedview
     pagecolor="#ffffff"
     bordercolor="#666666"
     borderopacity="1"
     objecttolerance="10"
     gridtolerance="10"
     guidetolerance="10"
     inkscape:pageopacity="0"
     inkscape:pageshadow="2"
     inkscape:window-width="640"
     inkscape:window-height="480"
     id="namedview14"
     showgrid="false"
     inkscape:zoom="11.731256"
     inkscape:cx="19.800841"
     inkscape:cy="17.711368"
     inkscape:current-layer="svg2" />
  <defs
     id="defs4" />
  <g
     id="layer1"
     transform="matrix(1.1470591,0,0,0.91864444,-3.5294177,1.9525339)">
    <path
       id="rect4090"
       transform="translate(7,4)"
       d="M 0,0 0,40 34,40 34,0.17422002 23,0 z"
       inkscape:connector-curvature="0"
       style="fill:#ecf0f1"
       sodipodi:nodetypes="cccccc" />
    <g
       id="g2987"
       transform="translate(-0.46826615,0)">
      <path
         style="fill:#f1c40f;fill-rule:evenodd;stroke:#003bc3;stroke-width:0;stroke-linecap:square;stroke-linejoin:bevel"
         inkscape:connector-curvature="0"
         d="m 31.610826,26.17662 c 2.516292,1.50411 5.09285,10.10038 -2.726888,12.46868 -7.360534,2.2291 -14.191312,-4.417 -14.069398,-10.81103 0.121914,-6.394018 4.570106,-7.25716 3.909182,-4.79308 -1.791834,6.68003 3.83597,9.58771 5.556934,5.86832 1.720912,-3.71933 4.813796,-4.23702 7.33017,-2.73289 z"
         id="shape0" />
      <path
         style="fill:#2980b9;fill-rule:evenodd;stroke:#003bc3;stroke-width:0;stroke-linecap:square;stroke-linejoin:miter;stroke-miterlimit:2"
         inkscape:connector-curvature="0"
         d="m 21.960884,18.86238 c -0.03021,-0.785855 -0.638548,-1.398827 -1.363867,-1.374267 -0.725315,0.02456 -1.297161,0.677498 -1.282052,1.463857 0.0151,0.78636 0.611538,1.41293 1.337171,1.40474 0.725631,-0.0082 1.309896,-0.64808 1.309896,-1.43461"
         stroke-miterlimit="2.00000000000"
         id="shape1" />
      <path
         style="fill:#e74c3c;fill-rule:evenodd;stroke:#003bc3;stroke-width:0;stroke-linecap:square;stroke-linejoin:miter;stroke-miterlimit:2"
         inkscape:connector-curvature="0"
         d="m 25.708014,16.80528 c -0.03021,-0.788476 -0.638548,-1.403507 -1.363866,-1.378865 -0.725315,0.02464 -1.297162,0.679767 -1.282053,1.468765 0.01511,0.78899 0.611538,1.41766 1.337171,1.40944 0.725631,-0.0082 1.309896,-0.65025 1.309896,-1.43941"
         stroke-miterlimit="2.00000000000"
         id="shape2" />
      <path
         style="fill:#27ae60;fill-rule:evenodd;stroke:#003bc3;stroke-width:0;stroke-linecap:square;stroke-linejoin:miter;stroke-miterlimit:2"
         inkscape:connector-curvature="0"
         d="m 29.809068,18.76518 c -0.03021,-0.788476 -0.638548,-1.403507 -1.363867,-1.378865 -0.725315,0.02464 -1.297161,0.679767 -1.282052,1.468765 0.0151,0.78899 0.611538,1.41766 1.337171,1.40944 0.725631,-0.0082 1.309896,-0.65025 1.309896,-1.43941"
         stroke-miterlimit="2.00000000000"
         id="shape3" />
    </g>
  </g>
</svg>
