<?xml version="1.0" encoding="UTF-8" standalone="no"?>
<!-- Created using Karbon, part of Calligra: http://www.calligra.org/karbon -->

<svg
   xmlns:dc="http://purl.org/dc/elements/1.1/"
   xmlns:cc="http://creativecommons.org/ns#"
   xmlns:rdf="http://www.w3.org/1999/02/22-rdf-syntax-ns#"
   xmlns:svg="http://www.w3.org/2000/svg"
   xmlns="http://www.w3.org/2000/svg"
   xmlns:sodipodi="http://sodipodi.sourceforge.net/DTD/sodipodi-0.dtd"
   xmlns:inkscape="http://www.inkscape.org/namespaces/inkscape"
   width="38.4pt"
   height="38.4pt"
   id="svg2"
   version="1.1"
   inkscape:version="0.48.4 r9939"
   sodipodi:docname="application-x-mimearchive.svg">
  <metadata
     id="metadata16">
    <rdf:RDF>
      <cc:Work
         rdf:about="">
        <dc:format>image/svg+xml</dc:format>
        <dc:type
           rdf:resource="http://purl.org/dc/dcmitype/StillImage" />
      </cc:Work>
    </rdf:RDF>
  </metadata>
  <sodipodi:namedview
     pagecolor="#ffffff"
     bordercolor="#666666"
     borderopacity="1"
     objecttolerance="10"
     gridtolerance="10"
     guidetolerance="10"
     inkscape:pageopacity="0"
     inkscape:pageshadow="2"
     inkscape:window-width="1366"
     inkscape:window-height="709"
     id="namedview14"
     showgrid="false"
     inkscape:zoom="14.242005"
     inkscape:cx="20.247393"
     inkscape:cy="27.004599"
     inkscape:current-layer="svg2"
     inkscape:window-x="0"
     inkscape:window-y="-3"
     inkscape:window-maximized="1" />
  <defs
     id="defs4" />
  <path
     sodipodi:nodetypes="cccccc"
     style="fill:#aa0000"
     inkscape:connector-curvature="0"
     d="m 4.5351032,5.6271117 0,36.7457773 38.9196368,0 0.08037,-36.7030732 -12.672022,-0.042704 z"
     id="rect4090" />
  <g
     id="g3764"
     transform="translate(0.30009356,0)">
    <path
       id="path4254"
       d="m 19.804674,25.467167 -8.864543,6.896742 0,1.922043 25.576383,0 0,-1.922043 -8.86452,-6.896742 -3.923672,3.052655 z"
       inkscape:connector-curvature="0"
       style="fill:#bfccd7;fill-rule:evenodd" />
    <rect
       y="16.684185"
       x="10.883299"
       height="16.149412"
       width="25.628412"
       id="rect2992"
       style="opacity:0.95;fill:#bbbbbb;fill-opacity:1;fill-rule:evenodd;stroke:none" />
    <path
       id="path4251"
       d="m 10.940131,15.958463 0,2.551131 12.788191,10.204523 12.788192,-10.204523 0,-2.551131 z"
       inkscape:connector-curvature="0"
       style="fill:#bfccd7;fill-rule:evenodd" />
    <path
       id="path4238"
       d="m 20.095312,25.815058 -9.155181,7.305502 0,1.391525 25.576383,0 0,-1.391525 -9.155158,-7.305502 -3.633034,2.899012 z"
       inkscape:connector-curvature="0"
       style="fill:#f5fbfe;fill-rule:evenodd" />
    <path
       id="path4219"
       d="m 10.869916,15.958463 0,1.391526 12.823299,10.204523 12.823299,-10.204523 0,-1.391526 z"
       inkscape:connector-curvature="0"
       style="fill:#f5fbfe;fill-rule:evenodd" />
  </g>
  <rect
     style="opacity:0.94999999999999996;fill:#1a1a1a;fill-opacity:1;fill-rule:evenodd;stroke:none"
     id="rect3762"
     width="25.27734"
     height="1.8255856"
     x="11.36133"
     y="10.36485" />
</svg>
