<?xml version="1.0" encoding="UTF-8" standalone="no"?>
<!-- Created using Karbon, part of Calligra: http://www.calligra.org/karbon -->

<svg
   xmlns:dc="http://purl.org/dc/elements/1.1/"
   xmlns:cc="http://creativecommons.org/ns#"
   xmlns:rdf="http://www.w3.org/1999/02/22-rdf-syntax-ns#"
   xmlns:svg="http://www.w3.org/2000/svg"
   xmlns="http://www.w3.org/2000/svg"
   xmlns:sodipodi="http://sodipodi.sourceforge.net/DTD/sodipodi-0.dtd"
   xmlns:inkscape="http://www.inkscape.org/namespaces/inkscape"
   width="38.4pt"
   height="38.4pt"
   id="svg2"
   version="1.1"
   inkscape:version="0.48.5 r10040"
   sodipodi:docname="gnome-mime-text-x-authors.svg">
  <metadata
     id="metadata12">
    <rdf:RDF>
      <cc:Work
         rdf:about="">
        <dc:format>image/svg+xml</dc:format>
        <dc:type
           rdf:resource="http://purl.org/dc/dcmitype/StillImage" />
        <dc:title></dc:title>
      </cc:Work>
    </rdf:RDF>
  </metadata>
  <sodipodi:namedview
     pagecolor="#ffffff"
     bordercolor="#666666"
     borderopacity="1"
     objecttolerance="10"
     gridtolerance="10"
     guidetolerance="10"
     inkscape:pageopacity="0"
     inkscape:pageshadow="2"
     inkscape:window-width="1366"
     inkscape:window-height="712"
     id="namedview10"
     showgrid="false"
     inkscape:zoom="9.8333331"
     inkscape:cx="-1.3112082"
     inkscape:cy="20.297765"
     inkscape:current-layer="svg2"
     inkscape:window-x="-2"
     inkscape:window-y="-3"
     inkscape:window-maximized="1" />
  <defs
     id="defs4" />
  <g
     id="layer1"
     transform="matrix(1.1470591,0,0,0.91864444,-3.5294177,1.9525339)">
    <path
       id="rect4090"
       transform="translate(7,4)"
       d="M 0,0 0,40 34,40 33.928091,0.06980703 23,0 z"
       inkscape:connector-curvature="0"
       style="fill:#ecf0f1"
       sodipodi:nodetypes="cccccc" />
  </g>
  <rect
     style="fill:none;stroke:none"
     id="rect3262"
     width="38"
     height="38"
     x="5.0895691"
     y="6.0609756" />
  <rect
     style="fill:none;stroke:none"
     id="rect3264"
     width="30"
     height="30"
     x="9"
     y="9.8440437" />
  <rect
     y="32.844044"
     x="9"
     height="7"
     width="7"
     id="rect3276"
     style="fill:#1a1a1a;fill-opacity:1;fill-rule:evenodd;stroke:none" />
  <rect
     style="fill:#1a1a1a;fill-opacity:1;fill-rule:evenodd;stroke:none"
     id="rect3278"
     width="7"
     height="7"
     x="9"
     y="9.8440437" />
  <rect
     style="fill:#1a1a1a;fill-opacity:1;fill-rule:evenodd;stroke:none"
     id="rect3280"
     width="7"
     height="7"
     x="9"
     y="21.344044" />
  <path
     transform="translate(-424.57143,-521.80385)"
     sodipodi:type="arc"
     style="fill:none;stroke:none"
     id="path3282"
     sodipodi:cx="442.57007"
     sodipodi:cy="535.14789"
     sodipodi:rx="2.0013857"
     sodipodi:ry="2.0000615"
     d="m 444.57145,535.14789 a 2.0013857,2.0000615 0 1 1 -4.00277,0 2.0013857,2.0000615 0 1 1 4.00277,0 z" />
  <rect
     y="11.344044"
     x="20"
     height="4"
     width="19.000002"
     id="rect3284"
     style="fill:#1a1a1a;fill-opacity:1;fill-rule:evenodd;stroke:none" />
  <rect
     style="fill:#1a1a1a;fill-opacity:1;fill-rule:evenodd;stroke:none"
     id="rect3286"
     width="19.000002"
     height="4"
     x="20"
     y="22.844044" />
  <rect
     y="34.344044"
     x="20"
     height="4"
     width="19.000002"
     id="rect3271"
     style="fill:#1a1a1a;fill-opacity:1;fill-rule:evenodd;stroke:none" />
</svg>
