<?xml version="1.0" encoding="UTF-8" standalone="no"?>
<!-- Created using Karbon, part of Calligra: http://www.calligra.org/karbon -->

<svg
   xmlns:dc="http://purl.org/dc/elements/1.1/"
   xmlns:cc="http://creativecommons.org/ns#"
   xmlns:rdf="http://www.w3.org/1999/02/22-rdf-syntax-ns#"
   xmlns:svg="http://www.w3.org/2000/svg"
   xmlns="http://www.w3.org/2000/svg"
   xmlns:sodipodi="http://sodipodi.sourceforge.net/DTD/sodipodi-0.dtd"
   xmlns:inkscape="http://www.inkscape.org/namespaces/inkscape"
   width="38.4pt"
   height="38.4pt"
   id="svg2"
   version="1.1"
   inkscape:version="0.48.4 r9939"
   sodipodi:docname="application-x-gzpostscript.svg">
  <metadata
     id="metadata15">
    <rdf:RDF>
      <cc:Work
         rdf:about="">
        <dc:format>image/svg+xml</dc:format>
        <dc:type
           rdf:resource="http://purl.org/dc/dcmitype/StillImage" />
        <dc:title />
      </cc:Work>
    </rdf:RDF>
  </metadata>
  <sodipodi:namedview
     pagecolor="#ffffff"
     bordercolor="#666666"
     borderopacity="1"
     objecttolerance="10"
     gridtolerance="10"
     guidetolerance="10"
     inkscape:pageopacity="0"
     inkscape:pageshadow="2"
     inkscape:window-width="1366"
     inkscape:window-height="709"
     id="namedview13"
     showgrid="false"
     inkscape:zoom="11.313709"
     inkscape:cx="22.505218"
     inkscape:cy="21.289726"
     inkscape:current-layer="svg2"
     showguides="true"
     inkscape:guide-bbox="true"
     inkscape:window-x="0"
     inkscape:window-y="-3"
     inkscape:window-maximized="1">
    <sodipodi:guide
       orientation="0,1"
       position="24.813559,28.677966"
       id="guide2986" />
    <sodipodi:guide
       orientation="1,0"
       position="12.422605,18.121864"
       id="guide3019" />
    <sodipodi:guide
       orientation="1,0"
       position="35.486795,20.303612"
       id="guide3021" />
    <sodipodi:guide
       orientation="0,1"
       position="24.489005,10.864213"
       id="guide3023" />
  </sodipodi:namedview>
  <defs
     id="defs4">
    <clipPath
       id="clipPath4200">
      <rect
         width="37.780914"
         height="37.780914"
         x="134.06201"
         y="60.829136"
         id="rect4202"
         style="fill:#ffffff;fill-opacity:1;fill-rule:nonzero;stroke:none;display:inline" />
    </clipPath>
    <clipPath
       id="clipPath4196">
      <rect
         width="37.780914"
         height="37.780914"
         x="154.06203"
         y="60.829136"
         id="rect4198"
         style="fill:#ffffff;fill-opacity:1;fill-rule:nonzero;stroke:none;display:inline" />
    </clipPath>
  </defs>
  <g
     id="layer1"
     transform="matrix(1.1470591,0,0,0.91864444,-3.5294177,2.1958052)">
    <path
       id="rect4090"
       transform="translate(7,4)"
       d="M 0,0 0,40 34,40 33.79661,0.01694915 23,0 z"
       inkscape:connector-curvature="0"
       style="fill:#ecf0f1"
       sodipodi:nodetypes="cccccc" />
    <g
       id="logo"
       transform="translate(10.9749,16.1118)"
       style="fill:none" />
  </g>
  <g
     transform="matrix(0.17241387,0,0,0.17241387,16.155905,18.188902)"
     id="layer5" />
  <g
     id="g3952"
     style="opacity:0.3;fill:#000000"
     transform="matrix(1.0903768,0,0,0.76963412,-2.1695534,3.1710184)">
    <g
       transform="matrix(0.82509798,0,0,0.82509798,4.1987554,13.698765)"
       id="g3954"
       style="fill:#000000">
      <rect
         style="fill:#000000;fill-rule:evenodd;stroke:#003bc3;stroke-width:0;stroke-linecap:square;stroke-linejoin:miter;stroke-miterlimit:2.01260185"
         y="0"
         x="0"
         id="rect3956"
         transform="translate(21.6252,4.00213)"
         stroke-miterlimit="2.01260185242"
         width="4.7316456"
         height="21.548891" />
      <rect
         style="fill:#000000;fill-rule:evenodd;stroke:#003bc3;stroke-width:0;stroke-linecap:square;stroke-linejoin:miter;stroke-miterlimit:2.01260185"
         y="0"
         x="0"
         id="rect3958"
         transform="translate(21.6482,4.00852)"
         stroke-miterlimit="2.01260185242"
         width="2.8389168"
         height="1.5951782" />
      <rect
         style="fill:#000000;fill-rule:evenodd;stroke:#003bc3;stroke-width:0;stroke-linecap:square;stroke-linejoin:miter;stroke-miterlimit:2"
         y="0"
         x="0"
         id="rect3960"
         transform="translate(23.5344,5.60386)"
         stroke-miterlimit="2.00000000000"
         width="2.8389168"
         height="1.5951782" />
      <rect
         style="fill:#000000;fill-rule:evenodd;stroke:#003bc3;stroke-width:0;stroke-linecap:square;stroke-linejoin:miter;stroke-miterlimit:2"
         y="0"
         x="0"
         id="rect3962"
         transform="translate(21.6483,7.20189)"
         stroke-miterlimit="2.00000000000"
         width="2.8389168"
         height="1.5951782" />
      <rect
         style="fill:#000000;fill-rule:evenodd;stroke:#003bc3;stroke-width:0;stroke-linecap:square;stroke-linejoin:miter;stroke-miterlimit:2"
         y="0"
         x="0"
         id="rect3964"
         transform="translate(23.5346,8.79724)"
         stroke-miterlimit="2.00000000000"
         width="2.8389168"
         height="1.5951782" />
      <rect
         style="fill:#000000;fill-rule:evenodd;stroke:#003bc3;stroke-width:0;stroke-linecap:square;stroke-linejoin:miter;stroke-miterlimit:2"
         y="0"
         x="0"
         id="rect3966"
         transform="translate(21.6455,10.3968)"
         stroke-miterlimit="2.00000000000"
         width="2.8389168"
         height="1.5951782" />
      <rect
         style="fill:#000000;fill-rule:evenodd;stroke:#003bc3;stroke-width:0;stroke-linecap:square;stroke-linejoin:miter;stroke-miterlimit:2"
         y="0"
         x="0"
         id="rect3968"
         transform="translate(23.5317,11.9921)"
         stroke-miterlimit="2.00000000000"
         width="2.8389168"
         height="1.5951782" />
      <rect
         style="fill:#000000;fill-rule:evenodd;stroke:#003bc3;stroke-width:0;stroke-linecap:square;stroke-linejoin:miter;stroke-miterlimit:2"
         y="0"
         x="0"
         id="rect3970"
         transform="translate(21.6455,13.5901)"
         stroke-miterlimit="2.00000000000"
         width="2.8389168"
         height="1.5951782" />
      <rect
         style="fill:#000000;fill-rule:evenodd;stroke:#003bc3;stroke-width:0;stroke-linecap:square;stroke-linejoin:miter;stroke-miterlimit:2"
         y="0"
         x="0"
         id="rect3972"
         transform="translate(23.5317,15.1855)"
         stroke-miterlimit="2.00000000000"
         width="2.8389168"
         height="1.5951782" />
      <rect
         style="fill:#000000;fill-rule:evenodd;stroke:#003bc3;stroke-width:0;stroke-linecap:square;stroke-linejoin:miter;stroke-miterlimit:2"
         y="0"
         x="0"
         id="rect3974"
         transform="translate(21.6266,16.7836)"
         stroke-miterlimit="2.00000000000"
         width="2.8389168"
         height="1.5951782" />
      <rect
         style="fill:#000000;fill-rule:evenodd;stroke:#003bc3;stroke-width:0;stroke-linecap:square;stroke-linejoin:miter;stroke-miterlimit:2"
         y="0"
         x="0"
         id="rect3976"
         transform="translate(23.5127,18.3789)"
         stroke-miterlimit="2.00000000000"
         width="2.8389168"
         height="1.5951782" />
      <rect
         style="fill:#000000;fill-rule:evenodd;stroke:#003bc3;stroke-width:0;stroke-linecap:square;stroke-linejoin:miter;stroke-miterlimit:2"
         y="0"
         x="0"
         id="rect3978"
         transform="translate(21.6266,19.977)"
         stroke-miterlimit="2.00000000000"
         width="2.8389168"
         height="1.5951782" />
      <rect
         style="fill:#000000;fill-rule:evenodd;stroke:#003bc3;stroke-width:0;stroke-linecap:square;stroke-linejoin:miter;stroke-miterlimit:2"
         y="0"
         x="0"
         id="rect3980"
         transform="translate(23.5129,21.5723)"
         stroke-miterlimit="2.00000000000"
         width="2.8389168"
         height="1.5951782" />
      <rect
         style="fill:#000000;fill-rule:evenodd;stroke:#003bc3;stroke-width:0;stroke-linecap:square;stroke-linejoin:miter;stroke-miterlimit:2"
         y="0"
         x="0"
         id="rect3982"
         transform="translate(21.6238,23.1719)"
         stroke-miterlimit="2.00000000000"
         width="2.8389168"
         height="1.5951782" />
      <rect
         style="fill:#000000;fill-rule:evenodd;stroke:#003bc3;stroke-width:0;stroke-linecap:square;stroke-linejoin:miter;stroke-miterlimit:2"
         y="0"
         x="0"
         id="rect3984"
         transform="translate(21.6336,24.8977)"
         stroke-miterlimit="2.00000000000"
         width="4.7245164"
         height="10.631515" />
      <rect
         style="fill:#000000;fill-rule:evenodd;stroke:#003bc3;stroke-width:0;stroke-linecap:square;stroke-linejoin:miter;stroke-miterlimit:2"
         y="0"
         x="0"
         id="rect3986"
         transform="translate(22.6291,25.9591)"
         stroke-miterlimit="2.00000000000"
         width="2.7693346"
         height="2.5150833" />
    </g>
    <rect
       style="fill:#000000;fill-opacity:1;fill-rule:evenodd;stroke:none"
       id="rect3990"
       width="1.5407195"
       height="1.2945502"
       x="28.762264"
       y="-1.0281996"
       ry="0.25891024"
       rx="0"
       transform="matrix(0.86056127,0.50934694,-0.50934694,0.86056127,0,0)" />
    <rect
       transform="matrix(0.86056127,-0.50934694,-0.50934694,-0.86056127,0,0)"
       rx="0"
       ry="0.25891024"
       y="-25.898373"
       x="10.316725"
       height="1.2945502"
       width="1.5407195"
       id="rect3992"
       style="fill:#000000;fill-opacity:1;fill-rule:evenodd;stroke:none" />
  </g>
  <path
     sodipodi:type="star"
     style="fill:#2c3e50;fill-opacity:1;fill-rule:evenodd;stroke:none"
     id="path3047"
     sodipodi:sides="3"
     sodipodi:cx="17.235727"
     sodipodi:cy="13.528546"
     sodipodi:r1="5.7941623"
     sodipodi:r2="2.8970814"
     sodipodi:arg1="1.555541"
     sodipodi:arg2="2.6027386"
     inkscape:flatsided="false"
     inkscape:rounded="0"
     inkscape:randomized="0"
     d="m 17.324116,19.322034 -2.574946,-4.306842 -2.574945,-4.306843 5.017308,-0.07655 5.017308,-0.07655 -2.442363,4.383389 z"
     inkscape:transform-center-x="-0.033792128"
     inkscape:transform-center-y="2.0176314"
     transform="matrix(0.8044417,0.02135446,-0.02393852,1.3928878,10.411957,-9.1987281)" />
  <g
     id="g3930"
     transform="matrix(1,0,0,0.75595833,0,3.3592682)">
    <g
       id="layer1-9"
       transform="matrix(0.82509798,0,0,0.82509798,4.1987554,13.698765)">
      <rect
         height="21.548891"
         width="4.7316456"
         stroke-miterlimit="2.01260185242"
         transform="translate(21.6252,4.00213)"
         id="shape0"
         x="0"
         y="0"
         style="fill:#34495e;fill-rule:evenodd;stroke:#003bc3;stroke-width:0;stroke-linecap:square;stroke-linejoin:miter;stroke-miterlimit:2.01260185" />
      <rect
         height="1.5951782"
         width="2.8389168"
         stroke-miterlimit="2.01260185242"
         transform="translate(21.6482,4.00852)"
         id="shape1"
         x="0"
         y="0"
         style="fill:#ecf0f1;fill-rule:evenodd;stroke:#003bc3;stroke-width:0;stroke-linecap:square;stroke-linejoin:miter;stroke-miterlimit:2.01260185" />
      <rect
         height="1.5951782"
         width="2.8389168"
         stroke-miterlimit="2.00000000000"
         transform="translate(23.5344,5.60386)"
         id="shape2"
         x="0"
         y="0"
         style="fill:#ecf0f1;fill-rule:evenodd;stroke:#003bc3;stroke-width:0;stroke-linecap:square;stroke-linejoin:miter;stroke-miterlimit:2" />
      <rect
         height="1.5951782"
         width="2.8389168"
         stroke-miterlimit="2.00000000000"
         transform="translate(21.6483,7.20189)"
         id="shape3"
         x="0"
         y="0"
         style="fill:#ecf0f1;fill-rule:evenodd;stroke:#003bc3;stroke-width:0;stroke-linecap:square;stroke-linejoin:miter;stroke-miterlimit:2" />
      <rect
         height="1.5951782"
         width="2.8389168"
         stroke-miterlimit="2.00000000000"
         transform="translate(23.5346,8.79724)"
         id="shape4"
         x="0"
         y="0"
         style="fill:#ecf0f1;fill-rule:evenodd;stroke:#003bc3;stroke-width:0;stroke-linecap:square;stroke-linejoin:miter;stroke-miterlimit:2" />
      <rect
         height="1.5951782"
         width="2.8389168"
         stroke-miterlimit="2.00000000000"
         transform="translate(21.6455,10.3968)"
         id="shape5"
         x="0"
         y="0"
         style="fill:#ecf0f1;fill-rule:evenodd;stroke:#003bc3;stroke-width:0;stroke-linecap:square;stroke-linejoin:miter;stroke-miterlimit:2" />
      <rect
         height="1.5951782"
         width="2.8389168"
         stroke-miterlimit="2.00000000000"
         transform="translate(23.5317,11.9921)"
         id="shape6"
         x="0"
         y="0"
         style="fill:#ecf0f1;fill-rule:evenodd;stroke:#003bc3;stroke-width:0;stroke-linecap:square;stroke-linejoin:miter;stroke-miterlimit:2" />
      <rect
         height="1.5951782"
         width="2.8389168"
         stroke-miterlimit="2.00000000000"
         transform="translate(21.6455,13.5901)"
         id="shape7"
         x="0"
         y="0"
         style="fill:#ecf0f1;fill-rule:evenodd;stroke:#003bc3;stroke-width:0;stroke-linecap:square;stroke-linejoin:miter;stroke-miterlimit:2" />
      <rect
         height="1.5951782"
         width="2.8389168"
         stroke-miterlimit="2.00000000000"
         transform="translate(23.5317,15.1855)"
         id="shape8"
         x="0"
         y="0"
         style="fill:#ecf0f1;fill-rule:evenodd;stroke:#003bc3;stroke-width:0;stroke-linecap:square;stroke-linejoin:miter;stroke-miterlimit:2" />
      <rect
         height="1.5951782"
         width="2.8389168"
         stroke-miterlimit="2.00000000000"
         transform="translate(21.6266,16.7836)"
         id="shape9"
         x="0"
         y="0"
         style="fill:#ecf0f1;fill-rule:evenodd;stroke:#003bc3;stroke-width:0;stroke-linecap:square;stroke-linejoin:miter;stroke-miterlimit:2" />
      <rect
         height="1.5951782"
         width="2.8389168"
         stroke-miterlimit="2.00000000000"
         transform="translate(23.5127,18.3789)"
         id="shape10"
         x="0"
         y="0"
         style="fill:#ecf0f1;fill-rule:evenodd;stroke:#003bc3;stroke-width:0;stroke-linecap:square;stroke-linejoin:miter;stroke-miterlimit:2" />
      <rect
         height="1.5951782"
         width="2.8389168"
         stroke-miterlimit="2.00000000000"
         transform="translate(21.6266,19.977)"
         id="shape11"
         x="0"
         y="0"
         style="fill:#ecf0f1;fill-rule:evenodd;stroke:#003bc3;stroke-width:0;stroke-linecap:square;stroke-linejoin:miter;stroke-miterlimit:2" />
      <rect
         height="1.5951782"
         width="2.8389168"
         stroke-miterlimit="2.00000000000"
         transform="translate(23.5129,21.5723)"
         id="shape12"
         x="0"
         y="0"
         style="fill:#ecf0f1;fill-rule:evenodd;stroke:#003bc3;stroke-width:0;stroke-linecap:square;stroke-linejoin:miter;stroke-miterlimit:2" />
      <rect
         height="1.5951782"
         width="2.8389168"
         stroke-miterlimit="2.00000000000"
         transform="translate(21.6238,23.1719)"
         id="shape13"
         x="0"
         y="0"
         style="fill:#ecf0f1;fill-rule:evenodd;stroke:#003bc3;stroke-width:0;stroke-linecap:square;stroke-linejoin:miter;stroke-miterlimit:2" />
      <rect
         height="10.631515"
         width="4.7245164"
         stroke-miterlimit="2.00000000000"
         transform="translate(21.6336,24.8977)"
         id="shape17"
         x="0"
         y="0"
         style="fill:#ecf0f1;fill-rule:evenodd;stroke:#003bc3;stroke-width:0;stroke-linecap:square;stroke-linejoin:miter;stroke-miterlimit:2" />
      <rect
         height="2.5150833"
         width="2.7693346"
         stroke-miterlimit="2.00000000000"
         transform="translate(22.6291,25.9591)"
         id="shape18"
         x="0"
         y="0"
         style="fill:#2c3e50;fill-rule:evenodd;stroke:#003bc3;stroke-width:0;stroke-linecap:square;stroke-linejoin:miter;stroke-miterlimit:2" />
    </g>
    <rect
       transform="matrix(0.86056127,0.50934694,-0.50934694,0.86056127,0,0)"
       rx="0"
       ry="0.25891024"
       y="-1.0281996"
       x="28.762264"
       height="1.2945502"
       width="1.5407195"
       id="rect3924"
       style="fill:#34495e;fill-opacity:1;fill-rule:evenodd;stroke:none" />
    <rect
       style="fill:#34495e;fill-opacity:1;fill-rule:evenodd;stroke:none"
       id="rect3926"
       width="1.5407195"
       height="1.2945502"
       x="10.316725"
       y="-25.898373"
       ry="0.25891024"
       rx="0"
       transform="matrix(0.86056127,-0.50934694,-0.50934694,-0.86056127,0,0)" />
    <rect
       style="fill:#34495e;fill-opacity:1;fill-rule:evenodd;stroke:none"
       id="rect3041"
       width="1.5407195"
       height="1.2945502"
       x="28.990456"
       y="-1.1632606"
       ry="0.25891024"
       rx="0"
       transform="matrix(0.86056127,0.50934694,-0.50934694,0.86056127,0,0)" />
  </g>
</svg>
