<?xml version="1.0" encoding="UTF-8" standalone="no"?>
<!-- Created using Karbon, part of Calligra: http://www.calligra.org/karbon -->

<svg
   xmlns:dc="http://purl.org/dc/elements/1.1/"
   xmlns:cc="http://creativecommons.org/ns#"
   xmlns:rdf="http://www.w3.org/1999/02/22-rdf-syntax-ns#"
   xmlns:svg="http://www.w3.org/2000/svg"
   xmlns="http://www.w3.org/2000/svg"
   xmlns:sodipodi="http://sodipodi.sourceforge.net/DTD/sodipodi-0.dtd"
   xmlns:inkscape="http://www.inkscape.org/namespaces/inkscape"
   width="38.4pt"
   height="38.4pt"
   id="svg2"
   version="1.1"
   inkscape:version="0.48.4 r9939"
   sodipodi:docname="application-rss+xml.svg">
  <metadata
     id="metadata13">
    <rdf:RDF>
      <cc:Work
         rdf:about="">
        <dc:format>image/svg+xml</dc:format>
        <dc:type
           rdf:resource="http://purl.org/dc/dcmitype/StillImage" />
      </cc:Work>
    </rdf:RDF>
  </metadata>
  <sodipodi:namedview
     pagecolor="#ffffff"
     bordercolor="#666666"
     borderopacity="1"
     objecttolerance="10"
     gridtolerance="10"
     guidetolerance="10"
     inkscape:pageopacity="0"
     inkscape:pageshadow="2"
     inkscape:window-width="1680"
     inkscape:window-height="991"
     id="namedview11"
     showgrid="false"
     inkscape:zoom="9.1022305"
     inkscape:cx="28.686134"
     inkscape:cy="22.161323"
     inkscape:current-layer="svg2"
     inkscape:window-x="0"
     inkscape:window-y="-3"
     inkscape:window-maximized="1" />
  <defs
     id="defs4" />
  <rect
     style="fill:#f39c12;fill-opacity:1;fill-rule:evenodd;stroke:none"
     id="rect2988"
     width="39.457626"
     height="36.610168"
     x="4.2711864"
     y="5.6949153" />
  <path
     style="fill:#ffffff;fill-rule:evenodd"
     inkscape:connector-curvature="0"
     d="m 18.03429,41.139343 c 0,-5.430915 -5.497361,-9.833595 -12.2786944,-9.833595 l 0,-4.214349 c 9.6876594,0 17.5410574,6.289468 17.5410574,14.047944 z m 10.524611,0 c 0,-10.085853 -10.209285,-18.262348 -22.8033054,-18.262348 l 0,-4.214414 c 15.5002094,0 28.0655534,10.063163 28.0655534,22.476762 z"
     id="Oval 213"
     sodipodi:nodetypes="cccccccccc" />
  <path
     sodipodi:type="arc"
     style="fill:#ffffff;fill-opacity:1;fill-rule:evenodd;stroke:none"
     id="path3758"
     sodipodi:cx="9.1186438"
     sodipodi:cy="38.332039"
     sodipodi:rx="2.5268531"
     sodipodi:ry="2.5268531"
     d="m 11.645497,38.332039 a 2.5268531,2.5268531 0 1 1 -5.0537063,0 2.5268531,2.5268531 0 1 1 5.0537063,0 z"
     transform="matrix(1.173913,0,0,1.173913,-1.5858511,-6.6664418)" />
</svg>
