<?xml version="1.0" encoding="UTF-8" standalone="no"?>
<!-- Created using Karbon, part of Calligra: http://www.calligra.org/karbon -->

<svg
   xmlns:dc="http://purl.org/dc/elements/1.1/"
   xmlns:cc="http://creativecommons.org/ns#"
   xmlns:rdf="http://www.w3.org/1999/02/22-rdf-syntax-ns#"
   xmlns:svg="http://www.w3.org/2000/svg"
   xmlns="http://www.w3.org/2000/svg"
   xmlns:sodipodi="http://sodipodi.sourceforge.net/DTD/sodipodi-0.dtd"
   xmlns:inkscape="http://www.inkscape.org/namespaces/inkscape"
   width="38.4pt"
   height="38.4pt"
   id="svg2"
   version="1.1"
   inkscape:version="0.48.5 r10040"
   sodipodi:docname="text-directory.svg">
  <metadata
     id="metadata15">
    <rdf:RDF>
      <cc:Work
         rdf:about="">
        <dc:format>image/svg+xml</dc:format>
        <dc:type
           rdf:resource="http://purl.org/dc/dcmitype/StillImage" />
        <dc:title />
      </cc:Work>
    </rdf:RDF>
  </metadata>
  <sodipodi:namedview
     pagecolor="#ffffff"
     bordercolor="#666666"
     borderopacity="1"
     objecttolerance="10"
     gridtolerance="10"
     guidetolerance="10"
     inkscape:pageopacity="0"
     inkscape:pageshadow="2"
     inkscape:window-width="1366"
     inkscape:window-height="712"
     id="namedview13"
     showgrid="false"
     inkscape:zoom="13.906433"
     inkscape:cx="8.1901735"
     inkscape:cy="25.027653"
     inkscape:current-layer="svg2"
     inkscape:window-x="-2"
     inkscape:window-y="-3"
     inkscape:window-maximized="1" />
  <defs
     id="defs4" />
  <g
     id="layer1"
     transform="matrix(1.1470591,0,0,0.91864444,-3.5294177,1.9525339)">
    <path
       id="rect4090"
       transform="translate(7,4)"
       d="M 0,0 0,40 34,40 34,0.06980703 23,0 z"
       inkscape:connector-curvature="0"
       style="fill:#ecf0f1"
       sodipodi:nodetypes="cccccc" />
  </g>
  <g
     id="g3053"
     transform="matrix(0.46721841,0,0,0.55007109,12.545267,12.503276)">
    <rect
       style="fill:#27ae60;fill-opacity:1;stroke:none"
       id="folderTab"
       width="18"
       height="10"
       x="4"
       y="6.9996953" />
    <rect
       y="9"
       x="4"
       height="30"
       width="40"
       id="folderBackground"
       style="fill:#27ae60;fill-opacity:1;stroke:none" />
    <rect
       y="10.9998"
       x="6"
       height="27.999756"
       width="35.999992"
       id="folderPaper"
       style="fill:#ffffff;fill-opacity:1;stroke:none" />
    <rect
       style="fill:#3498db;fill-opacity:1;stroke:none"
       id="folderFront"
       width="43.999996"
       height="28.000008"
       x="2"
       y="12.999983" />
  </g>
  <rect
     y="18.553947"
     x="15.348577"
     height="15.401856"
     width="16.819859"
     id="rect3849"
     style="fill:#ffffff;fill-opacity:1;stroke:none" />
  <rect
     style="fill:#27ae60;fill-opacity:1;stroke:none"
     id="rect3851"
     width="20.557608"
     height="15.401994"
     x="13.479704"
     y="19.65419" />
  <text
     xml:space="preserve"
     style="font-size:6px;font-style:normal;font-variant:normal;font-weight:500;font-stretch:normal;line-height:125%;letter-spacing:0px;word-spacing:0px;fill:#000000;fill-opacity:1;stroke:none;font-family:Century Schoolbook L;-inkscape-font-specification:Century Schoolbook L Medium"
     x="19.91884"
     y="28.800253"
     id="text3005"
     sodipodi:linespacing="125%"><tspan
       sodipodi:role="line"
       id="tspan3007"
       x="19.91884"
       y="28.800253"
       style="fill:#ffffff">txt</tspan></text>
</svg>
