<?xml version="1.0" encoding="UTF-8" standalone="no"?>
<!-- Created using Karbon, part of Calligra: http://www.calligra.org/karbon -->

<svg
   xmlns:dc="http://purl.org/dc/elements/1.1/"
   xmlns:cc="http://creativecommons.org/ns#"
   xmlns:rdf="http://www.w3.org/1999/02/22-rdf-syntax-ns#"
   xmlns:svg="http://www.w3.org/2000/svg"
   xmlns="http://www.w3.org/2000/svg"
   xmlns:sodipodi="http://sodipodi.sourceforge.net/DTD/sodipodi-0.dtd"
   xmlns:inkscape="http://www.inkscape.org/namespaces/inkscape"
   width="38.4pt"
   height="38.4pt"
   id="svg2"
   version="1.1"
   inkscape:version="0.48.4 r9939"
   sodipodi:docname="text-x-pascal.svg">
  <metadata
     id="metadata17">
    <rdf:RDF>
      <cc:Work
         rdf:about="">
        <dc:format>image/svg+xml</dc:format>
        <dc:type
           rdf:resource="http://purl.org/dc/dcmitype/StillImage" />
      </cc:Work>
    </rdf:RDF>
  </metadata>
  <sodipodi:namedview
     pagecolor="#ffffff"
     bordercolor="#666666"
     borderopacity="1"
     objecttolerance="10"
     gridtolerance="10"
     guidetolerance="10"
     inkscape:pageopacity="0"
     inkscape:pageshadow="2"
     inkscape:window-width="1366"
     inkscape:window-height="709"
     id="namedview15"
     showgrid="false"
     inkscape:zoom="13.906433"
     inkscape:cx="23.270775"
     inkscape:cy="26.689486"
     inkscape:current-layer="svg2"
     inkscape:window-x="0"
     inkscape:window-y="-3"
     inkscape:window-maximized="1" />
  <defs
     id="defs4" />
  <g
     id="layer1"
     transform="matrix(1.1422276,0,0,0.91859617,-3.4236888,1.9536064)">
    <path
       id="rect4090"
       transform="translate(7,4)"
       d="M 0,0 0,40 34,40 34.143818,-0.00210213 23,0 z"
       inkscape:connector-curvature="0"
       style="fill:#ecf0f1"
       sodipodi:nodetypes="cccccc" />
    <rect
       id="line2"
       transform="translate(12.3038,16.1417)"
       stroke-miterlimit="2.01260185242"
       width="23.362026"
       height="3.1810868"
       x="0"
       y="0"
       style="fill:#7f8c8d;fill-rule:evenodd;stroke:#003bc3;stroke-width:0;stroke-linecap:square;stroke-linejoin:miter;stroke-miterlimit:2.01260185" />
    <rect
       id="line"
       stroke-miterlimit="2.00000000000"
       width="17.642252"
       height="3.1810868"
       x="15.178874"
       y="9.7795401"
       style="fill:#7f8c8d;fill-rule:evenodd;stroke:#003bc3;stroke-width:0;stroke-linecap:square;stroke-linejoin:miter;stroke-miterlimit:2" />
    <rect
       id="line21"
       transform="translate(12.2953,22.5039)"
       stroke-miterlimit="2.00000000000"
       width="23.362026"
       height="3.1810868"
       x="0"
       y="0"
       style="fill:#7f8c8d;fill-rule:evenodd;stroke:#003bc3;stroke-width:0;stroke-linecap:square;stroke-linejoin:miter;stroke-miterlimit:2" />
    <rect
       id="line22"
       transform="translate(12.3392,28.8661)"
       stroke-miterlimit="2.00000000000"
       width="23.362026"
       height="3.1810868"
       x="0"
       y="0"
       style="fill:#7f8c8d;fill-rule:evenodd;stroke:#003bc3;stroke-width:0;stroke-linecap:square;stroke-linejoin:miter;stroke-miterlimit:2" />
    <rect
       id="line23"
       transform="translate(12.3307,35.2282)"
       stroke-miterlimit="2.00000000000"
       width="23.362026"
       height="3.1810868"
       x="0"
       y="0"
       style="fill:#7f8c8d;fill-rule:evenodd;stroke:#003bc3;stroke-width:0;stroke-linecap:square;stroke-linejoin:miter;stroke-miterlimit:2" />
  </g>
  <text
     xml:space="preserve"
     style="font-size:25.89884949px;font-style:normal;font-variant:normal;font-weight:500;font-stretch:normal;line-height:125%;letter-spacing:0px;word-spacing:0px;fill:#000000;fill-opacity:1;stroke:none;font-family:KanjiStrokeOrders;-inkscape-font-specification:KanjiStrokeOrders Medium"
     x="25.599497"
     y="28.886156"
     id="text2988"
     sodipodi:linespacing="125%"
     transform="scale(0.92237727,1.0841551)"><tspan
       sodipodi:role="line"
       id="tspan2990"
       x="25.599497"
       y="28.886156"
       style="font-style:normal;font-variant:normal;font-weight:normal;font-stretch:normal;font-family:Droid Sans Armenian;-inkscape-font-specification:Droid Sans Armenian">P</tspan></text>
</svg>
