<?xml version="1.0" encoding="UTF-8" standalone="no"?>
<!-- Created with Inkscape (http://www.inkscape.org/) -->

<svg
   xmlns:dc="http://purl.org/dc/elements/1.1/"
   xmlns:cc="http://creativecommons.org/ns#"
   xmlns:rdf="http://www.w3.org/1999/02/22-rdf-syntax-ns#"
   xmlns:svg="http://www.w3.org/2000/svg"
   xmlns="http://www.w3.org/2000/svg"
   xmlns:xlink="http://www.w3.org/1999/xlink"
   xmlns:sodipodi="http://sodipodi.sourceforge.net/DTD/sodipodi-0.dtd"
   xmlns:inkscape="http://www.inkscape.org/namespaces/inkscape"
   version="1.0"
   width="96"
   height="96"
   id="svg2408"
   inkscape:version="0.48.4 r9939"
   sodipodi:docname="input-gaming.svg">
  <sodipodi:namedview
     pagecolor="#ffffff"
     bordercolor="#666666"
     borderopacity="1"
     objecttolerance="10"
     gridtolerance="10"
     guidetolerance="10"
     inkscape:pageopacity="0"
     inkscape:pageshadow="2"
     inkscape:window-width="1680"
     inkscape:window-height="991"
     id="namedview220"
     showgrid="false"
     inkscape:zoom="6.1498111"
     inkscape:cx="28.103299"
     inkscape:cy="69.228494"
     inkscape:window-x="0"
     inkscape:window-y="-3"
     inkscape:window-maximized="1"
     inkscape:current-layer="svg2408" />
  <defs
     id="defs2410">
    <linearGradient
       id="linearGradient3933">
      <stop
         id="stop3935"
         style="stop-color:#ffe119;stop-opacity:1"
         offset="0" />
      <stop
         id="stop3937"
         style="stop-color:#f7a700;stop-opacity:1"
         offset="1" />
    </linearGradient>
    <linearGradient
       id="linearGradient3921">
      <stop
         id="stop3923"
         style="stop-color:#2bca00;stop-opacity:1"
         offset="0" />
      <stop
         id="stop3925"
         style="stop-color:#1e9000;stop-opacity:1"
         offset="1" />
    </linearGradient>
    <linearGradient
       id="linearGradient3911">
      <stop
         id="stop3913"
         style="stop-color:#006ada;stop-opacity:1"
         offset="0" />
      <stop
         id="stop3915"
         style="stop-color:#00438a;stop-opacity:1"
         offset="1" />
    </linearGradient>
    <linearGradient
       id="linearGradient3903">
      <stop
         id="stop3905"
         style="stop-color:#fd2306;stop-opacity:1"
         offset="0" />
      <stop
         id="stop3907"
         style="stop-color:#b31602;stop-opacity:1"
         offset="1" />
    </linearGradient>
    <linearGradient
       id="linearGradient4307">
      <stop
         id="stop4309"
         style="stop-color:#e4e4d9;stop-opacity:1"
         offset="0" />
      <stop
         id="stop4311"
         style="stop-color:#e4e4d9;stop-opacity:0"
         offset="1" />
    </linearGradient>
    <linearGradient
       x1="45.447727"
       y1="92.539597"
       x2="45.447727"
       y2="7.0165396"
       id="ButtonShadow"
       gradientUnits="userSpaceOnUse"
       gradientTransform="scale(1.0058652,0.994169)">
      <stop
         id="stop3750"
         style="stop-color:#000000;stop-opacity:1"
         offset="0" />
      <stop
         id="stop3752"
         style="stop-color:#000000;stop-opacity:0.58823532"
         offset="1" />
    </linearGradient>
    <linearGradient
       id="linearGradient3737">
      <stop
         id="stop3739"
         style="stop-color:#ffffff;stop-opacity:1"
         offset="0" />
      <stop
         id="stop3741"
         style="stop-color:#ffffff;stop-opacity:0"
         offset="1" />
    </linearGradient>
    <filter
       color-interpolation-filters="sRGB"
       id="filter3174">
      <feGaussianBlur
         id="feGaussianBlur3176"
         stdDeviation="1.71" />
    </filter>
    <linearGradient
       x1="36.357143"
       y1="6"
       x2="36.357143"
       y2="63.893143"
       id="linearGradient3188"
       xlink:href="#linearGradient3737"
       gradientUnits="userSpaceOnUse" />
    <filter
       x="-0.192"
       y="-0.192"
       width="1.3839999"
       height="1.3839999"
       color-interpolation-filters="sRGB"
       id="filter3794">
      <feGaussianBlur
         id="feGaussianBlur3796"
         stdDeviation="5.28" />
    </filter>
    <linearGradient
       x1="48"
       y1="20.220806"
       x2="48"
       y2="138.66119"
       id="linearGradient3613"
       xlink:href="#linearGradient3737"
       gradientUnits="userSpaceOnUse" />
    <radialGradient
       cx="48"
       cy="90.171875"
       r="42"
       fx="48"
       fy="90.171875"
       id="radialGradient3619"
       xlink:href="#linearGradient3737"
       gradientUnits="userSpaceOnUse"
       gradientTransform="matrix(1.1573129,0,0,0.99590774,-7.5510206,0.19713193)" />
    <clipPath
       id="clipPath3613">
      <rect
         width="84"
         height="84"
         rx="6"
         ry="6"
         x="6"
         y="6"
         id="rect3615"
         style="fill:#ffffff;fill-opacity:1;fill-rule:nonzero;stroke:none" />
    </clipPath>
    <linearGradient
       x1="48"
       y1="90"
       x2="48"
       y2="5.9877172"
       id="linearGradient3617"
       xlink:href="#linearGradient3187"
       gradientUnits="userSpaceOnUse" />
    <linearGradient
       id="linearGradient3187">
      <stop
         id="stop3189"
         style="stop-color:#b9b79e;stop-opacity:1"
         offset="0" />
      <stop
         id="stop3191"
         style="stop-color:#e4e4da;stop-opacity:1"
         offset="1" />
    </linearGradient>
    <linearGradient
       id="linearGradient6043">
      <stop
         id="stop6045"
         style="stop-color:#4f4f49;stop-opacity:1"
         offset="0" />
      <stop
         id="stop6047"
         style="stop-color:#bcbcb7;stop-opacity:1"
         offset="1" />
    </linearGradient>
    <linearGradient
       id="linearGradient5756">
      <stop
         id="stop5758"
         style="stop-color:#9f9e7d;stop-opacity:1"
         offset="0" />
      <stop
         id="stop5760"
         style="stop-color:#9f9e7d;stop-opacity:0"
         offset="1" />
    </linearGradient>
    <linearGradient
       id="linearGradient5964">
      <stop
         id="stop5966"
         style="stop-color:#706f6b;stop-opacity:1"
         offset="0" />
      <stop
         id="stop5968"
         style="stop-color:#51504e;stop-opacity:1"
         offset="1" />
    </linearGradient>
    <linearGradient
       id="linearGradient5976">
      <stop
         id="stop5978"
         style="stop-color:#ffffff;stop-opacity:1"
         offset="0" />
      <stop
         id="stop5980"
         style="stop-color:#ffffff;stop-opacity:0"
         offset="1" />
    </linearGradient>
    <linearGradient
       id="linearGradient3057">
      <stop
         id="stop3059"
         style="stop-color:#9f9e7d;stop-opacity:1"
         offset="0" />
      <stop
         id="stop3061"
         style="stop-color:#9f9e7d;stop-opacity:0"
         offset="1" />
    </linearGradient>
    <linearGradient
       x1="110.64452"
       y1="92.772629"
       x2="110.64452"
       y2="96.64547"
       id="linearGradient5962"
       xlink:href="#linearGradient5860"
       gradientUnits="userSpaceOnUse" />
    <linearGradient
       id="linearGradient5860">
      <stop
         id="stop5862"
         style="stop-color:#858362;stop-opacity:1"
         offset="0" />
      <stop
         id="stop5864"
         style="stop-color:#ffffff;stop-opacity:1"
         offset="1" />
    </linearGradient>
    <linearGradient
       x1="110.64452"
       y1="92.772629"
       x2="110.64452"
       y2="96.64547"
       id="linearGradient5958"
       xlink:href="#linearGradient5860"
       gradientUnits="userSpaceOnUse" />
    <linearGradient
       x1="110.64452"
       y1="92.772629"
       x2="110.64452"
       y2="96.64547"
       id="linearGradient5954"
       xlink:href="#linearGradient5860"
       gradientUnits="userSpaceOnUse" />
    <linearGradient
       x1="110.64452"
       y1="92.772629"
       x2="110.64452"
       y2="96.64547"
       id="linearGradient5952"
       xlink:href="#linearGradient5860"
       gradientUnits="userSpaceOnUse" />
    <linearGradient
       x1="110.64452"
       y1="92.772629"
       x2="110.64452"
       y2="96.64547"
       id="linearGradient5946"
       xlink:href="#linearGradient5860"
       gradientUnits="userSpaceOnUse" />
    <linearGradient
       x1="110.64452"
       y1="92.772629"
       x2="110.64452"
       y2="96.64547"
       id="linearGradient5944"
       xlink:href="#linearGradient5860"
       gradientUnits="userSpaceOnUse" />
    <linearGradient
       x1="110.64452"
       y1="92.772629"
       x2="110.64452"
       y2="96.64547"
       id="linearGradient5938"
       xlink:href="#linearGradient5860"
       gradientUnits="userSpaceOnUse" />
    <linearGradient
       x1="110.64452"
       y1="92.772629"
       x2="110.64452"
       y2="96.64547"
       id="linearGradient5936"
       xlink:href="#linearGradient5860"
       gradientUnits="userSpaceOnUse" />
    <linearGradient
       x1="110.64452"
       y1="92.772629"
       x2="110.64452"
       y2="96.64547"
       id="linearGradient5934"
       xlink:href="#linearGradient5860"
       gradientUnits="userSpaceOnUse" />
    <linearGradient
       x1="110.64452"
       y1="92.772629"
       x2="110.64452"
       y2="96.64547"
       id="linearGradient5926"
       xlink:href="#linearGradient5860"
       gradientUnits="userSpaceOnUse" />
    <linearGradient
       x1="110.64452"
       y1="92.772629"
       x2="110.64452"
       y2="96.64547"
       id="linearGradient5924"
       xlink:href="#linearGradient5860"
       gradientUnits="userSpaceOnUse" />
    <linearGradient
       x1="110.64452"
       y1="92.772629"
       x2="110.64452"
       y2="96.64547"
       id="linearGradient5922"
       xlink:href="#linearGradient5860"
       gradientUnits="userSpaceOnUse" />
    <linearGradient
       x1="110.64452"
       y1="92.772629"
       x2="110.64452"
       y2="96.64547"
       id="linearGradient5914"
       xlink:href="#linearGradient5860"
       gradientUnits="userSpaceOnUse" />
    <linearGradient
       x1="110.64452"
       y1="92.772629"
       x2="110.64452"
       y2="96.64547"
       id="linearGradient5912"
       xlink:href="#linearGradient5860"
       gradientUnits="userSpaceOnUse" />
    <linearGradient
       x1="110.64452"
       y1="92.772629"
       x2="110.64452"
       y2="96.64547"
       id="linearGradient5910"
       xlink:href="#linearGradient5860"
       gradientUnits="userSpaceOnUse" />
    <linearGradient
       x1="110.64452"
       y1="92.772629"
       x2="110.64452"
       y2="96.64547"
       id="linearGradient5908"
       xlink:href="#linearGradient5860"
       gradientUnits="userSpaceOnUse" />
    <linearGradient
       x1="110.64452"
       y1="92.772629"
       x2="110.64452"
       y2="96.64547"
       id="linearGradient5898"
       xlink:href="#linearGradient5860"
       gradientUnits="userSpaceOnUse" />
    <linearGradient
       x1="110.64452"
       y1="92.772629"
       x2="110.64452"
       y2="96.64547"
       id="linearGradient5896"
       xlink:href="#linearGradient5860"
       gradientUnits="userSpaceOnUse" />
    <linearGradient
       x1="110.64452"
       y1="92.772629"
       x2="110.64452"
       y2="96.64547"
       id="linearGradient5894"
       xlink:href="#linearGradient5860"
       gradientUnits="userSpaceOnUse" />
    <linearGradient
       x1="110.64452"
       y1="92.772629"
       x2="110.64452"
       y2="96.64547"
       id="linearGradient5892"
       xlink:href="#linearGradient5860"
       gradientUnits="userSpaceOnUse" />
    <linearGradient
       x1="110.64452"
       y1="92.772629"
       x2="110.64452"
       y2="96.64547"
       id="linearGradient5882"
       xlink:href="#linearGradient5860"
       gradientUnits="userSpaceOnUse" />
    <linearGradient
       x1="110.64452"
       y1="92.772629"
       x2="110.64452"
       y2="96.64547"
       id="linearGradient5878"
       xlink:href="#linearGradient5860"
       gradientUnits="userSpaceOnUse" />
    <linearGradient
       x1="110.64452"
       y1="92.772629"
       x2="110.64452"
       y2="96.64547"
       id="linearGradient5874"
       xlink:href="#linearGradient5860"
       gradientUnits="userSpaceOnUse" />
    <linearGradient
       x1="110.64452"
       y1="92.772629"
       x2="110.64452"
       y2="96.64547"
       id="linearGradient5870"
       xlink:href="#linearGradient5860"
       gradientUnits="userSpaceOnUse" />
    <linearGradient
       x1="110.64452"
       y1="92.772629"
       x2="110.64452"
       y2="96.64547"
       id="linearGradient5852"
       xlink:href="#linearGradient5860"
       gradientUnits="userSpaceOnUse" />
    <linearGradient
       id="linearGradient6035">
      <stop
         id="stop6037"
         style="stop-color:#91918a;stop-opacity:1"
         offset="0" />
      <stop
         id="stop6039"
         style="stop-color:#7c7c74;stop-opacity:1"
         offset="1" />
    </linearGradient>
    <linearGradient
       id="linearGradient3260">
      <stop
         id="stop3262"
         style="stop-color:#5d5d56;stop-opacity:1"
         offset="0" />
      <stop
         id="stop3264"
         style="stop-color:#bcbcb7;stop-opacity:1"
         offset="1" />
    </linearGradient>
    <linearGradient
       x1="15.749998"
       y1="40"
       x2="64.464287"
       y2="40"
       id="linearGradient5730"
       xlink:href="#linearGradient5724"
       gradientUnits="userSpaceOnUse" />
    <linearGradient
       id="linearGradient5724">
      <stop
         id="stop5726"
         style="stop-color:#9f9d7c;stop-opacity:1"
         offset="0" />
      <stop
         id="stop5728"
         style="stop-color:#ffffff;stop-opacity:1"
         offset="1" />
    </linearGradient>
    <linearGradient
       id="linearGradient5732">
      <stop
         id="stop5734"
         style="stop-color:#fff1b7;stop-opacity:1"
         offset="0" />
      <stop
         id="stop5736"
         style="stop-color:#ad6100;stop-opacity:1"
         offset="1" />
    </linearGradient>
    <linearGradient
       id="linearGradient5795">
      <stop
         id="stop5797"
         style="stop-color:#57ff0c;stop-opacity:1"
         offset="0" />
      <stop
         id="stop5799"
         style="stop-color:#004617;stop-opacity:1"
         offset="1" />
    </linearGradient>
    <linearGradient
       id="linearGradient5815">
      <stop
         id="stop5817"
         style="stop-color:#fe774b;stop-opacity:1"
         offset="0" />
      <stop
         id="stop5819"
         style="stop-color:#610601;stop-opacity:1"
         offset="1" />
    </linearGradient>
    <linearGradient
       id="linearGradient5835">
      <stop
         id="stop5837"
         style="stop-color:#67b1ff;stop-opacity:1"
         offset="0" />
      <stop
         id="stop5839"
         style="stop-color:#001a35;stop-opacity:1"
         offset="1" />
    </linearGradient>
    <linearGradient
       x1="38.689964"
       y1="36.890461"
       x2="38.689964"
       y2="43.260303"
       id="linearGradient4290"
       xlink:href="#linearGradient6043"
       gradientUnits="userSpaceOnUse" />
    <linearGradient
       x1="38.689964"
       y1="36.890461"
       x2="38.689964"
       y2="43.260303"
       id="linearGradient4292"
       xlink:href="#linearGradient6043"
       gradientUnits="userSpaceOnUse" />
    <linearGradient
       x1="38.689964"
       y1="36.890461"
       x2="38.689964"
       y2="43.260303"
       id="linearGradient4294"
       xlink:href="#linearGradient6043"
       gradientUnits="userSpaceOnUse" />
    <linearGradient
       x1="38.689964"
       y1="36.890461"
       x2="38.689964"
       y2="43.260303"
       id="linearGradient4296"
       xlink:href="#linearGradient6043"
       gradientUnits="userSpaceOnUse" />
    <linearGradient
       x1="14.585086"
       y1="40"
       x2="65.629204"
       y2="40"
       id="linearGradient4313"
       xlink:href="#linearGradient4307"
       gradientUnits="userSpaceOnUse" />
    <radialGradient
       cx="40"
       cy="40"
       r="18"
       fx="40"
       fy="40"
       id="radialGradient4344"
       xlink:href="#linearGradient6035"
       gradientUnits="userSpaceOnUse"
       gradientTransform="matrix(1.6258411e-8,-0.73529407,0.73529408,1.6258411e-8,0.58823525,59.411764)" />
    <linearGradient
       x1="15.84375"
       y1="30"
       x2="44.15625"
       y2="30"
       id="linearGradient4401"
       xlink:href="#linearGradient3057"
       gradientUnits="userSpaceOnUse" />
    <linearGradient
       x1="39.07143"
       y1="43.00716"
       x2="39.07143"
       y2="17.000002"
       id="linearGradient4409"
       xlink:href="#linearGradient3260"
       gradientUnits="userSpaceOnUse" />
    <filter
       color-interpolation-filters="sRGB"
       id="filter4417">
      <feGaussianBlur
         id="feGaussianBlur4419"
         stdDeviation="0.52" />
    </filter>
    <linearGradient
       x1="90.194664"
       y1="24.087267"
       x2="85.195808"
       y2="43.082268"
       id="linearGradient4505"
       xlink:href="#linearGradient5756"
       gradientUnits="userSpaceOnUse" />
    <linearGradient
       x1="91.967613"
       y1="23.503925"
       x2="89.411514"
       y2="42.016701"
       id="linearGradient4507"
       xlink:href="#linearGradient5732"
       gradientUnits="userSpaceOnUse" />
    <linearGradient
       x1="90.194664"
       y1="24.087267"
       x2="85.195808"
       y2="43.082268"
       id="linearGradient4509"
       xlink:href="#linearGradient5756"
       gradientUnits="userSpaceOnUse" />
    <linearGradient
       x1="90.456657"
       y1="23.091709"
       x2="85.705856"
       y2="41.144135"
       id="linearGradient4511"
       xlink:href="#linearGradient5795"
       gradientUnits="userSpaceOnUse" />
    <linearGradient
       x1="90.194664"
       y1="24.087267"
       x2="85.195808"
       y2="43.082268"
       id="linearGradient4513"
       xlink:href="#linearGradient5756"
       gradientUnits="userSpaceOnUse" />
    <linearGradient
       x1="90.456657"
       y1="23.091709"
       x2="85.739838"
       y2="41.015003"
       id="linearGradient4515"
       xlink:href="#linearGradient5815"
       gradientUnits="userSpaceOnUse" />
    <linearGradient
       x1="90.194664"
       y1="24.087267"
       x2="85.195808"
       y2="43.082268"
       id="linearGradient4517"
       xlink:href="#linearGradient5756"
       gradientUnits="userSpaceOnUse" />
    <linearGradient
       x1="91.622108"
       y1="23.409664"
       x2="86.898407"
       y2="41.359119"
       id="linearGradient4519"
       xlink:href="#linearGradient5835"
       gradientUnits="userSpaceOnUse" />
    <filter
       x="-0.072000004"
       y="-0.14399999"
       width="1.1440001"
       height="1.288"
       color-interpolation-filters="sRGB"
       id="filter4587">
      <feGaussianBlur
         id="feGaussianBlur4589"
         stdDeviation="0.36000001" />
    </filter>
    <linearGradient
       x1="78.802673"
       y1="101.96875"
       x2="78.802673"
       y2="114.04247"
       id="linearGradient4607"
       xlink:href="#linearGradient5756"
       gradientUnits="userSpaceOnUse" />
    <linearGradient
       x1="78"
       y1="104"
       x2="78"
       y2="112.00382"
       id="linearGradient4609"
       xlink:href="#linearGradient5964"
       gradientUnits="userSpaceOnUse"
       gradientTransform="matrix(0.75000002,0,0,0.75000009,-2.0894946e-6,-1.0000058)" />
    <linearGradient
       x1="79.067139"
       y1="104.35336"
       x2="79.067139"
       y2="107.93777"
       id="linearGradient4611"
       xlink:href="#linearGradient5976"
       gradientUnits="userSpaceOnUse"
       gradientTransform="matrix(0.75000002,0,0,0.75000009,-2.0894946e-6,-1.0000058)" />
    <linearGradient
       x1="78.802673"
       y1="101.96875"
       x2="78.802673"
       y2="114.04247"
       id="linearGradient4721"
       xlink:href="#linearGradient5756"
       gradientUnits="userSpaceOnUse" />
    <linearGradient
       x1="78"
       y1="104"
       x2="78"
       y2="112.00382"
       id="linearGradient4723"
       xlink:href="#linearGradient5964"
       gradientUnits="userSpaceOnUse"
       gradientTransform="matrix(0.75000002,0,0,0.75000009,-2.0894946e-6,-1.0000058)" />
    <linearGradient
       x1="79.067139"
       y1="104.35336"
       x2="79.067139"
       y2="107.93777"
       id="linearGradient4725"
       xlink:href="#linearGradient5976"
       gradientUnits="userSpaceOnUse"
       gradientTransform="matrix(0.75000002,0,0,0.75000009,-2.0894946e-6,-1.0000058)" />
    <linearGradient
       x1="78.802673"
       y1="101.96875"
       x2="78.802673"
       y2="114.04247"
       id="linearGradient4727"
       xlink:href="#linearGradient5756"
       gradientUnits="userSpaceOnUse" />
    <linearGradient
       x1="78"
       y1="104"
       x2="78"
       y2="112.00382"
       id="linearGradient4729"
       xlink:href="#linearGradient5964"
       gradientUnits="userSpaceOnUse"
       gradientTransform="matrix(0.75000002,0,0,0.75000009,-2.0894946e-6,-1.0000058)" />
    <linearGradient
       x1="79.067139"
       y1="104.35336"
       x2="79.067139"
       y2="107.93777"
       id="linearGradient4731"
       xlink:href="#linearGradient5976"
       gradientUnits="userSpaceOnUse"
       gradientTransform="matrix(0.75000002,0,0,0.75000009,-2.0894946e-6,-1.0000058)" />
    <linearGradient
       x1="83.314926"
       y1="21.664392"
       x2="79.007256"
       y2="38.032986"
       id="linearGradient3941"
       xlink:href="#linearGradient3933"
       gradientUnits="userSpaceOnUse" />
    <linearGradient
       x1="84.396637"
       y1="21.771172"
       x2="79.935318"
       y2="38.723618"
       id="linearGradient3945"
       xlink:href="#linearGradient3921"
       gradientUnits="userSpaceOnUse" />
    <linearGradient
       x1="84.396637"
       y1="21.771172"
       x2="79.880112"
       y2="38.933376"
       id="linearGradient3947"
       xlink:href="#linearGradient3903"
       gradientUnits="userSpaceOnUse" />
    <linearGradient
       x1="85.006851"
       y1="21.560991"
       x2="80.336685"
       y2="39.307014"
       id="linearGradient3949"
       xlink:href="#linearGradient3911"
       gradientUnits="userSpaceOnUse" />
    <linearGradient
       x1="45.447727"
       y1="92.539597"
       x2="45.447727"
       y2="7.0165396"
       id="ButtonShadow-0"
       gradientUnits="userSpaceOnUse"
       gradientTransform="matrix(1.0058652,0,0,0.994169,100,0)">
      <stop
         id="stop3750-8"
         style="stop-color:#000000;stop-opacity:1"
         offset="0" />
      <stop
         id="stop3752-5"
         style="stop-color:#000000;stop-opacity:0.58823532"
         offset="1" />
    </linearGradient>
    <linearGradient
       x1="32.251034"
       y1="6.1317081"
       x2="32.251034"
       y2="90.238609"
       id="linearGradient3780"
       xlink:href="#ButtonShadow-0"
       gradientUnits="userSpaceOnUse"
       gradientTransform="matrix(1.0238095,0,0,1.0119048,-1.1428571,-98.071429)" />
    <linearGradient
       x1="32.251034"
       y1="6.1317081"
       x2="32.251034"
       y2="90.238609"
       id="linearGradient3772"
       xlink:href="#ButtonShadow-0"
       gradientUnits="userSpaceOnUse"
       gradientTransform="matrix(1.0238095,0,0,1.0119048,-1.1428571,-98.071429)" />
    <linearGradient
       x1="32.251034"
       y1="6.1317081"
       x2="32.251034"
       y2="90.238609"
       id="linearGradient3725"
       xlink:href="#ButtonShadow-0"
       gradientUnits="userSpaceOnUse"
       gradientTransform="matrix(1.0238095,0,0,1.0119048,-1.1428571,-98.071429)" />
    <linearGradient
       x1="32.251034"
       y1="6.1317081"
       x2="32.251034"
       y2="90.238609"
       id="linearGradient3721"
       xlink:href="#ButtonShadow-0"
       gradientUnits="userSpaceOnUse"
       gradientTransform="translate(0,-97)" />
    <linearGradient
       x1="32.251034"
       y1="6.1317081"
       x2="32.251034"
       y2="90.238609"
       id="linearGradient3811"
       xlink:href="#ButtonShadow-0"
       gradientUnits="userSpaceOnUse"
       gradientTransform="matrix(1.0238095,0,0,1.0119048,-1.1428571,-98.071429)" />
    <linearGradient
       inkscape:collect="always"
       xlink:href="#linearGradient3057"
       id="linearGradient3203"
       gradientUnits="userSpaceOnUse"
       x1="15.84375"
       y1="30"
       x2="44.15625"
       y2="30"
       gradientTransform="matrix(0,-1,-1,0,10,60)" />
  </defs>
  <metadata
     id="metadata2413">
    <rdf:RDF>
      <cc:Work
         rdf:about="">
        <dc:format>image/svg+xml</dc:format>
        <dc:type
           rdf:resource="http://purl.org/dc/dcmitype/StillImage" />
      </cc:Work>
    </rdf:RDF>
  </metadata>
  <g
     id="layer2"
     style="display:none">
    <rect
       width="86"
       height="85"
       rx="6"
       ry="6"
       x="5"
       y="7"
       id="rect3745"
       style="opacity:0.9;fill:url(#ButtonShadow);fill-opacity:1;fill-rule:nonzero;stroke:none;filter:url(#filter3174)" />
  </g>
  <g
     id="g3175">
    <g
       id="layer1">
      <rect
         style="fill:#d8d8ca;fill-opacity:1;fill-rule:nonzero;stroke:none"
         id="rect2419"
         y="6"
         x="6"
         ry="0"
         rx="6"
         height="84"
         width="84" />
    </g>
    <g
       id="layer5" />
    <path
       d="M 39.72549,61.929962 A 7.9980153,7.9980161 0 1 1 24.274511,66.070039 7.9980153,7.9980161 0 0 1 39.72549,61.929962 z"
       id="path5825"
       style="fill:#9d9d9a;fill-opacity:1;fill-rule:evenodd;stroke:none"
       inkscape:connector-curvature="0" />
    <path
       d="M 37.528302,62.518701 A 5.723313,5.7233138 0 0 1 26.47171,65.481306 5.723313,5.7233138 0 0 1 37.528302,62.518701 z"
       id="path5829"
       style="fill:#0056b1;fill-opacity:1;fill-rule:evenodd;stroke:none"
       inkscape:connector-curvature="0" />
    <g
       transform="matrix(0.95873644,0,0,0.95853174,0.4399861,3.6575721)"
       id="g4497">
      <path
         d="m 96.196504,32.053356 a 8.0982525,8.2454149 0 1 1 -16.196505,0 8.0982525,8.2454149 0 1 1 16.196505,0 z"
         transform="matrix(0.99502836,-0.26667401,0.26185845,0.97747798,-45.403687,45.725682)"
         id="path5805"
         style="fill:#9d9d9a;fill-opacity:1;fill-rule:evenodd;stroke:none"
         inkscape:connector-curvature="0" />
      <path
         d="m 96.196504,32.053356 a 8.0982525,8.2454149 0 1 1 -16.196505,0 8.0982525,8.2454149 0 1 1 16.196505,0 z"
         transform="matrix(0.71203401,-0.19082965,0.18738374,0.69947502,-18.085209,47.954858)"
         id="path5809"
         style="fill:#cb1a03;fill-opacity:1;fill-rule:evenodd;stroke:none"
         inkscape:connector-curvature="0" />
    </g>
    <path
       d="M 67.72549,36.929962 A 7.9980153,7.9980161 0 1 1 52.274511,41.070039 7.9980153,7.9980161 0 0 1 67.72549,36.929962 z"
       id="path5785"
       style="fill:#9d9d9a;fill-opacity:1;fill-rule:evenodd;stroke:none"
       inkscape:connector-curvature="0" />
    <path
       d="M 65.528301,37.518701 A 5.723313,5.7233138 0 1 1 54.471709,40.481306 5.723313,5.7233138 0 0 1 65.528301,37.518701 z"
       id="path5789"
       style="fill:#27ba00;fill-opacity:1;fill-rule:evenodd;stroke:none"
       inkscape:connector-curvature="0" />
    <path
       d="M 69.72549,17.929962 A 7.9980153,7.9980161 0 0 1 54.274511,22.070039 7.9980153,7.9980161 0 1 1 69.72549,17.929962 z"
       id="path5754"
       style="fill:#9d9d9a;fill-opacity:1;fill-rule:evenodd;stroke:none"
       inkscape:connector-curvature="0" />
    <path
       d="M 67.528303,18.518701 A 5.723313,5.7233138 0 0 1 56.471711,21.481306 5.723313,5.7233138 0 1 1 67.528303,18.518701 z"
       id="path3245"
       style="fill:#fcce11;fill-opacity:1;fill-rule:evenodd;stroke:none"
       inkscape:connector-curvature="0" />
    <path
       d="m 30,47.25 a 17.25,17.25 0 1 0 0,-34.5 17.25,17.25 0 1 0 0,34.5 z"
       id="path3215"
       style="opacity:0.8;fill:#cccbb8;fill-opacity:1;fill-rule:evenodd;stroke:#909090;stroke-width:1.49999988;stroke-linecap:butt;stroke-linejoin:round;stroke-miterlimit:4;stroke-opacity:1;stroke-dasharray:none;stroke-dashoffset:0;display:inline"
       inkscape:connector-curvature="0" />
    <g
       id="g4252">
      <path
         d="m 111.93775,94.063576 a 1.936425,1.936425 0 1 1 -3.87285,0 1.936425,1.936425 0 1 1 3.87285,0 z"
         transform="matrix(0.57802848,0,0,0.57815191,18.791618,14.634463)"
         id="path5473"
         style="fill:#4d4c38;fill-opacity:1;fill-rule:evenodd;stroke:none;display:inline"
         inkscape:connector-curvature="0" />
      <path
         d="m 111.93775,94.063576 a 1.936425,1.936425 0 1 1 -3.87285,0 1.936425,1.936425 0 1 1 3.87285,0 z"
         transform="matrix(0.57802848,0,0,0.57815191,12.821976,14.634463)"
         id="path5868"
         style="fill:#4d4c38;fill-opacity:1;fill-rule:evenodd;stroke:none;display:inline"
         inkscape:connector-curvature="0" />
      <path
         d="m 111.93775,94.063576 a 1.936425,1.936425 0 1 1 -3.87285,0 1.936425,1.936425 0 1 1 3.87285,0 z"
         transform="matrix(0.57802848,0,0,0.57815191,6.8523358,14.634463)"
         id="path5872"
         style="fill:#4d4c38;fill-opacity:1;fill-rule:evenodd;stroke:none;display:inline"
         inkscape:connector-curvature="0" />
      <path
         d="m 111.93775,94.063576 a 1.936425,1.936425 0 1 1 -3.87285,0 1.936425,1.936425 0 1 1 3.87285,0 z"
         transform="matrix(0.57802848,0,0,0.57815191,0.88269427,14.634463)"
         id="path5876"
         style="fill:#4d4c38;fill-opacity:1;fill-rule:evenodd;stroke:none;display:inline"
         inkscape:connector-curvature="0" />
      <path
         d="m 111.93775,94.063576 a 1.936425,1.936425 0 1 1 -3.87285,0 1.936425,1.936425 0 1 1 3.87285,0 z"
         transform="matrix(0.57802848,0,0,0.57815191,-5.0869466,14.634463)"
         id="path5880"
         style="fill:#4d4c38;fill-opacity:1;fill-rule:evenodd;stroke:none;display:inline"
         inkscape:connector-curvature="0" />
      <path
         d="m 111.93775,94.063576 a 1.936425,1.936425 0 1 1 -3.87285,0 1.936425,1.936425 0 1 1 3.87285,0 z"
         transform="matrix(0.57802848,0,0,0.57815191,15.806797,11.649005)"
         id="path5884"
         style="fill:#4d4c38;fill-opacity:1;fill-rule:evenodd;stroke:none;display:inline"
         inkscape:connector-curvature="0" />
      <path
         d="m 111.93775,94.063576 a 1.936425,1.936425 0 1 1 -3.87285,0 1.936425,1.936425 0 1 1 3.87285,0 z"
         transform="matrix(0.57802848,0,0,0.57815191,9.8371556,11.649005)"
         id="path5886"
         style="fill:#4d4c38;fill-opacity:1;fill-rule:evenodd;stroke:none;display:inline"
         inkscape:connector-curvature="0" />
      <path
         d="m 111.93775,94.063576 a 1.936425,1.936425 0 1 1 -3.87285,0 1.936425,1.936425 0 1 1 3.87285,0 z"
         transform="matrix(0.57802848,0,0,0.57815191,3.8675147,11.649005)"
         id="path5888"
         style="fill:#4d4c38;fill-opacity:1;fill-rule:evenodd;stroke:none;display:inline"
         inkscape:connector-curvature="0" />
      <path
         d="m 111.93775,94.063576 a 1.936425,1.936425 0 1 1 -3.87285,0 1.936425,1.936425 0 1 1 3.87285,0 z"
         transform="matrix(0.57802848,0,0,0.57815191,-2.1021262,11.649005)"
         id="path5890"
         style="fill:#4d4c38;fill-opacity:1;fill-rule:evenodd;stroke:none;display:inline"
         inkscape:connector-curvature="0" />
      <path
         d="m 111.93775,94.063576 a 1.936425,1.936425 0 1 1 -3.87285,0 1.936425,1.936425 0 1 1 3.87285,0 z"
         transform="matrix(0.57802848,0,0,0.57815191,18.791618,8.6635472)"
         id="path5900"
         style="fill:#4d4c38;fill-opacity:1;fill-rule:evenodd;stroke:none;display:inline"
         inkscape:connector-curvature="0" />
      <path
         d="m 111.93775,94.063576 a 1.936425,1.936425 0 1 1 -3.87285,0 1.936425,1.936425 0 1 1 3.87285,0 z"
         transform="matrix(0.57802848,0,0,0.57815191,12.821976,8.6635472)"
         id="path5902"
         style="fill:#4d4c38;fill-opacity:1;fill-rule:evenodd;stroke:none;display:inline"
         inkscape:connector-curvature="0" />
      <path
         d="m 111.93775,94.063576 a 1.936425,1.936425 0 1 1 -3.87285,0 1.936425,1.936425 0 1 1 3.87285,0 z"
         transform="matrix(0.57802848,0,0,0.57815191,6.8523358,8.6635472)"
         id="path5904"
         style="fill:#4d4c38;fill-opacity:1;fill-rule:evenodd;stroke:none;display:inline"
         inkscape:connector-curvature="0" />
      <path
         d="m 111.93775,94.063576 a 1.936425,1.936425 0 1 1 -3.87285,0 1.936425,1.936425 0 1 1 3.87285,0 z"
         transform="matrix(0.57802848,0,0,0.57815191,0.88269427,8.6635472)"
         id="path5906"
         style="fill:#4d4c38;fill-opacity:1;fill-rule:evenodd;stroke:none;display:inline"
         inkscape:connector-curvature="0" />
      <path
         d="m 111.93775,94.063576 a 1.936425,1.936425 0 1 1 -3.87285,0 1.936425,1.936425 0 1 1 3.87285,0 z"
         transform="matrix(0.57802848,0,0,0.57815191,15.806797,5.6780893)"
         id="path5916"
         style="fill:#4d4c38;fill-opacity:1;fill-rule:evenodd;stroke:none;display:inline"
         inkscape:connector-curvature="0" />
      <path
         d="m 111.93775,94.063576 a 1.936425,1.936425 0 1 1 -3.87285,0 1.936425,1.936425 0 1 1 3.87285,0 z"
         transform="matrix(0.57802848,0,0,0.57815191,9.8371556,5.6780893)"
         id="path5918"
         style="fill:#4d4c38;fill-opacity:1;fill-rule:evenodd;stroke:none;display:inline"
         inkscape:connector-curvature="0" />
      <path
         d="m 111.93775,94.063576 a 1.936425,1.936425 0 1 1 -3.87285,0 1.936425,1.936425 0 1 1 3.87285,0 z"
         transform="matrix(0.57802848,0,0,0.57815191,3.8675147,5.6780893)"
         id="path5920"
         style="fill:#4d4c38;fill-opacity:1;fill-rule:evenodd;stroke:none;display:inline"
         inkscape:connector-curvature="0" />
      <path
         d="m 111.93775,94.063576 a 1.936425,1.936425 0 1 1 -3.87285,0 1.936425,1.936425 0 1 1 3.87285,0 z"
         transform="matrix(0.57802848,0,0,0.57815191,18.791618,2.6926315)"
         id="path5928"
         style="fill:#4d4c38;fill-opacity:1;fill-rule:evenodd;stroke:none;display:inline"
         inkscape:connector-curvature="0" />
      <path
         d="m 111.93775,94.063576 a 1.936425,1.936425 0 1 1 -3.87285,0 1.936425,1.936425 0 1 1 3.87285,0 z"
         transform="matrix(0.57802848,0,0,0.57815191,12.821976,2.6926315)"
         id="path5930"
         style="fill:#4d4c38;fill-opacity:1;fill-rule:evenodd;stroke:none;display:inline"
         inkscape:connector-curvature="0" />
      <path
         d="m 111.93775,94.063576 a 1.936425,1.936425 0 1 1 -3.87285,0 1.936425,1.936425 0 1 1 3.87285,0 z"
         transform="matrix(0.57802848,0,0,0.57815191,6.8523358,2.6926315)"
         id="path5932"
         style="fill:#4d4c38;fill-opacity:1;fill-rule:evenodd;stroke:none;display:inline"
         inkscape:connector-curvature="0" />
      <path
         d="m 111.93775,94.063576 a 1.936425,1.936425 0 1 1 -3.87285,0 1.936425,1.936425 0 1 1 3.87285,0 z"
         transform="matrix(0.57802848,0,0,0.57815191,15.806797,-0.29282648)"
         id="path5940"
         style="fill:#4d4c38;fill-opacity:1;fill-rule:evenodd;stroke:none;display:inline"
         inkscape:connector-curvature="0" />
      <path
         d="m 111.93775,94.063576 a 1.936425,1.936425 0 1 1 -3.87285,0 1.936425,1.936425 0 1 1 3.87285,0 z"
         transform="matrix(0.57802848,0,0,0.57815191,9.8371556,-0.29282648)"
         id="path5942"
         style="fill:#4d4c38;fill-opacity:1;fill-rule:evenodd;stroke:none;display:inline"
         inkscape:connector-curvature="0" />
      <path
         d="m 111.93775,94.063576 a 1.936425,1.936425 0 1 1 -3.87285,0 1.936425,1.936425 0 1 1 3.87285,0 z"
         transform="matrix(0.57802848,0,0,0.57815191,18.791618,-3.2782836)"
         id="path5948"
         style="fill:#4d4c38;fill-opacity:1;fill-rule:evenodd;stroke:none;display:inline"
         inkscape:connector-curvature="0" />
      <path
         d="m 111.93775,94.063576 a 1.936425,1.936425 0 1 1 -3.87285,0 1.936425,1.936425 0 1 1 3.87285,0 z"
         transform="matrix(0.57802848,0,0,0.57815191,12.821976,-3.2782836)"
         id="path5950"
         style="fill:#4d4c38;fill-opacity:1;fill-rule:evenodd;stroke:none;display:inline"
         inkscape:connector-curvature="0" />
      <path
         d="m 111.93775,94.063576 a 1.936425,1.936425 0 1 1 -3.87285,0 1.936425,1.936425 0 1 1 3.87285,0 z"
         transform="matrix(0.57802848,0,0,0.57815191,15.806797,-6.2637418)"
         id="path5956"
         style="fill:#4d4c38;fill-opacity:1;fill-rule:evenodd;stroke:none;display:inline"
         inkscape:connector-curvature="0" />
      <path
         d="m 111.93775,94.063576 a 1.936425,1.936425 0 1 1 -3.87285,0 1.936425,1.936425 0 1 1 3.87285,0 z"
         transform="matrix(0.57802848,0,0,0.57815191,18.791618,-9.2491994)"
         id="path5960"
         style="fill:#4d4c38;fill-opacity:1;fill-rule:evenodd;stroke:none;display:inline"
         inkscape:connector-curvature="0" />
    </g>
    <g
       transform="translate(-2,-1)"
       id="g4591">
      <rect
         width="12"
         height="6.0000005"
         rx="3"
         ry="3.0000002"
         x="54"
         y="77"
         id="rect3247"
         style="fill:url(#linearGradient4729);fill-opacity:1;fill-rule:evenodd;stroke:none" />
      <path
         d="M 52.0625,79.5 C 52.033917,79.666907 52,79.824693 52,80 c 0,1.662 1.338,3 3,3 l 6,0 c 1.662,0 3,-1.338 3,-3 0,-0.175307 -0.03392,-0.333093 -0.0625,-0.5 C 63.695102,80.91546 62.486693,82 61,82 l -6,0 c -1.486693,0 -2.695102,-1.08454 -2.9375,-2.5 z"
         inkscape:connector-curvature="0"
         transform="translate(2,0)"
         id="rect4706"
         style="opacity:0.3;fill:#1a1a1a;fill-opacity:1;fill-rule:evenodd;stroke:none" />
    </g>
    <path
       d="m 26.46875,18 c -1.318838,0 -2.40625,1.087412 -2.40625,2.40625 l 0,4.65625 -4.65625,0 C 18.087413,25.0625 17,26.149914 17,27.46875 l 0,7.0625 c 0,1.318836 1.087413,2.40625 2.40625,2.40625 l 4.65625,0 0,4.65625 C 24.0625,42.912589 25.149915,44 26.46875,44 l 7.0625,0 c 1.318836,0 2.40625,-1.087413 2.40625,-2.40625 l 0,-4.65625 4.65625,0 C 41.912586,36.9375 43,35.850088 43,34.53125 l 0,-7.0625 C 43,26.149913 41.912586,25.0625 40.59375,25.0625 l -4.65625,0 0,-4.65625 C 35.9375,19.087414 34.850088,18 33.53125,18 l -7.0625,0 z"
       inkscape:connector-curvature="0"
       id="path4411"
       style="font-size:medium;font-style:normal;font-variant:normal;font-weight:normal;font-stretch:normal;text-indent:0;text-align:start;text-decoration:none;line-height:normal;letter-spacing:normal;word-spacing:normal;text-transform:none;direction:ltr;block-progression:tb;writing-mode:lr-tb;text-anchor:start;opacity:0.2;color:#000000;fill:#000000;fill-opacity:1;fill-rule:evenodd;stroke:none;stroke-width:2;marker:none;visibility:visible;display:inline;overflow:visible;enable-background:accumulate;font-family:Abandoned Bitplane;-inkscape-font-specification:Abandoned Bitplane" />
    <path
       d="m 26.323528,17.500001 c -0.814705,0 -1.470589,0.655884 -1.470589,1.470588 l 0,5.882354 -5.882351,0 c -0.814707,0 -1.470588,0.655882 -1.470588,1.470588 l 0,7.35294 c 0,0.814707 0.655881,1.47059 1.470588,1.47059 l 5.882351,0 0,5.882351 c 0,0.814707 0.655884,1.470588 1.470589,1.470588 l 7.352941,0 c 0.814706,0 1.470589,-0.655881 1.470589,-1.470588 l 0,-5.882351 5.882353,0 c 0.814705,0 1.470588,-0.655883 1.470588,-1.47059 l 0,-7.35294 c 0,-0.814706 -0.655883,-1.470588 -1.470588,-1.470588 l -5.882353,0 0,-5.882354 c 0,-0.814704 -0.655883,-1.470588 -1.470589,-1.470588 l -7.352941,0 z"
       inkscape:connector-curvature="0"
       id="rect3225"
       style="fill:#666666;fill-opacity:1;fill-rule:evenodd;stroke:none;display:inline" />
    <path
       d="m 25.63491,30.000001 a 2.6938815,2.6938816 0 1 1 -5.387762,0 2.6938815,2.6938816 0 1 1 5.387762,0 z"
       id="path6055"
       style="fill:#333333;fill-opacity:1;fill-rule:evenodd;stroke:none;display:inline"
       inkscape:connector-curvature="0" />
    <path
       d="m 39.752847,30.000001 a 2.6938815,2.6938816 0 1 1 -5.387763,0 2.6938815,2.6938816 0 1 1 5.387763,0 z"
       id="path6065"
       style="fill:#333333;fill-opacity:1;fill-rule:evenodd;stroke:none;display:inline"
       inkscape:connector-curvature="0" />
    <path
       d="m 32.693879,22.941032 a 2.6938815,2.6938816 0 1 1 -5.387763,0 2.6938815,2.6938816 0 1 1 5.387763,0 z"
       id="path6069"
       style="fill:#333333;fill-opacity:1;fill-rule:evenodd;stroke:none;display:inline"
       inkscape:connector-curvature="0" />
    <path
       d="m 32.693879,37.058968 a 2.6938815,2.6938816 0 1 1 -5.387763,0 2.6938815,2.6938816 0 1 1 5.387763,0 z"
       id="path6073"
       style="fill:#333333;fill-opacity:1;fill-rule:evenodd;stroke:none;display:inline"
       inkscape:connector-curvature="0" />
    <g
       transform="translate(17,-1)"
       id="g4711">
      <rect
         width="12"
         height="6.0000005"
         rx="3"
         ry="3.0000002"
         x="54"
         y="77"
         id="rect4715"
         style="fill:url(#linearGradient4723);fill-opacity:1;fill-rule:evenodd;stroke:none" />
      <path
         d="M 52.0625,79.5 C 52.033917,79.666907 52,79.824693 52,80 c 0,1.662 1.338,3 3,3 l 6,0 c 1.662,0 3,-1.338 3,-3 0,-0.175307 -0.03392,-0.333093 -0.0625,-0.5 C 63.695102,80.91546 62.486693,82 61,82 l -6,0 c -1.486693,0 -2.695102,-1.08454 -2.9375,-2.5 z"
         inkscape:connector-curvature="0"
         transform="translate(2,0)"
         id="path4719"
         style="opacity:0.3;fill:#1a1a1a;fill-opacity:1;fill-rule:evenodd;stroke:none" />
    </g>
  </g>
</svg>
