<?xml version="1.0" encoding="UTF-8" standalone="no"?>
<!-- Created with Inkscape (http://www.inkscape.org/) -->

<svg
   xmlns:dc="http://purl.org/dc/elements/1.1/"
   xmlns:cc="http://creativecommons.org/ns#"
   xmlns:rdf="http://www.w3.org/1999/02/22-rdf-syntax-ns#"
   xmlns:svg="http://www.w3.org/2000/svg"
   xmlns="http://www.w3.org/2000/svg"
   xmlns:xlink="http://www.w3.org/1999/xlink"
   xmlns:sodipodi="http://sodipodi.sourceforge.net/DTD/sodipodi-0.dtd"
   xmlns:inkscape="http://www.inkscape.org/namespaces/inkscape"
   version="1.0"
   width="96"
   height="96"
   id="svg2408"
   inkscape:version="0.48.4 r9939"
   sodipodi:docname="cpu.svg">
  <sodipodi:namedview
     pagecolor="#ffffff"
     bordercolor="#666666"
     borderopacity="1"
     objecttolerance="10"
     gridtolerance="10"
     guidetolerance="10"
     inkscape:pageopacity="0"
     inkscape:pageshadow="2"
     inkscape:window-width="602"
     inkscape:window-height="451"
     id="namedview404"
     showgrid="false"
     inkscape:zoom="2.7749807"
     inkscape:cx="-15.075841"
     inkscape:cy="49.353661"
     inkscape:window-x="59"
     inkscape:window-y="206"
     inkscape:window-maximized="0"
     inkscape:current-layer="svg2408" />
  <defs
     id="defs2410">
    <linearGradient
       id="linearGradient4631">
      <stop
         id="stop4633"
         style="stop-color:#c3b194;stop-opacity:1"
         offset="0" />
      <stop
         id="stop4635"
         style="stop-color:#e1c497;stop-opacity:1"
         offset="1" />
    </linearGradient>
    <linearGradient
       id="linearGradient4549">
      <stop
         id="stop4551"
         style="stop-color:#c4c4c4;stop-opacity:1"
         offset="0" />
      <stop
         id="stop4553"
         style="stop-color:#f1f1f1;stop-opacity:1"
         offset="1" />
    </linearGradient>
    <linearGradient
       id="linearGradient4541">
      <stop
         id="stop4543"
         style="stop-color:#dc6819;stop-opacity:1"
         offset="0" />
      <stop
         id="stop4545"
         style="stop-color:#efa471;stop-opacity:1"
         offset="1" />
    </linearGradient>
    <linearGradient
       id="linearGradient4410">
      <stop
         id="stop4412"
         style="stop-color:#ffffff;stop-opacity:1"
         offset="0" />
      <stop
         id="stop4416"
         style="stop-color:#cccccc;stop-opacity:1"
         offset="0.49890673" />
      <stop
         id="stop4418"
         style="stop-color:#969696;stop-opacity:1"
         offset="0.60806364" />
      <stop
         id="stop4420"
         style="stop-color:#ffffff;stop-opacity:1"
         offset="1" />
    </linearGradient>
    <linearGradient
       id="linearGradient4004">
      <stop
         id="stop4006"
         style="stop-color:#ffffff;stop-opacity:1"
         offset="0" />
      <stop
         id="stop4016"
         style="stop-color:#cccccc;stop-opacity:1"
         offset="0.39724174" />
      <stop
         id="stop4014"
         style="stop-color:#cccccc;stop-opacity:1"
         offset="0.49890673" />
      <stop
         id="stop4012"
         style="stop-color:#777777;stop-opacity:1"
         offset="0.60806364" />
      <stop
         id="stop4008"
         style="stop-color:#ffffff;stop-opacity:1"
         offset="1" />
    </linearGradient>
    <linearGradient
       id="linearGradient3992">
      <stop
         id="stop3994"
         style="stop-color:#ffffff;stop-opacity:1"
         offset="0" />
      <stop
         id="stop4000"
         style="stop-color:#7f7f7f;stop-opacity:0"
         offset="0.19255805" />
      <stop
         id="stop3996"
         style="stop-color:#000000;stop-opacity:1"
         offset="1" />
    </linearGradient>
    <linearGradient
       id="linearGradient3971">
      <stop
         id="stop3973"
         style="stop-color:#4d4d4d;stop-opacity:1"
         offset="0" />
      <stop
         id="stop3975"
         style="stop-color:#333333;stop-opacity:1"
         offset="1" />
    </linearGradient>
    <linearGradient
       id="linearGradient3875">
      <stop
         id="stop3877"
         style="stop-color:#3e8116;stop-opacity:1"
         offset="0" />
      <stop
         id="stop3879"
         style="stop-color:#66ae3b;stop-opacity:1"
         offset="1" />
    </linearGradient>
    <linearGradient
       id="linearGradient3869">
      <stop
         id="stop3871"
         style="stop-color:#958741;stop-opacity:1"
         offset="0" />
      <stop
         id="stop3873"
         style="stop-color:#b4ba66;stop-opacity:1"
         offset="1" />
    </linearGradient>
    <linearGradient
       id="linearGradient3809">
      <stop
         id="stop3811"
         style="stop-color:#ffbd2a;stop-opacity:1"
         offset="0" />
      <stop
         id="stop3813"
         style="stop-color:#ffe62a;stop-opacity:1"
         offset="1" />
    </linearGradient>
    <linearGradient
       x1="45.447727"
       y1="92.539597"
       x2="45.447727"
       y2="7.0165396"
       id="ButtonShadow"
       gradientUnits="userSpaceOnUse"
       gradientTransform="scale(1.0058652,0.994169)">
      <stop
         id="stop3750"
         style="stop-color:#000000;stop-opacity:1"
         offset="0" />
      <stop
         id="stop3752"
         style="stop-color:#000000;stop-opacity:0.58823532"
         offset="1" />
    </linearGradient>
    <linearGradient
       id="linearGradient3737">
      <stop
         id="stop3739"
         style="stop-color:#ffffff;stop-opacity:1"
         offset="0" />
      <stop
         id="stop3741"
         style="stop-color:#ffffff;stop-opacity:0"
         offset="1" />
    </linearGradient>
    <linearGradient
       id="linearGradient3700">
      <stop
         id="stop3702"
         style="stop-color:#548238;stop-opacity:1"
         offset="0" />
      <stop
         id="stop3704"
         style="stop-color:#7dc851;stop-opacity:1"
         offset="1" />
    </linearGradient>
    <filter
       color-interpolation-filters="sRGB"
       id="filter3174">
      <feGaussianBlur
         id="feGaussianBlur3176"
         stdDeviation="1.71" />
    </filter>
    <linearGradient
       x1="36.357143"
       y1="6"
       x2="36.357143"
       y2="63.893143"
       id="linearGradient3188"
       xlink:href="#linearGradient3737"
       gradientUnits="userSpaceOnUse"
       gradientTransform="translate(-100,0)" />
    <filter
       x="-0.192"
       y="-0.192"
       width="1.3839999"
       height="1.3839999"
       color-interpolation-filters="sRGB"
       id="filter3794">
      <feGaussianBlur
         id="feGaussianBlur3796"
         stdDeviation="5.28" />
    </filter>
    <linearGradient
       x1="48"
       y1="20.220806"
       x2="48"
       y2="138.66119"
       id="linearGradient3613"
       xlink:href="#linearGradient3737"
       gradientUnits="userSpaceOnUse" />
    <radialGradient
       cx="48"
       cy="90.171875"
       r="42"
       fx="48"
       fy="90.171875"
       id="radialGradient3619"
       xlink:href="#linearGradient3737"
       gradientUnits="userSpaceOnUse"
       gradientTransform="matrix(1.1573129,0,0,0.99590774,-107.55102,0.19713193)" />
    <clipPath
       id="clipPath3613">
      <rect
         width="84"
         height="84"
         rx="6"
         ry="6"
         x="6"
         y="6"
         id="rect3615"
         style="fill:#ffffff;fill-opacity:1;fill-rule:nonzero;stroke:none" />
    </clipPath>
    <linearGradient
       x1="48"
       y1="90"
       x2="48"
       y2="5.9877172"
       id="linearGradient3617"
       xlink:href="#linearGradient3875"
       gradientUnits="userSpaceOnUse" />
    <linearGradient
       x1="48"
       y1="90"
       x2="48"
       y2="5.9877172"
       id="linearGradient3668"
       xlink:href="#linearGradient3700"
       gradientUnits="userSpaceOnUse"
       gradientTransform="translate(-88,12)" />
    <linearGradient
       x1="48"
       y1="90"
       x2="48"
       y2="5.9877172"
       id="linearGradient3672"
       xlink:href="#linearGradient3700"
       gradientUnits="userSpaceOnUse"
       gradientTransform="translate(-100,0)" />
    <linearGradient
       x1="40"
       y1="8"
       x2="40"
       y2="72"
       id="linearGradient3688"
       xlink:href="#linearGradient3737"
       gradientUnits="userSpaceOnUse" />
    <radialGradient
       cx="47.999977"
       cy="90"
       r="42"
       fx="47.999977"
       fy="90"
       id="radialGradient3704"
       xlink:href="#linearGradient3737"
       gradientUnits="userSpaceOnUse"
       gradientTransform="matrix(1.1428571,0,0,1,-6.8571429,0)" />
    <linearGradient
       x1="37.081696"
       y1="95.233528"
       x2="37.081696"
       y2="4.4147615"
       id="linearGradient3750"
       xlink:href="#ButtonShadow"
       gradientUnits="userSpaceOnUse" />
    <linearGradient
       x1="41.301643"
       y1="93.716301"
       x2="41.301643"
       y2="4.6399517"
       id="linearGradient3752"
       xlink:href="#ButtonShadow"
       gradientUnits="userSpaceOnUse" />
    <linearGradient
       x1="38.802448"
       y1="93.282806"
       x2="38.802448"
       y2="5.910502"
       id="linearGradient3754"
       xlink:href="#ButtonShadow"
       gradientUnits="userSpaceOnUse" />
    <linearGradient
       x1="35.561268"
       y1="91.98233"
       x2="35.561268"
       y2="6.6451721"
       id="linearGradient3756"
       xlink:href="#ButtonShadow"
       gradientUnits="userSpaceOnUse" />
    <linearGradient
       x1="40"
       y1="90.817703"
       x2="40"
       y2="6.7282896"
       id="linearGradient3758"
       xlink:href="#ButtonShadow"
       gradientUnits="userSpaceOnUse" />
    <linearGradient
       x1="48"
       y1="90"
       x2="48"
       y2="5.9877172"
       id="linearGradient3767"
       xlink:href="#linearGradient3869"
       gradientUnits="userSpaceOnUse"
       gradientTransform="translate(12,12)" />
    <linearGradient
       x1="78"
       y1="72"
       x2="88"
       y2="72"
       id="linearGradient3815"
       xlink:href="#linearGradient3809"
       gradientUnits="userSpaceOnUse"
       gradientTransform="matrix(1,0,0,0.5,-166,37)" />
    <linearGradient
       x1="78"
       y1="72"
       x2="88"
       y2="72"
       id="linearGradient3819"
       xlink:href="#linearGradient3809"
       gradientUnits="userSpaceOnUse"
       gradientTransform="matrix(1,0,0,0.5,-166,33)" />
    <linearGradient
       x1="78"
       y1="72"
       x2="88"
       y2="72"
       id="linearGradient3823"
       xlink:href="#linearGradient3809"
       gradientUnits="userSpaceOnUse"
       gradientTransform="matrix(1,0,0,0.5,-166,29)" />
    <linearGradient
       x1="78"
       y1="72"
       x2="88"
       y2="72"
       id="linearGradient3827"
       xlink:href="#linearGradient3809"
       gradientUnits="userSpaceOnUse"
       gradientTransform="matrix(1,0,0,0.5,-166,25)" />
    <linearGradient
       x1="78"
       y1="72"
       x2="88"
       y2="72"
       id="linearGradient3831"
       xlink:href="#linearGradient3809"
       gradientUnits="userSpaceOnUse"
       gradientTransform="matrix(1,0,0,0.5,-166,21)" />
    <linearGradient
       x1="78"
       y1="72"
       x2="88"
       y2="72"
       id="linearGradient3835"
       xlink:href="#linearGradient3809"
       gradientUnits="userSpaceOnUse"
       gradientTransform="matrix(1,0,0,0.5,-166,17)" />
    <linearGradient
       x1="78"
       y1="72"
       x2="88"
       y2="72"
       id="linearGradient3839"
       xlink:href="#linearGradient3809"
       gradientUnits="userSpaceOnUse"
       gradientTransform="matrix(1,0,0,0.5,-166,13)" />
    <linearGradient
       x1="78"
       y1="72"
       x2="88"
       y2="72"
       id="linearGradient3843"
       xlink:href="#linearGradient3809"
       gradientUnits="userSpaceOnUse"
       gradientTransform="matrix(1,0,0,0.5,-166,9)" />
    <linearGradient
       x1="78"
       y1="72"
       x2="88"
       y2="72"
       id="linearGradient3851"
       xlink:href="#linearGradient3809"
       gradientUnits="userSpaceOnUse"
       gradientTransform="matrix(1,0,0,0.5,-166,-1)" />
    <linearGradient
       x1="78"
       y1="72"
       x2="88"
       y2="72"
       id="linearGradient3855"
       xlink:href="#linearGradient3809"
       gradientUnits="userSpaceOnUse"
       gradientTransform="matrix(1,0,0,0.5,-166,-5)" />
    <linearGradient
       x1="78"
       y1="72"
       x2="88"
       y2="72"
       id="linearGradient3859"
       xlink:href="#linearGradient3809"
       gradientUnits="userSpaceOnUse"
       gradientTransform="matrix(1,0,0,0.5,-166,-9)" />
    <linearGradient
       x1="78"
       y1="72"
       x2="88"
       y2="72"
       id="linearGradient3863"
       xlink:href="#linearGradient3809"
       gradientUnits="userSpaceOnUse"
       gradientTransform="matrix(1,0,0,0.5,-166,-13)" />
    <radialGradient
       cx="32"
       cy="32"
       r="16"
       fx="32"
       fy="32"
       id="radialGradient3977"
       xlink:href="#linearGradient3971"
       gradientUnits="userSpaceOnUse"
       gradientTransform="matrix(1.5,0,0,1.5,-16,-16)" />
    <linearGradient
       x1="40"
       y1="24"
       x2="40"
       y2="48"
       id="linearGradient3998"
       xlink:href="#linearGradient3992"
       gradientUnits="userSpaceOnUse" />
    <linearGradient
       x1="11"
       y1="25"
       x2="16"
       y2="25"
       id="linearGradient4184"
       xlink:href="#linearGradient4004"
       gradientUnits="userSpaceOnUse"
       gradientTransform="matrix(1,0,0,0.5,0,42)" />
    <linearGradient
       x1="11"
       y1="25"
       x2="16"
       y2="25"
       id="linearGradient4186"
       xlink:href="#linearGradient4004"
       gradientUnits="userSpaceOnUse"
       gradientTransform="matrix(1,0,0,0.5,0,40)" />
    <linearGradient
       x1="11"
       y1="25"
       x2="16"
       y2="25"
       id="linearGradient4188"
       xlink:href="#linearGradient4004"
       gradientUnits="userSpaceOnUse"
       gradientTransform="matrix(1,0,0,0.5,0,38)" />
    <linearGradient
       x1="11"
       y1="25"
       x2="16"
       y2="25"
       id="linearGradient4190"
       xlink:href="#linearGradient4004"
       gradientUnits="userSpaceOnUse"
       gradientTransform="matrix(1,0,0,0.5,0,36)" />
    <linearGradient
       x1="11"
       y1="25"
       x2="16"
       y2="25"
       id="linearGradient4192"
       xlink:href="#linearGradient4004"
       gradientUnits="userSpaceOnUse"
       gradientTransform="matrix(1,0,0,0.5,0,34)" />
    <linearGradient
       x1="11"
       y1="25"
       x2="16"
       y2="25"
       id="linearGradient4194"
       xlink:href="#linearGradient4004"
       gradientUnits="userSpaceOnUse"
       gradientTransform="matrix(1,0,0,0.5,0,32)" />
    <linearGradient
       x1="11"
       y1="25"
       x2="16"
       y2="25"
       id="linearGradient4196"
       xlink:href="#linearGradient4004"
       gradientUnits="userSpaceOnUse"
       gradientTransform="matrix(1,0,0,0.5,0,30)" />
    <linearGradient
       x1="11"
       y1="25"
       x2="16"
       y2="25"
       id="linearGradient4198"
       xlink:href="#linearGradient4004"
       gradientUnits="userSpaceOnUse"
       gradientTransform="matrix(1,0,0,0.5,0,28)" />
    <linearGradient
       x1="11"
       y1="25"
       x2="16"
       y2="25"
       id="linearGradient4200"
       xlink:href="#linearGradient4004"
       gradientUnits="userSpaceOnUse"
       gradientTransform="matrix(1,0,0,0.5,0,26)" />
    <linearGradient
       x1="11"
       y1="25"
       x2="16"
       y2="25"
       id="linearGradient4202"
       xlink:href="#linearGradient4004"
       gradientUnits="userSpaceOnUse"
       gradientTransform="matrix(1,0,0,0.5,0,24)" />
    <linearGradient
       x1="11"
       y1="25"
       x2="16"
       y2="25"
       id="linearGradient4204"
       xlink:href="#linearGradient4004"
       gradientUnits="userSpaceOnUse"
       gradientTransform="matrix(1,0,0,0.5,0,22)" />
    <linearGradient
       x1="11"
       y1="25"
       x2="16"
       y2="25"
       id="linearGradient4206"
       xlink:href="#linearGradient4004"
       gradientUnits="userSpaceOnUse"
       gradientTransform="matrix(1,0,0,0.5,0,20)" />
    <linearGradient
       x1="11"
       y1="25"
       x2="16"
       y2="25"
       id="linearGradient4208"
       xlink:href="#linearGradient4004"
       gradientUnits="userSpaceOnUse"
       gradientTransform="matrix(1,0,0,0.5,0,18)" />
    <linearGradient
       x1="11"
       y1="25"
       x2="16"
       y2="25"
       id="linearGradient4210"
       xlink:href="#linearGradient4004"
       gradientUnits="userSpaceOnUse"
       gradientTransform="matrix(1,0,0,0.5,0,16)" />
    <linearGradient
       x1="11"
       y1="25"
       x2="16"
       y2="25"
       id="linearGradient4212"
       xlink:href="#linearGradient4004"
       gradientUnits="userSpaceOnUse"
       gradientTransform="matrix(1,0,0,0.5,0,14)" />
    <linearGradient
       x1="11"
       y1="25"
       x2="16"
       y2="25"
       id="linearGradient4214"
       xlink:href="#linearGradient4004"
       gradientUnits="userSpaceOnUse"
       gradientTransform="matrix(1,0,0,0.5,0,12)" />
    <linearGradient
       x1="11"
       y1="25"
       x2="16"
       y2="25"
       id="linearGradient4250"
       xlink:href="#linearGradient4004"
       gradientUnits="userSpaceOnUse"
       gradientTransform="matrix(1,0,0,0.5,0,42)" />
    <linearGradient
       x1="11"
       y1="25"
       x2="16"
       y2="25"
       id="linearGradient4252"
       xlink:href="#linearGradient4004"
       gradientUnits="userSpaceOnUse"
       gradientTransform="matrix(1,0,0,0.5,0,40)" />
    <linearGradient
       x1="11"
       y1="25"
       x2="16"
       y2="25"
       id="linearGradient4254"
       xlink:href="#linearGradient4004"
       gradientUnits="userSpaceOnUse"
       gradientTransform="matrix(1,0,0,0.5,0,38)" />
    <linearGradient
       x1="11"
       y1="25"
       x2="16"
       y2="25"
       id="linearGradient4256"
       xlink:href="#linearGradient4004"
       gradientUnits="userSpaceOnUse"
       gradientTransform="matrix(1,0,0,0.5,0,36)" />
    <linearGradient
       x1="11"
       y1="25"
       x2="16"
       y2="25"
       id="linearGradient4258"
       xlink:href="#linearGradient4004"
       gradientUnits="userSpaceOnUse"
       gradientTransform="matrix(1,0,0,0.5,0,34)" />
    <linearGradient
       x1="11"
       y1="25"
       x2="16"
       y2="25"
       id="linearGradient4260"
       xlink:href="#linearGradient4004"
       gradientUnits="userSpaceOnUse"
       gradientTransform="matrix(1,0,0,0.5,0,32)" />
    <linearGradient
       x1="11"
       y1="25"
       x2="16"
       y2="25"
       id="linearGradient4262"
       xlink:href="#linearGradient4004"
       gradientUnits="userSpaceOnUse"
       gradientTransform="matrix(1,0,0,0.5,0,30)" />
    <linearGradient
       x1="11"
       y1="25"
       x2="16"
       y2="25"
       id="linearGradient4264"
       xlink:href="#linearGradient4004"
       gradientUnits="userSpaceOnUse"
       gradientTransform="matrix(1,0,0,0.5,0,28)" />
    <linearGradient
       x1="11"
       y1="25"
       x2="16"
       y2="25"
       id="linearGradient4266"
       xlink:href="#linearGradient4004"
       gradientUnits="userSpaceOnUse"
       gradientTransform="matrix(1,0,0,0.5,0,26)" />
    <linearGradient
       x1="11"
       y1="25"
       x2="16"
       y2="25"
       id="linearGradient4268"
       xlink:href="#linearGradient4004"
       gradientUnits="userSpaceOnUse"
       gradientTransform="matrix(1,0,0,0.5,0,24)" />
    <linearGradient
       x1="11"
       y1="25"
       x2="16"
       y2="25"
       id="linearGradient4270"
       xlink:href="#linearGradient4004"
       gradientUnits="userSpaceOnUse"
       gradientTransform="matrix(1,0,0,0.5,0,22)" />
    <linearGradient
       x1="11"
       y1="25"
       x2="16"
       y2="25"
       id="linearGradient4272"
       xlink:href="#linearGradient4004"
       gradientUnits="userSpaceOnUse"
       gradientTransform="matrix(1,0,0,0.5,0,20)" />
    <linearGradient
       x1="11"
       y1="25"
       x2="16"
       y2="25"
       id="linearGradient4274"
       xlink:href="#linearGradient4004"
       gradientUnits="userSpaceOnUse"
       gradientTransform="matrix(1,0,0,0.5,0,18)" />
    <linearGradient
       x1="11"
       y1="25"
       x2="16"
       y2="25"
       id="linearGradient4276"
       xlink:href="#linearGradient4004"
       gradientUnits="userSpaceOnUse"
       gradientTransform="matrix(1,0,0,0.5,0,16)" />
    <linearGradient
       x1="11"
       y1="25"
       x2="16"
       y2="25"
       id="linearGradient4278"
       xlink:href="#linearGradient4004"
       gradientUnits="userSpaceOnUse"
       gradientTransform="matrix(1,0,0,0.5,0,14)" />
    <linearGradient
       x1="11"
       y1="25"
       x2="16"
       y2="25"
       id="linearGradient4280"
       xlink:href="#linearGradient4004"
       gradientUnits="userSpaceOnUse"
       gradientTransform="matrix(1,0,0,0.5,0,12)" />
    <linearGradient
       x1="11"
       y1="25"
       x2="16"
       y2="25"
       id="linearGradient4316"
       xlink:href="#linearGradient4004"
       gradientUnits="userSpaceOnUse"
       gradientTransform="matrix(1,0,0,0.5,0,42)" />
    <linearGradient
       x1="11"
       y1="25"
       x2="16"
       y2="25"
       id="linearGradient4318"
       xlink:href="#linearGradient4004"
       gradientUnits="userSpaceOnUse"
       gradientTransform="matrix(1,0,0,0.5,0,40)" />
    <linearGradient
       x1="11"
       y1="25"
       x2="16"
       y2="25"
       id="linearGradient4320"
       xlink:href="#linearGradient4004"
       gradientUnits="userSpaceOnUse"
       gradientTransform="matrix(1,0,0,0.5,0,38)" />
    <linearGradient
       x1="11"
       y1="25"
       x2="16"
       y2="25"
       id="linearGradient4322"
       xlink:href="#linearGradient4004"
       gradientUnits="userSpaceOnUse"
       gradientTransform="matrix(1,0,0,0.5,0,36)" />
    <linearGradient
       x1="11"
       y1="25"
       x2="16"
       y2="25"
       id="linearGradient4324"
       xlink:href="#linearGradient4004"
       gradientUnits="userSpaceOnUse"
       gradientTransform="matrix(1,0,0,0.5,0,34)" />
    <linearGradient
       x1="11"
       y1="25"
       x2="16"
       y2="25"
       id="linearGradient4326"
       xlink:href="#linearGradient4004"
       gradientUnits="userSpaceOnUse"
       gradientTransform="matrix(1,0,0,0.5,0,32)" />
    <linearGradient
       x1="11"
       y1="25"
       x2="16"
       y2="25"
       id="linearGradient4328"
       xlink:href="#linearGradient4004"
       gradientUnits="userSpaceOnUse"
       gradientTransform="matrix(1,0,0,0.5,0,30)" />
    <linearGradient
       x1="11"
       y1="25"
       x2="16"
       y2="25"
       id="linearGradient4330"
       xlink:href="#linearGradient4004"
       gradientUnits="userSpaceOnUse"
       gradientTransform="matrix(1,0,0,0.5,0,28)" />
    <linearGradient
       x1="11"
       y1="25"
       x2="16"
       y2="25"
       id="linearGradient4332"
       xlink:href="#linearGradient4004"
       gradientUnits="userSpaceOnUse"
       gradientTransform="matrix(1,0,0,0.5,0,26)" />
    <linearGradient
       x1="11"
       y1="25"
       x2="16"
       y2="25"
       id="linearGradient4334"
       xlink:href="#linearGradient4004"
       gradientUnits="userSpaceOnUse"
       gradientTransform="matrix(1,0,0,0.5,0,24)" />
    <linearGradient
       x1="11"
       y1="25"
       x2="16"
       y2="25"
       id="linearGradient4336"
       xlink:href="#linearGradient4004"
       gradientUnits="userSpaceOnUse"
       gradientTransform="matrix(1,0,0,0.5,0,22)" />
    <linearGradient
       x1="11"
       y1="25"
       x2="16"
       y2="25"
       id="linearGradient4338"
       xlink:href="#linearGradient4004"
       gradientUnits="userSpaceOnUse"
       gradientTransform="matrix(1,0,0,0.5,0,20)" />
    <linearGradient
       x1="11"
       y1="25"
       x2="16"
       y2="25"
       id="linearGradient4340"
       xlink:href="#linearGradient4004"
       gradientUnits="userSpaceOnUse"
       gradientTransform="matrix(1,0,0,0.5,0,18)" />
    <linearGradient
       x1="11"
       y1="25"
       x2="16"
       y2="25"
       id="linearGradient4342"
       xlink:href="#linearGradient4004"
       gradientUnits="userSpaceOnUse"
       gradientTransform="matrix(1,0,0,0.5,0,16)" />
    <linearGradient
       x1="11"
       y1="25"
       x2="16"
       y2="25"
       id="linearGradient4344"
       xlink:href="#linearGradient4004"
       gradientUnits="userSpaceOnUse"
       gradientTransform="matrix(1,0,0,0.5,0,14)" />
    <linearGradient
       x1="11"
       y1="25"
       x2="16"
       y2="25"
       id="linearGradient4346"
       xlink:href="#linearGradient4004"
       gradientUnits="userSpaceOnUse"
       gradientTransform="matrix(1,0,0,0.5,0,12)" />
    <linearGradient
       x1="11"
       y1="25"
       x2="16"
       y2="25"
       id="linearGradient4350"
       xlink:href="#linearGradient4410"
       gradientUnits="userSpaceOnUse"
       gradientTransform="matrix(0.8,0,0,1,11.2,-82)" />
    <linearGradient
       x1="11"
       y1="25"
       x2="16"
       y2="25"
       id="linearGradient4370"
       xlink:href="#linearGradient4004"
       gradientUnits="userSpaceOnUse"
       gradientTransform="matrix(1,0,0,0.5,0,42)" />
    <linearGradient
       x1="11"
       y1="25"
       x2="16"
       y2="25"
       id="linearGradient4372"
       xlink:href="#linearGradient4004"
       gradientUnits="userSpaceOnUse"
       gradientTransform="matrix(1,0,0,0.5,0,40)" />
    <linearGradient
       x1="11"
       y1="25"
       x2="16"
       y2="25"
       id="linearGradient4374"
       xlink:href="#linearGradient4004"
       gradientUnits="userSpaceOnUse"
       gradientTransform="matrix(1,0,0,0.5,0,38)" />
    <linearGradient
       x1="11"
       y1="25"
       x2="16"
       y2="25"
       id="linearGradient4376"
       xlink:href="#linearGradient4004"
       gradientUnits="userSpaceOnUse"
       gradientTransform="matrix(1,0,0,0.5,0,36)" />
    <linearGradient
       x1="11"
       y1="25"
       x2="16"
       y2="25"
       id="linearGradient4378"
       xlink:href="#linearGradient4004"
       gradientUnits="userSpaceOnUse"
       gradientTransform="matrix(1,0,0,0.5,0,34)" />
    <linearGradient
       x1="11"
       y1="25"
       x2="16"
       y2="25"
       id="linearGradient4380"
       xlink:href="#linearGradient4004"
       gradientUnits="userSpaceOnUse"
       gradientTransform="matrix(1,0,0,0.5,0,32)" />
    <linearGradient
       x1="11"
       y1="25"
       x2="16"
       y2="25"
       id="linearGradient4382"
       xlink:href="#linearGradient4004"
       gradientUnits="userSpaceOnUse"
       gradientTransform="matrix(1,0,0,0.5,0,30)" />
    <linearGradient
       x1="11"
       y1="25"
       x2="16"
       y2="25"
       id="linearGradient4384"
       xlink:href="#linearGradient4004"
       gradientUnits="userSpaceOnUse"
       gradientTransform="matrix(1,0,0,0.5,0,28)" />
    <linearGradient
       x1="11"
       y1="25"
       x2="16"
       y2="25"
       id="linearGradient4386"
       xlink:href="#linearGradient4004"
       gradientUnits="userSpaceOnUse"
       gradientTransform="matrix(1,0,0,0.5,0,26)" />
    <linearGradient
       x1="11"
       y1="25"
       x2="16"
       y2="25"
       id="linearGradient4388"
       xlink:href="#linearGradient4004"
       gradientUnits="userSpaceOnUse"
       gradientTransform="matrix(1,0,0,0.5,0,24)" />
    <linearGradient
       x1="11"
       y1="25"
       x2="16"
       y2="25"
       id="linearGradient4390"
       xlink:href="#linearGradient4004"
       gradientUnits="userSpaceOnUse"
       gradientTransform="matrix(1,0,0,0.5,0,22)" />
    <linearGradient
       x1="11"
       y1="25"
       x2="16"
       y2="25"
       id="linearGradient4392"
       xlink:href="#linearGradient4004"
       gradientUnits="userSpaceOnUse"
       gradientTransform="matrix(1,0,0,0.5,0,20)" />
    <linearGradient
       x1="11"
       y1="25"
       x2="16"
       y2="25"
       id="linearGradient4394"
       xlink:href="#linearGradient4004"
       gradientUnits="userSpaceOnUse"
       gradientTransform="matrix(1,0,0,0.5,0,18)" />
    <linearGradient
       x1="11"
       y1="25"
       x2="16"
       y2="25"
       id="linearGradient4396"
       xlink:href="#linearGradient4004"
       gradientUnits="userSpaceOnUse"
       gradientTransform="matrix(1,0,0,0.5,0,16)" />
    <linearGradient
       x1="11"
       y1="25"
       x2="16"
       y2="25"
       id="linearGradient4398"
       xlink:href="#linearGradient4004"
       gradientUnits="userSpaceOnUse"
       gradientTransform="matrix(1,0,0,0.5,0,14)" />
    <linearGradient
       x1="11"
       y1="25"
       x2="16"
       y2="25"
       id="linearGradient4400"
       xlink:href="#linearGradient4004"
       gradientUnits="userSpaceOnUse"
       gradientTransform="matrix(1,0,0,0.5,0,12)" />
    <linearGradient
       x1="11"
       y1="25"
       x2="16"
       y2="25"
       id="linearGradient4404"
       xlink:href="#linearGradient4410"
       gradientUnits="userSpaceOnUse"
       gradientTransform="matrix(0.8,0,0,1,11.2,-86)" />
    <linearGradient
       x1="11"
       y1="25"
       x2="16"
       y2="25"
       id="linearGradient4408"
       xlink:href="#linearGradient4410"
       gradientUnits="userSpaceOnUse"
       gradientTransform="matrix(0.8,0,0,1,11.2,-90)" />
    <linearGradient
       x1="11"
       y1="25"
       x2="16"
       y2="25"
       id="linearGradient4425"
       xlink:href="#linearGradient4410"
       gradientUnits="userSpaceOnUse"
       gradientTransform="matrix(0.8,0,0,1,11.2,-94)" />
    <linearGradient
       x1="11"
       y1="25"
       x2="16"
       y2="25"
       id="linearGradient4435"
       xlink:href="#linearGradient4410"
       gradientUnits="userSpaceOnUse"
       gradientTransform="matrix(0.8,0,0,1,-44.8,-82)" />
    <linearGradient
       x1="11"
       y1="25"
       x2="16"
       y2="25"
       id="linearGradient4437"
       xlink:href="#linearGradient4410"
       gradientUnits="userSpaceOnUse"
       gradientTransform="matrix(0.8,0,0,1,-44.8,-86)" />
    <linearGradient
       x1="11"
       y1="25"
       x2="16"
       y2="25"
       id="linearGradient4439"
       xlink:href="#linearGradient4410"
       gradientUnits="userSpaceOnUse"
       gradientTransform="matrix(0.8,0,0,1,-44.8,-90)" />
    <linearGradient
       x1="11"
       y1="25"
       x2="16"
       y2="25"
       id="linearGradient4441"
       xlink:href="#linearGradient4410"
       gradientUnits="userSpaceOnUse"
       gradientTransform="matrix(0.8,0,0,1,-44.8,-94)" />
    <linearGradient
       x1="62"
       y1="25"
       x2="62"
       y2="32"
       id="linearGradient4449"
       xlink:href="#linearGradient3971"
       gradientUnits="userSpaceOnUse" />
    <linearGradient
       x1="52.76535"
       y1="81.843025"
       x2="52.76535"
       y2="73.811729"
       id="linearGradient4547"
       xlink:href="#linearGradient4541"
       gradientUnits="userSpaceOnUse" />
    <linearGradient
       x1="53.611629"
       y1="75.0793"
       x2="53.611629"
       y2="80.929214"
       id="linearGradient4555"
       xlink:href="#linearGradient4549"
       gradientUnits="userSpaceOnUse" />
    <linearGradient
       x1="46"
       y1="70"
       x2="46"
       y2="64"
       id="linearGradient4617"
       xlink:href="#linearGradient4549"
       gradientUnits="userSpaceOnUse" />
    <linearGradient
       x1="46"
       y1="70"
       x2="46"
       y2="64"
       id="linearGradient4621"
       xlink:href="#linearGradient4549"
       gradientUnits="userSpaceOnUse"
       gradientTransform="translate(6,0)" />
    <linearGradient
       x1="40"
       y1="80"
       x2="40"
       y2="74"
       id="linearGradient4637"
       xlink:href="#linearGradient4631"
       gradientUnits="userSpaceOnUse" />
    <linearGradient
       x1="34"
       y1="80"
       x2="34"
       y2="74"
       id="linearGradient4639"
       xlink:href="#linearGradient4631"
       gradientUnits="userSpaceOnUse" />
    <linearGradient
       x1="64.321426"
       y1="55.310268"
       x2="64.321426"
       y2="84.889679"
       id="linearGradient3857-6"
       xlink:href="#linearGradient3737-1"
       gradientUnits="userSpaceOnUse"
       gradientTransform="translate(-2,0)" />
    <linearGradient
       id="linearGradient3737-1">
      <stop
         id="stop3739-5"
         style="stop-color:#ffffff;stop-opacity:1"
         offset="0" />
      <stop
         id="stop3741-9"
         style="stop-color:#ffffff;stop-opacity:0"
         offset="1" />
    </linearGradient>
    <linearGradient
       x1="51.42857"
       y1="72.785713"
       x2="90.714287"
       y2="72.785713"
       id="linearGradient3844"
       xlink:href="#linearGradient3157"
       gradientUnits="userSpaceOnUse" />
    <linearGradient
       id="linearGradient3157">
      <stop
         id="stop3159"
         style="stop-color:#1066de;stop-opacity:1"
         offset="0" />
      <stop
         id="stop3161"
         style="stop-color:#67a3f5;stop-opacity:1"
         offset="1" />
    </linearGradient>
    <clipPath
       id="clipPath3871">
      <path
         d="M 0,95.999997 0,156 l 96.000001,0 0,-60.000003 -96.000001,0 z M 68,116 c 9.941125,0 18,8.05888 18,18 0,9.94112 -8.058875,18 -18,18 -9.941125,0 -18,-8.05888 -18,-18 0,-9.94112 8.058875,-18 18,-18 z"
         inkscape:connector-curvature="0"
         id="path3873"
         style="fill:#ffffff;fill-opacity:1;stroke:none" />
    </clipPath>
    <linearGradient
       inkscape:collect="always"
       xlink:href="#linearGradient3971"
       id="linearGradient3351"
       gradientUnits="userSpaceOnUse"
       x1="62"
       y1="25"
       x2="62"
       y2="32" />
    <linearGradient
       inkscape:collect="always"
       xlink:href="#linearGradient4541"
       id="linearGradient3353"
       gradientUnits="userSpaceOnUse"
       x1="52.76535"
       y1="81.843025"
       x2="52.76535"
       y2="73.811729" />
    <linearGradient
       inkscape:collect="always"
       xlink:href="#linearGradient4541"
       id="linearGradient3491"
       gradientUnits="userSpaceOnUse"
       x1="52.76535"
       y1="81.843025"
       x2="52.76535"
       y2="73.811729" />
    <linearGradient
       inkscape:collect="always"
       xlink:href="#linearGradient3971"
       id="linearGradient3502"
       gradientUnits="userSpaceOnUse"
       x1="62"
       y1="25"
       x2="62"
       y2="32" />
  </defs>
  <metadata
     id="metadata2413">
    <rdf:RDF>
      <cc:Work
         rdf:about="">
        <dc:format>image/svg+xml</dc:format>
        <dc:type
           rdf:resource="http://purl.org/dc/dcmitype/StillImage" />
        <dc:title></dc:title>
      </cc:Work>
    </rdf:RDF>
  </metadata>
  <g
     id="layer2"
     style="display:none">
    <rect
       width="86"
       height="85"
       rx="6"
       ry="6"
       x="5"
       y="7"
       id="rect3745"
       style="opacity:0.9;fill:url(#ButtonShadow);fill-opacity:1;fill-rule:nonzero;stroke:none;filter:url(#filter3174)" />
  </g>
  <g
     id="layer5" />
  <g
     id="g3329"
     transform="translate(145.47816,11.820237)">
    <g
       id="layer1"
       transform="translate(-145.47816,-11.820237)">
      <rect
         style="fill:#cccccc;fill-opacity:1;fill-rule:nonzero;stroke:none"
         id="rect2419"
         y="6"
         x="6"
         ry="0"
         rx="6"
         height="84"
         width="84" />
    </g>
    <rect
       rx="6"
       y="-3.9927962"
       x="-138.56912"
       height="42.112267"
       width="41.454262"
       id="rect3080"
       style="opacity:0.9;fill:#ffffff;fill-opacity:1;fill-rule:evenodd;stroke:none" />
    <path
       style="fill:#1a1a1a;fill-opacity:1;stroke:none;display:inline;enable-background:new"
       id="path3798-9"
       inkscape:connector-curvature="0"
       d="m -118.64515,-0.91366955 c -4.99239,0 -9.03617,4.00350095 -9.03617,8.93005695 0.0121,0.564585 0.0156,1.195057 0.0712,1.897319 -0.79008,0.4453186 -0.89448,2.1907796 -0.18974,3.9464246 0.27176,0.67698 0.6453,1.224137 1.01983,1.669642 0.0125,0.0149 0.0349,0.0361 0.0474,0.0506 0.0894,0.463857 0.15277,0.817547 0.26089,1.340774 0.33494,1.062418 1.72209,3.063317 2.9409,4.781246 0.12155,1.325261 0.12597,2.641344 -0.11858,4.148805 -3.50817,3.077345 -12.48858,4.454045 -12.47514,7.639875 l -0.16602,1.214276 35.29088,0 -0.16602,-1.214285 c -0.0143,-2.726645 -9.0337,-4.454046 -12.49885,-7.639875 -0.1403,-1.220349 -0.16629,-2.415576 -0.0949,-3.617558 1.10813,-1.8073 2.57009,-4.136338 2.9409,-5.312494 0.13628,-0.60911 0.20248,-1.020128 0.30832,-1.543153 0.32723,-0.422888 0.63597,-0.916098 0.87753,-1.517857 0.66926,-1.667237 0.58724,-3.278617 -0.0949,-3.819937 0.0477,-0.7244336 0.0987,-1.4046596 0.11859,-2.0238076 0,-4.926546 -4.04378,-8.93004695 -9.03618,-8.93004695 z" />
    <g
       style="fill:#ffffff;fill-opacity:1"
       id="g23"
       transform="matrix(1.7176984,0,0,1.4333175,-114.47264,-18.556203)">
      <text
         transform="scale(0.87572745,1.1419078)"
         id="text25"
         xml:space="preserve"
         x="13.651586"
         y="20.141726"
         font-size="12px"
         font-weight="bold"
         line-height="125%"
         style="font-size:10.50872612px;font-weight:bold;line-height:125%;letter-spacing:0px;word-spacing:0px;fill:#1a1a1a;fill-opacity:1;font-family:TheMixPlain"
         sodipodi:linespacing="125%"><tspan
           style="font-size:3.82390046px;fill:#1a1a1a;fill-opacity:1"
           id="tspan27"
           x="13.651586"
           y="20.141726">kaddress</tspan></text>
      <path
         id="path29"
         d="m 12,26.5 h 4"
         inkscape:connector-curvature="0"
         style="fill:#ffffff;fill-opacity:1;stroke:#f9f9f9;stroke-width:1.13801479px;stroke-opacity:1" />
      <path
         id="path31"
         d="m 17,26.5 h 1"
         inkscape:connector-curvature="0"
         style="fill:#ffffff;fill-opacity:1;stroke:#f9f9f9;stroke-width:1.13801479px;stroke-opacity:1" />
      <path
         id="path33"
         d="m 19,26.5 h 5"
         inkscape:connector-curvature="0"
         style="fill:#ffffff;fill-opacity:1;stroke:#f9f9f9;stroke-width:1.13801479px;stroke-opacity:1" />
      <path
         id="path35"
         d="m 25,26.5 h 2"
         inkscape:connector-curvature="0"
         style="fill:#ffffff;fill-opacity:1;stroke:#f9f9f9;stroke-width:1.13801479px;stroke-opacity:1" />
      <path
         id="path37"
         d="m 28.34629,26.5 h 1.086573"
         inkscape:connector-curvature="0"
         style="fill:#ffffff;fill-opacity:1;stroke:#f9f9f9;stroke-width:1.13801467px;stroke-opacity:1" />
      <path
         id="path39"
         d="M 30.581768,26.5 H 32.72721"
         inkscape:connector-curvature="0"
         style="fill:#ffffff;fill-opacity:1;stroke:#f9f9f9;stroke-width:1.13801479px;stroke-opacity:1" />
      <path
         id="path41"
         d="m 12,28.5 h 1"
         inkscape:connector-curvature="0"
         style="fill:#ffffff;fill-opacity:1;stroke:#f9f9f9;stroke-width:1.13801479px;stroke-opacity:1" />
      <path
         id="path43"
         d="m 14,28.5 h 4"
         inkscape:connector-curvature="0"
         style="fill:#ffffff;fill-opacity:1;stroke:#f9f9f9;stroke-width:1.13801479px;stroke-opacity:1" />
      <path
         id="path45"
         d="m 19,28.5 h 3"
         inkscape:connector-curvature="0"
         style="fill:#ffffff;fill-opacity:1;stroke:#f9f9f9;stroke-width:1.13801479px;stroke-opacity:1" />
      <path
         id="path47"
         d="m 23,28.5 h 2"
         inkscape:connector-curvature="0"
         style="fill:#ffffff;fill-opacity:1;stroke:#f9f9f9;stroke-width:1.13801479px;stroke-opacity:1" />
      <path
         id="path49"
         d="m 26.173145,28.5 h 3.259718"
         inkscape:connector-curvature="0"
         style="fill:#ffffff;fill-opacity:1;stroke:#f9f9f9;stroke-width:1.13801467px;stroke-opacity:1" />
      <path
         id="path51"
         d="M 30.581768,28.5 H 32.72721"
         inkscape:connector-curvature="0"
         style="fill:#ffffff;fill-opacity:1;stroke:#f9f9f9;stroke-width:1.13801479px;stroke-opacity:1" />
      <path
         id="path53"
         d="m 12,30.5 h 3"
         inkscape:connector-curvature="0"
         style="fill:#ffffff;fill-opacity:1;stroke:#f9f9f9;stroke-width:1.13801479px;stroke-opacity:1" />
      <path
         id="path55"
         d="m 16,30.5 h 2"
         inkscape:connector-curvature="0"
         style="fill:#ffffff;fill-opacity:1;stroke:#f9f9f9;stroke-width:1.13801479px;stroke-opacity:1" />
      <path
         id="path57"
         d="m 19,30.5 h 7"
         inkscape:connector-curvature="0"
         style="fill:#ffffff;fill-opacity:1;stroke:#f9f9f9;stroke-width:1.13801479px;stroke-opacity:1" />
      <path
         id="path59"
         d="M 27.259717,30.5 H 28.34629"
         inkscape:connector-curvature="0"
         style="fill:#ffffff;fill-opacity:1;stroke:#f9f9f9;stroke-width:1.13801467px;stroke-opacity:1" />
      <path
         id="path61"
         d="M 29.509047,30.5 H 32.72721"
         inkscape:connector-curvature="0"
         style="fill:#ffffff;fill-opacity:1;stroke:#f9f9f9;stroke-width:1.13801479px;stroke-opacity:1" />
      <path
         id="path63"
         d="m 12,32.5 h 4"
         inkscape:connector-curvature="0"
         style="fill:#ffffff;fill-opacity:1;stroke:#f9f9f9;stroke-width:1.13801479px;stroke-opacity:1" />
      <path
         id="path65"
         d="m 17,32.5 h 2"
         inkscape:connector-curvature="0"
         style="fill:#ffffff;fill-opacity:1;stroke:#f9f9f9;stroke-width:1.13801479px;stroke-opacity:1" />
      <path
         id="path67"
         d="m 20,32.5 h 1"
         inkscape:connector-curvature="0"
         style="fill:#ffffff;fill-opacity:1;stroke:#f9f9f9;stroke-width:1.13801479px;stroke-opacity:1" />
      <path
         id="path69"
         d="m 22,32.5 h 1"
         inkscape:connector-curvature="0"
         style="fill:#ffffff;fill-opacity:1;stroke:#f9f9f9;stroke-width:1.13801479px;stroke-opacity:1" />
      <path
         id="path71"
         d="M 23.999999,32.5 H 28.34629"
         inkscape:connector-curvature="0"
         style="fill:#ffffff;fill-opacity:1;stroke:#f9f9f9;stroke-width:1.13801467px;stroke-opacity:1" />
      <path
         id="path73"
         d="M 29.509047,32.5 H 32.72721"
         inkscape:connector-curvature="0"
         style="fill:#ffffff;fill-opacity:1;stroke:#f9f9f9;stroke-width:1.13801479px;stroke-opacity:1" />
      <path
         id="path75"
         d="m 12,34.5 h 3"
         inkscape:connector-curvature="0"
         style="fill:#ffffff;fill-opacity:1;stroke:#f9f9f9;stroke-width:1.13801479px;stroke-opacity:1" />
      <path
         id="path77"
         d="m 16,34.5 h 1"
         inkscape:connector-curvature="0"
         style="fill:#ffffff;fill-opacity:1;stroke:#f9f9f9;stroke-width:1.13801479px;stroke-opacity:1" />
      <path
         id="path79"
         d="m 18,34.5 h 2"
         inkscape:connector-curvature="0"
         style="fill:#ffffff;fill-opacity:1;stroke:#f9f9f9;stroke-width:1.13801479px;stroke-opacity:1" />
      <path
         id="path81"
         d="m 21,34.5 h 6"
         inkscape:connector-curvature="0"
         style="fill:#ffffff;fill-opacity:1;stroke:#f9f9f9;stroke-width:1.13801479px;stroke-opacity:1" />
      <path
         id="path83"
         d="m 28.34629,34.5 h 2.173146"
         inkscape:connector-curvature="0"
         style="fill:#ffffff;fill-opacity:1;stroke:#f9f9f9;stroke-width:1.13801467px;stroke-opacity:1" />
      <path
         id="path85"
         d="M 31.654489,34.5 H 32.72721"
         inkscape:connector-curvature="0"
         style="fill:#ffffff;fill-opacity:1;stroke:#f9f9f9;stroke-width:1.13801479px;stroke-opacity:1" />
      <path
         id="path87"
         d="m 12,36.5 h 2"
         inkscape:connector-curvature="0"
         style="fill:#ffffff;fill-opacity:1;stroke:#f9f9f9;stroke-width:1.13801479px;stroke-opacity:1" />
      <path
         id="path89"
         d="m 15,36.5 h 6"
         inkscape:connector-curvature="0"
         style="fill:#ffffff;fill-opacity:1;stroke:#f9f9f9;stroke-width:1.13801479px;stroke-opacity:1" />
      <path
         id="path91"
         d="m 21.999999,36.5 h 5.363606 5.363605"
         inkscape:connector-curvature="0"
         style="fill:#ffffff;fill-opacity:1;stroke:#f9f9f9;stroke-width:1.13801479px;stroke-opacity:1" />
      <path
         id="path93"
         d="m 12,38.5 h 3"
         inkscape:connector-curvature="0"
         style="fill:#ffffff;fill-opacity:1;stroke:#f9f9f9;stroke-width:1.13801479px;stroke-opacity:1" />
      <path
         id="path95"
         d="m 16,38.5 h 4"
         inkscape:connector-curvature="0"
         style="fill:#ffffff;fill-opacity:1;stroke:#f9f9f9;stroke-width:1.13801479px;stroke-opacity:1" />
    </g>
    <rect
       rx="0"
       y="43.738491"
       x="-137.45192"
       height="3.6190231"
       width="79.94751"
       id="rect3929"
       style="opacity:0.9;fill:#1a1a1a;fill-opacity:1;fill-rule:evenodd;stroke:none" />
    <g
       transform="translate(-146.46516,-2.9371806)"
       id="g3944">
      <rect
         style="opacity:0.9;fill:#1a1a1a;fill-opacity:1;fill-rule:evenodd;stroke:none"
         id="rect3931"
         width="2.6320167"
         height="19.411123"
         x="10.528067"
         y="61.125778" />
      <rect
         y="61.125778"
         x="16.528067"
         height="19.411123"
         width="2.6320167"
         id="rect3933"
         style="opacity:0.9;fill:#1a1a1a;fill-opacity:1;fill-rule:evenodd;stroke:none" />
      <rect
         style="opacity:0.9;fill:#1a1a1a;fill-opacity:1;fill-rule:evenodd;stroke:none"
         id="rect3938"
         width="2.6320167"
         height="19.411123"
         x="22.528067"
         y="61.125778" />
      <rect
         y="61.125778"
         x="28.528067"
         height="19.411123"
         width="2.6320167"
         id="rect3940"
         style="opacity:0.9;fill:#1a1a1a;fill-opacity:1;fill-rule:evenodd;stroke:none" />
      <rect
         style="opacity:0.9;fill:#1a1a1a;fill-opacity:1;fill-rule:evenodd;stroke:none"
         id="rect3942"
         width="2.6320167"
         height="19.411123"
         x="34.528069"
         y="61.125778" />
    </g>
  </g>
  <path
     id="path3112"
     d="m 75.91859,61.63056 c -4.495657,0 -8.130434,3.541642 -8.114906,7.940839 l 0.02812,7.968971 c 0,0 17.365864,0.06678 17.28367,-0.02813 l 0,-7.940841 c 0,-4.399225 -3.619248,-7.94084 -8.114904,-7.94084 z m 0.540994,4.235114 c 2.397681,0 4.327949,1.888862 4.327949,4.235115 0,0.007 -0.002,0.01361 -0.0021,0.02068 l 0.0021,0 0,7.390773 -8.627769,0.02813 -0.02812,-7.4189 0.0021,0 c -8.5e-5,-0.007 -0.0021,-0.0136 -0.0021,-0.02068 0,-2.346254 1.930268,-4.235115 4.327949,-4.235115 z"
     style="fill:#1a1a1a;fill-opacity:1;fill-rule:evenodd;stroke:none"
     inkscape:connector-curvature="0"
     sodipodi:nodetypes="ssccsssssccccccss" />
  <path
     sodipodi:nodetypes="ssccsssssccccccss"
     inkscape:connector-curvature="0"
     style="fill:#1a1a1a;fill-opacity:1;fill-rule:evenodd;stroke:none"
     d="m 75.927166,61.756815 c -4.424408,0 -8.001578,3.485511 -7.986296,7.814988 l 0.02768,7.842672 c 0,0 17.090638,0.06572 17.009748,-0.02768 l 0,-7.814991 c 0,-4.329503 -3.561889,-7.814988 -7.986296,-7.814988 z m 0.53242,4.167994 c 2.359681,0 4.259357,1.858926 4.259357,4.167993 0,0.007 -0.002,0.01339 -0.0021,0.02035 l 0.0021,0.04523 0,7.27364 -8.491032,-0.01755 -0.02768,-7.301321 0.0021,0 c 0.006,0.448271 -0.0021,-0.01338 -0.0021,-0.02035 0,-2.309068 1.899675,-4.167994 4.259359,-4.167995 z"
     id="path3766" />
  <path
     id="path3013"
     d="m 64.730287,77.159426 0,15.732276 23.333284,0 0,-15.732276 c -8.352438,-0.161254 -20.384646,0 -23.333284,0 z"
     style="fill:#1a1a1a;fill-opacity:1;fill-rule:evenodd;stroke:none"
     inkscape:connector-curvature="0"
     sodipodi:nodetypes="ccccc" />
</svg>
