<?xml version="1.0" encoding="UTF-8" standalone="no"?>
<!-- Created with Inkscape (http://www.inkscape.org/) -->

<svg
   xmlns:dc="http://purl.org/dc/elements/1.1/"
   xmlns:cc="http://creativecommons.org/ns#"
   xmlns:rdf="http://www.w3.org/1999/02/22-rdf-syntax-ns#"
   xmlns:svg="http://www.w3.org/2000/svg"
   xmlns="http://www.w3.org/2000/svg"
   xmlns:xlink="http://www.w3.org/1999/xlink"
   xmlns:sodipodi="http://sodipodi.sourceforge.net/DTD/sodipodi-0.dtd"
   xmlns:inkscape="http://www.inkscape.org/namespaces/inkscape"
   version="1.0"
   width="96"
   height="96"
   id="svg2408"
   inkscape:version="0.48.4 r9939"
   sodipodi:docname="video-display.svg">
  <sodipodi:namedview
     pagecolor="#ffffff"
     bordercolor="#666666"
     borderopacity="1"
     objecttolerance="10"
     gridtolerance="10"
     guidetolerance="10"
     inkscape:pageopacity="0"
     inkscape:pageshadow="2"
     inkscape:window-width="1680"
     inkscape:window-height="991"
     id="namedview127"
     showgrid="false"
     inkscape:zoom="5.8289145"
     inkscape:cx="113.55856"
     inkscape:cy="38.87604"
     inkscape:window-x="0"
     inkscape:window-y="-3"
     inkscape:window-maximized="1"
     inkscape:current-layer="svg2408" />
  <defs
     id="defs2410">
    <linearGradient
       x1="45.447727"
       y1="92.539597"
       x2="45.447727"
       y2="7.0165396"
       id="ButtonShadow"
       gradientUnits="userSpaceOnUse"
       gradientTransform="scale(1.0058652,0.994169)">
      <stop
         id="stop3750"
         style="stop-color:#000000;stop-opacity:1"
         offset="0" />
      <stop
         id="stop3752"
         style="stop-color:#000000;stop-opacity:0.58823532"
         offset="1" />
    </linearGradient>
    <linearGradient
       id="linearGradient3737">
      <stop
         id="stop3739"
         style="stop-color:#ffffff;stop-opacity:1"
         offset="0" />
      <stop
         id="stop3741"
         style="stop-color:#ffffff;stop-opacity:0"
         offset="1" />
    </linearGradient>
    <linearGradient
       id="linearGradient3700">
      <stop
         id="stop3702"
         style="stop-color:#2276c5;stop-opacity:1"
         offset="0" />
      <stop
         id="stop3704"
         style="stop-color:#68baf4;stop-opacity:1"
         offset="1" />
    </linearGradient>
    <filter
       color-interpolation-filters="sRGB"
       id="filter3174">
      <feGaussianBlur
         id="feGaussianBlur3176"
         stdDeviation="1.71" />
    </filter>
    <filter
       x="-0.192"
       y="-0.192"
       width="1.3839999"
       height="1.3839999"
       color-interpolation-filters="sRGB"
       id="filter3794">
      <feGaussianBlur
         id="feGaussianBlur3796"
         stdDeviation="5.28" />
    </filter>
    <linearGradient
       x1="48"
       y1="20.220806"
       x2="48"
       y2="138.66119"
       id="linearGradient3613"
       xlink:href="#linearGradient3737"
       gradientUnits="userSpaceOnUse" />
    <radialGradient
       cx="48"
       cy="72.097908"
       r="42"
       fx="48"
       fy="72.097908"
       id="radialGradient3619"
       xlink:href="#linearGradient3737"
       gradientUnits="userSpaceOnUse"
       gradientTransform="matrix(1.1573129,0,0,0.99590774,-7.55102,0.1971319)" />
    <clipPath
       id="clipPath3613">
      <rect
         width="84"
         height="84"
         rx="6"
         ry="6"
         x="6"
         y="6"
         id="rect3615"
         style="fill:#ffffff;fill-opacity:1;fill-rule:nonzero;stroke:none" />
    </clipPath>
    <linearGradient
       x1="48"
       y1="90"
       x2="48"
       y2="5.9877172"
       id="linearGradient3617"
       xlink:href="#linearGradient3700"
       gradientUnits="userSpaceOnUse"
       gradientTransform="translate(-100,0)" />
    <linearGradient
       x1="45.447727"
       y1="92.539597"
       x2="45.447727"
       y2="7.0165396"
       id="ButtonShadow-0"
       gradientUnits="userSpaceOnUse"
       gradientTransform="matrix(1.0058652,0,0,0.994169,100,0)">
      <stop
         id="stop3750-8"
         style="stop-color:#000000;stop-opacity:1"
         offset="0" />
      <stop
         id="stop3752-5"
         style="stop-color:#000000;stop-opacity:0.58823532"
         offset="1" />
    </linearGradient>
    <linearGradient
       x1="32.251034"
       y1="6.1317081"
       x2="32.251034"
       y2="90.238609"
       id="linearGradient3780"
       xlink:href="#ButtonShadow-0"
       gradientUnits="userSpaceOnUse"
       gradientTransform="matrix(1.0238095,0,0,1.0119048,-1.1428571,-98.071429)" />
    <linearGradient
       x1="32.251034"
       y1="6.1317081"
       x2="32.251034"
       y2="90.238609"
       id="linearGradient3772"
       xlink:href="#ButtonShadow-0"
       gradientUnits="userSpaceOnUse"
       gradientTransform="matrix(1.0238095,0,0,1.0119048,-1.1428571,-98.071429)" />
    <linearGradient
       x1="32.251034"
       y1="6.1317081"
       x2="32.251034"
       y2="90.238609"
       id="linearGradient3725"
       xlink:href="#ButtonShadow-0"
       gradientUnits="userSpaceOnUse"
       gradientTransform="matrix(1.0238095,0,0,1.0119048,98.857143,-98.071429)" />
    <linearGradient
       x1="32.251034"
       y1="6.1317081"
       x2="32.251034"
       y2="90.238609"
       id="linearGradient3721"
       xlink:href="#ButtonShadow-0"
       gradientUnits="userSpaceOnUse"
       gradientTransform="translate(100,-97)" />
    <linearGradient
       x1="32.251034"
       y1="6.1317081"
       x2="32.251034"
       y2="90.238609"
       id="linearGradient3026"
       xlink:href="#ButtonShadow-0"
       gradientUnits="userSpaceOnUse"
       gradientTransform="matrix(1.0238095,0,0,1.0119048,-1.1428571,-98.071429)" />
    <linearGradient
       x1="43.30954"
       y1="91.125015"
       x2="43.30954"
       y2="82.822479"
       id="linearGradient3831"
       xlink:href="#linearGradient3734"
       gradientUnits="userSpaceOnUse" />
    <linearGradient
       id="linearGradient3734">
      <stop
         id="stop3736"
         style="stop-color:#bfbfbf;stop-opacity:1"
         offset="0" />
      <stop
         id="stop3738"
         style="stop-color:#9a9a9a;stop-opacity:1"
         offset="1" />
    </linearGradient>
    <linearGradient
       x1="48"
       y1="86.071426"
       x2="48"
       y2="72.303963"
       id="linearGradient3769"
       xlink:href="#linearGradient3771"
       gradientUnits="userSpaceOnUse"
       gradientTransform="translate(0,1)" />
    <linearGradient
       id="linearGradient3771">
      <stop
         id="stop3773"
         style="stop-color:#ababab;stop-opacity:0"
         offset="0" />
      <stop
         id="stop3779"
         style="stop-color:#e6e6e6;stop-opacity:1"
         offset="0.15620089" />
      <stop
         id="stop3777"
         style="stop-color:#aaaaaa;stop-opacity:1"
         offset="1" />
    </linearGradient>
    <linearGradient
       x1="37"
       y1="72.089287"
       x2="37"
       y2="84"
       id="linearGradient3797"
       xlink:href="#linearGradient3803"
       gradientUnits="userSpaceOnUse"
       gradientTransform="translate(0,1)" />
    <linearGradient
       id="linearGradient3803">
      <stop
         id="stop3805"
         style="stop-color:#000000;stop-opacity:1"
         offset="0" />
      <stop
         id="stop3807"
         style="stop-color:#000000;stop-opacity:0"
         offset="1" />
    </linearGradient>
    <linearGradient
       x1="60"
       y1="70"
       x2="60"
       y2="84.028442"
       id="linearGradient3809"
       xlink:href="#linearGradient3803"
       gradientUnits="userSpaceOnUse"
       gradientTransform="translate(0,1)" />
    <linearGradient
       x1="44.69643"
       y1="66.995277"
       x2="44.69643"
       y2="78.306824"
       id="linearGradient3813"
       xlink:href="#linearGradient3803"
       gradientUnits="userSpaceOnUse"
       gradientTransform="matrix(1,0,0,0.4210526,-1.3176576e-7,44.789471)" />
    <linearGradient
       id="linearGradient3737-5">
      <stop
         id="stop3739-6"
         style="stop-color:#ffffff;stop-opacity:1"
         offset="0" />
      <stop
         id="stop3741-9"
         style="stop-color:#ffffff;stop-opacity:0"
         offset="1" />
    </linearGradient>
    <radialGradient
       cx="48"
       cy="4.3132138"
       r="35.9375"
       fx="48"
       fy="4.3132138"
       id="radialGradient3465"
       xlink:href="#linearGradient3175-4"
       gradientUnits="userSpaceOnUse"
       gradientTransform="matrix(-2.7021356e-8,1.6165908,-1.3333334,-2.2260868e-8,53.750954,-65.764352)" />
    <linearGradient
       id="linearGradient3700-8">
      <stop
         id="stop3702-5"
         style="stop-color:#000000;stop-opacity:1"
         offset="0" />
      <stop
         id="stop3704-6"
         style="stop-color:#1f1f1f;stop-opacity:1"
         offset="1" />
    </linearGradient>
    <linearGradient
       x1="48"
       y1="72"
       x2="48"
       y2="5.9877172"
       id="linearGradient3205"
       xlink:href="#linearGradient3700-8"
       gradientUnits="userSpaceOnUse" />
    <linearGradient
       id="linearGradient3175-4">
      <stop
         id="stop3177-5"
         style="stop-color:#55a6eb;stop-opacity:1"
         offset="0" />
      <stop
         id="stop3179-1"
         style="stop-color:#1754c4;stop-opacity:1"
         offset="1" />
    </linearGradient>
    <linearGradient
       id="linearGradient3737-1">
      <stop
         id="stop3739-4"
         style="stop-color:#ffffff;stop-opacity:1"
         offset="0" />
      <stop
         id="stop3741-91"
         style="stop-color:#ffffff;stop-opacity:0"
         offset="1" />
    </linearGradient>
    <linearGradient
       x1="142.47113"
       y1="16.125"
       x2="142.47113"
       y2="58"
       id="linearGradient4126"
       xlink:href="#linearGradient3687"
       gradientUnits="userSpaceOnUse"
       gradientTransform="translate(-78,-2)" />
    <linearGradient
       id="linearGradient3687">
      <stop
         id="stop3689"
         style="stop-color:#ffffff;stop-opacity:1"
         offset="0" />
      <stop
         id="stop3691"
         style="stop-color:#ffffff;stop-opacity:0"
         offset="1" />
    </linearGradient>
    <linearGradient
       x1="65.15625"
       y1="16.125"
       x2="65.15625"
       y2="66"
       id="linearGradient3129"
       xlink:href="#linearGradient3737-1"
       gradientUnits="userSpaceOnUse"
       gradientTransform="translate(2,-2)" />
    <linearGradient
       x1="36.357143"
       y1="6"
       x2="36.357143"
       y2="63.893143"
       id="linearGradient3922"
       xlink:href="#linearGradient3737-5"
       gradientUnits="userSpaceOnUse" />
    <linearGradient
       x1="68.517296"
       y1="9.0625"
       x2="68.517296"
       y2="90"
       id="linearGradient3926"
       xlink:href="#linearGradient3737-1"
       gradientUnits="userSpaceOnUse"
       gradientTransform="translate(2,-2)" />
    <linearGradient
       x1="49"
       y1="91"
       x2="49"
       y2="7"
       id="linearGradient3963"
       xlink:href="#ButtonShadow"
       gradientUnits="userSpaceOnUse" />
    <linearGradient
       x1="48"
       y1="92"
       x2="48"
       y2="7"
       id="linearGradient3971"
       xlink:href="#ButtonShadow"
       gradientUnits="userSpaceOnUse" />
    <linearGradient
       x1="48"
       y1="92"
       x2="48"
       y2="7"
       id="linearGradient3979"
       xlink:href="#ButtonShadow"
       gradientUnits="userSpaceOnUse" />
    <linearGradient
       x1="48"
       y1="92"
       x2="48"
       y2="7"
       id="linearGradient3993"
       xlink:href="#ButtonShadow"
       gradientUnits="userSpaceOnUse" />
    <linearGradient
       x1="48"
       y1="92"
       x2="48"
       y2="7"
       id="linearGradient4001"
       xlink:href="#ButtonShadow"
       gradientUnits="userSpaceOnUse" />
    <linearGradient
       inkscape:collect="always"
       xlink:href="#ButtonShadow"
       id="linearGradient3121"
       gradientUnits="userSpaceOnUse"
       x1="48"
       y1="92"
       x2="48"
       y2="7" />
    <linearGradient
       inkscape:collect="always"
       xlink:href="#ButtonShadow"
       id="linearGradient3123"
       gradientUnits="userSpaceOnUse"
       x1="48"
       y1="92"
       x2="48"
       y2="7" />
    <linearGradient
       inkscape:collect="always"
       xlink:href="#ButtonShadow"
       id="linearGradient3125"
       gradientUnits="userSpaceOnUse"
       x1="48"
       y1="92"
       x2="48"
       y2="7" />
    <linearGradient
       inkscape:collect="always"
       xlink:href="#ButtonShadow"
       id="linearGradient3127"
       gradientUnits="userSpaceOnUse"
       x1="48"
       y1="92"
       x2="48"
       y2="7" />
    <linearGradient
       inkscape:collect="always"
       xlink:href="#ButtonShadow-0"
       id="linearGradient3130"
       gradientUnits="userSpaceOnUse"
       gradientTransform="matrix(1.0238095,0,0,1.0119048,-1.1428571,-98.071429)"
       x1="32.251034"
       y1="6.1317081"
       x2="32.251034"
       y2="90.238609" />
    <linearGradient
       inkscape:collect="always"
       xlink:href="#ButtonShadow-0"
       id="linearGradient3132"
       gradientUnits="userSpaceOnUse"
       gradientTransform="matrix(1.0238095,0,0,1.0119048,-1.1428571,-98.071429)"
       x1="32.251034"
       y1="6.1317081"
       x2="32.251034"
       y2="90.238609" />
    <linearGradient
       inkscape:collect="always"
       xlink:href="#ButtonShadow-0"
       id="linearGradient3134"
       gradientUnits="userSpaceOnUse"
       gradientTransform="matrix(1.0238095,0,0,1.0119048,-1.1428571,-98.071429)"
       x1="32.251034"
       y1="6.1317081"
       x2="32.251034"
       y2="90.238609" />
    <linearGradient
       inkscape:collect="always"
       xlink:href="#ButtonShadow-0"
       id="linearGradient3136"
       gradientUnits="userSpaceOnUse"
       gradientTransform="matrix(1.0238095,0,0,1.0119048,98.857143,-98.071429)"
       x1="32.251034"
       y1="6.1317081"
       x2="32.251034"
       y2="90.238609" />
    <linearGradient
       inkscape:collect="always"
       xlink:href="#ButtonShadow-0"
       id="linearGradient3138"
       gradientUnits="userSpaceOnUse"
       gradientTransform="translate(100,-97)"
       x1="32.251034"
       y1="6.1317081"
       x2="32.251034"
       y2="90.238609" />
    <linearGradient
       inkscape:collect="always"
       xlink:href="#ButtonShadow"
       id="linearGradient3140"
       gradientUnits="userSpaceOnUse"
       x1="49"
       y1="91"
       x2="49"
       y2="7" />
    <linearGradient
       inkscape:collect="always"
       xlink:href="#ButtonShadow"
       id="linearGradient3143"
       gradientUnits="userSpaceOnUse"
       x1="49"
       y1="91"
       x2="49"
       y2="7" />
    <linearGradient
       inkscape:collect="always"
       xlink:href="#ButtonShadow-0"
       id="linearGradient3146"
       gradientUnits="userSpaceOnUse"
       gradientTransform="translate(100,-97)"
       x1="32.251034"
       y1="6.1317081"
       x2="32.251034"
       y2="90.238609" />
    <linearGradient
       inkscape:collect="always"
       xlink:href="#ButtonShadow-0"
       id="linearGradient3149"
       gradientUnits="userSpaceOnUse"
       gradientTransform="matrix(1.0238095,0,0,1.0119048,98.857143,-98.071429)"
       x1="32.251034"
       y1="6.1317081"
       x2="32.251034"
       y2="90.238609" />
    <linearGradient
       inkscape:collect="always"
       xlink:href="#ButtonShadow-0"
       id="linearGradient3152"
       gradientUnits="userSpaceOnUse"
       gradientTransform="matrix(1.0238095,0,0,-1.0119048,98.857143,98.071429)"
       x1="32.251034"
       y1="6.1317081"
       x2="32.251034"
       y2="90.238609" />
    <linearGradient
       inkscape:collect="always"
       xlink:href="#ButtonShadow-0"
       id="linearGradient3155"
       gradientUnits="userSpaceOnUse"
       gradientTransform="matrix(1.0238095,0,0,-1.0119048,98.857143,98.071429)"
       x1="32.251034"
       y1="6.1317081"
       x2="32.251034"
       y2="90.238609" />
    <linearGradient
       inkscape:collect="always"
       xlink:href="#ButtonShadow-0"
       id="linearGradient3158"
       gradientUnits="userSpaceOnUse"
       gradientTransform="matrix(1.0238095,0,0,-1.0119048,98.857143,98.071429)"
       x1="32.251034"
       y1="6.1317081"
       x2="32.251034"
       y2="90.238609" />
    <linearGradient
       inkscape:collect="always"
       xlink:href="#ButtonShadow"
       id="linearGradient3161"
       gradientUnits="userSpaceOnUse"
       x1="48"
       y1="92"
       x2="48"
       y2="7" />
    <linearGradient
       inkscape:collect="always"
       xlink:href="#ButtonShadow"
       id="linearGradient3164"
       gradientUnits="userSpaceOnUse"
       x1="48"
       y1="92"
       x2="48"
       y2="7" />
    <linearGradient
       inkscape:collect="always"
       xlink:href="#ButtonShadow"
       id="linearGradient3167"
       gradientUnits="userSpaceOnUse"
       x1="48"
       y1="92"
       x2="48"
       y2="7" />
    <linearGradient
       inkscape:collect="always"
       xlink:href="#ButtonShadow"
       id="linearGradient3170"
       gradientUnits="userSpaceOnUse"
       x1="48"
       y1="92"
       x2="48"
       y2="7" />
    <linearGradient
       inkscape:collect="always"
       xlink:href="#linearGradient3700-8"
       id="linearGradient3172"
       gradientUnits="userSpaceOnUse"
       x1="48"
       y1="72"
       x2="48"
       y2="5.9877172" />
    <linearGradient
       inkscape:collect="always"
       xlink:href="#linearGradient3700"
       id="linearGradient3174"
       gradientUnits="userSpaceOnUse"
       gradientTransform="translate(-100,0)"
       x1="48"
       y1="90"
       x2="48"
       y2="5.9877172" />
    <linearGradient
       inkscape:collect="always"
       xlink:href="#linearGradient3700"
       id="linearGradient3186"
       gradientUnits="userSpaceOnUse"
       gradientTransform="translate(-100,0)"
       x1="48"
       y1="90"
       x2="48"
       y2="5.9877172" />
    <linearGradient
       inkscape:collect="always"
       xlink:href="#linearGradient3700-8"
       id="linearGradient3195"
       gradientUnits="userSpaceOnUse"
       x1="48"
       y1="72"
       x2="48"
       y2="5.9877172" />
  </defs>
  <metadata
     id="metadata2413">
    <rdf:RDF>
      <cc:Work
         rdf:about="">
        <dc:format>image/svg+xml</dc:format>
        <dc:type
           rdf:resource="http://purl.org/dc/dcmitype/StillImage" />
        <dc:title />
      </cc:Work>
    </rdf:RDF>
  </metadata>
  <g
     id="layer2"
     style="display:none">
    <rect
       width="86"
       height="85"
       rx="6"
       ry="6"
       x="5"
       y="7"
       id="rect3745"
       style="opacity:0.9;fill:url(#ButtonShadow);fill-opacity:1;fill-rule:nonzero;stroke:none;filter:url(#filter3174)" />
  </g>
  <g
     id="layer4"
     style="display:inline">
    <path
       d="m 27.65625,83.999995 c -0.215725,0.02037 -0.438368,0.07797 -0.59375,0.15625 l -5.75,2.906246 c -0.31111,0.158167 -0.389467,0.388148 -0.21875,0.593749 l 0,1.843748 c 0.170718,0.3084 0.558565,0.50182 1,0.499999 l 51.8125,0 c 0.441438,0.0018 0.829283,-0.191597 1,-0.499999 l 0,-1.843748 c 0.17072,-0.205604 0.09236,-0.435579 -0.21875,-0.593749 l -5.75,-2.906246 c -0.209745,-0.100724 -0.491922,-0.160026 -0.78125,-0.15625 l -40.3125,0 c -0.06979,-0.0051 -0.117707,-0.0051 -0.1875,0 z"
       inkscape:connector-curvature="0"
       id="path3742"
       style="fill:#414141;fill-opacity:1;fill-rule:nonzero;stroke:none" />
    <path
       d="m 26.78125,82.875 a 1.1365352,1.1365352 0 0 0 -0.59375,0.3125 l -6,6 A 1.1365352,1.1365352 0 0 0 21,91.125 l 54,0 a 1.1365352,1.1365352 0 0 0 0.8125,-1.9375 l -6,-6 A 1.1365352,1.1365352 0 0 0 69,82.875 l -42,0 a 1.1365352,1.1365352 0 0 0 -0.21875,0 z"
       transform="matrix(0.9593944,0,0,0.4845377,1.9490699,43.846486)"
       id="path3732"
       style="fill:#acacac;fill-opacity:1;fill-rule:nonzero;stroke:none" />
    <path
       d="m 21.59375,86.937491 -0.28125,0.125 c -0.31111,0.158167 -0.389467,0.388148 -0.21875,0.593749 0.170717,0.205598 0.558565,0.344964 1,0.34375 l 51.8125,0 c 0.441437,0.0012 0.829283,-0.138148 1,-0.34375 0.17072,-0.205604 0.09236,-0.435579 -0.21875,-0.593749 l -0.28125,-0.125 c -0.155282,0.04133 -0.316934,0.063 -0.5,0.0625 l -51.8125,0 c -0.183066,5.03e-4 -0.344719,-0.02117 -0.5,-0.0625 z"
       inkscape:connector-curvature="0"
       id="path3758"
       style="opacity:0.6;fill:#ffffff;fill-opacity:1;fill-rule:nonzero;stroke:none" />
    <rect
       width="24"
       height="19"
       x="36"
       y="68"
       id="rect3727"
       style="fill:#acacac;fill-opacity:1;fill-rule:nonzero;stroke:none" />
    <rect
       width="1"
       height="14"
       x="36"
       y="71"
       id="rect3781"
       style="opacity:0.5;fill:url(#linearGradient3797);fill-opacity:1;fill-rule:nonzero;stroke:none" />
    <rect
       width="1"
       height="14"
       x="59"
       y="71"
       id="rect3799"
       style="opacity:0.5;fill:url(#linearGradient3809);fill-opacity:1;fill-rule:nonzero;stroke:none" />
    <rect
       width="24"
       height="8"
       x="36"
       y="73"
       id="rect3811"
       style="opacity:0.80000000000000004;fill:#acacac;fill-opacity:1;fill-rule:nonzero;stroke:none" />
  </g>
  <rect
     style="fill:url(#linearGradient3195);fill-opacity:1;fill-rule:nonzero;stroke:none"
     id="rect2419-9"
     y="6"
     x="6"
     ry="0"
     rx="6"
     height="68"
     width="84" />
  <rect
     style="fill:#b3b3b3;fill-opacity:1;fill-rule:evenodd;stroke:none"
     id="rect3102"
     width="84.049553"
     height="2.0410504"
     x="6.0002284"
     y="71.997475"
     rx="5.965559"
     ry="0" />
  <path
     inkscape:connector-curvature="0"
     style="fill:#3176d4;fill-opacity:1;fill-rule:nonzero;stroke:none"
     id="path3215"
     d="m 84,66 0,-54.000001 -71.999998,0 0,54.000001 L 84,66 z" />
  <path
     style="fill:#b3b3b3;fill-opacity:1;fill-rule:nonzero;stroke:none"
     id="rect3291"
     inkscape:connector-curvature="0"
     d="m 6.0745868,64.419717 -0.1282527,6.513108 c -0.06143,3.11965 0.8938377,2.465688 4.3647349,2.465688 l 75.181895,0 c 5.364329,0 4.563041,0.935318 4.537288,-3.705715 l -0.03032,-5.463323 c 0,3.11937 -1.036075,8.230599 -4.506973,8.230599 l -75.181895,0 c -3.4708972,0 -4.2364822,-4.920987 -4.2364822,-8.040357 z"
     sodipodi:nodetypes="csssscssc" />
  <path
     style="opacity:0.07999998;fill:#000000;fill-opacity:1;fill-rule:nonzero;stroke:none"
     id="path4001"
     inkscape:connector-curvature="0"
     d="m 12,12 0,54 72,0 0,-54 -72,0 z m 2,2 68,0 0,50 -68,0 0,-50 z" />
  <path
     inkscape:connector-curvature="0"
     style="opacity:0.15;fill:none;stroke:#000000;stroke-width:1.00100005;stroke-linecap:square;stroke-linejoin:miter;stroke-miterlimit:4;stroke-opacity:1;stroke-dasharray:none;stroke-dashoffset:0"
     id="path3374"
     d="m 12.500507,12.500506 0,52.998987 70.998988,0 0,-52.998987 -70.998988,0 z" />
  <rect
     style="opacity:0.4;fill:#ffffff;fill-opacity:1;fill-rule:nonzero;stroke:none"
     id="rect3724"
     y="66.064079"
     x="12"
     height="1"
     width="72" />
  <path
     style="opacity:0.3;fill:#000000;fill-opacity:1;fill-rule:nonzero;stroke:none"
     id="path3992"
     inkscape:connector-curvature="0"
     d="m 12,12 0,1 72,0 0,-1 -72,0 z" />
  <g
     id="g3895"
     transform="matrix(1,0,0,1.5,0,-37)">
    <g
       id="g3302"
       transform="translate(0,2)">
      <rect
         style="opacity:0.4;fill:#000000;fill-opacity:1;fill-rule:nonzero;stroke:none"
         id="rect3300"
         y="70"
         x="61"
         height="2"
         width="1" />
    </g>
    <g
       id="g3307"
       transform="translate(6,2)" />
    <g
       id="g3315"
       transform="translate(12,2)">
      <rect
         style="opacity:0.4;fill:#000000;fill-opacity:1;fill-rule:nonzero;stroke:none"
         id="rect3321"
         y="70"
         x="61"
         height="2"
         width="1" />
    </g>
    <g
       id="g3323"
       transform="translate(18,2)" />
  </g>
  <g
     id="layer5"
     style="display:none">
    <rect
       width="66"
       height="66"
       rx="12"
       ry="12"
       x="15"
       y="15"
       clip-path="url(#clipPath3613)"
       id="rect3171"
       style="opacity:0.1;fill:url(#linearGradient3613);fill-opacity:1;fill-rule:nonzero;stroke:#ffffff;stroke-width:0.5;stroke-linecap:round;stroke-linejoin:miter;stroke-miterlimit:4;stroke-opacity:1;stroke-dasharray:none;stroke-dashoffset:0;filter:url(#filter3794)" />
  </g>
  <path
     sodipodi:type="arc"
     style="fill:#333333;fill-opacity:1;fill-rule:evenodd;stroke:none"
     id="path3106"
     sodipodi:cx="77.00412"
     sodipodi:cy="69.484627"
     sodipodi:rx="1.5706691"
     sodipodi:ry="1.5500023"
     d="m 78.574789,69.484627 a 1.5706691,1.5500023 0 1 1 -3.141338,0 1.5706691,1.5500023 0 1 1 3.141338,0 z"
     transform="matrix(0.94736842,0,0,0.97333333,4.1355152,1.81159)" />
  <path
     sodipodi:type="arc"
     style="opacity:1;fill:#00ff00;fill-opacity:1;fill-rule:evenodd;stroke:none"
     id="path3104"
     sodipodi:cx="77.067589"
     sodipodi:cy="69.412292"
     sodipodi:rx="1.102716"
     sodipodi:ry="1.102716"
     d="m 78.170305,69.412292 a 1.102716,1.102716 0 1 1 -2.205432,0 1.102716,1.102716 0 1 1 2.205432,0 z" />
</svg>
