<?xml version="1.0" encoding="UTF-8" standalone="no"?>
<!-- Created using Karbon, part of Calligra: http://www.calligra.org/karbon -->

<svg
   xmlns:dc="http://purl.org/dc/elements/1.1/"
   xmlns:cc="http://creativecommons.org/ns#"
   xmlns:rdf="http://www.w3.org/1999/02/22-rdf-syntax-ns#"
   xmlns:svg="http://www.w3.org/2000/svg"
   xmlns="http://www.w3.org/2000/svg"
   xmlns:xlink="http://www.w3.org/1999/xlink"
   xmlns:sodipodi="http://sodipodi.sourceforge.net/DTD/sodipodi-0.dtd"
   xmlns:inkscape="http://www.inkscape.org/namespaces/inkscape"
   width="38.4pt"
   height="38.4pt"
   id="svg2"
   version="1.1"
   inkscape:version="0.48.4 r9939"
   sodipodi:docname="account_offline_overlay.svg">
  <metadata
     id="metadata11">
    <rdf:RDF>
      <cc:Work
         rdf:about="">
        <dc:format>image/svg+xml</dc:format>
        <dc:type
           rdf:resource="http://purl.org/dc/dcmitype/StillImage" />
        <dc:title />
      </cc:Work>
    </rdf:RDF>
  </metadata>
  <sodipodi:namedview
     pagecolor="#ffffff"
     bordercolor="#666666"
     borderopacity="1"
     objecttolerance="10"
     gridtolerance="10"
     guidetolerance="10"
     inkscape:pageopacity="0"
     inkscape:pageshadow="2"
     inkscape:window-width="1366"
     inkscape:window-height="709"
     id="namedview9"
     showgrid="false"
     inkscape:showpageshadow="false"
     borderlayer="true"
     inkscape:zoom="5.656854"
     inkscape:cx="-45.878992"
     inkscape:cy="10.899859"
     inkscape:window-x="0"
     inkscape:window-y="-3"
     inkscape:window-maximized="1"
     inkscape:current-layer="svg2"
     showguides="false">
    <sodipodi:guide
       position="9.5367432e-07,48.000001"
       orientation="47.999999,0"
       id="guide4069" />
    <sodipodi:guide
       position="9.5367432e-07,1.9073486e-06"
       orientation="0,47.999999"
       id="guide4071" />
    <sodipodi:guide
       position="48,1.9073486e-06"
       orientation="-47.999999,0"
       id="guide4073" />
    <sodipodi:guide
       position="48,48.000001"
       orientation="0,-47.999999"
       id="guide4075" />
    <sodipodi:guide
       position="9.000001,39.000001"
       orientation="29.999999,0"
       id="guide4077" />
    <sodipodi:guide
       position="9.000001,9.0000019"
       orientation="0,29.999999"
       id="guide4079" />
    <sodipodi:guide
       position="39,9.0000019"
       orientation="-29.999999,0"
       id="guide4081" />
    <sodipodi:guide
       position="39,39.000001"
       orientation="0,-29.999999"
       id="guide4083" />
    <sodipodi:guide
       position="17.5,30.500002"
       orientation="13,0"
       id="guide4115" />
    <sodipodi:guide
       position="17.5,17.500002"
       orientation="0,13"
       id="guide4117" />
    <sodipodi:guide
       position="30.5,17.500002"
       orientation="-13,0"
       id="guide4119" />
    <sodipodi:guide
       position="30.5,30.500002"
       orientation="0,-13"
       id="guide4121" />
    <sodipodi:guide
       position="43,26.000002"
       orientation="0,-4"
       id="guide4134" />
    <sodipodi:guide
       position="39,26.000002"
       orientation="4,0"
       id="guide4136" />
    <sodipodi:guide
       position="39,22.000002"
       orientation="0,4"
       id="guide4138" />
    <sodipodi:guide
       position="43,22.000002"
       orientation="-4,0"
       id="guide4140" />
    <sodipodi:guide
       position="22,13.000002"
       orientation="4,0"
       id="guide4142" />
    <sodipodi:guide
       position="22,9.0000019"
       orientation="0,4"
       id="guide4144" />
    <sodipodi:guide
       position="26,9.0000019"
       orientation="-4,0"
       id="guide4146" />
    <sodipodi:guide
       position="26,13.000002"
       orientation="0,-4"
       id="guide4148" />
    <sodipodi:guide
       position="9,26.000002"
       orientation="0,-4"
       id="guide4150" />
    <sodipodi:guide
       position="5,26.000002"
       orientation="4,0"
       id="guide4152" />
    <sodipodi:guide
       position="5,22.000002"
       orientation="0,4"
       id="guide4154" />
    <sodipodi:guide
       position="9,22.000002"
       orientation="-4,0"
       id="guide4156" />
    <sodipodi:guide
       position="22,39.000002"
       orientation="4,0"
       id="guide4158" />
    <sodipodi:guide
       position="22,35.000002"
       orientation="0,4"
       id="guide4160" />
    <sodipodi:guide
       position="26,35.000002"
       orientation="-4,0"
       id="guide4162" />
    <sodipodi:guide
       position="26,39.000002"
       orientation="0,-4"
       id="guide4164" />
  </sodipodi:namedview>
  <defs
     id="defs4">
    <linearGradient
       inkscape:collect="always"
       id="linearGradient3816">
      <stop
         style="stop-color:#808080;stop-opacity:1;"
         offset="0"
         id="stop3818" />
      <stop
         style="stop-color:#808080;stop-opacity:0;"
         offset="1"
         id="stop3820" />
    </linearGradient>
    <linearGradient
       inkscape:collect="always"
       id="linearGradient3798">
      <stop
         style="stop-color:#808080;stop-opacity:1;"
         offset="0"
         id="stop3800" />
      <stop
         style="stop-color:#808080;stop-opacity:0;"
         offset="1"
         id="stop3802" />
    </linearGradient>
    <linearGradient
       inkscape:collect="always"
       xlink:href="#linearGradient3798"
       id="linearGradient3804"
       x1="27.217819"
       y1="21.21567"
       x2="15.343549"
       y2="10.609068"
       gradientUnits="userSpaceOnUse" />
    <linearGradient
       inkscape:collect="always"
       xlink:href="#linearGradient3816"
       id="linearGradient3822"
       x1="27.07391"
       y1="21.610163"
       x2="40.855309"
       y2="33.454201"
       gradientUnits="userSpaceOnUse" />
  </defs>
  <rect
     style="fill:#1a1a1a;fill-opacity:1;fill-rule:evenodd;stroke:none"
     id="rect3010"
     width="10.960155"
     height="3.8890874"
     x="4.0639591"
     y="25.530775"
     ry="1.7677671"
     rx="1.7677671"
     transform="matrix(0.73981011,-0.67281573,0.67281573,0.73981011,0,0)" />
  <rect
     transform="matrix(0.73981011,-0.67281573,0.67281573,0.73981011,0,0)"
     rx="1.7677671"
     ry="1.7677671"
     y="38.980091"
     x="5.4526429"
     height="3.8890874"
     width="10.960155"
     id="rect3012"
     style="fill:#1a1a1a;fill-opacity:1;fill-rule:evenodd;stroke:none" />
  <path
     style="fill:#1a1a1a;fill-opacity:1;fill-rule:evenodd;stroke:none"
     d="m 16.182123,10.187598 c -0.870128,0.607334 -1.720433,1.268919 -2.482794,2.045814 -6.6260697,6.7524 -6.1751749,17.326671 1.002353,23.630123 7.177527,6.30345 18.383263,5.966268 25.009334,-0.786131 0.76236,-0.776895 1.396639,-1.628198 1.97226,-2.494175 L 16.182123,10.187598 z"
     id="path3013"
     inkscape:connector-curvature="0" />
</svg>
