<?xml version="1.0" encoding="UTF-8" standalone="no"?>
<!-- Created using Karbon, part of Calligra: http://www.calligra.org/karbon -->

<svg
   xmlns:dc="http://purl.org/dc/elements/1.1/"
   xmlns:cc="http://creativecommons.org/ns#"
   xmlns:rdf="http://www.w3.org/1999/02/22-rdf-syntax-ns#"
   xmlns:svg="http://www.w3.org/2000/svg"
   xmlns="http://www.w3.org/2000/svg"
   xmlns:sodipodi="http://sodipodi.sourceforge.net/DTD/sodipodi-0.dtd"
   xmlns:inkscape="http://www.inkscape.org/namespaces/inkscape"
   width="38.4pt"
   height="38.4pt"
   id="svg2"
   version="1.1"
   inkscape:version="0.48.4 r9939"
   sodipodi:docname="distribute-vertical-center.svg">
  <metadata
     id="metadata14">
    <rdf:RDF>
      <cc:Work
         rdf:about="">
        <dc:format>image/svg+xml</dc:format>
        <dc:type
           rdf:resource="http://purl.org/dc/dcmitype/StillImage" />
        <dc:title></dc:title>
      </cc:Work>
    </rdf:RDF>
  </metadata>
  <sodipodi:namedview
     pagecolor="#ffffff"
     bordercolor="#666666"
     borderopacity="1"
     objecttolerance="10"
     gridtolerance="10"
     guidetolerance="10"
     inkscape:pageopacity="0"
     inkscape:pageshadow="2"
     inkscape:window-width="1680"
     inkscape:window-height="991"
     id="namedview12"
     showgrid="false"
     inkscape:zoom="9.8333329"
     inkscape:cx="9.2555143"
     inkscape:cy="28.37942"
     inkscape:window-x="0"
     inkscape:window-y="-3"
     inkscape:window-maximized="1"
     inkscape:current-layer="svg2">
    <sodipodi:guide
       position="9.5367432e-07,48.000001"
       orientation="47.999999,0"
       id="guide4072" />
    <sodipodi:guide
       position="9.5367432e-07,1.9073486e-06"
       orientation="0,47.999999"
       id="guide4074" />
    <sodipodi:guide
       position="48,1.9073486e-06"
       orientation="-47.999999,0"
       id="guide4076" />
    <sodipodi:guide
       position="48,48.000001"
       orientation="0,-47.999999"
       id="guide4078" />
    <sodipodi:guide
       position="9.000001,39.000001"
       orientation="29.999999,0"
       id="guide4080" />
    <sodipodi:guide
       position="9.000001,9.0000019"
       orientation="0,29.999999"
       id="guide4082" />
    <sodipodi:guide
       position="39,9.0000019"
       orientation="-29.999999,0"
       id="guide4084" />
    <sodipodi:guide
       position="39,39.000001"
       orientation="0,-29.999999"
       id="guide4086" />
    <sodipodi:guide
       position="13.000001,35.000001"
       orientation="21.999999,0"
       id="guide4095" />
    <sodipodi:guide
       position="35,13.000002"
       orientation="-21.999999,0"
       id="guide4099" />
  </sodipodi:namedview>
  <defs
     id="defs4" />
  <rect
     style="fill:#1a1a1a;fill-rule:evenodd"
     y="-39"
     x="-26"
     height="30"
     width="4"
     transform="scale(-1,-1)"
     id="rect3288" />
  <rect
     style="fill:#1a1a1a;fill-rule:evenodd"
     y="9.0169439"
     x="12.6949"
     height="4"
     width="9.0000162"
     id="rect3320"
     transform="matrix(-1.8521e-8,1,1,1.8521e-8,0,0)" />
  <rect
     style="fill:#1a1a1a;fill-rule:evenodd"
     y="8.999999"
     x="29.967793"
     height="9"
     width="9"
     id="rect33201"
     transform="matrix(-1.8521e-8,1,1,1.8521e-8,0,0)" />
  <rect
     style="fill:#d40000;fill-opacity:1;fill-rule:evenodd"
     y="30.101698"
     x="19.5"
     height="9"
     width="9"
     id="rect33201-1"
     transform="matrix(-1.8521e-8,1,1,1.8521e-8,0,0)" />
  <path
     sodipodi:type="star"
     style="fill:#1a1a1a;stroke:#1a1a1a;stroke-width:1;stroke-linecap:round;stroke-linejoin:bevel;stroke-miterlimit:4;stroke-opacity:1;stroke-dasharray:none;stroke-dashoffset:2.25"
     id="path3014"
     sodipodi:sides="3"
     sodipodi:cx="10.169492"
     sodipodi:cy="32.745762"
     sodipodi:r1="2.4348445"
     sodipodi:r2="1.2174222"
     sodipodi:arg1="2.0718095"
     sodipodi:arg2="3.119007"
     inkscape:flatsided="false"
     inkscape:rounded="0"
     inkscape:randomized="0"
     d="m 9.0000008,34.881355 -0.047621,-2.108099 -0.047621,-2.1081 1.8494778,1.012809 1.849478,1.012809 -1.801857,1.095291 z"
     inkscape:transform-center-x="0.002691311"
     inkscape:transform-center-y="-0.60637876"
     transform="matrix(0.0247937,-0.99969259,0.99969259,0.0247937,3.4443699,46.750712)" />
  <path
     transform="matrix(0.0247937,0.99969259,0.99969259,-0.0247937,3.5460648,1.4052711)"
     inkscape:transform-center-y="0.60637854"
     inkscape:transform-center-x="0.002691311"
     d="m 9.0000008,34.881355 -0.047621,-2.108099 -0.047621,-2.1081 1.8494778,1.012809 1.849478,1.012809 -1.801857,1.095291 z"
     inkscape:randomized="0"
     inkscape:rounded="0"
     inkscape:flatsided="false"
     sodipodi:arg2="3.119007"
     sodipodi:arg1="2.0718095"
     sodipodi:r2="1.2174222"
     sodipodi:r1="2.4348445"
     sodipodi:cy="32.745762"
     sodipodi:cx="10.169492"
     sodipodi:sides="3"
     id="path3040"
     style="fill:#1a1a1a;stroke:#1a1a1a;stroke-width:1;stroke-linecap:round;stroke-linejoin:bevel;stroke-miterlimit:4;stroke-opacity:1;stroke-dasharray:none;stroke-dashoffset:2.25"
     sodipodi:type="star" />
</svg>
