<?xml version="1.0" encoding="UTF-8" standalone="no"?>
<!-- Created with Inkscape (http://www.inkscape.org/) -->

<svg
   xmlns:dc="http://purl.org/dc/elements/1.1/"
   xmlns:cc="http://creativecommons.org/ns#"
   xmlns:rdf="http://www.w3.org/1999/02/22-rdf-syntax-ns#"
   xmlns:svg="http://www.w3.org/2000/svg"
   xmlns="http://www.w3.org/2000/svg"
   xmlns:sodipodi="http://sodipodi.sourceforge.net/DTD/sodipodi-0.dtd"
   xmlns:inkscape="http://www.inkscape.org/namespaces/inkscape"
   width="48"
   height="48"
   id="svg3979"
   version="1.1"
   inkscape:version="0.48.4 r9939"
   sodipodi:docname="document-edit-decrypt-verify.svg">
  <defs
     id="defs3981" />
  <sodipodi:namedview
     id="base"
     pagecolor="#ffffff"
     bordercolor="#666666"
     borderopacity="1.0"
     inkscape:pageopacity="0.0"
     inkscape:pageshadow="2"
     inkscape:zoom="8.4214023"
     inkscape:cx="33.382538"
     inkscape:cy="22.148407"
     inkscape:document-units="px"
     inkscape:current-layer="layer1"
     showgrid="false"
     fit-margin-top="0"
     fit-margin-left="0"
     fit-margin-right="0"
     fit-margin-bottom="0"
     inkscape:window-width="1680"
     inkscape:window-height="991"
     inkscape:window-x="0"
     inkscape:window-y="-3"
     inkscape:window-maximized="1">
    <sodipodi:guide
       position="1.4433594e-05,39"
       orientation="30.000031,0"
       id="guide3282" />
    <sodipodi:guide
       position="1.4433594e-05,8.9999696"
       orientation="0,30"
       id="guide3284" />
    <sodipodi:guide
       position="30.000014,8.9999696"
       orientation="-30.000031,0"
       id="guide3286" />
    <sodipodi:guide
       position="30.000014,39"
       orientation="0,-30"
       id="guide3288" />
    <sodipodi:guide
       position="30.000014,26.99997"
       orientation="18,0"
       id="guide3292" />
    <sodipodi:guide
       position="30.000014,8.9999696"
       orientation="0,18"
       id="guide3294" />
    <sodipodi:guide
       position="48.000014,8.9999696"
       orientation="-18,0"
       id="guide3296" />
    <sodipodi:guide
       position="48.000014,26.99997"
       orientation="0,-18"
       id="guide3298" />
    <sodipodi:guide
       position="19.000014,28"
       orientation="0,11"
       id="guide3310" />
    <sodipodi:guide
       position="30.000014,28"
       orientation="-11,0"
       id="guide3312" />
    <sodipodi:guide
       position="30.000014,39"
       orientation="0,-11"
       id="guide3314" />
    <sodipodi:guide
       position="17.000014,28"
       orientation="-10.999969,0"
       id="guide3347" />
    <sodipodi:guide
       position="17.000014,38.99997"
       orientation="0,9"
       id="guide3349" />
    <sodipodi:guide
       position="26.000014,38.99997"
       orientation="10.999969,0"
       id="guide3351" />
    <sodipodi:guide
       position="26.000014,28"
       orientation="0,-9"
       id="guide3353" />
  </sodipodi:namedview>
  <metadata
     id="metadata3984">
    <rdf:RDF>
      <cc:Work
         rdf:about="">
        <dc:format>image/svg+xml</dc:format>
        <dc:type
           rdf:resource="http://purl.org/dc/dcmitype/StillImage" />
        <dc:title></dc:title>
      </cc:Work>
    </rdf:RDF>
  </metadata>
  <g
     inkscape:label="Capa 1"
     inkscape:groupmode="layer"
     id="layer1"
     transform="translate(-601.71428,-491.21933)">
    <path
       style="fill:#1a1a1a;fill-opacity:1;fill-rule:evenodd;stroke:none"
       d="m 0,9 0,30 26,0 0,-15 -4,0 0,11 -18,0 0,-22 9,0 0,-4 z"
       transform="translate(601.71428,491.21933)"
       id="rect3278"
       inkscape:connector-curvature="0"
       sodipodi:nodetypes="ccccccccccc" />
    <g
       id="g3009">
      <rect
         transform="matrix(0.7099887,-0.70421307,0.49404724,0.86943506,0,0)"
         y="843.46375"
         x="303.17422"
         height="11.936563"
         width="2.9927928"
         id="rect3019"
         style="fill:#1a1a1a;fill-opacity:1;fill-rule:evenodd;stroke:none" />
      <rect
         style="fill:#1a1a1a;fill-opacity:1;fill-rule:evenodd;stroke:none"
         id="rect3789"
         width="4.6546397"
         height="18.425516"
         x="-844.13531"
         y="-82.791191"
         transform="matrix(-0.72003466,-0.6939381,-0.50482339,0.86322265,0,0)" />
      <rect
         transform="translate(601.71428,491.21933)"
         y="36.125492"
         x="36.098499"
         height="2.8745372"
         width="2.4936464"
         id="rect3791"
         style="fill:#1a1a1a;fill-opacity:1;fill-rule:evenodd;stroke:none" />
    </g>
  </g>
</svg>
