<?xml version="1.0" encoding="UTF-8" standalone="no"?>
<!-- Created with Inkscape (http://www.inkscape.org/) -->

<svg
   xmlns:dc="http://purl.org/dc/elements/1.1/"
   xmlns:cc="http://creativecommons.org/ns#"
   xmlns:rdf="http://www.w3.org/1999/02/22-rdf-syntax-ns#"
   xmlns:svg="http://www.w3.org/2000/svg"
   xmlns="http://www.w3.org/2000/svg"
   version="1.1"
   width="48"
   height="48"
   id="svg3381">
  <defs
     id="defs3383" />
  <metadata
     id="metadata3386">
    <rdf:RDF>
      <cc:Work
         rdf:about="">
        <dc:format>image/svg+xml</dc:format>
        <dc:type
           rdf:resource="http://purl.org/dc/dcmitype/StillImage" />
        <dc:title></dc:title>
      </cc:Work>
    </rdf:RDF>
  </metadata>
  <g
     transform="translate(-364.57143,-499.79075)"
     id="layer1">
    <path
       d="m 7.91773,21.566963 30.69643,0 -4.872449,-4.628827"
       transform="translate(364.57143,499.79075)"
       id="path3814"
       style="fill:none;stroke:#3d85b3;stroke-width:1.79999995;stroke-linecap:butt;stroke-linejoin:miter;stroke-miterlimit:4;stroke-opacity:1;stroke-dasharray:none" />
    <path
       d="m 372.48916,523.06307 30.69643,0 -4.87245,4.62882"
       id="path3818"
       style="fill:none;stroke:#3d85b3;stroke-width:1.79999995;stroke-linecap:butt;stroke-linejoin:miter;stroke-miterlimit:4;stroke-opacity:1;stroke-dasharray:none" />
    <g
       transform="matrix(0.11683079,0.43386438,-0.5326246,0.12197515,633.34138,288.22915)"
       id="g3952"
       style="fill:#1a1a1a">
      <path
         d="m 358.39312,518.09707 4.92784,-3.92133 45.92635,41.22072 -5.06764,3.12061 z"
         id="path3159"
         style="fill:#1a1a1a;fill-rule:evenodd;stroke:none" />
      <path
         d="m 402.53287,554.54098 c -8.08469,-7.03569 5.37425,-2.66437 12.91496,10.4939 -14.32734,-8.32437 -11.20057,-9.00196 -12.91496,-10.4939 z"
         id="path3163"
         style="fill:#1a1a1a;fill-rule:evenodd;stroke:none" />
    </g>
    <path
       d="m 8.5267861,7.0714267 c 0,0 -2.6798471,32.4017873 7.7959189,30.3309963"
       transform="translate(364.57143,499.79075)"
       id="path3044"
       style="fill:none;stroke:#ff0000;stroke-width:1.79999995;stroke-linecap:butt;stroke-linejoin:miter;stroke-miterlimit:4;stroke-opacity:1;stroke-dasharray:none" />
  </g>
</svg>
