<?xml version="1.0" encoding="UTF-8" standalone="no"?>
<!-- Created with Inkscape (http://www.inkscape.org/) -->

<svg
   xmlns:dc="http://purl.org/dc/elements/1.1/"
   xmlns:cc="http://creativecommons.org/ns#"
   xmlns:rdf="http://www.w3.org/1999/02/22-rdf-syntax-ns#"
   xmlns:svg="http://www.w3.org/2000/svg"
   xmlns="http://www.w3.org/2000/svg"
   version="1.1"
   width="48"
   height="48"
   id="svg3381">
  <defs
     id="defs3383" />
  <metadata
     id="metadata3386">
    <rdf:RDF>
      <cc:Work
         rdf:about="">
        <dc:format>image/svg+xml</dc:format>
        <dc:type
           rdf:resource="http://purl.org/dc/dcmitype/StillImage" />
        <dc:title></dc:title>
      </cc:Work>
    </rdf:RDF>
  </metadata>
  <g
     transform="translate(-364.57143,-499.79075)"
     id="layer1">
    <path
       d="m 386.43718,507.7939 0,15.91214 17.0797,0 0,-2.1216 0,-13.79054 -17.0797,0 z m 2.27729,2.12159 12.52511,0 0,8.4865 -4.55458,-6.36484 -3.1891,4.45456 -0.79617,-1.27212 -3.98526,6.36485 0,-11.66895 z"
       id="rect3261"
       style="fill:#1a1a1a;fill-opacity:1;stroke:none" />
    <text
       x="371.53851"
       y="538.87915"
       id="text2998"
       xml:space="preserve"
       style="font-size:23.08693123px;font-style:normal;font-variant:normal;font-weight:500;font-stretch:normal;line-height:125%;letter-spacing:0px;word-spacing:0px;fill:#000000;fill-opacity:1;stroke:none;font-family:KanjiStrokeOrders;-inkscape-font-specification:KanjiStrokeOrders Medium"><tspan
         x="371.53851"
         y="538.87915"
         id="tspan3000"
         style="font-style:normal;font-variant:normal;font-weight:normal;font-stretch:normal;font-family:Droid Sans;-inkscape-font-specification:Droid Sans">Fx</tspan></text>
  </g>
</svg>
