<?xml version="1.0" encoding="UTF-8" standalone="no"?>
<!-- Created using Karbon, part of Calligra: http://www.calligra.org/karbon -->

<svg
   xmlns:dc="http://purl.org/dc/elements/1.1/"
   xmlns:cc="http://creativecommons.org/ns#"
   xmlns:rdf="http://www.w3.org/1999/02/22-rdf-syntax-ns#"
   xmlns:svg="http://www.w3.org/2000/svg"
   xmlns="http://www.w3.org/2000/svg"
   xmlns:sodipodi="http://sodipodi.sourceforge.net/DTD/sodipodi-0.dtd"
   xmlns:inkscape="http://www.inkscape.org/namespaces/inkscape"
   width="38.4pt"
   height="38.4pt"
   id="svg2"
   version="1.1"
   inkscape:version="0.48.4 r9939"
   sodipodi:docname="file-zoom-out.svg">
  <metadata
     id="metadata17">
    <rdf:RDF>
      <cc:Work
         rdf:about="">
        <dc:format>image/svg+xml</dc:format>
        <dc:type
           rdf:resource="http://purl.org/dc/dcmitype/StillImage" />
        <dc:title />
      </cc:Work>
    </rdf:RDF>
  </metadata>
  <sodipodi:namedview
     pagecolor="#ffffff"
     bordercolor="#666666"
     borderopacity="1"
     objecttolerance="10"
     gridtolerance="10"
     guidetolerance="10"
     inkscape:pageopacity="0"
     inkscape:pageshadow="2"
     inkscape:window-width="1680"
     inkscape:window-height="991"
     id="namedview15"
     showgrid="false"
     inkscape:zoom="43.620569"
     inkscape:cx="25.662779"
     inkscape:cy="30.613791"
     inkscape:window-x="0"
     inkscape:window-y="-3"
     inkscape:window-maximized="1"
     inkscape:current-layer="svg2">
    <sodipodi:guide
       position="9.5367432e-07,48.000001"
       orientation="47.999999,0"
       id="guide4083" />
    <sodipodi:guide
       position="9.5367432e-07,1.9073486e-06"
       orientation="0,47.999999"
       id="guide4085" />
    <sodipodi:guide
       position="48,1.9073486e-06"
       orientation="-47.999999,0"
       id="guide4087" />
    <sodipodi:guide
       position="48,48.000001"
       orientation="0,-47.999999"
       id="guide4089" />
    <sodipodi:guide
       position="9.000001,39.000001"
       orientation="29.999999,0"
       id="guide4091" />
    <sodipodi:guide
       position="9.000001,9.0000019"
       orientation="0,29.999999"
       id="guide4093" />
    <sodipodi:guide
       position="39,9.0000019"
       orientation="-29.999999,0"
       id="guide4095" />
    <sodipodi:guide
       position="39,39.000001"
       orientation="0,-29.999999"
       id="guide4097" />
    <sodipodi:guide
       position="11,39.000002"
       orientation="30,0"
       id="guide4134" />
    <sodipodi:guide
       position="37,9.0000019"
       orientation="-15,0"
       id="guide4138" />
    <sodipodi:guide
       position="37,24.000002"
       orientation="0,-4"
       id="guide4140" />
    <sodipodi:guide
       position="33,24.000002"
       orientation="11,0"
       id="guide4142" />
    <sodipodi:guide
       position="33,13.000002"
       orientation="0,-18"
       id="guide4144" />
    <sodipodi:guide
       position="15,13.000002"
       orientation="-22,0"
       id="guide4146" />
    <sodipodi:guide
       position="15,35.000002"
       orientation="0,9"
       id="guide4148" />
    <sodipodi:guide
       position="24,35.000002"
       orientation="-4,0"
       id="guide4150" />
    <sodipodi:guide
       position="11,39.000002"
       orientation="0,0"
       id="guide4154" />
    <sodipodi:guide
       position="24,39.000002"
       orientation="13,0"
       id="guide4160" />
    <sodipodi:guide
       position="24,26.000002"
       orientation="0,13"
       id="guide4162" />
    <sodipodi:guide
       position="37,26.000002"
       orientation="-13,0"
       id="guide4164" />
    <sodipodi:guide
       position="37,39.000002"
       orientation="0,-13"
       id="guide4166" />
  </sodipodi:namedview>
  <defs
     id="defs4" />
  <path
     style="fill:#1a1a1a;fill-opacity:1;fill-rule:evenodd;stroke:none"
     d="m 11,9 0,30 26,0 0,-15 -4,0 0,11 -18,0 0,-22 9,0 0,-4 -13,0 z"
     id="path4130" />
  <rect
     style="fill:#1a1a1a;fill-opacity:1;stroke:none"
     id="rect4170"
     width="4"
     height="10.753353"
     x="13.5"
     y="-37"
     transform="matrix(0,1,-1,0,0,0)" />
</svg>
