<?xml version="1.0" encoding="UTF-8" standalone="no"?>
<!-- Created with Inkscape (http://www.inkscape.org/) -->

<svg
   xmlns:dc="http://purl.org/dc/elements/1.1/"
   xmlns:cc="http://creativecommons.org/ns#"
   xmlns:rdf="http://www.w3.org/1999/02/22-rdf-syntax-ns#"
   xmlns:svg="http://www.w3.org/2000/svg"
   xmlns="http://www.w3.org/2000/svg"
   xmlns:sodipodi="http://sodipodi.sourceforge.net/DTD/sodipodi-0.dtd"
   xmlns:inkscape="http://www.inkscape.org/namespaces/inkscape"
   width="48"
   height="48.000019"
   id="svg3109"
   version="1.1"
   inkscape:version="0.48.4 r9939"
   sodipodi:docname="flag-blue.svg">
  <defs
     id="defs3111">
    <linearGradient
       id="linearGradient3257">
      <stop
         offset="0"
         style="stop-color:#a50000;stop-opacity:1"
         id="stop3259" />
      <stop
         offset="1"
         style="stop-color:#e73800;stop-opacity:1"
         id="stop3261" />
    </linearGradient>
  </defs>
  <sodipodi:namedview
     id="base"
     pagecolor="#ffffff"
     bordercolor="#666666"
     borderopacity="1.0"
     inkscape:pageopacity="0.0"
     inkscape:pageshadow="2"
     inkscape:zoom="11.362319"
     inkscape:cx="14.424612"
     inkscape:cy="29.301765"
     inkscape:document-units="px"
     inkscape:current-layer="layer1"
     showgrid="false"
     fit-margin-top="0"
     fit-margin-left="0"
     fit-margin-right="0"
     fit-margin-bottom="0"
     inkscape:window-width="1680"
     inkscape:window-height="989"
     inkscape:window-x="-2"
     inkscape:window-y="-1"
     inkscape:window-maximized="1">
    <sodipodi:guide
       position="9.0000233,39.000002"
       orientation="30,0"
       id="guide3279" />
    <sodipodi:guide
       position="9.0000233,9.000002"
       orientation="0,30"
       id="guide3281" />
    <sodipodi:guide
       position="39.000023,9.000002"
       orientation="-30,0"
       id="guide3283" />
    <sodipodi:guide
       position="39.000023,39.000002"
       orientation="0,-30"
       id="guide3285" />
  </sodipodi:namedview>
  <metadata
     id="metadata3114">
    <rdf:RDF>
      <cc:Work
         rdf:about="">
        <dc:format>image/svg+xml</dc:format>
        <dc:type
           rdf:resource="http://purl.org/dc/dcmitype/StillImage" />
        <dc:title></dc:title>
      </cc:Work>
    </rdf:RDF>
  </metadata>
  <g
     inkscape:label="Capa 1"
     inkscape:groupmode="layer"
     id="layer1"
     transform="translate(-533.14286,-554.07646)">
    <path
       style="fill:#e6e242;stroke:none;fill-opacity:1"
       d="m 12.409439,25.645428 c 0,0 6.135212,-2.78699 10.742996,-6.248725 3.770765,-2.832898 15.847588,-6.248724 15.847588,-6.248724 L 13.02551,9.0000171 z"
       id="path2992"
       inkscape:connector-curvature="0"
       transform="translate(533.14286,554.07646)"
       sodipodi:nodetypes="csccc" />
    <rect
       style="color:#000000;fill:#1a1a1a;fill-opacity:1;fill-rule:nonzero;stroke:none;stroke-width:1;marker:none;visibility:visible;display:inline;overflow:visible;enable-background:accumulate;opacity:1"
       id="rect2990"
       width="4.9055886"
       height="30"
       x="9.0000229"
       y="9.0000172"
       transform="translate(533.14286,554.07646)" />
  </g>
</svg>
