<?xml version="1.0" encoding="UTF-8" standalone="no"?>
<!-- Created with Inkscape (http://www.inkscape.org/) -->

<svg
   xmlns:dc="http://purl.org/dc/elements/1.1/"
   xmlns:cc="http://creativecommons.org/ns#"
   xmlns:rdf="http://www.w3.org/1999/02/22-rdf-syntax-ns#"
   xmlns:svg="http://www.w3.org/2000/svg"
   xmlns="http://www.w3.org/2000/svg"
   xmlns:sodipodi="http://sodipodi.sourceforge.net/DTD/sodipodi-0.dtd"
   xmlns:inkscape="http://www.inkscape.org/namespaces/inkscape"
   width="48"
   height="48"
   id="svg3979"
   version="1.1"
   inkscape:version="0.48.4 r9939"
   sodipodi:docname="folder-copy.svg">
  <defs
     id="defs3981" />
  <sodipodi:namedview
     id="base"
     pagecolor="#ffffff"
     bordercolor="#666666"
     borderopacity="1.0"
     inkscape:pageopacity="0.0"
     inkscape:pageshadow="2"
     inkscape:zoom="9.0429681"
     inkscape:cx="15.273767"
     inkscape:cy="25.137067"
     inkscape:document-units="px"
     inkscape:current-layer="layer1"
     showgrid="false"
     fit-margin-top="0"
     fit-margin-left="0"
     fit-margin-right="0"
     fit-margin-bottom="0"
     inkscape:window-width="1680"
     inkscape:window-height="991"
     inkscape:window-x="0"
     inkscape:window-y="-3"
     inkscape:window-maximized="1">
    <sodipodi:guide
       position="1.4433594e-05,39"
       orientation="30.000031,0"
       id="guide3271" />
    <sodipodi:guide
       position="1.4433594e-05,8.9999696"
       orientation="0,30"
       id="guide3273" />
    <sodipodi:guide
       position="30.000014,8.9999696"
       orientation="-30.000031,0"
       id="guide3275" />
    <sodipodi:guide
       position="30.000014,39"
       orientation="0,-30"
       id="guide3277" />
    <sodipodi:guide
       position="30.000014,26.99997"
       orientation="18,0"
       id="guide3279" />
    <sodipodi:guide
       position="30.000014,8.9999696"
       orientation="0,18"
       id="guide3281" />
    <sodipodi:guide
       position="48.000014,8.9999696"
       orientation="-18,0"
       id="guide3283" />
    <sodipodi:guide
       position="48.000014,26.99997"
       orientation="0,-18"
       id="guide3285" />
    <sodipodi:guide
       position="25.999996,8.9999697"
       orientation="-3.9999999,0"
       id="guide3289" />
    <sodipodi:guide
       position="29.999996,12.99997"
       orientation="3.9999999,0"
       id="guide3293" />
    <sodipodi:guide
       position="29.999996,8.9999697"
       orientation="0,-3.9999999"
       id="guide3295" />
    <sodipodi:guide
       position="22.000014,26.99997"
       orientation="18,0"
       id="guide3309" />
    <sodipodi:guide
       position="22.000014,8.9999696"
       orientation="0,4"
       id="guide3311" />
    <sodipodi:guide
       position="26.000014,8.9999696"
       orientation="-18,0"
       id="guide3313" />
    <sodipodi:guide
       position="26.000014,26.99997"
       orientation="0,-4"
       id="guide3315" />
    <sodipodi:guide
       position="22.000014,39"
       orientation="11,0"
       id="guide3321" />
    <sodipodi:guide
       position="22.000014,28"
       orientation="0,4"
       id="guide3323" />
    <sodipodi:guide
       position="26.000014,28"
       orientation="-11,0"
       id="guide3325" />
    <sodipodi:guide
       position="26.000014,39"
       orientation="0,-4"
       id="guide3327" />
  </sodipodi:namedview>
  <metadata
     id="metadata3984">
    <rdf:RDF>
      <cc:Work
         rdf:about="">
        <dc:format>image/svg+xml</dc:format>
        <dc:type
           rdf:resource="http://purl.org/dc/dcmitype/StillImage" />
        <dc:title />
      </cc:Work>
    </rdf:RDF>
  </metadata>
  <g
     inkscape:label="Capa 1"
     inkscape:groupmode="layer"
     id="layer1"
     transform="translate(-601.71428,-491.21933)">
    <path
       style="fill:#1a1a1a;fill-opacity:1;fill-rule:evenodd;stroke:none"
       d="M 0 9 L 0 39 L 26 39 L 26 20 L 30 20 L 30 9 L 26 9 L 0 9 z M 40 9 L 40 35 L 30 35 L 30 39 L 40 39 L 44 39 L 44 35 L 44 20 L 48 20 L 48 9 L 44 9 L 40 9 z M 4 13 L 22 13 L 22 35 L 4 35 L 4 13 z "
       transform="translate(601.71428,491.21933)"
       id="rect3263" />
  </g>
</svg>
