<?xml version="1.0" encoding="UTF-8" standalone="no"?>
<!-- Created using Karbon, part of Calligra: http://www.calligra.org/karbon -->

<svg
   xmlns:dc="http://purl.org/dc/elements/1.1/"
   xmlns:cc="http://creativecommons.org/ns#"
   xmlns:rdf="http://www.w3.org/1999/02/22-rdf-syntax-ns#"
   xmlns:svg="http://www.w3.org/2000/svg"
   xmlns="http://www.w3.org/2000/svg"
   xmlns:sodipodi="http://sodipodi.sourceforge.net/DTD/sodipodi-0.dtd"
   xmlns:inkscape="http://www.inkscape.org/namespaces/inkscape"
   width="38.4pt"
   height="38.4pt"
   id="svg2"
   version="1.1"
   inkscape:version="0.48.4 r9939"
   sodipodi:docname="format-break-node.svg">
  <metadata
     id="metadata14">
    <rdf:RDF>
      <cc:Work
         rdf:about="">
        <dc:format>image/svg+xml</dc:format>
        <dc:type
           rdf:resource="http://purl.org/dc/dcmitype/StillImage" />
        <dc:title></dc:title>
      </cc:Work>
    </rdf:RDF>
  </metadata>
  <sodipodi:namedview
     pagecolor="#ffffff"
     bordercolor="#666666"
     borderopacity="1"
     objecttolerance="10"
     gridtolerance="10"
     guidetolerance="10"
     inkscape:pageopacity="0"
     inkscape:pageshadow="2"
     inkscape:window-width="1680"
     inkscape:window-height="991"
     id="namedview12"
     showgrid="false"
     inkscape:zoom="20.249244"
     inkscape:cx="35.31972"
     inkscape:cy="14.555253"
     inkscape:window-x="0"
     inkscape:window-y="-3"
     inkscape:window-maximized="1"
     inkscape:current-layer="svg2"
     showguides="true"
     inkscape:guide-bbox="true">
    <sodipodi:guide
       position="9.5367432e-07,48.000001"
       orientation="47.999999,0"
       id="guide4072" />
    <sodipodi:guide
       position="9.5367432e-07,1.9073486e-06"
       orientation="0,47.999999"
       id="guide4074" />
    <sodipodi:guide
       position="48,1.9073486e-06"
       orientation="-47.999999,0"
       id="guide4076" />
    <sodipodi:guide
       position="48,48.000001"
       orientation="0,-47.999999"
       id="guide4078" />
    <sodipodi:guide
       position="9.000001,39.000001"
       orientation="29.999999,0"
       id="guide4080" />
    <sodipodi:guide
       position="9.000001,9.0000019"
       orientation="0,29.999999"
       id="guide4082" />
    <sodipodi:guide
       position="39,9.0000019"
       orientation="-29.999999,0"
       id="guide4084" />
    <sodipodi:guide
       position="39,39.000001"
       orientation="0,-29.999999"
       id="guide4086" />
    <sodipodi:guide
       position="13.000001,35.000001"
       orientation="21.999999,0"
       id="guide4095" />
    <sodipodi:guide
       position="35,13.000002"
       orientation="-21.999999,0"
       id="guide4099" />
  </sodipodi:namedview>
  <defs
     id="defs4" />
  <path
     style="fill:#1a1a1a;fill-rule:evenodd"
     d="M 39.03125 23.15625 L 26.375 23.1875 L 26.375 24.8125 L 39.03125 24.78125 L 39.03125 23.15625 z M 20.3125 23.1875 L 8.96875 23.21875 L 8.96875 24.84375 L 20.3125 24.8125 L 20.3125 23.1875 z "
     id="rect2996" />
  <g
     id="g2998"
     transform="matrix(0.72917731,0,0,0.72917731,6.7385599,7.5593888)">
    <rect
       id="rect3288"
       transform="matrix(0.99999808,-0.00196017,0.00853293,0.99996359,0,0)"
       width="1.8839669"
       height="6.7723527"
       x="22.20344"
       y="27.646048"
       style="fill:#1a1a1a;fill-rule:evenodd" />
    <path
       inkscape:transform-center-x="0.00095237737"
       transform="matrix(-0.9999998,6.3503128e-4,-6.3503128e-4,-0.9999998,53.931983,69.059967)"
       inkscape:transform-center-y="0.74886305"
       d="m 30.600878,32.665484 1.298496,2.249063 1.298497,2.249062 -2.596993,0 -2.596994,0 1.298497,-2.249062 z"
       inkscape:randomized="0"
       inkscape:rounded="0"
       inkscape:flatsided="false"
       sodipodi:arg2="-0.52359878"
       sodipodi:arg1="-1.5707963"
       sodipodi:r2="1.4993747"
       sodipodi:r1="2.9987497"
       sodipodi:cy="35.664234"
       sodipodi:cx="30.600878"
       sodipodi:sides="3"
       id="path3786"
       style="fill:#1a1a1a;fill-opacity:1;stroke:none"
       sodipodi:type="star" />
  </g>
  <path
     style="fill:#1a1a1a;fill-rule:evenodd"
     d="m 8.8834786,37.429021 0.03125,1.625 6.7693634,-0.03015 0,-1.625 z m 23.2784964,0.03125 0,1.625 6.815254,-0.03125 0,-1.625 z"
     id="rect3788"
     inkscape:connector-curvature="0"
     sodipodi:nodetypes="cccccccccc" />
  <rect
     y="35.60416"
     x="15.365443"
     height="5.5885787"
     width="6.0656528"
     id="rect3812"
     style="fill:none;stroke:#1a1a1a;stroke-opacity:1" />
  <rect
     style="fill:none;stroke:#1a1a1a;stroke-opacity:1"
     id="rect3814"
     width="6.0656528"
     height="5.5885787"
     x="26.429754"
     y="35.362976" />
  <rect
     style="fill:none;stroke:#1a1a1a;stroke-opacity:1"
     id="rect3817"
     width="6.0656528"
     height="5.5885787"
     x="20.430305"
     y="21.102978" />
  <path
     sodipodi:nodetypes="ccccc"
     inkscape:connector-curvature="0"
     id="path3002"
     d="m 21.229171,37.374998 0.03125,1.625 5.584133,3e-6 0,-1.625 z"
     style="fill:#1a1a1a;fill-rule:evenodd" />
</svg>
