<?xml version="1.0" encoding="UTF-8" standalone="no"?>
<!-- Created with Inkscape (http://www.inkscape.org/) -->

<svg
   xmlns:dc="http://purl.org/dc/elements/1.1/"
   xmlns:cc="http://creativecommons.org/ns#"
   xmlns:rdf="http://www.w3.org/1999/02/22-rdf-syntax-ns#"
   xmlns:svg="http://www.w3.org/2000/svg"
   xmlns="http://www.w3.org/2000/svg"
   xmlns:sodipodi="http://sodipodi.sourceforge.net/DTD/sodipodi-0.dtd"
   xmlns:inkscape="http://www.inkscape.org/namespaces/inkscape"
   width="48"
   height="48"
   id="svg2"
   version="1.1"
   inkscape:version="0.48.4 r9939"
   sodipodi:docname="format-text-bold.svg">
  <defs
     id="defs4" />
  <sodipodi:namedview
     id="base"
     pagecolor="#ffffff"
     bordercolor="#666666"
     borderopacity="1.0"
     inkscape:pageopacity="0.0"
     inkscape:pageshadow="2"
     inkscape:zoom="8.6224422"
     inkscape:cx="-3.2871225"
     inkscape:cy="22.214205"
     inkscape:document-units="px"
     inkscape:current-layer="layer1"
     showgrid="false"
     inkscape:window-width="1366"
     inkscape:window-height="709"
     inkscape:window-x="0"
     inkscape:window-y="-3"
     inkscape:window-maximized="1"
     inkscape:showpageshadow="false"
     borderlayer="true"
     showguides="true"
     inkscape:guide-bbox="true">
    <sodipodi:guide
       orientation="1,0"
       position="8.9981817,15.746818"
       id="guide2985" />
    <sodipodi:guide
       orientation="1,0"
       position="38.951895,13.263792"
       id="guide2987" />
    <sodipodi:guide
       orientation="0,1"
       position="21.826493,38.951895"
       id="guide2988" />
    <sodipodi:guide
       orientation="0,1"
       position="12.989359,9.1621374"
       id="guide2990" />
  </sodipodi:namedview>
  <metadata
     id="metadata7">
    <rdf:RDF>
      <cc:Work
         rdf:about="">
        <dc:format>image/svg+xml</dc:format>
        <dc:type
           rdf:resource="http://purl.org/dc/dcmitype/StillImage" />
        <dc:title></dc:title>
      </cc:Work>
    </rdf:RDF>
  </metadata>
  <g
     inkscape:label="Capa 1"
     inkscape:groupmode="layer"
     id="layer1"
     transform="translate(0,-1004.3622)">
    <path
       sodipodi:type="arc"
       style="fill:#ffcc00;fill-opacity:1;fill-rule:evenodd;stroke:none"
       id="path2998"
       sodipodi:cx="16.505423"
       sodipodi:cy="15.476401"
       sodipodi:rx="3.4716201"
       sodipodi:ry="3.5325258"
       d="m 19.977043,15.476401 a 3.4716201,3.5325258 0 1 1 -6.94324,0 3.4716201,3.5325258 0 1 1 6.94324,0 z"
       transform="translate(15.474499,1011.5602)" />
    <path
       transform="translate(-0.23915192,1011.8038)"
       sodipodi:type="arc"
       style="fill:#d40000;fill-opacity:1;fill-rule:evenodd;stroke:none"
       id="path2994"
       sodipodi:cx="16.505423"
       sodipodi:cy="15.476401"
       sodipodi:rx="3.4716201"
       sodipodi:ry="3.5325258"
       d="m 19.977043,15.476401 a 3.4716201,3.5325258 0 1 1 -6.94324,0 3.4716201,3.5325258 0 1 1 6.94324,0 z" />
    <path
       transform="translate(7.5567686,1005.8351)"
       d="m 19.977043,15.476401 a 3.4716201,3.5325258 0 1 1 -6.94324,0 3.4716201,3.5325258 0 1 1 6.94324,0 z"
       sodipodi:ry="3.5325258"
       sodipodi:rx="3.4716201"
       sodipodi:cy="15.476401"
       sodipodi:cx="16.505423"
       id="path2996"
       style="fill:#0000ff;fill-opacity:1;fill-rule:evenodd;stroke:none"
       sodipodi:type="arc" />
    <text
       xml:space="preserve"
       style="font-size:40.95417786px;font-style:normal;font-variant:normal;font-weight:500;font-stretch:normal;line-height:125%;letter-spacing:0px;word-spacing:0px;fill:#000000;fill-opacity:1;stroke:none;font-family:KanjiStrokeOrders;-inkscape-font-specification:KanjiStrokeOrders Medium"
       x="11.491778"
       y="1043.29"
       id="text2992"
       sodipodi:linespacing="125%"><tspan
         sodipodi:role="line"
         id="tspan2994"
         x="11.491778"
         y="1043.29"
         style="font-style:normal;font-variant:normal;font-weight:normal;font-stretch:normal;font-family:Sans;-inkscape-font-specification:Clean">T</tspan></text>
  </g>
</svg>
