<?xml version="1.0" encoding="UTF-8" standalone="no"?>
<!-- Created with Inkscape (http://www.inkscape.org/) -->

<svg
   xmlns:dc="http://purl.org/dc/elements/1.1/"
   xmlns:cc="http://creativecommons.org/ns#"
   xmlns:rdf="http://www.w3.org/1999/02/22-rdf-syntax-ns#"
   xmlns:svg="http://www.w3.org/2000/svg"
   xmlns="http://www.w3.org/2000/svg"
   xmlns:sodipodi="http://sodipodi.sourceforge.net/DTD/sodipodi-0.dtd"
   xmlns:inkscape="http://www.inkscape.org/namespaces/inkscape"
   width="48"
   height="48"
   id="svg2"
   version="1.1"
   inkscape:version="0.48.4 r9939"
   sodipodi:docname="go-previous-use.svg">
  <defs
     id="defs4" />
  <sodipodi:namedview
     id="base"
     pagecolor="#ffffff"
     bordercolor="#666666"
     borderopacity="1.0"
     inkscape:pageopacity="0.0"
     inkscape:pageshadow="2"
     inkscape:zoom="13.047598"
     inkscape:cx="23.92159"
     inkscape:cy="24.471196"
     inkscape:document-units="px"
     inkscape:current-layer="layer1"
     showgrid="false"
     inkscape:window-width="1366"
     inkscape:window-height="709"
     inkscape:window-x="0"
     inkscape:window-y="-3"
     inkscape:window-maximized="1">
    <inkscape:grid
       type="xygrid"
       id="grid3004" />
    <sodipodi:guide
       position="9,39.000017"
       orientation="30,0"
       id="guide3263" />
    <sodipodi:guide
       position="9,9.0000174"
       orientation="0,30"
       id="guide3265" />
    <sodipodi:guide
       position="39,9.0000174"
       orientation="-30,0"
       id="guide3267" />
    <sodipodi:guide
       position="39,39.000017"
       orientation="0,-30"
       id="guide3269" />
  </sodipodi:namedview>
  <metadata
     id="metadata7">
    <rdf:RDF>
      <cc:Work
         rdf:about="">
        <dc:format>image/svg+xml</dc:format>
        <dc:type
           rdf:resource="http://purl.org/dc/dcmitype/StillImage" />
        <dc:title></dc:title>
      </cc:Work>
    </rdf:RDF>
  </metadata>
  <g
     inkscape:label="Capa 1"
     inkscape:groupmode="layer"
     id="layer1"
     transform="translate(0,-1004.3622)">
    <rect
       style="fill:#1a1a1a;fill-opacity:1;fill-rule:evenodd;stroke:none"
       id="rect3011"
       width="4.3177786"
       height="27.273659"
       x="-14.773631"
       y="-1043.4558"
       transform="matrix(-0.99999923,-0.00123713,0.00165404,-0.99999863,0,0)"
       ry="1.5103943e-07" />
    <rect
       ry="1.4877995e-07"
       y="-1016.2584"
       x="-23.36911"
       height="2.8600233"
       width="12.572117"
       id="rect3783"
       style="fill:#1a1a1a;fill-opacity:1;fill-rule:evenodd;stroke:none"
       transform="matrix(-0.99999957,-9.3031707e-4,0.00199093,-0.99999802,0,0)" />
    <path
       sodipodi:type="star"
       style="fill:#1a1a1a;fill-opacity:1;fill-rule:evenodd;stroke:none"
       id="path3789"
       sodipodi:sides="3"
       sodipodi:cx="34.974728"
       sodipodi:cy="30.450403"
       sodipodi:r1="6.4686003"
       sodipodi:r2="3.2343001"
       sodipodi:arg1="2.6176733"
       sodipodi:arg2="3.6648709"
       inkscape:flatsided="false"
       inkscape:rounded="0"
       inkscape:randomized="0"
       d="m 29.373793,33.686499 2.79943,-4.852348 2.799431,-4.852348 2.802541,4.850552 2.802541,4.850552 -5.601972,0.0018 z"
       transform="matrix(-0.00269139,0.89551934,-0.99999637,-0.0024102,54.274388,983.74523)"
       inkscape:transform-center-x="-0.0076700854"
       inkscape:transform-center-y="1.6104648" />
    <rect
       style="fill:none;stroke:#000000;stroke-opacity:1"
       id="rect3002"
       width="15.29566"
       height="19.00733"
       x="-38.54657"
       y="1019.5591"
       ry="2.5802518e-07"
       transform="scale(-1,1)" />
  </g>
</svg>
