<?xml version="1.0" encoding="UTF-8" standalone="no"?>
<!-- Created with Inkscape (http://www.inkscape.org/) -->

<svg
   xmlns:dc="http://purl.org/dc/elements/1.1/"
   xmlns:cc="http://creativecommons.org/ns#"
   xmlns:rdf="http://www.w3.org/1999/02/22-rdf-syntax-ns#"
   xmlns:svg="http://www.w3.org/2000/svg"
   xmlns="http://www.w3.org/2000/svg"
   xmlns:sodipodi="http://sodipodi.sourceforge.net/DTD/sodipodi-0.dtd"
   xmlns:inkscape="http://www.inkscape.org/namespaces/inkscape"
   width="48"
   height="48"
   id="svg7175"
   version="1.1"
   inkscape:version="0.48.4 r9939"
   sodipodi:docname="kdenlive-show-audiothumb.svg">
  <defs
     id="defs7177" />
  <sodipodi:namedview
     id="base"
     pagecolor="#ffffff"
     bordercolor="#666666"
     borderopacity="1.0"
     inkscape:pageopacity="0.0"
     inkscape:pageshadow="2"
     inkscape:zoom="8.2638208"
     inkscape:cx="16.229963"
     inkscape:cy="30.465231"
     inkscape:document-units="px"
     inkscape:current-layer="layer1"
     showgrid="false"
     fit-margin-top="0"
     fit-margin-left="0"
     fit-margin-right="0"
     fit-margin-bottom="0"
     inkscape:window-width="1680"
     inkscape:window-height="991"
     inkscape:window-x="0"
     inkscape:window-y="-3"
     inkscape:window-maximized="1"
     showguides="false" />
  <metadata
     id="metadata7180">
    <rdf:RDF>
      <cc:Work
         rdf:about="">
        <dc:format>image/svg+xml</dc:format>
        <dc:type
           rdf:resource="http://purl.org/dc/dcmitype/StillImage" />
        <dc:title />
      </cc:Work>
    </rdf:RDF>
  </metadata>
  <g
     inkscape:label="Capa 1"
     inkscape:groupmode="layer"
     id="layer1"
     transform="translate(-553.14288,-594.07648)">
    <path
       style="fill:#1a1a1a;fill-opacity:1;stroke:none"
       d="M 20.171875 14.359375 L 20.171875 22.628906 L 15.988281 19.359375 L 15.988281 22.822266 L 8.8984375 22.460938 L 8.8984375 25.539062 L 15.988281 25.177734 L 15.988281 28.640625 L 20.171875 25.371094 L 20.171875 33.640625 L 26.712891 25.404297 L 26.712891 27.640625 L 30.837891 24.417969 L 30.865234 24.416016 L 30.865234 30.962891 L 34.763672 25.138672 L 34.763672 26.962891 L 39 24 L 34.763672 21.037109 L 34.763672 22.861328 L 30.865234 17.037109 L 30.865234 23.583984 L 30.837891 23.582031 L 26.712891 20.359375 L 26.712891 22.595703 L 20.171875 14.359375 z "
       transform="translate(553.14288,594.07648)"
       id="path4062" />
  </g>
</svg>
