<?xml version="1.0" encoding="UTF-8" standalone="no"?>
<!-- Created using Karbon, part of Calligra: http://www.calligra.org/karbon -->

<svg
   xmlns:dc="http://purl.org/dc/elements/1.1/"
   xmlns:cc="http://creativecommons.org/ns#"
   xmlns:rdf="http://www.w3.org/1999/02/22-rdf-syntax-ns#"
   xmlns:svg="http://www.w3.org/2000/svg"
   xmlns="http://www.w3.org/2000/svg"
   xmlns:sodipodi="http://sodipodi.sourceforge.net/DTD/sodipodi-0.dtd"
   xmlns:inkscape="http://www.inkscape.org/namespaces/inkscape"
   width="38.4pt"
   height="38.4pt"
   id="svg2"
   version="1.1"
   inkscape:version="0.48.4 r9939"
   sodipodi:docname="kdenlive-zoom-large.svg">
  <metadata
     id="metadata20">
    <rdf:RDF>
      <cc:Work
         rdf:about="">
        <dc:format>image/svg+xml</dc:format>
        <dc:type
           rdf:resource="http://purl.org/dc/dcmitype/StillImage" />
      </cc:Work>
    </rdf:RDF>
  </metadata>
  <sodipodi:namedview
     pagecolor="#ffffff"
     bordercolor="#666666"
     borderopacity="1"
     objecttolerance="10"
     gridtolerance="10"
     guidetolerance="10"
     inkscape:pageopacity="0"
     inkscape:pageshadow="2"
     inkscape:window-width="1680"
     inkscape:window-height="991"
     id="namedview18"
     showgrid="false"
     inkscape:zoom="10.933664"
     inkscape:cx="29.288136"
     inkscape:cy="20.847458"
     inkscape:window-x="0"
     inkscape:window-y="-3"
     inkscape:window-maximized="1"
     inkscape:current-layer="svg2" />
  <defs
     id="defs4" />
  <g
     id="layer1">
    <rect
       id="rect3286"
       transform="translate(9.18259, 9)"
       fill="none"
       width="24.00000000000pt"
       height="24.00000000000pt" />
    <rect
       id="rect3308"
       transform="translate(9, 28)"
       fill="#4d4d4d"
       width="3.20000000000pt"
       height="8.80000000000pt"
       style="fill:#1a1a1a" />
    <rect
       id="rect3310"
       transform="translate(35, 28)"
       fill="#4d4d4d"
       width="3.20000000000pt"
       height="8.80000000000pt"
       style="fill:#1a1a1a" />
    <rect
       id="rect3312"
       transform="translate(9, 9)"
       fill="#4d4d4d"
       width="3.20000000000pt"
       height="8.80000000000pt"
       style="fill:#1a1a1a" />
    <rect
       id="rect3314"
       transform="translate(35, 9)"
       fill="#4d4d4d"
       width="3.20000000000pt"
       height="8.80000000000pt"
       style="fill:#1a1a1a" />
    <rect
       id="rect3316"
       transform="matrix(0 -1 1 0 28 39)"
       fill="#4d4d4d"
       width="3.20000000000pt"
       height="8.80000000000pt"
       style="fill:#1a1a1a" />
    <rect
       id="rect3318"
       transform="matrix(0 -1 1 0 9 13)"
       fill="#4d4d4d"
       width="3.20000000000pt"
       height="8.80000000000pt"
       style="fill:#1a1a1a" />
    <rect
       id="rect3320"
       transform="matrix(0 1 1 0 28 9)"
       fill="#4d4d4d"
       width="3.20000000000pt"
       height="8.80000000000pt"
       style="fill:#1a1a1a" />
    <rect
       id="rect3322"
       transform="matrix(0 1 1 0 9 35)"
       fill="#4d4d4d"
       width="3.20000000000pt"
       height="8.80000000000pt"
       style="fill:#1a1a1a" />
    <path
       id="path3293"
       transform="matrix(2.35922e-16 -1 1 2.35922e-16 18.3983 22.8016)"
       fill="#4d4d4d"
       fill-rule="evenodd"
       d="M0 11.0867L8.21441 5.54329L0 0Z"
       style="fill:#1a1a1a" />
    <path
       id="path32931"
       transform="matrix(-1 0 0 -1 29.4703 33.2952)"
       fill="#4d4d4d"
       fill-rule="evenodd"
       d="M11.0906 8.22049L5.54522 0L0 8.22049Z"
       style="fill:#1a1a1a" />
  </g>
</svg>
