<?xml version="1.0" encoding="UTF-8" standalone="no"?>
<!-- Created using Karbon, part of Calligra: http://www.calligra.org/karbon -->

<svg
   xmlns:dc="http://purl.org/dc/elements/1.1/"
   xmlns:cc="http://creativecommons.org/ns#"
   xmlns:rdf="http://www.w3.org/1999/02/22-rdf-syntax-ns#"
   xmlns:svg="http://www.w3.org/2000/svg"
   xmlns="http://www.w3.org/2000/svg"
   xmlns:sodipodi="http://sodipodi.sourceforge.net/DTD/sodipodi-0.dtd"
   xmlns:inkscape="http://www.inkscape.org/namespaces/inkscape"
   width="38.4pt"
   height="38.4pt"
   id="svg2"
   version="1.1"
   inkscape:version="0.48.4 r9939"
   sodipodi:docname="mixer-digital.svg">
  <metadata
     id="metadata14">
    <rdf:RDF>
      <cc:Work
         rdf:about="">
        <dc:format>image/svg+xml</dc:format>
        <dc:type
           rdf:resource="http://purl.org/dc/dcmitype/StillImage" />
        <dc:title />
      </cc:Work>
    </rdf:RDF>
  </metadata>
  <sodipodi:namedview
     pagecolor="#ffffff"
     bordercolor="#666666"
     borderopacity="1"
     objecttolerance="10"
     gridtolerance="10"
     guidetolerance="10"
     inkscape:pageopacity="0"
     inkscape:pageshadow="2"
     inkscape:window-width="1680"
     inkscape:window-height="991"
     id="namedview12"
     showgrid="false"
     inkscape:showpageshadow="false"
     borderlayer="true"
     inkscape:zoom="9.2217272"
     inkscape:cx="17.321132"
     inkscape:cy="12.655303"
     inkscape:window-x="0"
     inkscape:window-y="-3"
     inkscape:window-maximized="1"
     inkscape:current-layer="svg2">
    <sodipodi:guide
       position="9.5367432e-07,48.000001"
       orientation="47.999999,0"
       id="guide4072" />
    <sodipodi:guide
       position="9.5367432e-07,1.9073486e-06"
       orientation="0,47.999999"
       id="guide4074" />
    <sodipodi:guide
       position="48,1.9073486e-06"
       orientation="-47.999999,0"
       id="guide4076" />
    <sodipodi:guide
       position="48,48.000001"
       orientation="0,-47.999999"
       id="guide4078" />
    <sodipodi:guide
       position="9.000001,39.000001"
       orientation="29.999999,0"
       id="guide4080" />
    <sodipodi:guide
       position="9.000001,9.0000019"
       orientation="0,29.999999"
       id="guide4082" />
    <sodipodi:guide
       position="39,9.0000019"
       orientation="-29.999999,0"
       id="guide4084" />
    <sodipodi:guide
       position="39,39.000001"
       orientation="0,-29.999999"
       id="guide4086" />
    <sodipodi:guide
       position="34,39.000001"
       orientation="29.999999,0"
       id="guide4135" />
    <sodipodi:guide
       position="34,9.0000019"
       orientation="0,5"
       id="guide4137" />
    <sodipodi:guide
       position="39,9.0000019"
       orientation="-29.999999,0"
       id="guide4139" />
    <sodipodi:guide
       position="39,39.000001"
       orientation="0,-5"
       id="guide4141" />
    <sodipodi:guide
       position="9.000001,39.000001"
       orientation="29.999999,0"
       id="guide4143" />
    <sodipodi:guide
       position="9.000001,9.0000019"
       orientation="0,5.000001"
       id="guide4145" />
    <sodipodi:guide
       position="14.000002,9.0000019"
       orientation="-29.999999,0"
       id="guide4147" />
    <sodipodi:guide
       position="14.000002,39.000001"
       orientation="0,-5.000001"
       id="guide4149" />
    <sodipodi:guide
       position="9.000001,13.000002"
       orientation="4,0"
       id="guide4151" />
    <sodipodi:guide
       position="9.000001,9.0000019"
       orientation="0,29.999999"
       id="guide4153" />
    <sodipodi:guide
       position="39,9.0000019"
       orientation="-4,0"
       id="guide4155" />
    <sodipodi:guide
       position="39,13.000002"
       orientation="0,-29.999999"
       id="guide4157" />
    <sodipodi:guide
       position="9.000001,39"
       orientation="4,0"
       id="guide4159" />
    <sodipodi:guide
       position="9.000001,35"
       orientation="0,29.999999"
       id="guide4161" />
    <sodipodi:guide
       position="39,35"
       orientation="-4,0"
       id="guide4163" />
  </sodipodi:namedview>
  <defs
     id="defs4" />
  <path
     style="fill:#1a1a1a;fill-rule:evenodd;stroke:none"
     d="M 14 9 L 14 13 L 9 13 L 9 20 L 14 20 L 14 39 L 18 39 L 18 20 L 23 20 L 23 13 L 18 13 L 18 9 L 14 9 z M 30 9 L 30 28 L 25 28 L 25 35 L 30 35 L 30 39 L 34 39 L 34 35 L 39 35 L 39 28 L 34 28 L 34 9 L 30 9 z "
     id="shape0" />
</svg>
