<?xml version="1.0" encoding="UTF-8" standalone="no"?>
<!-- Created using Karbon, part of Calligra: http://www.calligra.org/karbon -->

<svg
   xmlns:dc="http://purl.org/dc/elements/1.1/"
   xmlns:cc="http://creativecommons.org/ns#"
   xmlns:rdf="http://www.w3.org/1999/02/22-rdf-syntax-ns#"
   xmlns:svg="http://www.w3.org/2000/svg"
   xmlns="http://www.w3.org/2000/svg"
   xmlns:sodipodi="http://sodipodi.sourceforge.net/DTD/sodipodi-0.dtd"
   xmlns:inkscape="http://www.inkscape.org/namespaces/inkscape"
   width="38.4pt"
   height="38.4pt"
   id="svg2"
   version="1.1"
   inkscape:version="0.48.4 r9939"
   sodipodi:docname="object-flip-vertical.svg">
  <metadata
     id="metadata13">
    <rdf:RDF>
      <cc:Work
         rdf:about="">
        <dc:format>image/svg+xml</dc:format>
        <dc:type
           rdf:resource="http://purl.org/dc/dcmitype/StillImage" />
        <dc:title />
      </cc:Work>
    </rdf:RDF>
  </metadata>
  <sodipodi:namedview
     pagecolor="#ffffff"
     bordercolor="#666666"
     borderopacity="1"
     objecttolerance="10"
     gridtolerance="10"
     guidetolerance="10"
     inkscape:pageopacity="0"
     inkscape:pageshadow="2"
     inkscape:window-width="1680"
     inkscape:window-height="991"
     id="namedview11"
     showgrid="false"
     inkscape:showpageshadow="false"
     borderlayer="true"
     inkscape:zoom="9.8333329"
     inkscape:cx="33.512702"
     inkscape:cy="24.042781"
     inkscape:window-x="0"
     inkscape:window-y="-3"
     inkscape:window-maximized="1"
     inkscape:current-layer="svg2">
    <sodipodi:guide
       position="9.5367432e-07,48.000001"
       orientation="47.999999,0"
       id="guide4071" />
    <sodipodi:guide
       position="9.5367432e-07,1.9073486e-06"
       orientation="0,47.999999"
       id="guide4073" />
    <sodipodi:guide
       position="48,1.9073486e-06"
       orientation="-47.999999,0"
       id="guide4075" />
    <sodipodi:guide
       position="48,48.000001"
       orientation="0,-47.999999"
       id="guide4077" />
    <sodipodi:guide
       position="9.000001,39.000001"
       orientation="29.999999,0"
       id="guide4079" />
    <sodipodi:guide
       position="9.000001,9.0000019"
       orientation="0,29.999999"
       id="guide4081" />
    <sodipodi:guide
       position="39,9.0000019"
       orientation="-29.999999,0"
       id="guide4083" />
    <sodipodi:guide
       position="39,39.000001"
       orientation="0,-29.999999"
       id="guide4085" />
    <sodipodi:guide
       position="9.000001,39.000001"
       orientation="29.999999,0"
       id="guide4093" />
    <sodipodi:guide
       position="9.000001,9.0000019"
       orientation="0,8.999999"
       id="guide4095" />
    <sodipodi:guide
       position="18,9.0000019"
       orientation="-29.999999,0"
       id="guide4097" />
    <sodipodi:guide
       position="18,39.000001"
       orientation="0,-8.999999"
       id="guide4099" />
    <sodipodi:guide
       position="30.000002,39.000001"
       orientation="29.999999,0"
       id="guide4103" />
    <sodipodi:guide
       position="30.000002,9.0000019"
       orientation="0,8.9999981"
       id="guide4105" />
    <sodipodi:guide
       position="39,9.0000019"
       orientation="-29.999999,0"
       id="guide4107" />
    <sodipodi:guide
       position="39,39.000001"
       orientation="0,-8.9999981"
       id="guide4109" />
  </sodipodi:namedview>
  <defs
     id="defs4" />
  <rect
     style="fill:none"
     y="-39"
     x="8.9999905"
     height="30"
     width="30"
     id="rect3261"
     transform="matrix(0,1,-1,0,0,0)" />
  <rect
     style="fill:#1a1a1a;fill-rule:evenodd"
     y="-26"
     x="-39"
     height="4"
     width="30"
     transform="scale(-1,-1)"
     id="rect3280" />
  <path
     style="fill:#1a1a1a;fill-opacity:1;stroke:none"
     d="M 8.9999905,9.000001 38.99999,18 8.9999905,18 Z"
     id="path4111"
     inkscape:connector-curvature="0" />
  <path
     inkscape:connector-curvature="0"
     id="path4113"
     d="m 8.9999905,39 29.9999995,-8.999999 -29.9999995,0 z"
     style="fill:#1a1a1a;fill-opacity:1;stroke:none" />
</svg>
