<?xml version="1.0" encoding="UTF-8" standalone="no"?>
<!-- Created using Karbon, part of Calligra: http://www.calligra.org/karbon -->

<svg
   xmlns:dc="http://purl.org/dc/elements/1.1/"
   xmlns:cc="http://creativecommons.org/ns#"
   xmlns:rdf="http://www.w3.org/1999/02/22-rdf-syntax-ns#"
   xmlns:svg="http://www.w3.org/2000/svg"
   xmlns="http://www.w3.org/2000/svg"
   xmlns:sodipodi="http://sodipodi.sourceforge.net/DTD/sodipodi-0.dtd"
   xmlns:inkscape="http://www.inkscape.org/namespaces/inkscape"
   width="38.4pt"
   height="38.4pt"
   id="svg2"
   version="1.1"
   inkscape:version="0.48.4 r9939"
   sodipodi:docname="view-statistics.svg">
  <metadata
     id="metadata12">
    <rdf:RDF>
      <cc:Work
         rdf:about="">
        <dc:format>image/svg+xml</dc:format>
        <dc:type
           rdf:resource="http://purl.org/dc/dcmitype/StillImage" />
      </cc:Work>
    </rdf:RDF>
  </metadata>
  <sodipodi:namedview
     pagecolor="#ffffff"
     bordercolor="#666666"
     borderopacity="1"
     objecttolerance="10"
     gridtolerance="10"
     guidetolerance="10"
     inkscape:pageopacity="0"
     inkscape:pageshadow="2"
     inkscape:window-width="1680"
     inkscape:window-height="991"
     id="namedview10"
     showgrid="false"
     inkscape:zoom="9.8333329"
     inkscape:cx="18.237058"
     inkscape:cy="23.092737"
     inkscape:window-x="0"
     inkscape:window-y="-3"
     inkscape:window-maximized="1"
     inkscape:current-layer="svg2">
    <sodipodi:guide
       position="9.5367432e-07,48.000001"
       orientation="47.999999,0"
       id="guide3270" />
    <sodipodi:guide
       position="9.5367432e-07,1.9073486e-06"
       orientation="0,47.999999"
       id="guide3272" />
    <sodipodi:guide
       position="48,1.9073486e-06"
       orientation="-47.999999,0"
       id="guide3274" />
    <sodipodi:guide
       position="48,48.000001"
       orientation="0,-47.999999"
       id="guide3276" />
    <sodipodi:guide
       position="9.0508479,11.593221"
       orientation="29.999999,0"
       id="guide3278" />
    <sodipodi:guide
       position="9.000001,9.0000019"
       orientation="0,29.999999"
       id="guide3280" />
    <sodipodi:guide
       position="39,9.0000019"
       orientation="-29.999999,0"
       id="guide3282" />
    <sodipodi:guide
       position="39,39.000001"
       orientation="0,-29.999999"
       id="guide3284" />
  </sodipodi:namedview>
  <defs
     id="defs4" />
  <rect
     style="fill:#1a1a1a;fill-opacity:1;stroke:none"
     id="rect3286"
     width="7"
     height="11"
     x="9.000001"
     y="28" />
  <rect
     y="19"
     x="20.5"
     height="20"
     width="7"
     id="rect3288"
     style="fill:#1a1a1a;fill-opacity:1;stroke:none" />
  <rect
     style="fill:#1a1a1a;fill-opacity:1;stroke:none"
     id="rect3290"
     width="7"
     height="30"
     x="32.000008"
     y="9" />
</svg>
