<?xml version="1.0" encoding="UTF-8" standalone="no"?>
<!-- Created with Inkscape (http://www.inkscape.org/) -->

<svg
   xmlns:dc="http://purl.org/dc/elements/1.1/"
   xmlns:cc="http://creativecommons.org/ns#"
   xmlns:rdf="http://www.w3.org/1999/02/22-rdf-syntax-ns#"
   xmlns:svg="http://www.w3.org/2000/svg"
   xmlns="http://www.w3.org/2000/svg"
   xmlns:xlink="http://www.w3.org/1999/xlink"
   xmlns:sodipodi="http://sodipodi.sourceforge.net/DTD/sodipodi-0.dtd"
   xmlns:inkscape="http://www.inkscape.org/namespaces/inkscape"
   version="1.0"
   width="96"
   height="96"
   id="svg2408"
   inkscape:version="0.48.4 r9939"
   sodipodi:docname="azureus.svg">
  <sodipodi:namedview
     pagecolor="#ffffff"
     bordercolor="#666666"
     borderopacity="1"
     objecttolerance="10"
     gridtolerance="10"
     guidetolerance="10"
     inkscape:pageopacity="0"
     inkscape:pageshadow="2"
     inkscape:window-width="1680"
     inkscape:window-height="991"
     id="namedview76"
     showgrid="false"
     inkscape:zoom="5.4111046"
     inkscape:cx="24.581034"
     inkscape:cy="42.614491"
     inkscape:window-x="0"
     inkscape:window-y="-3"
     inkscape:window-maximized="1"
     inkscape:current-layer="svg2408" />
  <defs
     id="defs2410">
    <linearGradient
       id="linearGradient3687">
      <stop
         id="stop3689"
         style="stop-color:#ffffff;stop-opacity:1"
         offset="0" />
      <stop
         id="stop3691"
         style="stop-color:#ffffff;stop-opacity:0"
         offset="1" />
    </linearGradient>
    <linearGradient
       x1="58.650177"
       y1="122"
       x2="58.650177"
       y2="5.4252338"
       id="linearGradient3677"
       gradientUnits="userSpaceOnUse"
       gradientTransform="matrix(1.0172414,0,0,1.0172414,-1.1034483,-1.1034483)">
      <stop
         id="stop3679"
         style="stop-color:#2782e9;stop-opacity:1"
         offset="0" />
      <stop
         id="stop3681"
         style="stop-color:#193693;stop-opacity:1"
         offset="1" />
    </linearGradient>
    <linearGradient
       x1="45.447727"
       y1="92.539597"
       x2="45.447727"
       y2="7.0165396"
       id="ButtonShadow"
       gradientUnits="userSpaceOnUse"
       gradientTransform="scale(1.0058652,0.994169)">
      <stop
         id="stop3750"
         style="stop-color:#000000;stop-opacity:1"
         offset="0" />
      <stop
         id="stop3752"
         style="stop-color:#000000;stop-opacity:0.58823532"
         offset="1" />
    </linearGradient>
    <linearGradient
       id="linearGradient3737">
      <stop
         id="stop3739"
         style="stop-color:#ffffff;stop-opacity:1"
         offset="0" />
      <stop
         id="stop3741"
         style="stop-color:#ffffff;stop-opacity:0"
         offset="1" />
    </linearGradient>
    <filter
       color-interpolation-filters="sRGB"
       id="filter3174">
      <feGaussianBlur
         id="feGaussianBlur3176"
         stdDeviation="1.71" />
    </filter>
    <linearGradient
       x1="36.357143"
       y1="6"
       x2="36.357143"
       y2="63.893143"
       id="linearGradient3188"
       xlink:href="#linearGradient3737"
       gradientUnits="userSpaceOnUse" />
    <filter
       x="-0.192"
       y="-0.192"
       width="1.3839999"
       height="1.3839999"
       color-interpolation-filters="sRGB"
       id="filter3794">
      <feGaussianBlur
         id="feGaussianBlur3796"
         stdDeviation="5.28" />
    </filter>
    <linearGradient
       x1="48"
       y1="20.220806"
       x2="48"
       y2="138.66119"
       id="linearGradient3613"
       xlink:href="#linearGradient3737"
       gradientUnits="userSpaceOnUse" />
    <radialGradient
       cx="48"
       cy="90.171875"
       r="42"
       fx="48"
       fy="90.171875"
       id="radialGradient3619"
       xlink:href="#linearGradient3737"
       gradientUnits="userSpaceOnUse"
       gradientTransform="matrix(1.1573129,0,0,0.99590774,-7.5510206,0.19713193)" />
    <clipPath
       id="clipPath3613">
      <rect
         width="84"
         height="84"
         rx="6"
         ry="6"
         x="6"
         y="6"
         id="rect3615"
         style="fill:#ffffff;fill-opacity:1;fill-rule:nonzero;stroke:none" />
    </clipPath>
    <linearGradient
       x1="48"
       y1="90"
       x2="48"
       y2="5.9877172"
       id="linearGradient3617"
       xlink:href="#ButtonColor"
       gradientUnits="userSpaceOnUse" />
    <linearGradient
       x1="58.650177"
       y1="122"
       x2="58.650177"
       y2="5.4252338"
       id="ButtonColor"
       gradientUnits="userSpaceOnUse"
       gradientTransform="matrix(1.0172414,0,0,1.0172414,-1.1034483,-1.1034483)">
      <stop
         id="stop3189"
         style="stop-color:#183288;stop-opacity:1"
         offset="0" />
      <stop
         id="stop3191"
         style="stop-color:#5072e1;stop-opacity:1"
         offset="1" />
    </linearGradient>
    <linearGradient
       id="linearGradient3374">
      <stop
         id="stop3376"
         style="stop-color:#000000;stop-opacity:1"
         offset="0" />
      <stop
         id="stop3378"
         style="stop-color:#000000;stop-opacity:0"
         offset="1" />
    </linearGradient>
    <linearGradient
       id="linearGradient8650">
      <stop
         id="stop8652"
         style="stop-color:#ffffff;stop-opacity:1"
         offset="0" />
      <stop
         id="stop8654"
         style="stop-color:#ffffff;stop-opacity:0"
         offset="1" />
    </linearGradient>
    <linearGradient
       x1="48"
       y1="90"
       x2="48"
       y2="5.9877172"
       id="linearGradient3839"
       xlink:href="#ButtonColor"
       gradientUnits="userSpaceOnUse"
       gradientTransform="translate(0,-100)" />
    <linearGradient
       x1="48.800022"
       y1="16"
       x2="59.752357"
       y2="56.874668"
       id="linearGradient2943"
       xlink:href="#linearGradient3374"
       gradientUnits="userSpaceOnUse"
       gradientTransform="matrix(-0.67083322,0,0,-0.7083333,90.936318,93.33333)" />
    <linearGradient
       x1="48.800022"
       y1="16"
       x2="59.752357"
       y2="56.874668"
       id="linearGradient2947"
       xlink:href="#linearGradient8650"
       gradientUnits="userSpaceOnUse"
       gradientTransform="matrix(0.67083322,0,0,0.7083333,5.0666738,2.6666673)" />
    <radialGradient
       cx="48"
       cy="66.450142"
       r="23"
       fx="48"
       fy="66.450142"
       id="radialGradient3683"
       xlink:href="#linearGradient3677"
       gradientUnits="userSpaceOnUse"
       gradientTransform="matrix(1.3301229,-7.4935036e-8,9.5652174e-8,1.6978593,-15.845903,-37.548861)" />
    <linearGradient
       x1="35.102802"
       y1="6.8540382"
       x2="35.102802"
       y2="34.885773"
       id="linearGradient3703"
       xlink:href="#linearGradient3687"
       gradientUnits="userSpaceOnUse" />
    <linearGradient
       x1="62.339497"
       y1="48"
       x2="62.339497"
       y2="-6.5482373"
       id="linearGradient3725"
       xlink:href="#linearGradient3687"
       gradientUnits="userSpaceOnUse" />
    <linearGradient
       x1="45.447727"
       y1="92.539597"
       x2="45.447727"
       y2="7.0165396"
       id="ButtonShadow-0"
       gradientUnits="userSpaceOnUse"
       gradientTransform="matrix(1.0058652,0,0,0.994169,100,0)">
      <stop
         id="stop3750-8"
         style="stop-color:#000000;stop-opacity:1"
         offset="0" />
      <stop
         id="stop3752-5"
         style="stop-color:#000000;stop-opacity:0.58823532"
         offset="1" />
    </linearGradient>
    <linearGradient
       x1="32.251034"
       y1="6.1317081"
       x2="32.251034"
       y2="90.238609"
       id="linearGradient3780"
       xlink:href="#ButtonShadow-0"
       gradientUnits="userSpaceOnUse"
       gradientTransform="matrix(1.0238095,0,0,1.0119048,-1.1428571,-98.071429)" />
    <linearGradient
       x1="32.251034"
       y1="6.1317081"
       x2="32.251034"
       y2="90.238609"
       id="linearGradient3772"
       xlink:href="#ButtonShadow-0"
       gradientUnits="userSpaceOnUse"
       gradientTransform="matrix(1.0238095,0,0,1.0119048,-1.1428571,-98.071429)" />
    <linearGradient
       x1="32.251034"
       y1="6.1317081"
       x2="32.251034"
       y2="90.238609"
       id="linearGradient3725-0"
       xlink:href="#ButtonShadow-0"
       gradientUnits="userSpaceOnUse"
       gradientTransform="matrix(1.0238095,0,0,1.0119048,-1.1428571,-98.071429)" />
    <linearGradient
       x1="32.251034"
       y1="6.1317081"
       x2="32.251034"
       y2="90.238609"
       id="linearGradient3721"
       xlink:href="#ButtonShadow-0"
       gradientUnits="userSpaceOnUse"
       gradientTransform="translate(0,-97)" />
    <linearGradient
       x1="32.251034"
       y1="6.1317081"
       x2="32.251034"
       y2="90.238609"
       id="linearGradient3122"
       xlink:href="#ButtonShadow-0"
       gradientUnits="userSpaceOnUse"
       gradientTransform="matrix(1.0238095,0,0,1.0119048,-1.1428571,-98.071429)" />
    <filter
       inkscape:collect="always"
       id="filter4026">
      <feGaussianBlur
         inkscape:collect="always"
         stdDeviation="0.12426569"
         id="feGaussianBlur4028" />
    </filter>
  </defs>
  <metadata
     id="metadata2413">
    <rdf:RDF>
      <cc:Work
         rdf:about="">
        <dc:format>image/svg+xml</dc:format>
        <dc:type
           rdf:resource="http://purl.org/dc/dcmitype/StillImage" />
        <dc:title></dc:title>
      </cc:Work>
    </rdf:RDF>
  </metadata>
  <g
     id="layer2"
     style="display:none">
    <rect
       width="86"
       height="85"
       rx="6"
       ry="6"
       x="5"
       y="7"
       id="rect3745"
       style="opacity:0.9;fill:url(#ButtonShadow);fill-opacity:1;fill-rule:nonzero;stroke:none;filter:url(#filter3174)" />
  </g>
  <g
     id="layer5" />
  <g
     style="opacity:0.3;fill:#000000;stroke:none"
     id="g3986"
     transform="matrix(0.89856923,0,0,1.0242894,4.5182849,-3.7244657)">
    <g
       style="fill:#000000;stroke:none"
       id="g3988"
       transform="translate(78.737439,2.9792544)">
      <path
         sodipodi:nodetypes="cscccccccc"
         inkscape:connector-curvature="0"
         id="path3990"
         d="m -56.398794,57.906758 c 0,0 -5.276217,1.360532 -7.111422,-2.267552 -1.835205,-3.62808 0.458802,-4.761857 0.458802,-4.761857 l 2.982209,-2.040795 c 0,0 2.064606,-10.203981 9.86423,-7.256164 l 1.147004,2.947816 -0.917603,3.174572 -2.294007,5.215369 -1.147003,2.947816 c 0,0 -2.294007,2.267551 -2.98221,2.040795 z"
         style="fill:#000000;stroke:none" />
      <path
         inkscape:connector-curvature="0"
         id="path3992"
         d="m -46.816855,41.522205 -1.702431,-0.851216 -0.851216,-1.915235 0,-1.702431 2.128039,-1.915235 2.553647,-1.276823 1.915235,0.212804 c 0,0 -4.256078,6.384116 -4.043274,7.448136 z"
         style="fill:#000000;stroke:none" />
      <path
         inkscape:connector-curvature="0"
         id="path3994"
         d="m -49.583306,61.738574 -1.702431,-2.340843 -0.851215,-1.064019 0.638411,-2.340843 4.681686,-11.065802 0.851216,-3.617666 c 0,0 6.171312,-10.001783 9.150567,-11.704214 2.979254,-1.702431 4.894489,-8.086548 4.894489,-8.086548 0,0 0.212804,-1.489627 1.06402,-1.702431 0.851215,-0.212804 5.320097,-1.489627 5.320097,-1.489627 l 12.129821,0 c 0,0 1.276824,-2.128039 4.2560776,4.468882 l 1.489627,2.340842 c 0,0 0.425608,0.638412 -0.425607,2.128039 -0.851216,1.489627 -1.702431,4.256078 -1.702431,4.256078 l -1.7024316,3.404862 -2.340842,4.89449 0.638411,3.192058 1.06402,2.553647 2.9792536,3.404862 1.489627,0.638411 2.340843,0.425608 0.425608,-2.76645 -0.212804,-0.425608 0.638412,-1.489627 c 0,0 1.489627,-0.851216 2.340843,-0.851216 0.851215,0 2.34084199,2.553647 1.064019,3.404862 -1.276823,0.851216 -1.489627,0.425608 -1.489627,0.425608 l -0.638412,1.915235 4.04327399,0 2.55364701,0 -0.212804,-0.638412 1.702431,-0.425607 c 0,0 3.83047,1.702431 0.212804,3.404862 l -2.979255,-0.425608 -4.681685,-0.212804 c 0,0 -0.851216,3.83047 -4.043274,3.617666 -3.192058,-0.212804 -6.3841166,0 -6.8097246,-1.276823 l -3.404862,-1.276823 -0.851215,-0.425608 c 0,0 -1.489628,1.702431 -2.128039,0.638412 -0.638412,-1.06402 -0.212804,-2.340843 -0.212804,-2.340843 l 1.702431,-0.425608 1.276823,0.638412 2.340843,0.851215 -2.340843,-3.404862 -1.702431,-2.766451 c 0,0 -4.043274,8.299352 -7.66094,10.852999 0,0 -11.704215,-2.553647 -23.195624,5.107293 z"
         style="fill:#000000;stroke:none" />
    </g>
    <path
       sodipodi:nodetypes="ccccccccscccccccccccccccccc"
       style="fill:#000000;stroke:none"
       d="m 28.991264,66.781646 9.40543,7.256165 7.799625,2.494306 5.735017,-1.36053 3.211609,1.133775 5.276216,1.133776 0,0.226756 1.605805,-0.226756 c 0,0 0,-2.721062 -0.917602,-2.721062 -0.917603,0 -1.835206,0.907021 -1.835206,0.907021 l -1.376404,-0.680265 -0.688203,-1.133776 0.688203,-0.680266 8.946629,-1.133775 1.835205,-0.907021 1.605805,-1.81404 -0.458802,-1.360533 -1.147003,-0.453508 -1.605806,0.453508 -1.147003,0.680267 -0.229401,0.680266 -2.064607,0 -1.147002,-0.226756 -0.229401,-2.040796 -0.229402,-1.133776 -8.717226,-3.854838 c 0,0 -13.075841,-2.947815 -24.316476,4.761858 z"
       id="path3996"
       inkscape:connector-curvature="0" />
  </g>
  <g
     id="g3979"
     style="stroke:#ffffff;stroke-width:0.2;stroke-miterlimit:4;stroke-opacity:1;stroke-dasharray:none;filter:url(#filter4026)"
     transform="matrix(0.89861384,0,0,1.0057749,3.1110086,-3.3377819)">
    <g
       transform="translate(78.737439,2.9792544)"
       id="g3968"
       style="stroke:#ffffff;stroke-width:0.2;stroke-miterlimit:4;stroke-opacity:1;stroke-dasharray:none">
      <path
         style="fill:#ffffff;stroke:#ffffff;stroke-width:0.21435142;stroke-linecap:butt;stroke-linejoin:miter;stroke-miterlimit:4;stroke-opacity:1;stroke-dasharray:none"
         d="m -56.398835,57.831731 c 0,0 -5.276217,1.360532 -7.111422,-2.267551 -1.835205,-3.628081 0.458802,-4.761857 0.458802,-4.761857 l 2.982208,-2.040796 c 0,0 2.064606,-10.20398 9.864231,-7.256164 l 1.147004,2.947817 -0.917604,3.174572 -2.294008,5.215368 -1.147002,2.947816 c 0,0 -2.294009,2.26755 -2.982209,2.040795 z"
         id="path3186"
         inkscape:connector-curvature="0"
         sodipodi:nodetypes="cscccccccc" />
      <path
         style="fill:#ffffff;stroke:#ffffff;stroke-width:0.21435142;stroke-linecap:butt;stroke-linejoin:miter;stroke-miterlimit:4;stroke-opacity:1;stroke-dasharray:none"
         d="m -47.452208,40.825097 -1.835206,-0.907021 -0.917602,-2.040795 0,-1.814041 2.294007,-2.040796 2.752808,-1.360531 2.064606,0.226755 c 0,0 -4.588015,6.802653 -4.358613,7.936429 z"
         id="path3188"
         inkscape:connector-curvature="0" />
      <path
         style="fill:#ffffff;stroke:#ffffff;stroke-width:0.2;stroke-linecap:butt;stroke-linejoin:miter;stroke-miterlimit:4;stroke-opacity:1;stroke-dasharray:none"
         d="m -49.583306,61.738574 -1.702431,-2.340843 -0.851215,-1.064019 0.638411,-2.340843 4.681686,-11.065802 0.851216,-3.617666 c 0,0 6.171312,-10.001783 9.150567,-11.704214 2.979254,-1.702431 4.894489,-8.086548 4.894489,-8.086548 0,0 0.212804,-1.489627 1.06402,-1.702431 0.851215,-0.212804 5.320097,-1.489627 5.320097,-1.489627 l 12.129821,0 c 0,0 1.276824,-2.128039 4.2560776,4.468882 l 1.489627,2.340842 c 0,0 0.425608,0.638412 -0.425607,2.128039 -0.851216,1.489627 -1.702431,4.256078 -1.702431,4.256078 l -1.7024316,3.404862 -2.340842,4.89449 0.638411,3.192058 1.06402,2.553647 2.9792536,3.404862 1.489627,0.638411 2.340843,0.425608 0.425608,-2.76645 -0.212804,-0.425608 0.638412,-1.489627 c 0,0 1.489627,-0.851216 2.340843,-0.851216 0.851215,0 2.34084199,2.553647 1.064019,3.404862 -1.276823,0.851216 -1.489627,0.425608 -1.489627,0.425608 l -0.638412,1.915235 4.04327399,0 2.55364701,0 -0.212804,-0.638412 1.702431,-0.425607 c 0,0 3.83047,1.702431 0.212804,3.404862 l -2.979255,-0.425608 -4.681685,-0.212804 c 0,0 -0.851216,3.83047 -4.043274,3.617666 -3.192058,-0.212804 -6.3841166,0 -6.8097246,-1.276823 l -3.404862,-1.276823 -0.851215,-0.425608 c 0,0 -1.489628,1.702431 -2.128039,0.638412 -0.638412,-1.06402 -0.212804,-2.340843 -0.212804,-2.340843 l 1.702431,-0.425608 1.276823,0.638412 2.340843,0.851215 -2.340843,-3.404862 -1.702431,-2.766451 c 0,0 -4.043274,8.299352 -7.66094,10.852999 0,0 -11.704215,-2.553647 -23.195624,5.107293 z"
         id="path3190"
         inkscape:connector-curvature="0" />
    </g>
    <path
       inkscape:connector-curvature="0"
       id="path3977"
       d="m 28.991223,66.70662 9.40543,7.256164 7.799624,2.494307 5.735018,-1.360532 3.211608,1.133776 5.276216,1.133776 0,0.226755 1.605805,-0.226755 c 0,0 0,-2.721062 -0.917603,-2.721062 -0.917602,0 -1.835206,0.90702 -1.835206,0.90702 l -1.376404,-0.680265 -0.688201,-1.133773 0.688201,-0.680267 8.946629,-1.133776 1.835206,-0.90702 1.605804,-1.814041 -0.4588,-1.360531 -1.147004,-0.45351 -1.605805,0.45351 -1.147005,0.680265 -0.229401,0.680266 -2.064605,0 -1.147003,-0.226756 -0.229402,-2.040797 -0.229401,-1.133776 -8.717226,-3.854836 c 0,0 -13.07584,-2.947816 -24.316475,4.761858 z"
       style="fill:#ffffff;stroke:#ffffff;stroke-width:0.21435142;stroke-linecap:butt;stroke-linejoin:miter;stroke-miterlimit:4;stroke-opacity:1;stroke-dasharray:none"
       sodipodi:nodetypes="ccccccccscccccccccccccccccc" />
  </g>
</svg>
