<?xml version="1.0" encoding="UTF-8" standalone="no"?>
<!-- Created with Inkscape (http://www.inkscape.org/) -->

<svg
   xmlns:dc="http://purl.org/dc/elements/1.1/"
   xmlns:cc="http://creativecommons.org/ns#"
   xmlns:rdf="http://www.w3.org/1999/02/22-rdf-syntax-ns#"
   xmlns:svg="http://www.w3.org/2000/svg"
   xmlns="http://www.w3.org/2000/svg"
   xmlns:sodipodi="http://sodipodi.sourceforge.net/DTD/sodipodi-0.dtd"
   xmlns:inkscape="http://www.inkscape.org/namespaces/inkscape"
   width="48"
   height="48"
   id="svg2"
   version="1.1"
   inkscape:version="0.48.5 r10040"
   sodipodi:docname="dialog-information.svg">
  <defs
     id="defs4" />
  <sodipodi:namedview
     id="base"
     pagecolor="#868686"
     bordercolor="#666666"
     borderopacity="1.0"
     inkscape:pageopacity="0.36078431"
     inkscape:pageshadow="2"
     inkscape:zoom="15.771391"
     inkscape:cx="8.4528453"
     inkscape:cy="32.916793"
     inkscape:document-units="px"
     inkscape:current-layer="layer1"
     showgrid="false"
     inkscape:window-width="1366"
     inkscape:window-height="706"
     inkscape:window-x="-2"
     inkscape:window-y="-3"
     inkscape:window-maximized="1" />
  <metadata
     id="metadata7">
    <rdf:RDF>
      <cc:Work
         rdf:about="">
        <dc:format>image/svg+xml</dc:format>
        <dc:type
           rdf:resource="http://purl.org/dc/dcmitype/StillImage" />
        <dc:title />
      </cc:Work>
    </rdf:RDF>
  </metadata>
  <g
     inkscape:label="Capa 1"
     inkscape:groupmode="layer"
     id="layer1"
     transform="translate(0,-1004.3622)">
    <path
       style="fill:#ffffff;fill-opacity:1;fill-rule:evenodd;stroke:none"
       d="m 23.998047,1013.3622 c 1.832723,-10e-5 3.501953,1.6674 3.501953,3.5 0,1.8326 -1.66923,3.5001 -3.501953,3.5 -1.832723,-10e-5 -3.498047,-1.6676 -3.498047,-3.5 0,-1.8325 1.665324,-3.4999 3.498047,-3.5 z"
       id="rect3262"
       inkscape:connector-curvature="0"
       sodipodi:nodetypes="sssss" />
    <path
       style="fill:#4d4d4d;fill-opacity:1;fill-rule:evenodd;stroke:none"
       d="m 23.997608,1012.5764 c 2.244197,-1e-4 4.288194,2.0417 4.288194,4.2858 0,2.2441 -2.043997,4.2859 -4.288194,4.2858 -2.244196,-10e-5 -4.28341,-2.042 -4.28341,-4.2858 0,-2.244 2.039214,-4.2857 4.28341,-4.2858 z"
       id="path3831"
       inkscape:connector-curvature="0"
       sodipodi:nodetypes="sssss" />
    <rect
       style="fill:#4d4d4d;fill-opacity:1;fill-rule:evenodd;stroke:none"
       id="rect3872"
       width="4.4108601"
       height="19.882463"
       x="22.544569"
       y="1024.4042" />
    <rect
       style="fill:#4d4d4d;fill-opacity:1;fill-rule:evenodd;stroke:none"
       id="rect3876"
       width="6.2944221"
       height="3.9273624"
       x="18.365583"
       y="1024.4055" />
    <rect
       y="1039.7104"
       x="19.678705"
       height="4.6040235"
       width="10.14259"
       id="rect3874"
       style="fill:#4d4d4d;fill-opacity:1;fill-rule:evenodd;stroke:none" />
  </g>
</svg>
