<?xml version="1.0" encoding="UTF-8" standalone="no"?>
<!-- Created with Inkscape (http://www.inkscape.org/) -->

<svg
   xmlns:dc="http://purl.org/dc/elements/1.1/"
   xmlns:cc="http://creativecommons.org/ns#"
   xmlns:rdf="http://www.w3.org/1999/02/22-rdf-syntax-ns#"
   xmlns:svg="http://www.w3.org/2000/svg"
   xmlns="http://www.w3.org/2000/svg"
   xmlns:sodipodi="http://sodipodi.sourceforge.net/DTD/sodipodi-0.dtd"
   xmlns:inkscape="http://www.inkscape.org/namespaces/inkscape"
   width="48"
   height="48"
   id="svg2"
   version="1.1"
   inkscape:version="0.48.4 r9939"
   sodipodi:docname="image-loading.svg">
  <defs
     id="defs4" />
  <sodipodi:namedview
     id="base"
     pagecolor="#868686"
     bordercolor="#666666"
     borderopacity="1.0"
     inkscape:pageopacity="0.36078431"
     inkscape:pageshadow="2"
     inkscape:zoom="5.5760288"
     inkscape:cx="-26.598699"
     inkscape:cy="19.957145"
     inkscape:document-units="px"
     inkscape:current-layer="layer1"
     showgrid="false"
     inkscape:window-width="1366"
     inkscape:window-height="707"
     inkscape:window-x="0"
     inkscape:window-y="-1"
     inkscape:window-maximized="1"
     showguides="true" />
  <metadata
     id="metadata7">
    <rdf:RDF>
      <cc:Work
         rdf:about="">
        <dc:format>image/svg+xml</dc:format>
        <dc:type
           rdf:resource="http://purl.org/dc/dcmitype/StillImage" />
        <dc:title></dc:title>
      </cc:Work>
    </rdf:RDF>
  </metadata>
  <g
     inkscape:label="Capa 1"
     inkscape:groupmode="layer"
     id="layer1"
     transform="translate(0,-1004.3622)">
    <rect
       style="color:#000000;fill:#69b6df;fill-opacity:1;fill-rule:evenodd;stroke:none;stroke-width:1.20000005;marker:none;visibility:visible;display:inline;overflow:visible;enable-background:accumulate"
       id="rect3841"
       width="36.849731"
       height="36.902264"
       x="5.0724759"
       y="1009.8802"
       ry="1.8805801" />
    <path
       style="color:#000000;fill:#ffffff;fill-opacity:1;fill-rule:evenodd;stroke:none;stroke-width:1.20000005;marker:none;visibility:visible;display:inline;overflow:visible;enable-background:accumulate"
       d="m 13.907974,1020.7997 -2.61272,3.625 -6.232754,8.6563 0,12.375 c 0,0.7339 0.6142668,1.3125 1.3535778,1.3125 l 34.3745822,0 c 0.73931,0 1.322099,-0.5786 1.322099,-1.3125 l 0,-10.4688 -6.201276,-14.1875 -7.586331,0 -6.264232,11.5313 0.06295,-2.0313 -6.51606,-7.625 -1.605407,-1.875 -0.09444,0 z"
       id="rect3843"
       inkscape:connector-curvature="0" />
    <path
       sodipodi:type="star"
       style="color:#000000;fill:#ffffff;fill-opacity:1;fill-rule:evenodd;stroke:none;stroke-width:1.20000005;marker:none;visibility:visible;display:inline;overflow:visible;enable-background:accumulate"
       id="path3851"
       sodipodi:sides="3"
       sodipodi:cx="32.463844"
       sodipodi:cy="9.7028074"
       sodipodi:r1="4.69204"
       sodipodi:r2="2.3460202"
       sodipodi:arg1="1.5707963"
       sodipodi:arg2="2.6179939"
       inkscape:flatsided="false"
       inkscape:rounded="0"
       inkscape:randomized="0"
       d="m 32.463844,14.394847 -2.031713,-3.51903 -2.031713,-3.5190294 4.063426,-4e-7 4.063426,10e-8 -2.031713,3.5190307 z"
       transform="matrix(-2.5154945,-0.01470756,0.11058284,-3.2859997,110.70502,1059.4346)"
       inkscape:transform-center-y="-3.8245059"
       inkscape:transform-center-x="0.25944352" />
    <path
       sodipodi:type="arc"
       style="color:#000000;fill:#ffffff;fill-opacity:1;fill-rule:evenodd;stroke:none;stroke-width:1.20000005;marker:none;visibility:visible;display:inline;overflow:visible;enable-background:accumulate"
       id="path3860"
       sodipodi:cx="13.540102"
       sodipodi:cy="11.504493"
       sodipodi:rx="3.3177733"
       sodipodi:ry="3.1384344"
       d="m 16.857875,11.504493 a 3.3177733,3.1384344 0 1 1 -6.635546,0 3.3177733,3.1384344 0 1 1 6.635546,0 z"
       transform="translate(-1.793391,1003.2862)" />
    <g
       id="g3885"
       transform="matrix(1.4414376,0,0,1.4414376,-1.0895306,-460.35117)">
      <rect
         ry="0"
         y="1034.6077"
         x="22.744627"
         height="10.22233"
         width="2.5107474"
         id="rect3862"
         style="color:#000000;fill:#1a1a1a;fill-opacity:1;fill-rule:evenodd;stroke:none;stroke-width:1.20000005;marker:none;visibility:visible;display:inline;overflow:visible;enable-background:accumulate" />
      <path
         inkscape:transform-center-y="-1.1507724"
         transform="matrix(1.2510219,0,0,-1.115942,7.3975712,1068.0648)"
         d="m 13.271094,33.114854 -1.78609,-3.093599 -1.7860907,-3.093599 3.5721807,-10e-7 3.572181,0 -1.78609,3.0936 z"
         inkscape:randomized="0"
         inkscape:rounded="0"
         inkscape:flatsided="false"
         sodipodi:arg2="2.6179939"
         sodipodi:arg1="1.5707963"
         sodipodi:r2="2.0623999"
         sodipodi:r1="4.1247993"
         sodipodi:cy="28.990055"
         sodipodi:cx="13.271094"
         sodipodi:sides="3"
         id="path3864"
         style="color:#000000;fill:#1a1a1a;fill-opacity:1;fill-rule:evenodd;stroke:none;stroke-width:1.20000005;marker:none;visibility:visible;display:inline;overflow:visible;enable-background:accumulate"
         sodipodi:type="star" />
    </g>
  </g>
</svg>
