<?xml version="1.0" encoding="UTF-8" standalone="no"?>
<!-- Created with Inkscape (http://www.inkscape.org/) -->

<svg
   xmlns:dc="http://purl.org/dc/elements/1.1/"
   xmlns:cc="http://creativecommons.org/ns#"
   xmlns:rdf="http://www.w3.org/1999/02/22-rdf-syntax-ns#"
   xmlns:svg="http://www.w3.org/2000/svg"
   xmlns="http://www.w3.org/2000/svg"
   xmlns:xlink="http://www.w3.org/1999/xlink"
   xmlns:sodipodi="http://sodipodi.sourceforge.net/DTD/sodipodi-0.dtd"
   xmlns:inkscape="http://www.inkscape.org/namespaces/inkscape"
   version="1.0"
   width="96"
   height="96"
   id="svg2408"
   inkscape:version="0.48.4 r9939"
   sodipodi:docname="ccsm.svg">
  <sodipodi:namedview
     pagecolor="#ffffff"
     bordercolor="#666666"
     borderopacity="1"
     objecttolerance="10"
     gridtolerance="10"
     guidetolerance="10"
     inkscape:pageopacity="0"
     inkscape:pageshadow="2"
     inkscape:window-width="1366"
     inkscape:window-height="709"
     id="namedview77"
     showgrid="false"
     inkscape:zoom="2.4583333"
     inkscape:cx="48.40678"
     inkscape:cy="47.59322"
     inkscape:window-x="0"
     inkscape:window-y="-3"
     inkscape:window-maximized="1"
     inkscape:current-layer="svg2408" />
  <defs
     id="defs2410">
    <linearGradient
       id="linearGradient3656">
      <stop
         id="stop3658"
         style="stop-color:#0b70aa;stop-opacity:1"
         offset="0" />
      <stop
         id="stop3660"
         style="stop-color:#0b70aa;stop-opacity:0"
         offset="1" />
    </linearGradient>
    <linearGradient
       x1="45.447727"
       y1="92.539597"
       x2="45.447727"
       y2="7.0165396"
       id="ButtonShadow"
       gradientUnits="userSpaceOnUse"
       gradientTransform="scale(1.0058652,0.994169)">
      <stop
         id="stop3750"
         style="stop-color:#000000;stop-opacity:1"
         offset="0" />
      <stop
         id="stop3752"
         style="stop-color:#000000;stop-opacity:0.58823532"
         offset="1" />
    </linearGradient>
    <linearGradient
       id="linearGradient3737">
      <stop
         id="stop3739"
         style="stop-color:#ffffff;stop-opacity:1"
         offset="0" />
      <stop
         id="stop3741"
         style="stop-color:#ffffff;stop-opacity:0"
         offset="1" />
    </linearGradient>
    <filter
       color-interpolation-filters="sRGB"
       id="filter3174">
      <feGaussianBlur
         id="feGaussianBlur3176"
         stdDeviation="1.71" />
    </filter>
    <linearGradient
       x1="36.357143"
       y1="6"
       x2="36.357143"
       y2="63.893143"
       id="linearGradient3188"
       xlink:href="#linearGradient3737"
       gradientUnits="userSpaceOnUse" />
    <filter
       x="-0.192"
       y="-0.192"
       width="1.3839999"
       height="1.3839999"
       color-interpolation-filters="sRGB"
       id="filter3794">
      <feGaussianBlur
         id="feGaussianBlur3796"
         stdDeviation="5.28" />
    </filter>
    <linearGradient
       x1="48"
       y1="20.220806"
       x2="48"
       y2="138.66119"
       id="linearGradient3613"
       xlink:href="#linearGradient3737"
       gradientUnits="userSpaceOnUse" />
    <radialGradient
       cx="48"
       cy="90.171875"
       r="42"
       fx="48"
       fy="90.171875"
       id="radialGradient3619"
       xlink:href="#linearGradient3737"
       gradientUnits="userSpaceOnUse"
       gradientTransform="matrix(1.1573129,0,0,0.99590774,-7.5510206,0.19713193)" />
    <clipPath
       id="clipPath3613">
      <rect
         width="84"
         height="84"
         rx="6"
         ry="6"
         x="6"
         y="6"
         id="rect3615"
         style="fill:#ffffff;fill-opacity:1;fill-rule:nonzero;stroke:none" />
    </clipPath>
    <linearGradient
       x1="48"
       y1="90"
       x2="48"
       y2="5.9877172"
       id="linearGradient3617"
       xlink:href="#ButtonColor"
       gradientUnits="userSpaceOnUse" />
    <linearGradient
       x1="58.650177"
       y1="122"
       x2="58.650177"
       y2="5.4252338"
       id="ButtonColor"
       gradientUnits="userSpaceOnUse"
       gradientTransform="matrix(1.0172414,0,0,1.0172414,-1.1034483,-1.1034483)">
      <stop
         id="stop3189"
         style="stop-color:#037ac0;stop-opacity:1"
         offset="0" />
      <stop
         id="stop3191"
         style="stop-color:#7edafe;stop-opacity:1"
         offset="1" />
    </linearGradient>
    <linearGradient
       id="linearGradient3267">
      <stop
         id="stop3269"
         style="stop-color:#ffffff;stop-opacity:1"
         offset="0" />
      <stop
         id="stop3271"
         style="stop-color:#ffffff;stop-opacity:0"
         offset="1" />
    </linearGradient>
    <radialGradient
       cx="108.53934"
       cy="7.457119"
       r="56.542881"
       fx="108.53934"
       fy="7.457119"
       id="radialGradient2888"
       xlink:href="#linearGradient3267"
       gradientUnits="userSpaceOnUse"
       gradientTransform="matrix(-1.3703659,1.180354e-8,-1.2492802e-8,-1.4503877,228.44457,16.815712)" />
    <linearGradient
       id="linearGradient3282">
      <stop
         id="stop3284"
         style="stop-color:#ffffff;stop-opacity:1"
         offset="0" />
      <stop
         id="stop3286"
         style="stop-color:#dcdcdc;stop-opacity:1"
         offset="1" />
    </linearGradient>
    <linearGradient
       x1="49.847614"
       y1="13.927948"
       x2="49.847614"
       y2="115.20887"
       id="linearGradient2907"
       xlink:href="#linearGradient3282"
       gradientUnits="userSpaceOnUse"
       gradientTransform="matrix(0.67065867,0,0,0.67065867,13.101796,7.529888)" />
    <linearGradient
       id="linearGradient3305">
      <stop
         id="stop3307"
         style="stop-color:#dcdcdc;stop-opacity:1"
         offset="0" />
      <stop
         id="stop3309"
         style="stop-color:#ffffff;stop-opacity:0"
         offset="1" />
    </linearGradient>
    <linearGradient
       x1="76.35714"
       y1="82.500275"
       x2="76.35714"
       y2="24.070036"
       id="linearGradient3699"
       xlink:href="#linearGradient3305"
       gradientUnits="userSpaceOnUse" />
    <filter
       x="-0.15161195"
       y="-0.099296175"
       width="1.3032238"
       height="1.1985924"
       color-interpolation-filters="sRGB"
       id="filter3642">
      <feGaussianBlur
         id="feGaussianBlur3644"
         stdDeviation="2.8961385" />
    </filter>
    <clipPath
       id="clipPath3650">
      <rect
         width="84"
         height="84"
         rx="6"
         ry="6"
         x="6"
         y="26"
         id="rect3652"
         style="fill:url(#linearGradient3654);fill-opacity:1;fill-rule:nonzero;stroke:none" />
    </clipPath>
    <linearGradient
       x1="48"
       y1="90"
       x2="48"
       y2="5.9877172"
       id="linearGradient3654"
       xlink:href="#ButtonColor"
       gradientUnits="userSpaceOnUse"
       gradientTransform="translate(0,20)" />
    <linearGradient
       x1="45.447727"
       y1="92.539597"
       x2="45.447727"
       y2="7.0165396"
       id="ButtonShadow-0"
       gradientUnits="userSpaceOnUse"
       gradientTransform="matrix(1.0058652,0,0,0.994169,100,0)">
      <stop
         id="stop3750-8"
         style="stop-color:#000000;stop-opacity:1"
         offset="0" />
      <stop
         id="stop3752-5"
         style="stop-color:#000000;stop-opacity:0.58823532"
         offset="1" />
    </linearGradient>
    <linearGradient
       x1="32.251034"
       y1="6.1317081"
       x2="32.251034"
       y2="90.238609"
       id="linearGradient3780"
       xlink:href="#ButtonShadow-0"
       gradientUnits="userSpaceOnUse"
       gradientTransform="matrix(1.0238095,0,0,1.0119048,-1.1428571,-98.071429)" />
    <linearGradient
       x1="32.251034"
       y1="6.1317081"
       x2="32.251034"
       y2="90.238609"
       id="linearGradient3772"
       xlink:href="#ButtonShadow-0"
       gradientUnits="userSpaceOnUse"
       gradientTransform="matrix(1.0238095,0,0,1.0119048,-1.1428571,-98.071429)" />
    <linearGradient
       x1="32.251034"
       y1="6.1317081"
       x2="32.251034"
       y2="90.238609"
       id="linearGradient3725"
       xlink:href="#ButtonShadow-0"
       gradientUnits="userSpaceOnUse"
       gradientTransform="matrix(1.0238095,0,0,1.0119048,-1.1428571,-98.071429)" />
    <linearGradient
       x1="32.251034"
       y1="6.1317081"
       x2="32.251034"
       y2="90.238609"
       id="linearGradient3721"
       xlink:href="#ButtonShadow-0"
       gradientUnits="userSpaceOnUse"
       gradientTransform="translate(0,-97)" />
    <linearGradient
       x1="32.251034"
       y1="6.1317081"
       x2="32.251034"
       y2="90.238609"
       id="linearGradient3059"
       xlink:href="#ButtonShadow-0"
       gradientUnits="userSpaceOnUse"
       gradientTransform="matrix(1.0238095,0,0,1.0119048,-1.1428571,-98.071429)" />
    <linearGradient
       x1="22.406412"
       y1="36.600529"
       x2="57.689129"
       y2="103.0291"
       id="linearGradient3713"
       xlink:href="#linearGradient3656"
       gradientUnits="userSpaceOnUse" />
    <linearGradient
       x1="22.406412"
       y1="36.600529"
       x2="57.689129"
       y2="103.0291"
       id="linearGradient3717"
       xlink:href="#linearGradient3656"
       gradientUnits="userSpaceOnUse" />
    <linearGradient
       x1="22.406412"
       y1="36.600529"
       x2="57.689129"
       y2="103.0291"
       id="linearGradient3732"
       xlink:href="#linearGradient3656"
       gradientUnits="userSpaceOnUse"
       gradientTransform="translate(0,-20)" />
    <linearGradient
       x1="22.406412"
       y1="36.600529"
       x2="57.689129"
       y2="103.0291"
       id="linearGradient3740"
       xlink:href="#linearGradient3656"
       gradientUnits="userSpaceOnUse"
       gradientTransform="translate(0,-20)" />
    <linearGradient
       inkscape:collect="always"
       xlink:href="#ButtonColor"
       id="linearGradient3054"
       gradientUnits="userSpaceOnUse"
       x1="48"
       y1="90"
       x2="48"
       y2="5.9877172" />
    <linearGradient
       inkscape:collect="always"
       xlink:href="#linearGradient3737"
       id="linearGradient3056"
       gradientUnits="userSpaceOnUse"
       x1="36.357143"
       y1="6"
       x2="36.357143"
       y2="63.893143" />
    <linearGradient
       inkscape:collect="always"
       xlink:href="#linearGradient3305"
       id="linearGradient3058"
       gradientUnits="userSpaceOnUse"
       x1="76.35714"
       y1="82.500275"
       x2="76.35714"
       y2="24.070036" />
    <radialGradient
       inkscape:collect="always"
       xlink:href="#linearGradient3737"
       id="radialGradient3060"
       gradientUnits="userSpaceOnUse"
       gradientTransform="matrix(1.1573129,0,0,0.99590774,-7.5510206,0.19713193)"
       cx="48"
       cy="90.171875"
       fx="48"
       fy="90.171875"
       r="42" />
    <linearGradient
       inkscape:collect="always"
       xlink:href="#linearGradient3656"
       id="linearGradient3062"
       gradientUnits="userSpaceOnUse"
       gradientTransform="translate(0,-20)"
       x1="22.406412"
       y1="36.600529"
       x2="57.689129"
       y2="103.0291" />
    <linearGradient
       inkscape:collect="always"
       xlink:href="#linearGradient3656"
       id="linearGradient3064"
       gradientUnits="userSpaceOnUse"
       gradientTransform="translate(0,-20)"
       x1="22.406412"
       y1="36.600529"
       x2="57.689129"
       y2="103.0291" />
    <linearGradient
       inkscape:collect="always"
       xlink:href="#linearGradient3656"
       id="linearGradient3066"
       gradientUnits="userSpaceOnUse"
       x1="22.406412"
       y1="36.600529"
       x2="57.689129"
       y2="103.0291" />
    <linearGradient
       inkscape:collect="always"
       xlink:href="#linearGradient3282"
       id="linearGradient3068"
       gradientUnits="userSpaceOnUse"
       gradientTransform="matrix(0.67065867,0,0,0.67065867,13.101796,7.529888)"
       x1="49.847614"
       y1="13.927948"
       x2="49.847614"
       y2="115.20887" />
    <radialGradient
       inkscape:collect="always"
       xlink:href="#linearGradient3267"
       id="radialGradient3070"
       gradientUnits="userSpaceOnUse"
       gradientTransform="matrix(-1.3703659,1.180354e-8,-1.2492802e-8,-1.4503877,228.44457,16.815712)"
       cx="108.53934"
       cy="7.457119"
       fx="108.53934"
       fy="7.457119"
       r="56.542881" />
    <linearGradient
       inkscape:collect="always"
       xlink:href="#linearGradient3656"
       id="linearGradient3072"
       gradientUnits="userSpaceOnUse"
       x1="22.406412"
       y1="36.600529"
       x2="57.689129"
       y2="103.0291" />
    <radialGradient
       inkscape:collect="always"
       xlink:href="#linearGradient3267"
       id="radialGradient3076"
       gradientUnits="userSpaceOnUse"
       gradientTransform="matrix(-1.3703659,1.180354e-8,-1.2492802e-8,-1.4503877,228.44457,16.815712)"
       cx="108.53934"
       cy="7.457119"
       fx="108.53934"
       fy="7.457119"
       r="56.542881" />
    <linearGradient
       inkscape:collect="always"
       xlink:href="#linearGradient3282"
       id="linearGradient3079"
       gradientUnits="userSpaceOnUse"
       gradientTransform="matrix(0.67065867,0,0,0.67065867,13.101796,7.529888)"
       x1="49.847614"
       y1="13.927948"
       x2="49.847614"
       y2="115.20887" />
    <linearGradient
       inkscape:collect="always"
       xlink:href="#linearGradient3656"
       id="linearGradient3082"
       gradientUnits="userSpaceOnUse"
       x1="22.406412"
       y1="36.600529"
       x2="57.689129"
       y2="103.0291"
       gradientTransform="translate(0,-20)" />
    <linearGradient
       inkscape:collect="always"
       xlink:href="#linearGradient3656"
       id="linearGradient3085"
       gradientUnits="userSpaceOnUse"
       gradientTransform="translate(0,-20)"
       x1="22.406412"
       y1="36.600529"
       x2="57.689129"
       y2="103.0291" />
    <linearGradient
       inkscape:collect="always"
       xlink:href="#linearGradient3656"
       id="linearGradient3088"
       gradientUnits="userSpaceOnUse"
       gradientTransform="translate(0,-20)"
       x1="22.406412"
       y1="36.600529"
       x2="57.689129"
       y2="103.0291" />
    <radialGradient
       inkscape:collect="always"
       xlink:href="#linearGradient3737"
       id="radialGradient3091"
       gradientUnits="userSpaceOnUse"
       gradientTransform="matrix(1.1573129,0,0,0.99590774,-7.5510206,0.19713193)"
       cx="48"
       cy="90.171875"
       fx="48"
       fy="90.171875"
       r="42" />
    <linearGradient
       inkscape:collect="always"
       xlink:href="#linearGradient3305"
       id="linearGradient3094"
       gradientUnits="userSpaceOnUse"
       x1="76.35714"
       y1="82.500275"
       x2="76.35714"
       y2="24.070036" />
    <linearGradient
       inkscape:collect="always"
       xlink:href="#linearGradient3737"
       id="linearGradient3097"
       gradientUnits="userSpaceOnUse"
       x1="36.357143"
       y1="6"
       x2="36.357143"
       y2="63.893143" />
  </defs>
  <metadata
     id="metadata2413">
    <rdf:RDF>
      <cc:Work
         rdf:about="">
        <dc:format>image/svg+xml</dc:format>
        <dc:type
           rdf:resource="http://purl.org/dc/dcmitype/StillImage" />
      </cc:Work>
    </rdf:RDF>
  </metadata>
  <g
     id="layer2"
     style="display:none">
    <rect
       width="86"
       height="85"
       rx="6"
       ry="6"
       x="5"
       y="7"
       id="rect3745"
       style="opacity:0.9;fill:url(#ButtonShadow);fill-opacity:1;fill-rule:nonzero;stroke:none;filter:url(#filter3174)" />
  </g>
  <rect
     style="fill:#43ace0;fill-opacity:1;fill-rule:nonzero;stroke:none"
     id="rect2419"
     y="6"
     x="6"
     ry="6"
     rx="0"
     height="84"
     width="84" />
  <path
     inkscape:connector-curvature="0"
     style="opacity:0.1;fill:url(#linearGradient3088);fill-opacity:1;fill-rule:evenodd;stroke:none;display:inline"
     id="path3738"
     d="m 23.5625,14.96875 c -1.202928,0.158315 -2.045014,1.068148 -2.375,1.96875 -0.318168,0.86835 -0.322975,1.73697 -0.25,2.5 3.9e-5,0.03124 -3.9e-5,0.06251 0,0.09375 0.02046,16.515719 -0.04153,33.059941 0.03125,49.5625 a 0.96408607,0.96408607 0 0 0 0,0.15625 c 0.39765,2.65807 4.118918,3.328084 5.53125,1.125 l 0.03125,0.03125 9.90625,-11.875 c 4.574934,10.328001 9.094307,20.690838 13.71875,31 A 0.96408607,0.96408607 0 0 0 50.25,89.6875 c 0.771525,1.092971 2.030534,1.374568 3.03125,1.375 1.000716,4.32e-4 1.910948,-0.155533 2.5,-0.09375 a 0.96408607,0.96408607 0 0 0 0.125,0 c 4.842021,-0.140601 9.716874,-0.149061 14.59375,-0.375 a 0.96408607,0.96408607 0 0 0 0.25,-0.03125 c 1.186773,-0.361174 1.907694,-1.415605 2.0625,-2.46875 0.145441,-0.989433 -0.149075,-2.044594 -0.90625,-2.8125 L 71.78125,85.125 48.75,51.71875 c 5.687479,0.02585 11.410817,0.163511 17.125,0.0625 A 0.96408607,0.96408607 0 0 0 66.0625,51.75 c 2.644198,-0.577356 3.033788,-4.294477 0.78125,-5.59375 L 66.875,46.125 C 53.092033,35.896076 39.352689,25.588584 25.53125,15.40625 c -0.679045,-0.47124 -1.414001,-0.451398 -1.875,-0.4375 a 0.96408607,0.96408607 0 0 0 -0.09375,0 z" />
  <path
     style="opacity:0.15;fill:url(#linearGradient3085);fill-opacity:1;fill-rule:evenodd;stroke:none;display:inline"
     id="path3724"
     inkscape:connector-curvature="0"
     d="m 23.6875,15.9375 c -1.73192,0.227934 -1.925246,2.11008 -1.78125,3.493103 0.02082,16.550075 -0.04164,33.134644 0.03125,49.663147 0.276802,1.850268 2.953677,2.323754 3.854026,0.694048 3.631991,-4.356349 7.263983,-8.712699 10.895974,-13.069048 4.789634,10.796872 9.512214,21.63542 14.34375,32.40625 1.114117,1.5783 3.243473,0.70161 4.851797,0.8703 4.859535,-0.14111 9.73751,-0.14599 14.585703,-0.3706 1.638765,-0.49873 1.862923,-2.70166 0.656255,-3.77605 C 63.052087,74.14907 54.979168,62.449485 46.90625,50.7499 c 6.310418,-0.0014 12.637385,0.173869 18.9375,0.0625 1.831743,-0.399958 2.065166,-3.078947 0.4631,-3.901047 C 52.521206,36.680442 38.785683,26.366415 24.96875,16.1874 24.587654,15.922929 24.130135,15.924156 23.6875,15.9375 z" />
  <path
     inkscape:connector-curvature="0"
     style="opacity:0.3;fill:url(#linearGradient3082);fill-opacity:1;fill-rule:evenodd;stroke:none;display:inline"
     id="path3715"
     d="M 23.9375,17 A 0.99219516,0.99219516 0 0 0 23,18 l 0,50.75 a 0.99219516,0.99219516 0 0 0 1.75,0.625 L 37,54.6875 51.875,88.40625 A 0.99219516,0.99219516 0 0 0 52.8125,89 L 69.875,88.625 a 0.99219516,0.99219516 0 0 0 0.78125,-1.5625 l -25.8125,-37.4375 20.5,0.15625 A 0.99219516,0.99219516 0 0 0 65.9375,48 L 24.59375,17.21875 A 0.99219516,0.99219516 0 0 0 23.9375,17 z" />
  <path
     style="fill:url(#linearGradient3079);fill-opacity:1;fill-rule:evenodd;stroke:none;display:inline"
     id="path3277"
     inkscape:connector-curvature="0"
     d="M 69.84554,87.630006 42.951853,48.587706 65.329341,48.776328 24,18.00893 24,68.74845 37.266467,52.841265 52.775263,88.00893 69.84554,87.630006 z" />
  <g
     id="layer5"
     style="display:none">
    <rect
       width="66"
       height="66"
       rx="12"
       ry="12"
       x="15"
       y="15"
       clip-path="url(#clipPath3613)"
       id="rect3171"
       style="opacity:0.1;fill:url(#linearGradient3613);fill-opacity:1;fill-rule:nonzero;stroke:#ffffff;stroke-width:0.5;stroke-linecap:round;stroke-linejoin:miter;stroke-miterlimit:4;stroke-opacity:1;stroke-dasharray:none;stroke-dashoffset:0;filter:url(#filter3794)" />
  </g>
</svg>
