<?xml version="1.0" encoding="UTF-8" standalone="no"?>
<!-- Created with Inkscape (http://www.inkscape.org/) -->

<svg
   xmlns:dc="http://purl.org/dc/elements/1.1/"
   xmlns:cc="http://creativecommons.org/ns#"
   xmlns:rdf="http://www.w3.org/1999/02/22-rdf-syntax-ns#"
   xmlns:svg="http://www.w3.org/2000/svg"
   xmlns="http://www.w3.org/2000/svg"
   xmlns:xlink="http://www.w3.org/1999/xlink"
   xmlns:sodipodi="http://sodipodi.sourceforge.net/DTD/sodipodi-0.dtd"
   xmlns:inkscape="http://www.inkscape.org/namespaces/inkscape"
   version="1.0"
   width="96"
   height="96"
   id="svg2408"
   style="enable-background:new"
   inkscape:version="0.48.4 r9939"
   sodipodi:docname="kpager.svg">
  <sodipodi:namedview
     pagecolor="#ffffff"
     bordercolor="#666666"
     borderopacity="1"
     objecttolerance="10"
     gridtolerance="10"
     guidetolerance="10"
     inkscape:pageopacity="0"
     inkscape:pageshadow="2"
     inkscape:window-width="602"
     inkscape:window-height="455"
     id="namedview317"
     showgrid="false"
     inkscape:zoom="4.6485035"
     inkscape:cx="76.093501"
     inkscape:cy="45.508943"
     inkscape:window-x="627"
     inkscape:window-y="77"
     inkscape:window-maximized="0"
     inkscape:current-layer="svg2408" />
  <defs
     id="defs2410">
    <linearGradient
       id="linearGradient4490">
      <stop
         id="stop4492"
         style="stop-color:#ececec;stop-opacity:0"
         offset="0" />
      <stop
         id="stop4498"
         style="stop-color:#cccccc;stop-opacity:1"
         offset="0.23398043" />
      <stop
         id="stop4496"
         style="stop-color:#e6e6e6;stop-opacity:1"
         offset="0.50230217" />
      <stop
         id="stop4494"
         style="stop-color:#aaaaaa;stop-opacity:1"
         offset="1" />
    </linearGradient>
    <linearGradient
       id="linearGradient4316">
      <stop
         id="stop4318"
         style="stop-color:#000000;stop-opacity:0.7681818"
         offset="0" />
      <stop
         id="stop4326"
         style="stop-color:#000000;stop-opacity:0"
         offset="0.06176317" />
      <stop
         id="stop4324"
         style="stop-color:#ffffff;stop-opacity:0"
         offset="0.93853289" />
      <stop
         id="stop4320"
         style="stop-color:#ffffff;stop-opacity:1"
         offset="1" />
    </linearGradient>
    <linearGradient
       id="linearGradient4304">
      <stop
         id="stop4306"
         style="stop-color:#1a1a1a;stop-opacity:1"
         offset="0" />
      <stop
         id="stop4312"
         style="stop-color:#666666;stop-opacity:1"
         offset="0.30357143" />
      <stop
         id="stop4308"
         style="stop-color:#000000;stop-opacity:1"
         offset="1" />
    </linearGradient>
    <linearGradient
       id="linearGradient4294">
      <stop
         id="stop4296"
         style="stop-color:#999999;stop-opacity:1"
         offset="0" />
      <stop
         id="stop4302"
         style="stop-color:#e6e6e6;stop-opacity:1"
         offset="0.35267857" />
      <stop
         id="stop4298"
         style="stop-color:#1f1f1f;stop-opacity:1"
         offset="1" />
    </linearGradient>
    <linearGradient
       id="linearGradient4229">
      <stop
         id="stop4231"
         style="stop-color:#cca050;stop-opacity:1"
         offset="0" />
      <stop
         id="stop4233"
         style="stop-color:#dec18c;stop-opacity:1"
         offset="1" />
    </linearGradient>
    <filter
       x="-0.29411685"
       y="-0.58931339"
       width="1.5882337"
       height="2.1786268"
       color-interpolation-filters="sRGB"
       id="filter3342">
      <feGaussianBlur
         stdDeviation="2.2029067"
         id="feGaussianBlur3344" />
    </filter>
    <linearGradient
       x1="11.794092"
       y1="3.2126782"
       x2="11.794092"
       y2="20.137329"
       id="linearGradient3317"
       gradientUnits="userSpaceOnUse"
       gradientTransform="scale(1.0598527,0.9435274)">
      <stop
         id="stop3319"
         style="stop-color:#c6953a;stop-opacity:1"
         offset="0" />
      <stop
         id="stop3321"
         style="stop-color:#ab7a1f;stop-opacity:1"
         offset="1" />
    </linearGradient>
    <linearGradient
       id="linearGradient3348">
      <stop
         id="stop3350"
         style="stop-color:#e0c693;stop-opacity:1"
         offset="0" />
      <stop
         id="stop3356"
         style="stop-color:#c0984f;stop-opacity:1"
         offset="0.71691591" />
      <stop
         id="stop3352"
         style="stop-color:#a67315;stop-opacity:1"
         offset="1" />
    </linearGradient>
    <linearGradient
       id="linearGradient3687">
      <stop
         id="stop3689"
         style="stop-color:#ffffff;stop-opacity:1"
         offset="0" />
      <stop
         id="stop3691"
         style="stop-color:#ffffff;stop-opacity:0"
         offset="1" />
    </linearGradient>
    <linearGradient
       id="linearGradient3487">
      <stop
         id="stop3489"
         style="stop-color:#7cb7f2;stop-opacity:1"
         offset="0" />
      <stop
         id="stop3491"
         style="stop-color:#deecfc;stop-opacity:0"
         offset="1" />
    </linearGradient>
    <linearGradient
       x1="60.413662"
       y1="106.16137"
       x2="46.921165"
       y2="110.65887"
       id="linearGradient10494"
       xlink:href="#linearGradient4368"
       gradientUnits="userSpaceOnUse" />
    <linearGradient
       x1="43.245415"
       y1="104.21532"
       x2="48.193569"
       y2="93.471298"
       id="linearGradient10492"
       xlink:href="#linearGradient4360"
       gradientUnits="userSpaceOnUse" />
    <linearGradient
       x1="66.740204"
       y1="63.588692"
       x2="75.281227"
       y2="80.814972"
       id="linearGradient10490"
       xlink:href="#linearGradient4360"
       gradientUnits="userSpaceOnUse" />
    <linearGradient
       x1="52.105541"
       y1="76.541229"
       x2="61.130371"
       y2="68.295815"
       id="linearGradient10488"
       xlink:href="#linearGradient4368"
       gradientUnits="userSpaceOnUse" />
    <linearGradient
       id="linearGradient4368">
      <stop
         id="stop4370"
         style="stop-color:#828282;stop-opacity:1"
         offset="0" />
      <stop
         id="stop4372"
         style="stop-color:#5a5a5a;stop-opacity:1"
         offset="1" />
    </linearGradient>
    <linearGradient
       x1="82.855774"
       y1="87.433334"
       x2="86.748848"
       y2="97.972473"
       id="linearGradient10486"
       xlink:href="#linearGradient4368"
       gradientUnits="userSpaceOnUse" />
    <linearGradient
       id="linearGradient4360">
      <stop
         id="stop4362"
         style="stop-color:#6e6e6e;stop-opacity:1"
         offset="0" />
      <stop
         id="stop4364"
         style="stop-color:#8c8c8c;stop-opacity:1"
         offset="1" />
    </linearGradient>
    <linearGradient
       x1="87.228699"
       y1="103.55167"
       x2="69.920662"
       y2="103.55167"
       id="linearGradient10484"
       xlink:href="#linearGradient4360"
       gradientUnits="userSpaceOnUse" />
    <linearGradient
       id="linearGradient7097">
      <stop
         id="stop7099"
         style="stop-color:#919191;stop-opacity:1"
         offset="0" />
      <stop
         id="stop7101"
         style="stop-color:#ffffff;stop-opacity:1"
         offset="1" />
    </linearGradient>
    <linearGradient
       x1="48.22263"
       y1="13.313221"
       x2="48.22263"
       y2="47.795158"
       id="linearGradient10482"
       xlink:href="#linearGradient7097"
       gradientUnits="userSpaceOnUse" />
    <linearGradient
       x1="26.98472"
       y1="5"
       x2="26.98472"
       y2="110.67213"
       id="linearGradient10478"
       xlink:href="#linearGradient7155"
       gradientUnits="userSpaceOnUse"
       gradientTransform="matrix(0.02119426,0,0,0.1689854,-18.016531,0.1550765)" />
    <linearGradient
       x1="26.98472"
       y1="5"
       x2="26.98472"
       y2="176.64893"
       id="linearGradient10476"
       xlink:href="#linearGradient7175"
       gradientUnits="userSpaceOnUse"
       gradientTransform="matrix(0.0668628,0,0,0.1689854,-4.1694296,0.2147903)" />
    <linearGradient
       x1="26.98472"
       y1="5"
       x2="26.98472"
       y2="68.695473"
       id="linearGradient10474"
       xlink:href="#linearGradient7155"
       gradientUnits="userSpaceOnUse"
       gradientTransform="matrix(0.03377223,0,0,0.1689854,-2.2527661,0.1550765)" />
    <linearGradient
       x1="26.98472"
       y1="5"
       x2="26.98472"
       y2="120.63893"
       id="linearGradient10472"
       xlink:href="#linearGradient7175"
       gradientUnits="userSpaceOnUse"
       gradientTransform="matrix(0.1847079,0,0,-0.1689854,-12.946607,21.844927)" />
    <linearGradient
       id="linearGradient7175">
      <stop
         id="stop7177"
         style="stop-color:#000000;stop-opacity:1"
         offset="0" />
      <stop
         id="stop7179"
         style="stop-color:#000000;stop-opacity:0"
         offset="1" />
    </linearGradient>
    <linearGradient
       x1="26.98472"
       y1="5"
       x2="26.98472"
       y2="70.167"
       id="linearGradient10470"
       xlink:href="#linearGradient7175"
       gradientUnits="userSpaceOnUse"
       gradientTransform="matrix(0.2287308,0,0,-0.1689854,-19.269799,21.785214)" />
    <linearGradient
       x1="26.98472"
       y1="5"
       x2="26.98472"
       y2="68.695473"
       id="linearGradient10468"
       xlink:href="#linearGradient7155"
       gradientUnits="userSpaceOnUse"
       gradientTransform="matrix(0.08408413,0,0,-0.1689854,-18.299613,21.785214)" />
    <linearGradient
       x1="26.98472"
       y1="54.295403"
       x2="26.98472"
       y2="96.039551"
       id="linearGradient10466"
       xlink:href="#linearGradient7155"
       gradientUnits="userSpaceOnUse"
       gradientTransform="matrix(0.06836166,0,0,-0.1689854,-12.165668,21.785214)"
       spreadMethod="reflect" />
    <linearGradient
       id="linearGradient7155">
      <stop
         id="stop7157"
         style="stop-color:#ffffff;stop-opacity:1"
         offset="0" />
      <stop
         id="stop7159"
         style="stop-color:#ffffff;stop-opacity:0"
         offset="1" />
    </linearGradient>
    <linearGradient
       x1="26.98472"
       y1="5"
       x2="26.98472"
       y2="110.74494"
       id="linearGradient10464"
       xlink:href="#linearGradient7155"
       gradientUnits="userSpaceOnUse"
       gradientTransform="matrix(0.1689854,0,0,0.1689854,-9.1486043,0.1550765)" />
    <linearGradient
       id="linearGradient11084">
      <stop
         id="stop11086"
         style="stop-color:#a0a0a0;stop-opacity:1"
         offset="0" />
      <stop
         id="stop11088"
         style="stop-color:#dcdcdc;stop-opacity:1"
         offset="0.1362071" />
      <stop
         id="stop11090"
         style="stop-color:#f5f5f5;stop-opacity:1"
         offset="0.3023597" />
      <stop
         id="stop11092"
         style="stop-color:#dcdcdc;stop-opacity:1"
         offset="0.61225069" />
      <stop
         id="stop11094"
         style="stop-color:#b4b4b4;stop-opacity:1"
         offset="1" />
    </linearGradient>
    <linearGradient
       x1="-3.0607977"
       y1="27.258198"
       x2="-3.0607977"
       y2="7.2536583"
       id="linearGradient10519"
       xlink:href="#linearGradient11084"
       gradientUnits="userSpaceOnUse"
       gradientTransform="matrix(0,1,-1,0,28.258198,11.119372)" />
    <linearGradient
       id="linearGradient7105">
      <stop
         id="stop7107"
         style="stop-color:#515151;stop-opacity:1"
         offset="0" />
      <stop
         id="stop7113"
         style="stop-color:#1b1b1b;stop-opacity:1"
         offset="1" />
    </linearGradient>
    <radialGradient
       cx="65.547707"
       cy="32.811893"
       r="51.413425"
       fx="65.547707"
       fy="32.811893"
       id="radialGradient10522"
       xlink:href="#linearGradient7105"
       gradientUnits="userSpaceOnUse"
       gradientTransform="matrix(0.1465701,0,0,0.08025129,1.4499666,4.3830053)" />
    <linearGradient
       x1="11.375"
       y1="22"
       x2="11.375"
       y2="-9.817296"
       id="linearGradient10458"
       xlink:href="#linearGradient3327"
       gradientUnits="userSpaceOnUse" />
    <linearGradient
       id="linearGradient3295">
      <stop
         id="stop3297"
         style="stop-color:#559829;stop-opacity:1"
         offset="0" />
      <stop
         id="stop3299"
         style="stop-color:#86c837;stop-opacity:1"
         offset="1" />
    </linearGradient>
    <linearGradient
       x1="12"
       y1="16.5"
       x2="21"
       y2="16.5"
       id="linearGradient3301"
       xlink:href="#linearGradient3295"
       gradientUnits="userSpaceOnUse"
       gradientTransform="translate(-33,0)" />
    <linearGradient
       id="linearGradient3287">
      <stop
         id="stop3289"
         style="stop-color:#cd0000;stop-opacity:1"
         offset="0" />
      <stop
         id="stop3291"
         style="stop-color:#e55300;stop-opacity:1"
         offset="1" />
    </linearGradient>
    <linearGradient
       x1="1"
       y1="16.5"
       x2="10"
       y2="16.5"
       id="linearGradient3293"
       xlink:href="#linearGradient3287"
       gradientUnits="userSpaceOnUse"
       gradientTransform="translate(-22,-11)" />
    <linearGradient
       id="linearGradient3279">
      <stop
         id="stop3281"
         style="stop-color:#f08e00;stop-opacity:1"
         offset="0" />
      <stop
         id="stop3283"
         style="stop-color:#ffd200;stop-opacity:1"
         offset="1" />
    </linearGradient>
    <linearGradient
       x1="12"
       y1="5.5"
       x2="21"
       y2="5.5"
       id="linearGradient3285"
       xlink:href="#linearGradient3279"
       gradientUnits="userSpaceOnUse"
       gradientTransform="translate(-22,11)" />
    <linearGradient
       id="linearGradient3271">
      <stop
         id="stop3273"
         style="stop-color:#395d93;stop-opacity:1"
         offset="0" />
      <stop
         id="stop3275"
         style="stop-color:#6e92c7;stop-opacity:1"
         offset="1" />
    </linearGradient>
    <linearGradient
       x1="1"
       y1="5.5"
       x2="10"
       y2="5.5"
       id="linearGradient3277"
       xlink:href="#linearGradient3271"
       gradientUnits="userSpaceOnUse"
       gradientTransform="translate(-11,0)" />
    <linearGradient
       x1="5.5"
       y1="11.000125"
       x2="5.2813716"
       y2="-5.1948667"
       id="linearGradient3251"
       xlink:href="#linearGradient3327"
       gradientUnits="userSpaceOnUse" />
    <linearGradient
       x1="5.5"
       y1="11.000125"
       x2="5.2813716"
       y2="-5.1948667"
       id="linearGradient3261"
       xlink:href="#linearGradient3327"
       gradientUnits="userSpaceOnUse"
       gradientTransform="translate(11,0)" />
    <linearGradient
       x1="5.5"
       y1="11.000125"
       x2="5.2813716"
       y2="-5.1948667"
       id="linearGradient3269"
       xlink:href="#linearGradient3327"
       gradientUnits="userSpaceOnUse"
       gradientTransform="translate(0,11)" />
    <linearGradient
       x1="5.5"
       y1="11.000125"
       x2="5.2813716"
       y2="-5.1948667"
       id="linearGradient3267"
       xlink:href="#linearGradient3327"
       gradientUnits="userSpaceOnUse"
       gradientTransform="translate(11,11)" />
    <linearGradient
       id="linearGradient3327">
      <stop
         id="stop3330"
         style="stop-color:#000000;stop-opacity:1"
         offset="0" />
      <stop
         id="stop3333"
         style="stop-color:#000000;stop-opacity:0"
         offset="1" />
    </linearGradient>
    <linearGradient
       id="linearGradient3175">
      <stop
         id="stop3177"
         style="stop-color:#4490e6;stop-opacity:1"
         offset="0" />
      <stop
         id="stop3179"
         style="stop-color:#103d8f;stop-opacity:1"
         offset="1" />
    </linearGradient>
    <radialGradient
       cx="56.065952"
       cy="-15.871236"
       r="35.9375"
       fx="56.065952"
       fy="-15.871236"
       id="radialGradient3465"
       xlink:href="#linearGradient3175"
       gradientUnits="userSpaceOnUse"
       gradientTransform="matrix(0.00225966,0.925477,-1.3844339,0,25.901984,-30.21143)" />
    <linearGradient
       x1="58.650177"
       y1="122"
       x2="58.650177"
       y2="5.4252338"
       id="ButtonColor"
       gradientUnits="userSpaceOnUse"
       gradientTransform="matrix(1.0172414,0,0,1.0172414,-1.1034483,-1.1034483)">
      <stop
         id="stop3792"
         style="stop-color:#2fc044;stop-opacity:1"
         offset="0" />
      <stop
         id="stop3794"
         style="stop-color:#246d2f;stop-opacity:1"
         offset="1" />
    </linearGradient>
    <linearGradient
       id="linearGradient3465">
      <stop
         id="stop3467"
         style="stop-color:#919191;stop-opacity:1"
         offset="0" />
      <stop
         id="stop3469"
         style="stop-color:#fdfdfd;stop-opacity:1"
         offset="1" />
    </linearGradient>
    <linearGradient
       id="linearGradient3187">
      <stop
         id="stop3189"
         style="stop-color:#b4b4b4;stop-opacity:1"
         offset="0" />
      <stop
         id="stop3191"
         style="stop-color:#e6e6e6;stop-opacity:1"
         offset="1" />
    </linearGradient>
    <linearGradient
       x1="45.447727"
       y1="92.539597"
       x2="45.447727"
       y2="7.0165396"
       id="ButtonShadow"
       gradientUnits="userSpaceOnUse"
       gradientTransform="scale(1.0058652,0.994169)">
      <stop
         id="stop3750"
         style="stop-color:#000000;stop-opacity:1"
         offset="0" />
      <stop
         id="stop3752"
         style="stop-color:#000000;stop-opacity:0.58823532"
         offset="1" />
    </linearGradient>
    <linearGradient
       id="linearGradient3737">
      <stop
         id="stop3739"
         style="stop-color:#ffffff;stop-opacity:1"
         offset="0" />
      <stop
         id="stop3741"
         style="stop-color:#ffffff;stop-opacity:0"
         offset="1" />
    </linearGradient>
    <filter
       color-interpolation-filters="sRGB"
       id="filter3174">
      <feGaussianBlur
         id="feGaussianBlur3176"
         stdDeviation="1.71" />
    </filter>
    <linearGradient
       x1="36.357143"
       y1="6"
       x2="36.357143"
       y2="63.893143"
       id="linearGradient3188"
       xlink:href="#linearGradient3737"
       gradientUnits="userSpaceOnUse" />
    <linearGradient
       x1="43.17857"
       y1="13"
       x2="43.17857"
       y2="83.294571"
       id="linearGradient3436"
       xlink:href="#linearGradient3465"
       gradientUnits="userSpaceOnUse"
       gradientTransform="matrix(1.0294118,0,0,1.0294118,-1.4117647,-1.4117647)" />
    <radialGradient
       cx="47.098362"
       cy="80.842926"
       r="38.957481"
       fx="47.098362"
       fy="80.842926"
       id="radialGradient3366"
       xlink:href="#ButtonColor"
       gradientUnits="userSpaceOnUse"
       gradientTransform="matrix(1.3112996,-5.281739e-8,4.5811678e-8,1.1373685,-14.661706,-10.847943)" />
    <linearGradient
       x1="48"
       y1="90"
       x2="48"
       y2="5.9877172"
       id="linearGradient3466"
       xlink:href="#linearGradient3187"
       gradientUnits="userSpaceOnUse" />
    <linearGradient
       x1="76.45089"
       y1="8.0625"
       x2="76.45089"
       y2="72.765785"
       id="linearGradient3693"
       xlink:href="#linearGradient3687"
       gradientUnits="userSpaceOnUse" />
    <linearGradient
       x1="65.15625"
       y1="16.125"
       x2="65.15625"
       y2="69.687508"
       id="linearGradient3701"
       xlink:href="#linearGradient3487"
       gradientUnits="userSpaceOnUse" />
    <linearGradient
       x1="65.15625"
       y1="16.125"
       x2="65.15625"
       y2="69.687508"
       id="linearGradient2675"
       xlink:href="#linearGradient3737"
       gradientUnits="userSpaceOnUse" />
    <linearGradient
       x1="6.9332814"
       y1="3"
       x2="6.9349904"
       y2="6.4254756"
       id="linearGradient4266"
       xlink:href="#linearGradient3348"
       gradientUnits="userSpaceOnUse"
       gradientTransform="translate(0,-2)" />
    <linearGradient
       x1="48.035713"
       y1="25.910715"
       x2="48.035713"
       y2="85.821426"
       id="linearGradient4268"
       xlink:href="#linearGradient3317"
       gradientUnits="userSpaceOnUse"
       gradientTransform="matrix(0.2195263,0,0,0.2195263,0.3370719,1.1776143)" />
    <linearGradient
       x1="10.871767"
       y1="24.123091"
       x2="10.871767"
       y2="8.1216478"
       id="linearGradient4270"
       xlink:href="#linearGradient4229"
       gradientUnits="userSpaceOnUse"
       gradientTransform="translate(-1.7400389,-3.1230297)" />
    <filter
       x="-0.36000001"
       y="-0.025714286"
       width="1.72"
       height="1.0514286"
       color-interpolation-filters="sRGB"
       id="filter4459">
      <feGaussianBlur
         id="feGaussianBlur4461"
         stdDeviation="0.3" />
    </filter>
    <linearGradient
       x1="-31"
       y1="0"
       x2="-27"
       y2="0"
       id="linearGradient4531"
       xlink:href="#linearGradient4304"
       gradientUnits="userSpaceOnUse" />
    <linearGradient
       x1="-29"
       y1="0"
       x2="-29"
       y2="-2.5"
       id="linearGradient4533"
       xlink:href="#linearGradient7175"
       gradientUnits="userSpaceOnUse" />
    <linearGradient
       x1="-32"
       y1="56.09375"
       x2="-26"
       y2="56.09375"
       id="linearGradient4535"
       xlink:href="#linearGradient4304"
       gradientUnits="userSpaceOnUse" />
    <linearGradient
       x1="-29"
       y1="35.764431"
       x2="-29.236725"
       y2="74.234039"
       id="linearGradient4537"
       xlink:href="#linearGradient7175"
       gradientUnits="userSpaceOnUse" />
    <linearGradient
       x1="-33"
       y1="17.75"
       x2="-25"
       y2="17.75"
       id="linearGradient4539"
       xlink:href="#linearGradient4294"
       gradientUnits="userSpaceOnUse" />
    <linearGradient
       x1="-29"
       y1="35.5"
       x2="-29"
       y2="0"
       id="linearGradient4541"
       xlink:href="#linearGradient4316"
       gradientUnits="userSpaceOnUse" />
    <linearGradient
       x1="-36"
       y1="16"
       x2="-32"
       y2="16"
       id="linearGradient4543"
       xlink:href="#linearGradient4490"
       gradientUnits="userSpaceOnUse"
       gradientTransform="matrix(-1,0,0,1,-66,0)" />
    <linearGradient
       x1="23.204918"
       y1="51.635754"
       x2="89.898247"
       y2="51.635754"
       id="linearGradient4589"
       xlink:href="#linearGradient7175"
       gradientUnits="userSpaceOnUse"
       gradientTransform="translate(0,15)" />
    <linearGradient
       x1="24.790335"
       y1="64.485451"
       x2="94.680679"
       y2="44.223976"
       id="linearGradient4593"
       xlink:href="#linearGradient7175"
       gradientUnits="userSpaceOnUse"
       gradientTransform="matrix(0.9800587,-0.1987084,0.1987084,0.9800587,-12.275551,20.870047)" />
    <linearGradient
       id="linearGradient3737-1">
      <stop
         id="stop3739-7"
         style="stop-color:#ffffff;stop-opacity:1"
         offset="0" />
      <stop
         id="stop3741-2"
         style="stop-color:#ffffff;stop-opacity:0"
         offset="1" />
    </linearGradient>
    <radialGradient
       cx="48"
       cy="90.171875"
       r="42"
       fx="48"
       fy="90.171875"
       id="radialGradient2893"
       xlink:href="#linearGradient3737-1"
       gradientUnits="userSpaceOnUse"
       gradientTransform="matrix(1.1573129,0,0,0.99590774,-7.551021,0.1971319)" />
    <linearGradient
       x1="40.192078"
       y1="74.529732"
       x2="55.878113"
       y2="74.529732"
       id="linearGradient4222"
       xlink:href="#linearGradient4024"
       gradientUnits="userSpaceOnUse" />
    <linearGradient
       id="linearGradient4024">
      <stop
         id="stop4026"
         style="stop-color:#ffffff;stop-opacity:0.53125"
         offset="0" />
      <stop
         id="stop4028"
         style="stop-color:#ffffff;stop-opacity:0"
         offset="1" />
    </linearGradient>
    <linearGradient
       x1="40.192078"
       y1="74.529732"
       x2="55.878113"
       y2="74.529732"
       id="linearGradient4224"
       xlink:href="#linearGradient4016"
       gradientUnits="userSpaceOnUse" />
    <linearGradient
       id="linearGradient4016">
      <stop
         id="stop4018"
         style="stop-color:#ffffff;stop-opacity:1"
         offset="0" />
      <stop
         id="stop4020"
         style="stop-color:#ffffff;stop-opacity:0"
         offset="1" />
    </linearGradient>
    <linearGradient
       x1="40.192078"
       y1="74.529732"
       x2="58.29702"
       y2="74.529732"
       id="linearGradient4226"
       xlink:href="#linearGradient4024"
       gradientUnits="userSpaceOnUse" />
    <linearGradient
       x1="40.192078"
       y1="74.529732"
       x2="58.29702"
       y2="74.529732"
       id="linearGradient4228"
       xlink:href="#linearGradient4016"
       gradientUnits="userSpaceOnUse" />
    <linearGradient
       x1="40.281487"
       y1="74.529732"
       x2="61.561863"
       y2="74.529732"
       id="linearGradient4230"
       xlink:href="#linearGradient4024"
       gradientUnits="userSpaceOnUse" />
    <linearGradient
       x1="40.281487"
       y1="74.529732"
       x2="61.561863"
       y2="74.529732"
       id="linearGradient4232"
       xlink:href="#linearGradient4016"
       gradientUnits="userSpaceOnUse" />
    <linearGradient
       x1="40.084454"
       y1="74.529732"
       x2="69.177147"
       y2="74.529732"
       id="linearGradient4234"
       xlink:href="#linearGradient4024"
       gradientUnits="userSpaceOnUse" />
    <linearGradient
       x1="40.084454"
       y1="74.529732"
       x2="69.177147"
       y2="74.529732"
       id="linearGradient4236"
       xlink:href="#linearGradient4016"
       gradientUnits="userSpaceOnUse" />
    <linearGradient
       x1="40.23082"
       y1="74.529732"
       x2="80.705589"
       y2="74.529732"
       id="linearGradient4238"
       xlink:href="#linearGradient4024"
       gradientUnits="userSpaceOnUse" />
    <linearGradient
       x1="40.23082"
       y1="74.529732"
       x2="80.705589"
       y2="74.529732"
       id="linearGradient4240"
       xlink:href="#linearGradient4016"
       gradientUnits="userSpaceOnUse" />
    <linearGradient
       x1="135.73611"
       y1="71.252129"
       x2="234.53244"
       y2="77.807335"
       id="linearGradient3081"
       xlink:href="#linearGradient4016"
       gradientUnits="userSpaceOnUse" />
    <linearGradient
       x1="135.73611"
       y1="71.252129"
       x2="238.96693"
       y2="74.529732"
       id="linearGradient3083"
       xlink:href="#linearGradient4016"
       gradientUnits="userSpaceOnUse" />
    <linearGradient
       id="linearGradient3737-6">
      <stop
         id="stop3739-1"
         style="stop-color:#ffffff;stop-opacity:1"
         offset="0" />
      <stop
         id="stop3741-5"
         style="stop-color:#ffffff;stop-opacity:0"
         offset="1" />
    </linearGradient>
    <clipPath
       id="clipPath3613">
      <rect
         width="84"
         height="84"
         rx="6"
         ry="6"
         x="6"
         y="6"
         id="rect3615"
         style="fill:#ffffff;fill-opacity:1;fill-rule:nonzero;stroke:none" />
    </clipPath>
    <filter
       x="-0.192"
       y="-0.192"
       width="1.3839999"
       height="1.3839999"
       color-interpolation-filters="sRGB"
       id="filter3794">
      <feGaussianBlur
         id="feGaussianBlur3796"
         stdDeviation="5.28" />
    </filter>
    <linearGradient
       x1="48"
       y1="20.220806"
       x2="48"
       y2="138.66119"
       id="linearGradient2908"
       xlink:href="#linearGradient3737-6"
       gradientUnits="userSpaceOnUse" />
    <linearGradient
       x1="45.447727"
       y1="92.539597"
       x2="45.447727"
       y2="7.0165396"
       id="ButtonShadow-0"
       gradientUnits="userSpaceOnUse"
       gradientTransform="matrix(1.0058652,0,0,0.994169,100,0)">
      <stop
         id="stop3750-8"
         style="stop-color:#000000;stop-opacity:1"
         offset="0" />
      <stop
         id="stop3752-5"
         style="stop-color:#000000;stop-opacity:0.58823532"
         offset="1" />
    </linearGradient>
    <linearGradient
       x1="32.251034"
       y1="6.1317081"
       x2="32.251034"
       y2="90.238609"
       id="linearGradient3780"
       xlink:href="#ButtonShadow-0"
       gradientUnits="userSpaceOnUse"
       gradientTransform="matrix(1.0238095,0,0,1.0119048,-1.1428571,-98.071429)" />
    <linearGradient
       x1="32.251034"
       y1="6.1317081"
       x2="32.251034"
       y2="90.238609"
       id="linearGradient3772"
       xlink:href="#ButtonShadow-0"
       gradientUnits="userSpaceOnUse"
       gradientTransform="matrix(1.0238095,0,0,1.0119048,-1.1428571,-98.071429)" />
    <linearGradient
       x1="32.251034"
       y1="6.1317081"
       x2="32.251034"
       y2="90.238609"
       id="linearGradient3725"
       xlink:href="#ButtonShadow-0"
       gradientUnits="userSpaceOnUse"
       gradientTransform="matrix(1.0238095,0,0,1.0119048,-1.1428571,-98.071429)" />
    <linearGradient
       x1="32.251034"
       y1="6.1317081"
       x2="32.251034"
       y2="90.238609"
       id="linearGradient3721"
       xlink:href="#ButtonShadow-0"
       gradientUnits="userSpaceOnUse"
       gradientTransform="translate(0,-97)" />
    <linearGradient
       x1="32.251034"
       y1="6.1317081"
       x2="32.251034"
       y2="90.238609"
       id="linearGradient3122"
       xlink:href="#ButtonShadow-0"
       gradientUnits="userSpaceOnUse"
       gradientTransform="matrix(1.0238095,0,0,1.0119048,-1.1428571,-98.071429)" />
    <linearGradient
       x1="25"
       y1="76"
       x2="25"
       y2="80"
       id="linearGradient4367"
       xlink:href="#linearGradient4353"
       gradientUnits="userSpaceOnUse"
       gradientTransform="translate(24,0)" />
    <linearGradient
       id="linearGradient4353">
      <stop
         id="stop4355"
         style="stop-color:#ffffff;stop-opacity:1"
         offset="0" />
      <stop
         id="stop4369"
         style="stop-color:#ffffff;stop-opacity:0.49803922"
         offset="0.2" />
      <stop
         id="stop4357"
         style="stop-color:#ffffff;stop-opacity:0"
         offset="1" />
    </linearGradient>
    <linearGradient
       x1="25"
       y1="76"
       x2="25"
       y2="80"
       id="linearGradient4363"
       xlink:href="#linearGradient4353"
       gradientUnits="userSpaceOnUse"
       gradientTransform="translate(12,0)" />
    <linearGradient
       x1="25"
       y1="76"
       x2="25"
       y2="80"
       id="linearGradient4359"
       xlink:href="#linearGradient4353"
       gradientUnits="userSpaceOnUse" />
    <linearGradient
       x1="32"
       y1="46"
       x2="32"
       y2="-24"
       id="linearGradient4164"
       xlink:href="#linearGradient4134"
       gradientUnits="userSpaceOnUse"
       gradientTransform="translate(31.511538,-95.658566)" />
    <linearGradient
       id="linearGradient4134">
      <stop
         id="stop4136"
         style="stop-color:#ffffff;stop-opacity:1"
         offset="0" />
      <stop
         id="stop4138"
         style="stop-color:#ffffff;stop-opacity:0"
         offset="1" />
    </linearGradient>
    <linearGradient
       x1="32"
       y1="46"
       x2="32"
       y2="-24"
       id="linearGradient4140"
       xlink:href="#linearGradient4134"
       gradientUnits="userSpaceOnUse"
       gradientTransform="translate(0,-64)" />
    <linearGradient
       id="linearGradient3088">
      <stop
         id="stop3090"
         style="stop-color:#ffffff;stop-opacity:1"
         offset="0" />
      <stop
         id="stop3092"
         style="stop-color:#ffffff;stop-opacity:0"
         offset="1" />
    </linearGradient>
    <linearGradient
       x1="32"
       y1="46"
       x2="32"
       y2="-24"
       id="linearGradient4152"
       xlink:href="#linearGradient4134"
       gradientUnits="userSpaceOnUse"
       gradientTransform="translate(-0.48846246,-95.658566)" />
    <linearGradient
       id="linearGradient3095">
      <stop
         id="stop3097"
         style="stop-color:#ffffff;stop-opacity:1"
         offset="0" />
      <stop
         id="stop3099"
         style="stop-color:#ffffff;stop-opacity:0"
         offset="1" />
    </linearGradient>
    <linearGradient
       x1="32"
       y1="46"
       x2="32"
       y2="-24"
       id="linearGradient4176"
       xlink:href="#linearGradient4134-9"
       gradientUnits="userSpaceOnUse"
       gradientTransform="translate(0,-64)" />
    <linearGradient
       id="linearGradient4134-9">
      <stop
         id="stop4136-0"
         style="stop-color:#ffffff;stop-opacity:1"
         offset="0" />
      <stop
         id="stop4138-2"
         style="stop-color:#ffffff;stop-opacity:0"
         offset="1" />
    </linearGradient>
  </defs>
  <metadata
     id="metadata2413">
    <rdf:RDF>
      <cc:Work
         rdf:about="">
        <dc:format>image/svg+xml</dc:format>
        <dc:type
           rdf:resource="http://purl.org/dc/dcmitype/StillImage" />
        <dc:title></dc:title>
      </cc:Work>
    </rdf:RDF>
  </metadata>
  <g
     id="layer2"
     style="display:none">
    <rect
       width="86"
       height="85"
       rx="6"
       ry="6"
       x="5"
       y="7"
       id="rect3745"
       style="opacity:0.9;fill:url(#ButtonShadow);fill-opacity:1;fill-rule:nonzero;stroke:none;filter:url(#filter3174)" />
  </g>
  <path
     inkscape:connector-curvature="0"
     style="fill:#17499b;fill-opacity:1;fill-rule:nonzero;stroke:none"
     id="path3215"
     d="m 89.869949,89.801641 0,-83.721078 -83.8024092,0 0,83.721078 83.8024092,0 z" />
  <g
     style="font-size:3px;font-style:normal;font-variant:normal;font-weight:bold;font-stretch:normal;text-align:start;line-height:125%;letter-spacing:0px;word-spacing:0px;writing-mode:lr-tb;text-anchor:start;opacity:0.5;fill:#ffffff;fill-opacity:1;stroke:none;display:inline;font-family:Ubuntu;-inkscape-font-specification:Ubuntu Bold"
     id="text4373"
     transform="translate(0.115134,0.909771)" />
  <g
     id="layer1"
     style="display:inline" />
  <g
     id="layer5" />
  <g
     id="layer6"
     style="display:none">
    <g
       transform="matrix(0.3809524,0,0,0.3809302,19.809524,71.619536)"
       id="g10005"
       style="display:inline">
      <rect
         width="10"
         height="10.5"
         rx="2.5"
         ry="2.5"
         x="11.5"
         y="11.5"
         id="rect3263"
         style="opacity:0.3;fill:url(#linearGradient3267);fill-opacity:1;stroke:none;display:inline" />
      <rect
         width="10"
         height="10.5"
         rx="2.5"
         ry="2.5"
         x="0.5"
         y="11.5"
         id="rect3265"
         style="opacity:0.3;fill:url(#linearGradient3269);fill-opacity:1;stroke:none;display:inline" />
      <rect
         width="10"
         height="10.5"
         rx="2.5"
         ry="2.5"
         x="11.5"
         y="0.5"
         id="rect3259"
         style="opacity:0.3;fill:url(#linearGradient3261);fill-opacity:1;stroke:none;display:inline" />
      <rect
         width="9"
         height="9"
         rx="2"
         ry="2"
         x="12"
         y="2"
         id="rect3255"
         style="opacity:0.5;fill:#000000;fill-opacity:1;stroke:none;display:inline" />
      <rect
         width="9"
         height="9"
         rx="2"
         ry="2"
         x="1"
         y="2"
         id="rect3257"
         style="opacity:0.5;fill:#000000;fill-opacity:1;stroke:none;display:inline" />
      <rect
         width="9"
         height="9"
         rx="2"
         ry="2"
         x="12"
         y="13"
         id="rect3253"
         style="opacity:0.5;fill:#000000;fill-opacity:1;stroke:none;display:inline" />
      <rect
         width="10"
         height="10.5"
         rx="2.5"
         ry="2.5"
         x="0.5"
         y="0.5"
         id="rect10054"
         style="opacity:0.3;fill:url(#linearGradient3251);fill-opacity:1;stroke:none;display:inline" />
      <rect
         width="9"
         height="9"
         rx="2"
         ry="2"
         x="1"
         y="13"
         id="rect10056"
         style="opacity:0.5;fill:#000000;fill-opacity:1;stroke:none;display:inline" />
      <rect
         width="9"
         height="9"
         rx="2"
         ry="2"
         x="-10"
         y="1"
         transform="matrix(0,-1,1,0,0,0)"
         id="rect3216"
         style="fill:url(#linearGradient3277);fill-opacity:1;fill-rule:nonzero;stroke:none" />
      <rect
         width="9"
         height="9"
         rx="2"
         ry="2"
         x="-10"
         y="12"
         transform="matrix(0,-1,1,0,0,0)"
         id="rect3218"
         style="fill:url(#linearGradient3285);fill-opacity:1;fill-rule:nonzero;stroke:none" />
      <path
         d="M 3,1 C 1.892,1 1,1.892 1,3 L 1,4 C 1,2.892 1.892,2 3,2 l 5,0 c 1.108,0 2,0.892 2,2 L 10,3 C 10,1.892 9.108,1 8,1 L 3,1 z"
         inkscape:connector-curvature="0"
         id="rect3224"
         style="opacity:0.3;fill:#ffffff;fill-opacity:1;fill-rule:nonzero;stroke:none" />
      <path
         d="M 3,10 C 1.892,10 1,9.108 1,8 L 1,7 c 0,1.108 0.892,2 2,2 l 5,0 c 1.108,0 2,-0.892 2,-2 l 0,1 c 0,1.108 -0.892,2 -2,2 l -5,0 z"
         inkscape:connector-curvature="0"
         id="path3229"
         style="opacity:0.2;fill:#000000;fill-opacity:1;fill-rule:nonzero;stroke:none" />
      <path
         d="m 14,1 c -1.108,0 -2,0.892 -2,2 l 0,1 c 0,-1.108 0.892,-2 2,-2 l 5,0 c 1.108,0 2,0.892 2,2 L 21,3 C 21,1.892 20.108,1 19,1 l -5,0 z"
         inkscape:connector-curvature="0"
         id="path3231"
         style="opacity:0.3;fill:#ffffff;fill-opacity:1;fill-rule:nonzero;stroke:none" />
      <path
         d="M 14,10 C 12.892,10 12,9.108 12,8 l 0,-1 c 0,1.108 0.892,2 2,2 l 5,0 c 1.108,0 2,-0.892 2,-2 l 0,1 c 0,1.108 -0.892,2 -2,2 l -5,0 z"
         inkscape:connector-curvature="0"
         id="path3233"
         style="opacity:0.2;fill:#000000;fill-opacity:1;fill-rule:nonzero;stroke:none" />
      <rect
         width="9"
         height="9"
         rx="2"
         ry="2"
         x="-21"
         y="1"
         transform="matrix(0,-1,1,0,0,0)"
         id="rect3237"
         style="fill:url(#linearGradient3293);fill-opacity:1;fill-rule:nonzero;stroke:none" />
      <rect
         width="9"
         height="9"
         rx="2"
         ry="2"
         x="-21"
         y="12"
         transform="matrix(0,-1,1,0,0,0)"
         id="rect3239"
         style="fill:url(#linearGradient3301);fill-opacity:1;fill-rule:nonzero;stroke:none" />
      <path
         d="m 3,12 c -1.108,0 -2,0.892 -2,2 l 0,1 c 0,-1.108 0.892,-2 2,-2 l 5,0 c 1.108,0 2,0.892 2,2 l 0,-1 C 10,12.892 9.108,12 8,12 l -5,0 z"
         inkscape:connector-curvature="0"
         id="path3241"
         style="opacity:0.3;fill:#ffffff;fill-opacity:1;fill-rule:nonzero;stroke:none" />
      <path
         d="M 3,21 C 1.892,21 1,20.108 1,19 l 0,-1 c 0,1.108 0.892,2 2,2 l 5,0 c 1.108,0 2,-0.892 2,-2 l 0,1 c 0,1.108 -0.892,2 -2,2 l -5,0 z"
         inkscape:connector-curvature="0"
         id="path3243"
         style="opacity:0.2;fill:#000000;fill-opacity:1;fill-rule:nonzero;stroke:none" />
      <path
         d="m 14,12 c -1.108,0 -2,0.892 -2,2 l 0,1 c 0,-1.108 0.892,-2 2,-2 l 5,0 c 1.108,0 2,0.892 2,2 l 0,-1 c 0,-1.108 -0.892,-2 -2,-2 l -5,0 z"
         inkscape:connector-curvature="0"
         id="path3245"
         style="opacity:0.3;fill:#ffffff;fill-opacity:1;fill-rule:nonzero;stroke:none" />
      <path
         d="m 14,21 c -1.108,0 -2,-0.892 -2,-2 l 0,-1 c 0,1.108 0.892,2 2,2 l 5,0 c 1.108,0 2,-0.892 2,-2 l 0,1 c 0,1.108 -0.892,2 -2,2 l -5,0 z"
         inkscape:connector-curvature="0"
         id="path3247"
         style="opacity:0.2;fill:#000000;fill-opacity:1;fill-rule:nonzero;stroke:none" />
    </g>
    <g
       transform="matrix(0.3809524,0,0,0.3809524,19.809524,31.619047)"
       id="g11096"
       style="display:inline">
      <g
         id="g11165"
         style="display:inline">
        <rect
           width="21"
           height="21.5"
           rx="2.5"
           ry="2.5"
           x="0.5"
           y="0.5"
           id="rect11167"
           style="opacity:0.3;fill:url(#linearGradient10458);fill-opacity:1;stroke:none;display:inline" />
        <rect
           width="20"
           height="20"
           rx="2.3809524"
           ry="2.3255813"
           x="1"
           y="2"
           id="rect11169"
           style="opacity:0.5;fill:#000000;fill-opacity:1;stroke:none;display:inline" />
      </g>
      <rect
         width="17.614883"
         height="12.137208"
         x="2.249861"
         y="1.689316"
         id="rect3344"
         style="fill:url(#radialGradient10522);fill-opacity:1;fill-rule:evenodd;stroke:none;display:inline" />
      <path
         d="M 3,1 C 1.892,1 1,1.892 1,3 l 0,16 c 0,1.108 0.892,2 2,2 l 16,0 c 1.108,0 2,-0.892 2,-2 L 21,3 C 21,1.892 20.108,1 19,1 L 3,1 z m 8,1.5 c 4.14,0 7.5,1.346438 7.5,3 -1e-6,1.6535618 -3.359999,3 -7.5,3 -4.1400008,10e-8 -7.5,-1.346438 -7.5,-3 10e-8,-1.6535622 3.3599994,-3 7.5,-3 z"
         inkscape:connector-curvature="0"
         id="path11172"
         style="fill:url(#linearGradient10519);fill-opacity:1;fill-rule:evenodd;stroke:none;display:inline" />
      <g
         transform="translate(20,0)"
         id="g4359"
         style="display:inline">
        <path
           d="m -6.1875,1 0,1.75 c 1.2912865,0.210493 2.4042168,0.5572383 3.21875,1 l 0,-2.75 -3.21875,0 z m 3.21875,6.375 c -0.3332555,0.2441167 -0.7522506,0.4609324 -1.21875,0.65625 -0.5832201,0.2441869 -1.2533275,0.4415388 -2,0.59375 l 0,12.3125 3.21875,0 0,-13.5625 z"
           inkscape:connector-curvature="0"
           id="rect7153"
           style="opacity:0.6;fill:url(#linearGradient10464);fill-opacity:1;fill-rule:evenodd;stroke:none" />
        <path
           d="m -10.96875,1 0,1.625 c 0.426402,-0.046882 0.859381,-0.077656 1.3125,-0.09375 l 0,-1.53125 -1.3125,0 z m 0,7.875 0,12.0625 1.3125,0 0,-12 c -0.444082,-0.0059 -0.891275,-0.02527 -1.3125,-0.0625 z"
           inkscape:connector-curvature="0"
           id="rect7163"
           style="opacity:0.3;fill:url(#linearGradient10466);fill-opacity:1;fill-rule:evenodd;stroke:none" />
        <path
           d="m -16.8125,1 0,4.375 c 0.08904,-0.3066068 0.262806,-0.6087707 0.53125,-0.875 0.271395,-0.2691566 0.609534,-0.5284564 1.03125,-0.75 l 0,-2.75 -1.5625,0 z m 0,5.15625 0,14.78125 1.5625,0 0,-13.1875 c -0.421711,-0.2216276 -0.75984,-0.4499853 -1.03125,-0.71875 -0.268459,-0.2658419 -0.442216,-0.5700177 -0.53125,-0.875 z"
           inkscape:connector-curvature="0"
           id="rect7167"
           style="opacity:0.4;fill:url(#linearGradient10468);fill-opacity:1;fill-rule:evenodd;stroke:none" />
        <path
           d="m -15.28125,1 0,2.875 c 0.993486,-0.6073915 2.546169,-1.0557156 4.34375,-1.25 l 0,-1.625 -4.34375,0 z m 0,6.125 0,13.8125 4.34375,0 0,-12.5625 c -1.807035,-0.1953062 -3.350725,-0.6378032 -4.34375,-1.25 z"
           inkscape:connector-curvature="0"
           id="rect7171"
           style="opacity:0.15;fill:url(#linearGradient10470);fill-opacity:1;fill-rule:evenodd;stroke:none" />
        <path
           d="m -9.71875,1.0625 0,1.46875 C -9.4769144,2.521841 -9.2479875,2.5 -9,2.5 c 0.9882971,0 1.9169502,0.079814 2.78125,0.21875 l 0,-1.65625 -3.5,0 z m 3.5,7.21875 C -7.0830498,8.4201865 -8.0117029,8.5 -9,8.5 -9.2479875,8.5 -9.4769144,8.478159 -9.71875,8.46875 l 0,12.53125 3.5,0 0,-12.71875 z"
           inkscape:connector-curvature="0"
           id="rect7185"
           style="opacity:0.1;fill:url(#linearGradient10472);fill-opacity:1;fill-rule:evenodd;stroke:none" />
        <rect
           width="0.64131582"
           height="19.940283"
           x="-1.6620901"
           y="1.0000038"
           id="rect7189"
           style="opacity:0.4;fill:url(#linearGradient10474);fill-opacity:1;fill-rule:evenodd;stroke:none" />
        <path
           d="m -3,1.0625 0,2.65625 c 0.5986128,0.3200586 1.0407103,0.6931375 1.28125,1.09375 l 0,-3.75 -1.28125,0 z m 1.28125,5.125 C -1.957117,6.5888261 -2.402445,6.960419 -3,7.28125 L -3,21 l 1.28125,0 0,-14.8125 z"
           inkscape:connector-curvature="0"
           id="rect7193"
           style="opacity:0.1;fill:url(#linearGradient10476);fill-opacity:1;fill-rule:evenodd;stroke:none" />
        <rect
           width="0.4024671"
           height="19.940283"
           x="-17.645844"
           y="1.0000038"
           id="rect7197"
           style="opacity:0.4;fill:url(#linearGradient10478);fill-opacity:1;fill-rule:evenodd;stroke:none" />
      </g>
      <path
         d="M 2.9999999,20.999999 C 1.8919999,20.999999 0.99999993,20.108 0.99999993,19 l 0,-1 c 0,1.108 0.89199997,2 1.99999997,2 L 19,20 c 1.108,0 2,-0.892 2,-2 l 0,1 c 0,1.108 -0.892,1.999999 -2,1.999999 l -16.0000001,0 z"
         inkscape:connector-curvature="0"
         id="path11183"
         style="opacity:0.15;fill:#000000;fill-opacity:1;fill-rule:evenodd;stroke:none;display:inline" />
      <path
         d="m 2.9999999,0.99999982 c -1.108,0 -1.99999997,0.89199998 -1.99999997,1.99999998 l 0,1 c 0,-1.108 0.89199997,-2 1.99999997,-2 l 16.0000001,0 c 1.108,0 2,0.892 2,2 l 0,-1 c 0,-1.108 -0.892,-1.99999998 -2,-1.99999998 l -16.0000001,0 z"
         inkscape:connector-curvature="0"
         id="path11185"
         style="opacity:0.25;fill:#ffffff;fill-opacity:1;fill-rule:evenodd;stroke:none;display:inline" />
      <path
         d="m 103.44247,30.55419 a 40.477489,16.240969 0 1 1 -80.954975,0 40.477489,16.240969 0 1 1 80.954975,0 z"
         transform="matrix(0.1852882,0,0,0.1844461,-0.666667,-0.1311844)"
         id="path7095"
         style="fill:none;stroke:url(#linearGradient10482);stroke-width:7.09971094;stroke-linecap:round;stroke-linejoin:round;stroke-miterlimit:4;stroke-opacity:1;stroke-dasharray:none;stroke-dashoffset:0;display:inline" />
      <g
         transform="matrix(0.1803837,0,0,0.1803837,-0.5441398,-1.4184362)"
         id="g3350"
         style="display:inline">
        <path
           d="m 66.740086,106.88012 6.331728,-11.357102 0.0301,4.153571 13.32572,-0.03009 c 2.381109,-0.252345 4.468715,-1.220077 5.98052,-3.03994 -4.82499,9.868301 -6.214719,16.850851 -16.225668,16.855071 l -3.080572,0 -0.0301,4.61507 -6.331728,-11.19658 z"
           inkscape:connector-curvature="0"
           id="path3292"
           style="fill:url(#linearGradient10484);fill-opacity:1;stroke:none;display:inline" />
        <path
           d="M 81.240116,97.921419 75.359939,87.086023 87.240708,79.892529 92.99042,91.410143 c 0.174089,2.756344 -4.276917,6.591993 -7.039556,6.562155 l -4.710748,-0.05088 z"
           inkscape:connector-curvature="0"
           id="path3290"
           style="fill:url(#linearGradient10486);fill-opacity:1;stroke:none;display:inline" />
        <path
           d="m 45.109433,73.919728 6.070024,-9.095652 c 5.887367,-2.192329 9.297705,2.540579 11.45008,5.523983 L 56.90992,81.323911 45.109433,73.919728 z"
           inkscape:connector-curvature="0"
           id="path3288"
           style="fill:url(#linearGradient10488);fill-opacity:1;stroke:none;display:inline" />
        <path
           d="M 69.091143,78.447225 C 67.870278,75.569484 66.239058,72.277738 64.199221,69.415642 62.37298,66.853249 60.166412,64.617611 58.494792,63.618783 l 15.352678,-0.03009 c 2.757154,0.247485 4.096834,1.8546 5.559059,4.053238 l 2.207565,3.882684 3.411713,-2.177108 -6.422024,11.437374 -13.84751,0.03009 4.33487,-2.367748 z"
           inkscape:connector-curvature="0"
           id="path3286"
           style="fill:url(#linearGradient10490);fill-opacity:1;stroke:none;display:inline" />
        <path
           d="m 47.846903,82.693623 7.342774,10.731394 -3.73163,-1.825529 -5.916252,11.938462 c -0.836067,2.24336 -0.900829,4.54314 0.05403,6.70769 -6.682019,-8.71903 -12.312877,-13.076862 -7.851823,-22.037427 l 1.373917,-2.756768 -4.117916,-2.085235 12.846904,-0.672587 z"
           inkscape:connector-curvature="0"
           id="path3284"
           style="fill:url(#linearGradient10492);fill-opacity:1;stroke:none;display:inline" />
        <path
           d="m 49.529355,99.666566 13.538353,-0.429582 -0.07542,13.840216 -12.87471,0.009 c -2.545077,-1.07352 -3.993562,-6.76734 -2.734733,-9.22628 l 2.146512,-4.192914 z"
           inkscape:connector-curvature="0"
           id="path4068"
           style="fill:url(#linearGradient10494);fill-opacity:1;stroke:none;display:inline" />
      </g>
    </g>
    <g
       transform="matrix(0.3809524,0,0,0.3809524,19.809524,19.619047)"
       id="g2863"
       style="display:inline">
      <g
         transform="translate(0,1)"
         id="g3180"
         style="display:inline">
        <rect
           width="21"
           height="17"
           rx="2.5"
           ry="2.5"
           x="0.5"
           y="4"
           id="rect3178"
           style="opacity:0.2;fill:#000000;fill-opacity:1;fill-rule:nonzero;stroke:none" />
        <rect
           width="20"
           height="16"
           rx="2"
           ry="2"
           x="1"
           y="5"
           id="rect5478"
           style="opacity:0.4;fill:#000000;fill-opacity:1;fill-rule:nonzero;stroke:none" />
      </g>
      <path
         d="M 4.5,1 C 3.669,1 3,1.669 3,2.5 l 0,2 0,3 C 3,8.331 3.669,9 4.5,9 l 4,0 9,0 C 18.331,9 19,8.331 19,7.5 l 0,-3 C 19,3.669 18.331,3 17.5,3 L 10.265165,3 10,2.5 C 9.6106588,1.7658512 9.331,1 8.5,1 l -4,0 z"
         inkscape:connector-curvature="0"
         id="rect2859"
         style="fill:url(#linearGradient4266);fill-opacity:1;fill-rule:nonzero;stroke:none;display:inline" />
      <path
         d="M 4.5,1 C 3.669,1 3,1.669 3,2.5 l 0,1 C 3,2.669 3.669,2 4.5,2 l 4,0 C 9.331,2 9.6106588,2.7658512 10,3.5 L 10.25,4 17.5,4 C 18.331,4 19,4.669 19,5.5 l 0,-1 C 19,3.669 18.331,3 17.5,3 L 10.25,3 10,2.5 C 9.6106588,1.7658512 9.331,1 8.5,1 l -4,0 z"
         inkscape:connector-curvature="0"
         id="path3648"
         style="opacity:0.2;fill:#ffffff;fill-opacity:1;fill-rule:nonzero;stroke:none;display:inline" />
      <rect
         width="16.464474"
         height="13.759596"
         rx="1.3171579"
         ry="1.3171579"
         x="2.6499383"
         y="6.2580805"
         id="rect3352"
         style="fill:url(#linearGradient4268);fill-opacity:1;fill-rule:nonzero;stroke:none;display:inline" />
      <path
         d="m 11,8 -6,6.03125 1.96875,0 0,3.96875 L 15,18 15,14 17.0625,14 14.03125,10.96875 14.03125,9 13,9 13,10 11,8 z m 0,1 1.5,1.5 c 0.218298,0.232163 0.567517,0.283899 0.84375,0.125 l 0,0.34375 c -0.0074,0.185121 0.06019,0.365402 0.1875,0.5 l 1.84375,1.84375 -0.375,0 c -0.37968,3.8e-5 -0.687462,0.30782 -0.6875,0.6875 l 0,3.3125 -6.65625,0 0,-3.28125 c -3.8e-5,-0.37968 -0.30782,-0.687462 -0.6875,-0.6875 l -0.28125,0 L 11,9 z"
         inkscape:connector-curvature="0"
         id="path2788"
         style="fill:#835c1d;fill-opacity:1;stroke:none;display:inline" />
      <rect
         width="17.975767"
         height="8.9714174"
         rx="2"
         ry="2"
         x="2"
         y="1.9800392"
         transform="matrix(0.8817734,0,0,0.8817734,0.2383988,7.2540541)"
         id="rect4260"
         style="opacity:0.15;fill:#ffffff;fill-opacity:1;stroke:none;display:inline;filter:url(#filter3342)" />
      <path
         d="M 3,5 C 1.892,5 1,5.892 1,7 l 0,12 c 0,1.108 0.892,2 2,2 l 16,0 c 1.108,0 2,-0.892 2,-2 L 21,7 C 21,5.892 20.108,5 19,5 L 3,5 z m 8,3 2,2 0,-1 1.03125,0 0,1.96875 L 17.0625,14 15,14 l 0,4 -8.03125,0 0,-3.96875 L 5,14.03125 11,8 z"
         inkscape:connector-curvature="0"
         id="rect3660"
         style="fill:url(#linearGradient4270);fill-opacity:1;fill-rule:nonzero;stroke:none" />
      <path
         d="M 3,5 C 1.892,5 1,5.892 1,7 L 1,8 C 1,6.892 1.892,6 3,6 l 16,0 c 1.108,0 2,0.892 2,2 L 21,7 C 21,5.892 20.108,5 19,5 L 3,5 z"
         inkscape:connector-curvature="0"
         id="rect3670"
         style="fill:#ead7b4;fill-opacity:1;fill-rule:nonzero;stroke:none" />
      <path
         d="M 3,21 C 1.892,21 1,20.108 1,19 l 0,-1 c 0,1.108 0.892,2 2,2 l 16,0 c 1.108,0 2,-0.892 2,-2 l 0,1 c 0,1.108 -0.892,2 -2,2 L 3,21 z"
         inkscape:connector-curvature="0"
         id="path3675"
         style="fill:#b07c28;fill-opacity:1;fill-rule:nonzero;stroke:none" />
      <path
         d="M 10.875,7.03125 C 10.661522,7.060104 10.46367,7.15903 10.3125,7.3125 l -6,6.03125 C 4.0370347,13.622173 3.943595,14.044513 4.09375,14.40625 4.2439049,14.767987 4.6083395,14.998498 5,15 l 1,0 0,3 c 0.00198,0.534202 0.4345484,0.966765 0.96875,0.96875 l 8.03125,0 C 15.534202,18.96675 15.966765,18.534202 15.96875,18 l 0,-3.03125 1.09375,0 c 0.391661,-0.0015 0.756095,-0.232013 0.90625,-0.59375 0.150155,-0.361737 0.05672,-0.784077 -0.21875,-1.0625 L 15,10.5625 15,9 C 14.998,8.4657984 14.565452,8.0332346 14.03125,8.03125 l -1.03125,0 c -0.164301,0.00139 -0.325571,0.044399 -0.46875,0.125 L 11.6875,7.3125 C 11.475078,7.0975983 11.174822,6.9936634 10.875,7.03125 z M 11,8 l 2,2 0,-1 1.03125,0 0,1.96875 L 17.0625,14 15,14 l 0,4 -8.03125,0 0,-3.96875 L 5,14.03125 11,8 z"
         inkscape:connector-curvature="0"
         id="path3582"
         style="opacity:0.5;fill:#ead7b4;fill-opacity:1;stroke:none;display:inline" />
    </g>
  </g>
  <g
     id="layer4"
     style="display:inline">
    <g
       transform="matrix(0.5,0.8660254,-0.8660254,0.5,106.8819,63.99641)"
       id="g4511" />
  </g>
  <rect
     width="37.621498"
     height="38.857067"
     rx="2.6872501"
     ry="2.7755046"
     x="7.6912518"
     y="-89.327652"
     transform="scale(1,-1)"
     id="rect4144"
     style="opacity:0.80000000000000004;fill:#8a8aff;fill-opacity:1;stroke:none;display:inline;enable-background:new" />
  <rect
     width="37.621498"
     height="38.857067"
     rx="2.6872501"
     ry="2.7755046"
     x="50.687248"
     y="-89.327652"
     transform="scale(1,-1)"
     id="rect4156"
     style="opacity:0.8;fill:#ff0000;fill-opacity:1;stroke:none;display:inline;enable-background:new" />
  <rect
     width="37.621498"
     height="38.857067"
     rx="2.6872501"
     ry="2.7755046"
     x="50.654324"
     y="-45.529423"
     transform="scale(1,-1)"
     id="rect4168"
     style="opacity:0.8;fill:#ffff00;fill-opacity:1;stroke:none;display:inline;enable-background:new" />
  <rect
     width="37.621498"
     height="38.857067"
     rx="2.6872501"
     ry="2.7755046"
     x="8.0029449"
     y="-45.529419"
     transform="scale(1,-1)"
     id="rect4168-0"
     style="opacity:0.80000000000000004;fill:#00ff00;fill-opacity:1;stroke:none;display:inline;enable-background:new" />
  <rect
     style="opacity:0.80000000000000004;fill:none;fill-opacity:1;stroke:#f3eded;display:inline;enable-background:new;stroke-opacity:1"
     id="rect4047"
     transform="scale(1,-1)"
     y="-87.772339"
     x="9.197113"
     ry="2.5533166"
     rx="2.4721272"
     height="35.746433"
     width="34.609776" />
  <rect
     width="34.609776"
     height="35.746433"
     rx="2.4721272"
     ry="2.5533166"
     x="9.197113"
     y="-43.772339"
     transform="scale(1,-1)"
     id="rect4049"
     style="opacity:0.8;fill:none;stroke:#f3eded;stroke-opacity:1;display:inline;enable-background:new" />
  <rect
     style="opacity:0.8;fill:none;stroke:#f3eded;stroke-opacity:1;display:inline;enable-background:new"
     id="rect4051"
     transform="scale(1,-1)"
     y="-43.772339"
     x="52.057606"
     ry="2.5533166"
     rx="2.4721272"
     height="35.746433"
     width="34.609776" />
  <rect
     width="34.609776"
     height="35.746433"
     rx="2.4721272"
     ry="2.5533166"
     x="52.057606"
     y="-87.772339"
     transform="scale(1,-1)"
     id="rect4053"
     style="opacity:0.8;fill:none;stroke:#f3eded;stroke-opacity:1;display:inline;enable-background:new" />
</svg>
