<?xml version="1.0" encoding="UTF-8" standalone="no"?>
<!-- Created with Inkscape (http://www.inkscape.org/) -->

<svg
   xmlns:dc="http://purl.org/dc/elements/1.1/"
   xmlns:cc="http://creativecommons.org/ns#"
   xmlns:rdf="http://www.w3.org/1999/02/22-rdf-syntax-ns#"
   xmlns:svg="http://www.w3.org/2000/svg"
   xmlns="http://www.w3.org/2000/svg"
   xmlns:xlink="http://www.w3.org/1999/xlink"
   xmlns:sodipodi="http://sodipodi.sourceforge.net/DTD/sodipodi-0.dtd"
   xmlns:inkscape="http://www.inkscape.org/namespaces/inkscape"
   version="1.0"
   width="96"
   height="96"
   id="svg2408"
   style="display:inline"
   inkscape:version="0.48.4 r9939"
   sodipodi:docname="firefox.svg">
  <sodipodi:namedview
     pagecolor="#ffffff"
     bordercolor="#666666"
     borderopacity="1"
     objecttolerance="10"
     gridtolerance="10"
     guidetolerance="10"
     inkscape:pageopacity="0"
     inkscape:pageshadow="2"
     inkscape:window-width="1366"
     inkscape:window-height="707"
     id="namedview247"
     showgrid="false"
     inkscape:zoom="6.1264604"
     inkscape:cx="83.152524"
     inkscape:cy="35.532246"
     inkscape:window-x="-2"
     inkscape:window-y="-1"
     inkscape:window-maximized="1"
     inkscape:current-layer="svg2408">
    <inkscape:grid
       type="xygrid"
       id="grid3144" />
  </sodipodi:namedview>
  <defs
     id="defs2410">
    <linearGradient
       id="linearGradient4046">
      <stop
         id="stop4048"
         style="stop-color:#9d1701;stop-opacity:1"
         offset="0" />
      <stop
         id="stop4050"
         style="stop-color:#df731b;stop-opacity:1"
         offset="1" />
    </linearGradient>
    <linearGradient
       id="linearGradient4008">
      <stop
         id="stop4010"
         style="stop-color:#ffa04c;stop-opacity:1"
         offset="0" />
      <stop
         id="stop4012"
         style="stop-color:#df731b;stop-opacity:1"
         offset="1" />
    </linearGradient>
    <linearGradient
       id="linearGradient3993">
      <stop
         id="stop3995"
         style="stop-color:#ffeaa8;stop-opacity:1"
         offset="0" />
      <stop
         id="stop4092"
         style="stop-color:#ffc512;stop-opacity:1"
         offset="0.60655737" />
      <stop
         id="stop3997"
         style="stop-color:#f59811;stop-opacity:1"
         offset="1" />
    </linearGradient>
    <linearGradient
       id="linearGradient3843">
      <stop
         id="stop3845"
         style="stop-color:#ffd893;stop-opacity:1"
         offset="0" />
      <stop
         id="stop3847"
         style="stop-color:#e58010;stop-opacity:1"
         offset="1" />
    </linearGradient>
    <linearGradient
       id="linearGradient3781">
      <stop
         id="stop3783"
         style="stop-color:#ffd283;stop-opacity:1"
         offset="0" />
      <stop
         id="stop3785"
         style="stop-color:#f59811;stop-opacity:1"
         offset="1" />
    </linearGradient>
    <linearGradient
       id="linearGradient3727">
      <stop
         id="stop3729"
         style="stop-color:#ffae65;stop-opacity:1"
         offset="0" />
      <stop
         id="stop3731"
         style="stop-color:#ffa04c;stop-opacity:0"
         offset="1" />
    </linearGradient>
    <linearGradient
       id="linearGradient7648">
      <stop
         id="stop7650"
         style="stop-color:#f69909;stop-opacity:1"
         offset="0" />
      <stop
         id="stop7652"
         style="stop-color:#f69909;stop-opacity:0"
         offset="1" />
    </linearGradient>
    <linearGradient
       id="linearGradient7640">
      <stop
         id="stop7642"
         style="stop-color:#df731b;stop-opacity:1"
         offset="0" />
      <stop
         id="stop7644"
         style="stop-color:#df731b;stop-opacity:0"
         offset="1" />
    </linearGradient>
    <linearGradient
       id="linearGradient3910">
      <stop
         id="stop3912"
         style="stop-color:#000000;stop-opacity:1"
         offset="0" />
      <stop
         id="stop3918"
         style="stop-color:#10213a;stop-opacity:0.65882355"
         offset="0.57377046" />
      <stop
         id="stop3914"
         style="stop-color:#1c3b68;stop-opacity:0"
         offset="1" />
    </linearGradient>
    <linearGradient
       id="linearGradient5598">
      <stop
         id="stop5600"
         style="stop-color:#66a9f5;stop-opacity:1"
         offset="0" />
      <stop
         id="stop7879"
         style="stop-color:#3d73b6;stop-opacity:1"
         offset="0.40000001" />
      <stop
         id="stop5602"
         style="stop-color:#143e78;stop-opacity:1"
         offset="1" />
    </linearGradient>
    <linearGradient
       id="linearGradient2312">
      <stop
         id="stop2314"
         style="stop-color:#e3ebf3;stop-opacity:1"
         offset="0" />
      <stop
         id="stop2316"
         style="stop-color:#cedceb;stop-opacity:0.39215687"
         offset="1" />
    </linearGradient>
    <linearGradient
       id="linearGradient5629">
      <stop
         id="stop5631"
         style="stop-color:#ffffff;stop-opacity:0"
         offset="0" />
      <stop
         id="stop5637"
         style="stop-color:#0f4480;stop-opacity:0"
         offset="0.87216145" />
      <stop
         id="stop5633"
         style="stop-color:#0c3163;stop-opacity:0.87450981"
         offset="1" />
    </linearGradient>
    <linearGradient
       id="linearGradient4317">
      <stop
         id="stop4319"
         style="stop-color:#ffffff;stop-opacity:1"
         offset="0" />
      <stop
         id="stop4321"
         style="stop-color:#ffffff;stop-opacity:0"
         offset="1" />
    </linearGradient>
    <linearGradient
       x1="45.447727"
       y1="92.539597"
       x2="45.447727"
       y2="7.0165396"
       id="ButtonShadow"
       gradientUnits="userSpaceOnUse"
       gradientTransform="scale(1.0058652,0.994169)">
      <stop
         id="stop3750"
         style="stop-color:#000000;stop-opacity:1"
         offset="0" />
      <stop
         id="stop3752"
         style="stop-color:#000000;stop-opacity:0.58823532"
         offset="1" />
    </linearGradient>
    <linearGradient
       id="linearGradient3737">
      <stop
         id="stop3739"
         style="stop-color:#ffffff;stop-opacity:1"
         offset="0" />
      <stop
         id="stop3741"
         style="stop-color:#ffffff;stop-opacity:0"
         offset="1" />
    </linearGradient>
    <linearGradient
       id="linearGradient3700">
      <stop
         id="stop3702"
         style="stop-color:#b63602;stop-opacity:1"
         offset="0" />
      <stop
         id="stop3704"
         style="stop-color:#ffa72a;stop-opacity:1"
         offset="1" />
    </linearGradient>
    <linearGradient
       x1="48"
       y1="90"
       x2="48"
       y2="5.9877172"
       id="linearGradient3706"
       xlink:href="#linearGradient3700"
       gradientUnits="userSpaceOnUse" />
    <filter
       color-interpolation-filters="sRGB"
       id="filter3174">
      <feGaussianBlur
         id="feGaussianBlur3176"
         stdDeviation="1.71" />
    </filter>
    <linearGradient
       x1="36.357143"
       y1="6"
       x2="36.357143"
       y2="63.893143"
       id="linearGradient3188"
       xlink:href="#linearGradient3737"
       gradientUnits="userSpaceOnUse" />
    <linearGradient
       x1="4.24264"
       y1="-164.7422"
       x2="4.24264"
       y2="-32.689968"
       id="linearGradient3956"
       xlink:href="#linearGradient4317"
       gradientUnits="userSpaceOnUse"
       gradientTransform="matrix(0.1890843,0,0,0.1814684,43.833662,51.270698)" />
    <linearGradient
       x1="4.24264"
       y1="-164.7422"
       x2="6.3764067"
       y2="-47.453506"
       id="linearGradient3961"
       xlink:href="#linearGradient4317"
       gradientUnits="userSpaceOnUse"
       gradientTransform="matrix(0.2405723,0,0,0.2696101,42.832456,65.790782)" />
    <radialGradient
       cx="21.75"
       cy="-49.3125"
       r="114"
       fx="21.75"
       fy="-49.3125"
       id="radialGradient3964"
       xlink:href="#linearGradient5629"
       gradientUnits="userSpaceOnUse"
       gradientTransform="matrix(0.2281442,0,0,0.2281316,42.54835,57.656265)" />
    <radialGradient
       cx="372.90503"
       cy="693.90143"
       r="364.52515"
       fx="372.90503"
       fy="693.90143"
       id="radialGradient3976"
       xlink:href="#linearGradient5598"
       gradientUnits="userSpaceOnUse"
       gradientTransform="matrix(1.1265187,-1.4663371e-8,1.0849677e-8,0.8113239,-47.179503,135.69256)" />
    <linearGradient
       x1="6"
       y1="56.778179"
       x2="77.53125"
       y2="56.778179"
       id="linearGradient7646"
       xlink:href="#linearGradient7640"
       gradientUnits="userSpaceOnUse" />
    <linearGradient
       x1="46.147266"
       y1="10.333292"
       x2="92.14286"
       y2="90"
       id="linearGradient7654"
       xlink:href="#linearGradient7648"
       gradientUnits="userSpaceOnUse" />
    <linearGradient
       x1="76.074364"
       y1="65.418854"
       x2="83.626366"
       y2="72.970856"
       id="linearGradient3733"
       xlink:href="#linearGradient3727"
       gradientUnits="userSpaceOnUse"
       gradientTransform="matrix(0.9820258,-0.3605877,0.3605877,0.9820258,-21.724136,31.099571)" />
    <linearGradient
       x1="76.074364"
       y1="65.418854"
       x2="83.626366"
       y2="72.970856"
       id="linearGradient3743"
       xlink:href="#linearGradient3727"
       gradientUnits="userSpaceOnUse"
       gradientTransform="matrix(0.7163691,-0.2630419,0.2630419,0.7163691,8.6237219,51.589579)" />
    <linearGradient
       x1="76.074364"
       y1="65.418854"
       x2="83.626366"
       y2="72.970856"
       id="linearGradient3749"
       xlink:href="#linearGradient3727"
       gradientUnits="userSpaceOnUse"
       gradientTransform="matrix(0.7163691,-0.2630419,0.2630419,0.7163691,8.6237219,51.589579)" />
    <linearGradient
       x1="76.074364"
       y1="65.418854"
       x2="83.626366"
       y2="72.970856"
       id="linearGradient3755"
       xlink:href="#linearGradient3727"
       gradientUnits="userSpaceOnUse"
       gradientTransform="matrix(0.7163691,-0.2630419,0.2630419,0.7163691,8.6237219,51.589579)" />
    <linearGradient
       x1="76.074364"
       y1="65.418854"
       x2="83.626366"
       y2="72.970856"
       id="linearGradient3759"
       xlink:href="#linearGradient3727"
       gradientUnits="userSpaceOnUse"
       gradientTransform="matrix(0.6914629,-0.2538966,0.2538966,0.6914629,12.463819,46.241754)" />
    <linearGradient
       x1="76.074364"
       y1="65.418854"
       x2="83.626366"
       y2="72.970856"
       id="linearGradient3763"
       xlink:href="#linearGradient3727"
       gradientUnits="userSpaceOnUse"
       gradientTransform="matrix(0.3608373,-0.3850916,0.3850916,0.3608373,30.032152,87.955627)" />
    <linearGradient
       x1="76.074364"
       y1="65.418854"
       x2="83.626366"
       y2="72.970856"
       id="linearGradient3769"
       xlink:href="#linearGradient3727"
       gradientUnits="userSpaceOnUse"
       gradientTransform="matrix(0.7163691,-0.2630419,0.2630419,0.7163691,8.6237219,51.589579)" />
    <linearGradient
       x1="76.074364"
       y1="65.418854"
       x2="83.626366"
       y2="72.970856"
       id="linearGradient3775"
       xlink:href="#linearGradient3727"
       gradientUnits="userSpaceOnUse"
       gradientTransform="matrix(0.7163691,-0.2630419,0.2630419,0.7163691,8.6237219,51.589579)" />
    <linearGradient
       x1="76.074364"
       y1="65.418854"
       x2="83.626366"
       y2="72.970856"
       id="linearGradient3779"
       xlink:href="#linearGradient3781"
       gradientUnits="userSpaceOnUse"
       gradientTransform="matrix(1.1671019,-0.2399237,0.2399237,1.1671019,-32.021992,-45.739259)" />
    <linearGradient
       x1="76.074364"
       y1="65.418854"
       x2="83.626366"
       y2="72.970856"
       id="linearGradient3789"
       xlink:href="#linearGradient3843"
       gradientUnits="userSpaceOnUse"
       gradientTransform="matrix(1.190324,0.05309362,-0.05309362,1.190324,-11.899013,-45.928401)" />
    <linearGradient
       x1="76.074364"
       y1="65.418854"
       x2="83.626366"
       y2="72.970856"
       id="linearGradient3793"
       xlink:href="#linearGradient3781"
       gradientUnits="userSpaceOnUse"
       gradientTransform="matrix(0.7484538,-0.4918979,0.4918979,0.7484538,-29.442694,2.489429)" />
    <linearGradient
       x1="76.074364"
       y1="65.418854"
       x2="83.626366"
       y2="72.970856"
       id="linearGradient3797"
       xlink:href="#linearGradient3781"
       gradientUnits="userSpaceOnUse"
       gradientTransform="matrix(0.5225515,-0.3434306,0.3434306,0.5225515,21.435687,11.478722)" />
    <linearGradient
       x1="76.074364"
       y1="65.418854"
       x2="83.626366"
       y2="72.970856"
       id="linearGradient3801"
       xlink:href="#linearGradient3781"
       gradientUnits="userSpaceOnUse"
       gradientTransform="matrix(0.7255019,-0.09614471,0.06014635,0.7458159,20.704877,-30.666872)" />
    <linearGradient
       x1="76.074364"
       y1="65.418854"
       x2="83.626366"
       y2="72.970856"
       id="linearGradient3805"
       xlink:href="#linearGradient3781"
       gradientUnits="userSpaceOnUse"
       gradientTransform="matrix(0.3711689,-0.1871988,0.1871988,0.3711689,41.789421,4.9669699)" />
    <linearGradient
       x1="76.074364"
       y1="65.418854"
       x2="83.626366"
       y2="72.970856"
       id="linearGradient3809"
       xlink:href="#linearGradient3781"
       gradientUnits="userSpaceOnUse"
       gradientTransform="matrix(0.3948256,0.1300865,-0.1300865,0.3948256,64.04034,-24.573679)" />
    <linearGradient
       x1="76.074364"
       y1="65.418854"
       x2="83.626366"
       y2="72.970856"
       id="linearGradient3813"
       xlink:href="#linearGradient3781"
       gradientUnits="userSpaceOnUse"
       gradientTransform="matrix(0.5040987,-0.02918677,0.02918677,0.5040987,45.998403,-7.2686079)" />
    <linearGradient
       x1="76.074364"
       y1="65.418854"
       x2="83.626366"
       y2="72.970856"
       id="linearGradient3817"
       xlink:href="#linearGradient3993"
       gradientUnits="userSpaceOnUse"
       gradientTransform="matrix(0.6288027,-1.0120758,1.0120758,0.6288027,-99.947186,49.584732)" />
    <linearGradient
       x1="76.074364"
       y1="65.418854"
       x2="83.626366"
       y2="72.970856"
       id="linearGradient3821"
       xlink:href="#linearGradient3993"
       gradientUnits="userSpaceOnUse"
       gradientTransform="matrix(0.386944,-1.3420905,1.3420905,0.386944,-99.099579,96.515329)" />
    <linearGradient
       x1="76.074364"
       y1="65.418854"
       x2="83.626366"
       y2="72.970856"
       id="linearGradient3825"
       xlink:href="#linearGradient3993"
       gradientUnits="userSpaceOnUse"
       gradientTransform="matrix(0.06725779,-1.1896077,1.1896077,0.06725779,-72.98847,108.21723)" />
    <linearGradient
       x1="76.074364"
       y1="65.418854"
       x2="83.626366"
       y2="72.970856"
       id="linearGradient3829"
       xlink:href="#linearGradient3993"
       gradientUnits="userSpaceOnUse"
       gradientTransform="matrix(0.03993423,-0.9828373,0.9828373,0.03993423,-47.340831,96.258369)" />
    <linearGradient
       x1="76.074364"
       y1="65.418854"
       x2="83.626366"
       y2="72.970856"
       id="linearGradient3833"
       xlink:href="#linearGradient3781"
       gradientUnits="userSpaceOnUse"
       gradientTransform="matrix(-0.1869192,-0.5967126,0.5967126,-0.1869192,-12.997301,89.53938)" />
    <linearGradient
       x1="76.074364"
       y1="65.418854"
       x2="83.626366"
       y2="72.970856"
       id="linearGradient3837"
       xlink:href="#linearGradient3781"
       gradientUnits="userSpaceOnUse"
       gradientTransform="matrix(0.9411367,-0.7307201,0.7307201,0.9411367,-94.098052,2.4298142)" />
    <linearGradient
       x1="76.074364"
       y1="65.418854"
       x2="83.626366"
       y2="72.970856"
       id="linearGradient3841"
       xlink:href="#linearGradient3993"
       gradientUnits="userSpaceOnUse"
       gradientTransform="matrix(0.6077762,-0.657841,0.657841,0.6077762,-56.276178,25.159848)" />
    <linearGradient
       x1="76.074364"
       y1="65.418854"
       x2="83.626366"
       y2="72.970856"
       id="linearGradient3851"
       xlink:href="#linearGradient3843"
       gradientUnits="userSpaceOnUse"
       gradientTransform="matrix(0.8246643,0.2196683,-0.2196683,0.8246643,34.600846,-36.799497)" />
    <linearGradient
       x1="76.074364"
       y1="65.418854"
       x2="83.626366"
       y2="72.970856"
       id="linearGradient3855"
       xlink:href="#linearGradient3781"
       gradientUnits="userSpaceOnUse"
       gradientTransform="matrix(1.1637239,0.07551779,-0.07551779,1.1637239,-10.19798,-53.960149)" />
    <linearGradient
       x1="76.074364"
       y1="65.418854"
       x2="83.626366"
       y2="72.970856"
       id="linearGradient3859"
       xlink:href="#linearGradient3843"
       gradientUnits="userSpaceOnUse"
       gradientTransform="matrix(0.4582539,-0.2908732,0.2908732,0.4582539,21.662029,36.158854)" />
    <linearGradient
       x1="76.074364"
       y1="65.418854"
       x2="83.626366"
       y2="72.970856"
       id="linearGradient3863"
       xlink:href="#linearGradient3843"
       gradientUnits="userSpaceOnUse"
       gradientTransform="matrix(0.6831812,-0.3142574,0.3142574,0.6831812,5.8508334,27.26478)" />
    <linearGradient
       x1="76.074364"
       y1="65.418854"
       x2="83.626366"
       y2="72.970856"
       id="linearGradient3871"
       xlink:href="#linearGradient3843"
       gradientUnits="userSpaceOnUse"
       gradientTransform="matrix(0.4673169,-0.1161029,0.1161029,0.4673169,42.421625,22.496014)" />
    <linearGradient
       x1="76.074364"
       y1="65.418854"
       x2="83.626366"
       y2="72.970856"
       id="linearGradient3875"
       xlink:href="#linearGradient3727"
       gradientUnits="userSpaceOnUse"
       gradientTransform="matrix(0.9782488,0.2074354,-0.2074354,0.9782488,22.218385,-23.165914)" />
    <linearGradient
       x1="76.074364"
       y1="65.418854"
       x2="83.626366"
       y2="72.970856"
       id="linearGradient3879"
       xlink:href="#linearGradient3727"
       gradientUnits="userSpaceOnUse"
       gradientTransform="matrix(0.7920005,0.2946434,-0.2946434,0.7920005,42.539061,-26.704668)" />
    <linearGradient
       x1="76.074364"
       y1="65.418854"
       x2="83.626366"
       y2="72.970856"
       id="linearGradient3885"
       xlink:href="#linearGradient3727"
       gradientUnits="userSpaceOnUse"
       gradientTransform="matrix(0.7163691,-0.2630419,0.2630419,0.7163691,8.6237219,51.589579)" />
    <linearGradient
       x1="76.074364"
       y1="65.418854"
       x2="83.626366"
       y2="72.970856"
       id="linearGradient3889"
       xlink:href="#linearGradient3727"
       gradientUnits="userSpaceOnUse"
       gradientTransform="matrix(0.7363681,0.01861346,-0.01861346,0.7363681,24.560691,12.365427)" />
    <linearGradient
       x1="76.074364"
       y1="65.418854"
       x2="83.626366"
       y2="72.970856"
       id="linearGradient3893"
       xlink:href="#linearGradient3727"
       gradientUnits="userSpaceOnUse"
       gradientTransform="matrix(0.4783123,-0.2229719,0.2229719,0.4783123,32.536407,52.26506)" />
    <linearGradient
       x1="76.074364"
       y1="65.418854"
       x2="83.626366"
       y2="72.970856"
       id="linearGradient3901"
       xlink:href="#linearGradient3727"
       gradientUnits="userSpaceOnUse"
       gradientTransform="matrix(0.7364134,-0.01672543,0.01672543,0.7364134,30.617678,8.8593186)" />
    <linearGradient
       x1="76.074364"
       y1="65.418854"
       x2="83.626366"
       y2="72.970856"
       id="linearGradient3911"
       xlink:href="#linearGradient3727"
       gradientUnits="userSpaceOnUse"
       gradientTransform="matrix(0.3449243,-0.368109,0.368109,0.3449243,29.1893,57.048222)" />
    <linearGradient
       x1="76.074364"
       y1="65.418854"
       x2="83.626366"
       y2="72.970856"
       id="linearGradient3915"
       xlink:href="#linearGradient3781"
       gradientUnits="userSpaceOnUse"
       gradientTransform="matrix(0.5225515,-0.3434306,0.3434306,0.5225515,8.1774349,30.040275)" />
    <linearGradient
       x1="76.074364"
       y1="65.418854"
       x2="83.626366"
       y2="72.970856"
       id="linearGradient3919"
       xlink:href="#linearGradient3993"
       gradientUnits="userSpaceOnUse"
       gradientTransform="matrix(1.1067603,-0.4413296,0.4413296,1.1067603,-51.147262,-16.818665)" />
    <linearGradient
       x1="76.074364"
       y1="65.418854"
       x2="83.626366"
       y2="72.970856"
       id="linearGradient3923"
       xlink:href="#linearGradient3993"
       gradientUnits="userSpaceOnUse"
       gradientTransform="matrix(0.963661,-0.7007479,0.7007479,0.963661,-77.885364,0.331086)" />
    <linearGradient
       x1="76.074364"
       y1="65.418854"
       x2="83.626366"
       y2="72.970856"
       id="linearGradient3927"
       xlink:href="#linearGradient3993"
       gradientUnits="userSpaceOnUse"
       gradientTransform="matrix(0.9475654,-1.0261834,1.0261834,0.9475654,-94.162112,31.405539)" />
    <linearGradient
       x1="76.074364"
       y1="65.418854"
       x2="83.626366"
       y2="72.970856"
       id="linearGradient3931"
       xlink:href="#linearGradient3781"
       gradientUnits="userSpaceOnUse"
       gradientTransform="matrix(0.5384517,-0.2946873,0.2726721,0.5652328,4.430729,-2.910297)" />
    <linearGradient
       x1="76.074364"
       y1="65.418854"
       x2="83.626366"
       y2="72.970856"
       id="linearGradient3935"
       xlink:href="#linearGradient3993"
       gradientUnits="userSpaceOnUse"
       gradientTransform="matrix(0.9597462,-0.2155254,0.2155254,0.9597462,-13.634727,-25.650382)" />
    <linearGradient
       x1="76.074364"
       y1="65.418854"
       x2="83.626366"
       y2="72.970856"
       id="linearGradient3939"
       xlink:href="#linearGradient3781"
       gradientUnits="userSpaceOnUse"
       gradientTransform="matrix(0.6054087,-0.4111899,0.3881186,0.6397053,-7.2104812,7.9215456)" />
    <linearGradient
       x1="76.074364"
       y1="65.418854"
       x2="83.626366"
       y2="72.970856"
       id="linearGradient3943"
       xlink:href="#linearGradient3781"
       gradientUnits="userSpaceOnUse"
       gradientTransform="matrix(0.06081153,-0.4112319,0.4112319,0.06081153,18.967648,48.710693)" />
    <linearGradient
       x1="76.074364"
       y1="65.418854"
       x2="83.626366"
       y2="72.970856"
       id="linearGradient3947"
       xlink:href="#linearGradient3993"
       gradientUnits="userSpaceOnUse"
       gradientTransform="matrix(0.1990431,-0.7042575,0.7086538,0.2401431,-16.875411,56.921861)" />
    <linearGradient
       x1="76.074364"
       y1="65.418854"
       x2="83.626366"
       y2="72.970856"
       id="linearGradient3951"
       xlink:href="#linearGradient3781"
       gradientUnits="userSpaceOnUse"
       gradientTransform="matrix(0.1120965,-0.6034942,0.6103256,0.1460852,-16.805075,57.280769)" />
    <linearGradient
       x1="76.074364"
       y1="65.418854"
       x2="83.626366"
       y2="72.970856"
       id="linearGradient3955"
       xlink:href="#linearGradient3993"
       gradientUnits="userSpaceOnUse"
       gradientTransform="matrix(-0.6354725,-1.0079012,1.0079012,-0.6354725,-2.4988781,154.66583)" />
    <linearGradient
       x1="76.074364"
       y1="65.418854"
       x2="83.626366"
       y2="72.970856"
       id="linearGradient3959"
       xlink:href="#linearGradient3781"
       gradientUnits="userSpaceOnUse"
       gradientTransform="matrix(-0.4281608,-0.4557225,0.4557225,-0.4281608,11.364984,98.48179)" />
    <linearGradient
       x1="76.074364"
       y1="65.418854"
       x2="83.626366"
       y2="72.970856"
       id="linearGradient3965"
       xlink:href="#linearGradient3727"
       gradientUnits="userSpaceOnUse"
       gradientTransform="matrix(0.7163691,-0.2630419,0.2630419,0.7163691,8.6237219,51.589579)" />
    <linearGradient
       x1="76.074364"
       y1="65.418854"
       x2="83.626366"
       y2="72.970856"
       id="linearGradient3973"
       xlink:href="#linearGradient3781"
       gradientUnits="userSpaceOnUse"
       gradientTransform="matrix(0.6526642,-0.3310986,0.3038644,0.6837583,-6.924399,7.484653)" />
    <linearGradient
       x1="76.074364"
       y1="65.418854"
       x2="83.626366"
       y2="72.970856"
       id="linearGradient4006"
       xlink:href="#linearGradient4008"
       gradientUnits="userSpaceOnUse"
       gradientTransform="matrix(-0.2198117,-1.1673145,1.1673145,-0.2198117,-43.124123,180.46059)" />
    <linearGradient
       x1="76.074364"
       y1="65.418854"
       x2="83.626366"
       y2="72.970856"
       id="linearGradient4016"
       xlink:href="#linearGradient4008"
       gradientUnits="userSpaceOnUse"
       gradientTransform="matrix(-0.6280478,-0.7140584,0.7140584,-0.6280478,28.231702,175.16151)" />
    <linearGradient
       x1="76.074364"
       y1="65.418854"
       x2="83.626366"
       y2="72.970856"
       id="linearGradient4020"
       xlink:href="#linearGradient4008"
       gradientUnits="userSpaceOnUse"
       gradientTransform="matrix(0.1958729,-0.699642,0.699642,0.1958729,-48.672569,98.353388)" />
    <linearGradient
       x1="76.074364"
       y1="65.418854"
       x2="83.626366"
       y2="72.970856"
       id="linearGradient4024"
       xlink:href="#linearGradient4008"
       gradientUnits="userSpaceOnUse"
       gradientTransform="matrix(-0.007884,-0.9477426,0.9477426,-0.007884,-49.921757,138.70377)" />
    <linearGradient
       x1="76.074364"
       y1="65.418854"
       x2="83.626366"
       y2="72.970856"
       id="linearGradient4028"
       xlink:href="#linearGradient4008"
       gradientUnits="userSpaceOnUse"
       gradientTransform="matrix(-0.599477,-0.3262687,0.3262687,-0.599477,59.963834,143.82527)" />
    <linearGradient
       x1="76.074364"
       y1="65.418854"
       x2="83.626366"
       y2="72.970856"
       id="linearGradient4032"
       xlink:href="#linearGradient4008"
       gradientUnits="userSpaceOnUse"
       gradientTransform="matrix(0.03389637,-0.4489222,0.4489222,0.03389637,-24.478628,88.693334)" />
    <linearGradient
       x1="76.074364"
       y1="65.418854"
       x2="83.626366"
       y2="72.970856"
       id="linearGradient4036"
       xlink:href="#linearGradient4008"
       gradientUnits="userSpaceOnUse"
       gradientTransform="matrix(-0.1417169,-0.5196144,0.5196144,-0.1417169,-10.327739,117.79869)" />
    <linearGradient
       x1="76.074364"
       y1="65.418854"
       x2="83.626366"
       y2="72.970856"
       id="linearGradient4040"
       xlink:href="#linearGradient4008"
       gradientUnits="userSpaceOnUse"
       gradientTransform="matrix(-0.1321197,-0.477535,0.477535,-0.1321197,-0.7019176,121.25785)" />
    <linearGradient
       x1="76.074364"
       y1="65.418854"
       x2="83.626366"
       y2="72.970856"
       id="linearGradient4044"
       xlink:href="#linearGradient4046"
       gradientUnits="userSpaceOnUse"
       gradientTransform="matrix(-0.3836975,-0.9818443,1.0180659,-0.3834818,-27.629548,180.22642)" />
    <linearGradient
       x1="76.074364"
       y1="65.418854"
       x2="83.626366"
       y2="72.970856"
       id="linearGradient4054"
       xlink:href="#linearGradient4046"
       gradientUnits="userSpaceOnUse"
       gradientTransform="matrix(-0.6778511,-0.5849563,0.6122406,-0.6920668,35.362432,175.04136)" />
    <linearGradient
       x1="76.074364"
       y1="65.418854"
       x2="83.626366"
       y2="72.970856"
       id="linearGradient4058"
       xlink:href="#linearGradient4046"
       gradientUnits="userSpaceOnUse"
       gradientTransform="matrix(-0.2020378,-0.4538219,0.4708774,-0.2027262,-7.9261364,124.28332)" />
    <linearGradient
       x1="76.074364"
       y1="65.418854"
       x2="83.626366"
       y2="72.970856"
       id="linearGradient4062"
       xlink:href="#linearGradient4046"
       gradientUnits="userSpaceOnUse"
       gradientTransform="matrix(-0.4519872,-0.2606427,0.2184296,-0.5865159,51.612955,142.51502)" />
    <linearGradient
       x1="76.074364"
       y1="65.418854"
       x2="83.626366"
       y2="72.970856"
       id="linearGradient4101"
       xlink:href="#linearGradient3781"
       gradientUnits="userSpaceOnUse"
       gradientTransform="matrix(-0.2271965,-0.4857471,0.5016798,-0.219981,7.5795692,78.201882)" />
    <radialGradient
       cx="19181.57"
       cy="17597.709"
       r="16756.031"
       fx="19181.57"
       fy="17597.709"
       id="radialGradient6694"
       xlink:href="#linearGradient2312"
       gradientUnits="userSpaceOnUse"
       gradientTransform="matrix(1,0,0,1.0498756,0,-877.69716)" />
    <radialGradient
       cx="127.27922"
       cy="98.020309"
       r="24.165739"
       fx="127.27922"
       fy="98.020309"
       id="radialGradient4558"
       xlink:href="#linearGradient2312"
       gradientUnits="userSpaceOnUse"
       gradientTransform="matrix(1,0,0,1.0496111,-79.30166,-57.138289)" />
    <radialGradient
       cx="111.25"
       cy="52.07143"
       r="6.25"
       fx="111.25"
       fy="52.07143"
       id="radialGradient5331"
       xlink:href="#linearGradient3910"
       gradientUnits="userSpaceOnUse"
       gradientTransform="matrix(1,0,0,6.1142859,0,-266.30818)" />
    <linearGradient
       id="linearGradient3737-1">
      <stop
         id="stop3739-7"
         style="stop-color:#ffffff;stop-opacity:1"
         offset="0" />
      <stop
         id="stop3741-2"
         style="stop-color:#ffffff;stop-opacity:0"
         offset="1" />
    </linearGradient>
    <radialGradient
       cx="48"
       cy="90.171875"
       r="42"
       fx="48"
       fy="90.171875"
       id="radialGradient2855"
       xlink:href="#linearGradient3737-1"
       gradientUnits="userSpaceOnUse"
       gradientTransform="matrix(1.1573129,0,0,0.99590774,-7.551021,0.1971319)" />
    <linearGradient
       x1="45.447727"
       y1="92.539597"
       x2="45.447727"
       y2="7.0165396"
       id="ButtonShadow-7"
       gradientUnits="userSpaceOnUse"
       gradientTransform="matrix(1.0058652,0,0,0.994169,100,0)">
      <stop
         id="stop3750-7"
         style="stop-color:#000000;stop-opacity:1"
         offset="0" />
      <stop
         id="stop3752-6"
         style="stop-color:#000000;stop-opacity:0.58823532"
         offset="1" />
    </linearGradient>
    <linearGradient
       x1="32.251034"
       y1="6.1317081"
       x2="32.251034"
       y2="90.238609"
       id="linearGradient3780"
       xlink:href="#ButtonShadow-7"
       gradientUnits="userSpaceOnUse"
       gradientTransform="matrix(1.0238095,0,0,1.0119048,-1.1428571,-98.071429)" />
    <linearGradient
       x1="32.251034"
       y1="6.1317081"
       x2="32.251034"
       y2="90.238609"
       id="linearGradient3772"
       xlink:href="#ButtonShadow-7"
       gradientUnits="userSpaceOnUse"
       gradientTransform="matrix(1.0238095,0,0,1.0119048,-1.1428571,-98.071429)" />
    <linearGradient
       x1="32.251034"
       y1="6.1317081"
       x2="32.251034"
       y2="90.238609"
       id="linearGradient3725"
       xlink:href="#ButtonShadow-7"
       gradientUnits="userSpaceOnUse"
       gradientTransform="matrix(1.0238095,0,0,1.0119048,-1.1428571,-98.071429)" />
    <linearGradient
       x1="32.251034"
       y1="6.1317081"
       x2="32.251034"
       y2="90.238609"
       id="linearGradient3721"
       xlink:href="#ButtonShadow-7"
       gradientUnits="userSpaceOnUse"
       gradientTransform="translate(0,-97)" />
    <linearGradient
       x1="32.251034"
       y1="6.1317081"
       x2="32.251034"
       y2="90.238609"
       id="linearGradient3026"
       xlink:href="#ButtonShadow-7"
       gradientUnits="userSpaceOnUse"
       gradientTransform="matrix(1.0238095,0,0,1.0119048,-1.1428571,-98.071429)" />
  </defs>
  <metadata
     id="metadata2413">
    <rdf:RDF>
      <cc:Work
         rdf:about="">
        <dc:format>image/svg+xml</dc:format>
        <dc:type
           rdf:resource="http://purl.org/dc/dcmitype/StillImage" />
      </cc:Work>
    </rdf:RDF>
  </metadata>
  <g
     id="layer2"
     style="display:none">
    <rect
       width="86"
       height="85"
       rx="6"
       ry="6"
       x="5"
       y="7"
       id="rect3745"
       style="opacity:0.9;fill:url(#ButtonShadow);fill-opacity:1;fill-rule:nonzero;stroke:none;filter:url(#filter3174)" />
  </g>
  <rect
     style="fill:#dc710e;fill-opacity:1;fill-rule:evenodd;stroke:none"
     id="rect3145"
     width="83.898361"
     height="83.898361"
     x="5.8761501"
     y="5.8990345"
     rx="0" />
  <g
     id="layer3"
     style="display:inline">
    <rect
       width="71.215752"
       height="57.727921"
       rx="9.8366451"
       ry="9.8982201"
       x="13.637059"
       y="19.07918"
       id="rect2971"
       style="fill:#280b0b;fill-opacity:1;fill-rule:nonzero;stroke:none" />
    <path
       d="m 737.43018,376.39664 a 364.52515,359.63687 0 1 1 -729.0502972,0 364.52515,359.63687 0 1 1 729.0502972,0 z"
       transform="matrix(0.07134889,0,0,0.07231475,20.904123,19.190365)"
       id="path5993"
       style="fill:#358bc3;fill-opacity:1;fill-rule:evenodd;stroke:none;display:inline" />
    <g
       transform="translate(80,0)"
       id="g5327" />
    <g
       transform="matrix(0.00144417,0,0,0.00144417,21.306913,20.677011)"
       id="g5941"
       style="fill:url(#radialGradient6694);fill-opacity:1;display:inline" />
  </g>
  <g
     id="layer1"
     style="display:inline"
     transform="matrix(0.99417049,0,0,1,0.03497708,0)">
    <path
       d="M 12,6 C 6,6 6,6 6,12 l 0,72 c 0,6 0,6 6,6 l 72,0 c 6,0 6,0 6,-6 L 90,12 C 90,6 89.979975,6 84,6 z m 32.825893,19.848214 c 16.504876,0.575617 27.747174,17.94868 32.857143,32.035715 -28.969393,30.377055 -57.53654,5.774969 -56.794643,-20.486608 0,-10e-7 8.07559,-11.363882 23.9375,-11.549107 z"
       inkscape:connector-curvature="0"
       id="rect2419"
       style="fill:#dc710e;fill-opacity:1;fill-rule:nonzero;stroke:none"
       sodipodi:nodetypes="ssssssssscccc" />
    <path
       d="M 47.74215,23.252221 C 28.880677,21.086301 16.580357,35.806753 16.580357,35.806753 l 2.260061,1.28032 c -0.417264,14.77026 7.467069,28.486224 19.098877,33.768322 11.631809,5.282097 29.026152,2.286321 39.837084,-11.936004 l 0.746829,-0.868858 C 73.094104,42.991175 64.310535,25.154817 47.74215,23.252221 z m -0.361211,4.139285 c 8.407265,0.252128 16.019767,7.837404 21.457902,15.580897 5.071947,7.22207 7.936316,13.860901 8.337146,14.795018 C 64.351367,71.652652 50.592013,73.560753 39.966346,68.735552 29.288538,63.886673 21.734135,52.119874 21.993645,38.325469 22.447083,37.642475 29.867114,26.858294 47.380939,27.391506 z"
       inkscape:connector-curvature="0"
       id="path3942"
       style="fill:#000000;fill-opacity:1;fill-rule:evenodd;stroke:none" />
  </g>
  <g
     id="layer10"
     style="display:inline" />
  <g
     id="layer9"
     style="display:inline">
    <path
       d="M 37.897982,19.207495 C 24.026529,19.683474 8.4556446,28.480824 12.365112,49.283494 16.311227,70.281176 55.243603,91.753345 81.78125,60.600455 74.388618,31.781179 54.63939,18.633038 37.897982,19.207495 z m 7.740147,7.571883 c 0.551017,-0.0064 1.111255,-0.0174 1.68264,0 17.78224,0.533278 30.62406,31.22981 30.62406,31.22981 -26.004701,28.866713 -57.537584,8.526629 -56.738643,-19.754201 0,-10e-7 7.35041,-11.276142 24.431943,-11.475609 z"
       inkscape:connector-curvature="0"
       id="path2904"
       style="opacity:0.3;fill:#480500;fill-opacity:1;fill-rule:evenodd;stroke:none;display:inline" />
    <path
       d="m 37.96875,20.96875 c -6.588021,0.226058 -13.549913,2.465654 -18.28125,6.9375 -4.731337,4.471846 -7.461993,11.121392 -5.59375,21.0625 1.799453,9.575074 12.049444,19.915464 25.03125,23.84375 12.768857,3.863848 25.072069,0.93814 37.808792,-13.501059 -0.0307,-0.357872 1.511148,-0.793584 1.334065,-1.106084 C 65.69551,71.714107 50.625331,75.857549 38.901786,70.53125 27.178241,65.204951 19.050529,52.991646 19.46875,38.1875 c 0.0089,-0.322159 0.10617,-0.635673 0.28125,-0.90625 0,0 7.995438,-12.041579 25.84375,-12.25 0.54175,-0.0063 1.152206,-0.01915 1.78125,0 9.887771,0.296527 20.834346,16.372732 26.394597,24.291314 2.887294,4.111914 1.215183,2.530317 2.729344,5.508474 C 67.923372,32.637945 52.055632,20.485379 37.96875,20.96875 z"
       inkscape:connector-curvature="0"
       id="path4096"
       style="opacity:0.3;fill:#480700;fill-opacity:1;fill-rule:evenodd;stroke:none;display:inline"
       sodipodi:nodetypes="ssssccsccccscs" />
  </g>
  <g
     id="layer7"
     style="display:inline">
    <a
       transform="matrix(0.5813319,0.01171362,-0.01171362,0.5813319,31.462951,18.060368)"
       id="a3961" />
    <a
       transform="matrix(1.0461348,0,0,1.0461348,-5.2298889,-7.9172448)"
       id="a3740" />
    <a
       transform="matrix(0.8341746,-0.1856091,0.1856091,0.8341746,-1.1847331,33.762235)"
       id="a3745" />
    <a
       transform="matrix(0.8622115,-0.2679751,0.234576,1.0454489,-7.9621057,19.01928)"
       id="a3751" />
    <a
       transform="matrix(0.5813319,0.01171362,-0.01171362,0.5813319,39.12443,30.477247)"
       id="a3765" />
    <a
       transform="matrix(0.333034,-0.476626,0.476626,0.333034,19.694267,97.988729)"
       id="a3771" />
    <a
       transform="matrix(0.5432401,0.2073022,-0.2073022,0.5432401,52.943206,-1.6524088)"
       id="a3881" />
  </g>
  <g
     id="layer8"
     style="display:inline" />
  <path
     sodipodi:type="arc"
     style="fill:#160200;fill-opacity:1;fill-rule:nonzero;stroke:none"
     id="path3226"
     sodipodi:cx="48.070477"
     sodipodi:cy="48.625187"
     sodipodi:rx="6.330555"
     sodipodi:ry="20.104729"
     d="m 54.401031,48.625187 a 6.330555,20.104729 0 1 1 -12.661109,0 6.330555,20.104729 0 1 1 12.661109,0 z"
     transform="matrix(0.79120879,0,0,0.9100346,8.5757956,-0.49507317)" />
</svg>
