<?xml version="1.0" encoding="UTF-8" standalone="no"?>
<!-- Created with Inkscape (http://www.inkscape.org/) -->

<svg
   xmlns:dc="http://purl.org/dc/elements/1.1/"
   xmlns:cc="http://creativecommons.org/ns#"
   xmlns:rdf="http://www.w3.org/1999/02/22-rdf-syntax-ns#"
   xmlns:svg="http://www.w3.org/2000/svg"
   xmlns="http://www.w3.org/2000/svg"
   xmlns:sodipodi="http://sodipodi.sourceforge.net/DTD/sodipodi-0.dtd"
   xmlns:inkscape="http://www.inkscape.org/namespaces/inkscape"
   width="96"
   height="96"
   id="svg2"
   version="1.1"
   inkscape:version="0.48.5 r10040"
   sodipodi:docname="gnome-note.svg">
  <defs
     id="defs4" />
  <sodipodi:namedview
     id="base"
     pagecolor="#ffffff"
     bordercolor="#666666"
     borderopacity="1.0"
     inkscape:pageopacity="0.0"
     inkscape:pageshadow="2"
     inkscape:zoom="4.1425342"
     inkscape:cx="55.964587"
     inkscape:cy="31.933398"
     inkscape:document-units="px"
     inkscape:current-layer="layer1"
     showgrid="false"
     borderlayer="true"
     inkscape:showpageshadow="false"
     inkscape:window-width="1680"
     inkscape:window-height="991"
     inkscape:window-x="-2"
     inkscape:window-y="-3"
     inkscape:window-maximized="1"
     showguides="true">
    <sodipodi:guide
       position="9,39.000017"
       orientation="30,0"
       id="guide3279" />
    <sodipodi:guide
       position="9,9.0000174"
       orientation="0,30"
       id="guide3281" />
    <sodipodi:guide
       position="39,9.0000174"
       orientation="-30,0"
       id="guide3283" />
    <sodipodi:guide
       position="39,39.000017"
       orientation="0,-30"
       id="guide3285" />
    <sodipodi:guide
       position="7,44.000017"
       orientation="40,0"
       id="guide3292" />
    <sodipodi:guide
       position="7,4.0000174"
       orientation="0,34"
       id="guide3294" />
    <sodipodi:guide
       position="41,4.0000174"
       orientation="-40,0"
       id="guide3296" />
    <sodipodi:guide
       position="41,44.000017"
       orientation="0,-34"
       id="guide3298" />
    <sodipodi:guide
       position="9,42.000017"
       orientation="36,0"
       id="guide3300" />
    <sodipodi:guide
       position="9,6.0000174"
       orientation="0,30"
       id="guide3302" />
    <sodipodi:guide
       position="39,6.0000174"
       orientation="-36,0"
       id="guide3304" />
    <sodipodi:guide
       position="39,42.000017"
       orientation="0,-30"
       id="guide3306" />
  </sodipodi:namedview>
  <metadata
     id="metadata7">
    <rdf:RDF>
      <cc:Work
         rdf:about="">
        <dc:format>image/svg+xml</dc:format>
        <dc:type
           rdf:resource="http://purl.org/dc/dcmitype/StillImage" />
        <dc:title />
      </cc:Work>
    </rdf:RDF>
  </metadata>
  <g
     inkscape:label="Capa 1"
     inkscape:groupmode="layer"
     id="layer1"
     transform="translate(0,-956.3622)">
    <g
       id="g3000"
       transform="matrix(2.4705909,0,0,2.1000023,-11.294182,-1155.2007)">
      <rect
         y="1008.3622"
         x="7"
         height="40"
         width="34"
         id="rect4043"
         style="fill:#ae8566;fill-opacity:1;stroke:none" />
      <rect
         style="fill:#fdf4a9;fill-opacity:1;stroke:none"
         id="rect4047"
         width="29.999998"
         height="35.999973"
         x="9"
         y="1010.3622" />
      <rect
         transform="matrix(0,1,-1,0,0,0)"
         style="fill:#fbef82;fill-opacity:1;stroke:none"
         id="rect4051"
         width="2"
         height="30"
         x="1017.3622"
         y="-39" />
      <rect
         y="-39"
         x="1037.3622"
         height="30"
         width="2"
         id="rect3287"
         style="fill:#fbef82;fill-opacity:1;stroke:none"
         transform="matrix(0,1,-1,0,0,0)" />
      <rect
         transform="matrix(0,1,-1,0,0,0)"
         style="fill:#fbef82;fill-opacity:1;stroke:none"
         id="rect3289"
         width="2"
         height="30"
         x="1027.3622"
         y="-39" />
      <rect
         y="1010.3622"
         x="13"
         height="36"
         width="0.49999991"
         id="rect4049"
         style="fill:#ed8484;fill-opacity:1;stroke:none" />
    </g>
  </g>
</svg>
