<?xml version="1.0" encoding="UTF-8" standalone="no"?>
<!-- Created with Inkscape (http://www.inkscape.org/) -->

<svg
   xmlns:dc="http://purl.org/dc/elements/1.1/"
   xmlns:cc="http://creativecommons.org/ns#"
   xmlns:rdf="http://www.w3.org/1999/02/22-rdf-syntax-ns#"
   xmlns:svg="http://www.w3.org/2000/svg"
   xmlns="http://www.w3.org/2000/svg"
   xmlns:sodipodi="http://sodipodi.sourceforge.net/DTD/sodipodi-0.dtd"
   xmlns:inkscape="http://www.inkscape.org/namespaces/inkscape"
   width="96"
   height="96"
   id="svg2"
   version="1.1"
   inkscape:version="0.48.5 r10040"
   sodipodi:docname="gnome-screenshot.svg">
  <defs
     id="defs4" />
  <sodipodi:namedview
     id="base"
     pagecolor="#ffffff"
     bordercolor="#666666"
     borderopacity="1.0"
     inkscape:pageopacity="0.0"
     inkscape:pageshadow="2"
     inkscape:zoom="2.8284271"
     inkscape:cx="88.934893"
     inkscape:cy="44.553576"
     inkscape:document-units="px"
     inkscape:current-layer="layer1"
     showgrid="false"
     borderlayer="true"
     inkscape:showpageshadow="false"
     inkscape:window-width="1680"
     inkscape:window-height="991"
     inkscape:window-x="-2"
     inkscape:window-y="-3"
     inkscape:window-maximized="1"
     showguides="false">
    <sodipodi:guide
       position="9,39.000017"
       orientation="30,0"
       id="guide3312" />
    <sodipodi:guide
       position="9,9.0000174"
       orientation="0,30"
       id="guide3314" />
    <sodipodi:guide
       position="39,9.0000174"
       orientation="-30,0"
       id="guide3316" />
    <sodipodi:guide
       position="2,34.000017"
       orientation="30,0"
       id="guide3333" />
    <sodipodi:guide
       position="2,4.0000174"
       orientation="0,44"
       id="guide3335" />
    <sodipodi:guide
       position="46,4.0000174"
       orientation="-30,0"
       id="guide3337" />
    <sodipodi:guide
       position="46,34.000017"
       orientation="0,-44"
       id="guide3339" />
    <sodipodi:guide
       position="2,44.000017"
       orientation="4,0"
       id="guide3347" />
    <sodipodi:guide
       position="11.992531,44.000017"
       orientation="0,-9.9925308"
       id="guide3353" />
    <sodipodi:guide
       position="2,44.000017"
       orientation="4,0"
       id="guide3371" />
    <sodipodi:guide
       position="12,44.000017"
       orientation="0,-10"
       id="guide3377" />
    <sodipodi:guide
       position="39,39.000017"
       orientation="0,-30"
       id="guide3389" />
    <sodipodi:guide
       position="2,42.000017"
       orientation="33,0"
       id="guide3393" />
    <sodipodi:guide
       position="46,9.0000174"
       orientation="-33,0"
       id="guide3397" />
    <sodipodi:guide
       position="46,42.000017"
       orientation="0,-44"
       id="guide3399" />
  </sodipodi:namedview>
  <metadata
     id="metadata7">
    <rdf:RDF>
      <cc:Work
         rdf:about="">
        <dc:format>image/svg+xml</dc:format>
        <dc:type
           rdf:resource="http://purl.org/dc/dcmitype/StillImage" />
        <dc:title />
      </cc:Work>
    </rdf:RDF>
  </metadata>
  <g
     inkscape:label="Capa 1"
     inkscape:groupmode="layer"
     id="layer1"
     transform="translate(0,-956.3622)">
    <rect
       style="fill:#ef4f39;fill-opacity:1;fill-rule:evenodd;stroke:none"
       id="rect3343"
       width="13.363961"
       height="3.8182783"
       x="10.81802"
       y="960.45319" />
    <rect
       style="fill:#f0f0f0;fill-opacity:1;stroke:none"
       id="rect4052"
       width="84"
       height="72.947334"
       x="5.9999995"
       y="963.3623"
       ry="0" />
    <rect
       style="fill:#35383d;fill-opacity:1;fill-rule:evenodd;stroke:none"
       id="rect3341"
       width="84"
       height="11.052631"
       x="5.9999995"
       y="1036.3097" />
    <circle
       r="1"
       cy="1045.8622"
       cx="3"
       id="circle3401"
       style="fill:none;stroke:none"
       d="m 4,1045.8622 c 0,0.5523 -0.4477153,1 -1,1 -0.5522847,0 -1,-0.4477 -1,-1 0,-0.5523 0.4477153,-1 1,-1 0.5522847,0 1,0.4477 1,1 z"
       sodipodi:cx="3"
       sodipodi:cy="1045.8622"
       sodipodi:rx="1"
       sodipodi:ry="1"
       transform="matrix(1.9090909,0,0,2.2105263,2.1818176,-1270.0699)" />
    <rect
       y="1038.5203"
       x="9.818181"
       height="6.6315789"
       width="76.363632"
       id="rect3409"
       style="fill:#000000;fill-opacity:1;fill-rule:evenodd;stroke:none" />
    <g
       id="g3055"
       transform="matrix(0.92597316,0,0,0.79970411,6.1677839,195.39275)">
      <rect
         ry="4.4210525"
         y="971.09918"
         x="79.5"
         height="8.8421049"
         width="7.6363635"
         id="rect3425"
         style="fill:#5b5e6c;fill-opacity:1;fill-rule:evenodd;stroke:none" />
      <circle
         transform="matrix(1.9090909,0,0,2.2105263,2.1818176,-1270.0699)"
         sodipodi:ry="1.5"
         sodipodi:rx="1.5"
         sodipodi:cy="1015.8622"
         sodipodi:cx="42.5"
         d="m 44,1015.8622 c 0,0.8284 -0.671573,1.5 -1.5,1.5 -0.828427,0 -1.5,-0.6716 -1.5,-1.5 0,-0.8284 0.671573,-1.5 1.5,-1.5 0.828427,0 1.5,0.6716 1.5,1.5 z"
         r="1.5"
         style="fill:#222021;fill-opacity:1;fill-rule:evenodd;stroke:none"
         id="circle3417"
         cx="42.5"
         cy="1015.8622" />
      <circle
         transform="matrix(1.9090909,0,0,2.2105263,2.1818176,-1270.0699)"
         sodipodi:ry="0.5"
         sodipodi:rx="0.5"
         sodipodi:cy="1014.8622"
         sodipodi:cx="43.5"
         d="m 44,1014.8622 c 0,0.2761 -0.223858,0.5 -0.5,0.5 -0.276142,0 -0.5,-0.2239 -0.5,-0.5 0,-0.2762 0.223858,-0.5 0.5,-0.5 0.276142,0 0.5,0.2238 0.5,0.5 z"
         cy="1014.8622"
         cx="43.5"
         id="circle3419"
         style="fill:#5b5e6c;fill-opacity:1;fill-rule:evenodd;stroke:none"
         r="0.5" />
    </g>
    <g
       id="g3040"
       transform="matrix(1.0031376,0,0,0.86634611,-0.15060667,133.63197)">
      <rect
         ry="26.526316"
         y="973.30969"
         x="25.090908"
         height="53.052631"
         width="45.81818"
         id="rect3427"
         style="fill:#ffffff;fill-opacity:1;fill-rule:evenodd;stroke:none" />
      <rect
         style="fill:#000000;fill-opacity:1;fill-rule:evenodd;stroke:none"
         id="rect3429"
         width="38.181816"
         height="44.210526"
         x="28.90909"
         y="977.73071"
         ry="22.105263" />
      <rect
         ry="17.68421"
         y="982.15179"
         x="32.727272"
         height="35.36842"
         width="30.545454"
         id="rect3431"
         style="fill:#435564;fill-opacity:1;fill-rule:evenodd;stroke:none" />
      <rect
         style="fill:#103151;fill-opacity:1;fill-rule:evenodd;stroke:none"
         id="rect3433"
         width="22.90909"
         height="26.526316"
         x="36.545452"
         y="986.57281"
         ry="13.263158" />
      <rect
         ry="8.8421049"
         y="990.9939"
         x="40.363636"
         height="17.68421"
         width="15.272727"
         id="rect3435"
         style="fill:#202332;fill-opacity:1;fill-rule:evenodd;stroke:none" />
      <rect
         style="fill:#8ea6bb;fill-opacity:1;fill-rule:evenodd;stroke:none"
         id="rect3437"
         width="7.6363635"
         height="8.8421049"
         x="48"
         y="990.9939"
         ry="4.4210525" />
      <rect
         ry="2.2105262"
         y="1004.2571"
         x="40.363636"
         height="4.4210525"
         width="3.8181818"
         id="rect3439"
         style="fill:#8ea6bb;fill-opacity:1;fill-rule:evenodd;stroke:none" />
    </g>
  </g>
</svg>
