<?xml version="1.0" encoding="UTF-8" standalone="no"?>
<!-- Created with Inkscape (http://www.inkscape.org/) -->

<svg
   xmlns:dc="http://purl.org/dc/elements/1.1/"
   xmlns:cc="http://creativecommons.org/ns#"
   xmlns:rdf="http://www.w3.org/1999/02/22-rdf-syntax-ns#"
   xmlns:svg="http://www.w3.org/2000/svg"
   xmlns="http://www.w3.org/2000/svg"
   xmlns:xlink="http://www.w3.org/1999/xlink"
   xmlns:sodipodi="http://sodipodi.sourceforge.net/DTD/sodipodi-0.dtd"
   xmlns:inkscape="http://www.inkscape.org/namespaces/inkscape"
   version="1.0"
   width="96"
   height="96"
   id="svg2408"
   inkscape:version="0.48.4 r9939"
   sodipodi:docname="kipi-picasa.svg">
  <sodipodi:namedview
     pagecolor="#ffffff"
     bordercolor="#666666"
     borderopacity="1"
     objecttolerance="10"
     gridtolerance="10"
     guidetolerance="10"
     inkscape:pageopacity="0"
     inkscape:pageshadow="2"
     inkscape:window-width="618"
     inkscape:window-height="449"
     id="namedview50"
     showgrid="false"
     inkscape:zoom="3.6385432"
     inkscape:cx="30.001481"
     inkscape:cy="32.633901"
     inkscape:window-x="264"
     inkscape:window-y="41"
     inkscape:window-maximized="0"
     inkscape:current-layer="svg2408" />
  <defs
     id="defs2410">
    <linearGradient
       x1="45.447727"
       y1="92.539597"
       x2="45.447727"
       y2="7.0165396"
       id="ButtonShadow"
       gradientUnits="userSpaceOnUse"
       gradientTransform="scale(1.0058652,0.994169)">
      <stop
         id="stop3750"
         style="stop-color:#000000;stop-opacity:1"
         offset="0" />
      <stop
         id="stop3752"
         style="stop-color:#000000;stop-opacity:0.58823532"
         offset="1" />
    </linearGradient>
    <linearGradient
       id="linearGradient3737">
      <stop
         id="stop3739"
         style="stop-color:#ffffff;stop-opacity:1"
         offset="0" />
      <stop
         id="stop3741"
         style="stop-color:#ffffff;stop-opacity:0"
         offset="1" />
    </linearGradient>
    <filter
       color-interpolation-filters="sRGB"
       id="filter3174">
      <feGaussianBlur
         id="feGaussianBlur3176"
         stdDeviation="1.71" />
    </filter>
    <linearGradient
       x1="36.357143"
       y1="6"
       x2="36.357143"
       y2="63.893143"
       id="linearGradient3188"
       xlink:href="#linearGradient3737"
       gradientUnits="userSpaceOnUse" />
    <filter
       x="-0.192"
       y="-0.192"
       width="1.3839999"
       height="1.3839999"
       color-interpolation-filters="sRGB"
       id="filter3794">
      <feGaussianBlur
         id="feGaussianBlur3796"
         stdDeviation="5.28" />
    </filter>
    <linearGradient
       x1="48"
       y1="20.220806"
       x2="48"
       y2="138.66119"
       id="linearGradient3613"
       xlink:href="#linearGradient3737"
       gradientUnits="userSpaceOnUse" />
    <radialGradient
       cx="48"
       cy="90.171875"
       r="42"
       fx="48"
       fy="90.171875"
       id="radialGradient3619"
       xlink:href="#linearGradient3737"
       gradientUnits="userSpaceOnUse"
       gradientTransform="matrix(1.1573129,0,0,0.99590774,-7.5510206,0.19713193)" />
    <clipPath
       id="clipPath3613">
      <rect
         width="84"
         height="84"
         rx="6"
         ry="6"
         x="6"
         y="6"
         id="rect3615"
         style="fill:#ffffff;fill-opacity:1;fill-rule:nonzero;stroke:none" />
    </clipPath>
    <linearGradient
       x1="45.447727"
       y1="92.539597"
       x2="45.447727"
       y2="7.0165396"
       id="ButtonShadow-0"
       gradientUnits="userSpaceOnUse"
       gradientTransform="matrix(1.0058652,0,0,0.994169,100,0)">
      <stop
         id="stop3750-8"
         style="stop-color:#000000;stop-opacity:1"
         offset="0" />
      <stop
         id="stop3752-5"
         style="stop-color:#000000;stop-opacity:0.58823532"
         offset="1" />
    </linearGradient>
    <linearGradient
       x1="32.251034"
       y1="6.1317081"
       x2="32.251034"
       y2="90.238609"
       id="linearGradient3780"
       xlink:href="#ButtonShadow-0"
       gradientUnits="userSpaceOnUse"
       gradientTransform="matrix(1.0238095,0,0,1.0119048,-1.1428571,-98.071429)" />
    <linearGradient
       x1="32.251034"
       y1="6.1317081"
       x2="32.251034"
       y2="90.238609"
       id="linearGradient3772"
       xlink:href="#ButtonShadow-0"
       gradientUnits="userSpaceOnUse"
       gradientTransform="matrix(1.0238095,0,0,1.0119048,-1.1428571,-98.071429)" />
    <linearGradient
       x1="32.251034"
       y1="6.1317081"
       x2="32.251034"
       y2="90.238609"
       id="linearGradient3725"
       xlink:href="#ButtonShadow-0"
       gradientUnits="userSpaceOnUse"
       gradientTransform="matrix(1.0238095,0,0,1.0119048,-1.1428571,-98.071429)" />
    <linearGradient
       x1="32.251034"
       y1="6.1317081"
       x2="32.251034"
       y2="90.238609"
       id="linearGradient3721"
       xlink:href="#ButtonShadow-0"
       gradientUnits="userSpaceOnUse"
       gradientTransform="translate(0,-97)" />
    <linearGradient
       x1="32.251034"
       y1="6.1317081"
       x2="32.251034"
       y2="90.238609"
       id="linearGradient3026"
       xlink:href="#ButtonShadow-0"
       gradientUnits="userSpaceOnUse"
       gradientTransform="matrix(1.0238095,0,0,1.0119048,-1.1428571,-98.071429)" />
    <linearGradient
       id="linearGradient3700-8">
      <stop
         id="stop3702-1"
         style="stop-color:#2e4f84;stop-opacity:1"
         offset="0" />
      <stop
         id="stop3704-8"
         style="stop-color:#4c77c5;stop-opacity:1"
         offset="1" />
    </linearGradient>
    <linearGradient
       x1="48"
       y1="90"
       x2="48"
       y2="5.9877172"
       id="linearGradient2900"
       xlink:href="#linearGradient3700-8"
       gradientUnits="userSpaceOnUse" />
    <linearGradient
       inkscape:collect="always"
       xlink:href="#linearGradient2555"
       id="linearGradient2449"
       gradientUnits="userSpaceOnUse"
       gradientTransform="matrix(-0.5914584,0,0,0.5914584,210.02161,142.23241)"
       x1="-344.15295"
       y1="274.711"
       x2="-395.84943"
       y2="425.39993" />
    <linearGradient
       inkscape:collect="always"
       id="linearGradient2555">
      <stop
         style="stop-color: rgb(255, 255, 255); stop-opacity: 1;"
         offset="0"
         id="stop2557" />
      <stop
         style="stop-color: rgb(255, 255, 255); stop-opacity: 0;"
         offset="1"
         id="stop2559" />
    </linearGradient>
    <path
       inkscape:connector-curvature="0"
       style="fill:#666666;fill-opacity:1;stroke:#1a1a1a;stroke-width:1;stroke-miterlimit:4;stroke-dasharray:none"
       id="path3742"
       d="m 48,67.670017 a 19.670017,19.670017 0 1 1 0,-39.340034 19.670017,19.670017 0 0 1 0,39.340034 z" />
    <filter
       color-interpolation-filters="sRGB"
       id="filter3774">
      <feGaussianBlur
         id="feGaussianBlur3776"
         stdDeviation="0.27274118" />
    </filter>
    <radialGradient
       inkscape:collect="always"
       xlink:href="#linearGradient3732"
       id="radialGradient3167"
       gradientUnits="userSpaceOnUse"
       gradientTransform="matrix(0.57243182,0,0,0.57255699,4.6588663,34.317405)"
       cx="48"
       cy="48.000935"
       fx="48"
       fy="48.000935"
       r="27.001867" />
    <linearGradient
       id="linearGradient3732">
      <stop
         id="stop3734"
         style="stop-color:#000000;stop-opacity:0"
         offset="0" />
      <stop
         id="stop3740"
         style="stop-color:#000000;stop-opacity:0"
         offset="0.94999999" />
      <stop
         id="stop3736"
         style="stop-color:#000000;stop-opacity:1"
         offset="1" />
    </linearGradient>
    <linearGradient
       inkscape:collect="always"
       xlink:href="#linearGradient3719"
       id="linearGradient3179"
       gradientUnits="userSpaceOnUse"
       x1="16.162441"
       y1="44.48222"
       x2="76.771591"
       y2="44.48222"
       gradientTransform="matrix(0.40070227,0.40080374,-0.40070227,0.40080374,31.34028,25.347345)" />
    <linearGradient
       id="linearGradient3719">
      <stop
         id="stop3721"
         style="stop-color:#4b4b4b;stop-opacity:1"
         offset="0" />
      <stop
         id="stop3723"
         style="stop-color:#232323;stop-opacity:1"
         offset="0.37373093" />
      <stop
         id="stop3725"
         style="stop-color:#5c5c5c;stop-opacity:1"
         offset="1" />
    </linearGradient>
    <linearGradient
       inkscape:collect="always"
       xlink:href="#linearGradient3719"
       id="linearGradient3165"
       gradientUnits="userSpaceOnUse"
       gradientTransform="matrix(0.40070227,0.40080374,-0.40070227,0.40080374,31.34028,25.347345)"
       x1="16.162441"
       y1="44.48222"
       x2="76.771591"
       y2="44.48222" />
    <radialGradient
       inkscape:collect="always"
       xlink:href="#linearGradient3732"
       id="radialGradient3168"
       gradientUnits="userSpaceOnUse"
       gradientTransform="matrix(0.57243182,0,0,0.57255699,4.6588663,34.317405)"
       cx="48"
       cy="48.000935"
       fx="48"
       fy="48.000935"
       r="27.001867" />
    <radialGradient
       inkscape:collect="always"
       xlink:href="#linearGradient3732"
       id="radialGradient3186"
       gradientUnits="userSpaceOnUse"
       gradientTransform="matrix(0.57243182,0,0,0.57255699,3.8453059,21.321827)"
       cx="48"
       cy="48.000935"
       fx="48"
       fy="48.000935"
       r="27.001867" />
    <linearGradient
       inkscape:collect="always"
       xlink:href="#linearGradient3719"
       id="linearGradient3191"
       gradientUnits="userSpaceOnUse"
       gradientTransform="matrix(0.40070227,0.40080374,-0.40070227,0.40080374,30.52672,12.351767)"
       x1="16.162441"
       y1="44.48222"
       x2="76.771591"
       y2="44.48222" />
  </defs>
  <metadata
     id="metadata2413">
    <rdf:RDF>
      <cc:Work
         rdf:about="">
        <dc:format>image/svg+xml</dc:format>
        <dc:type
           rdf:resource="http://purl.org/dc/dcmitype/StillImage" />
        <dc:title></dc:title>
      </cc:Work>
    </rdf:RDF>
  </metadata>
  <g
     id="layer2"
     style="display:none">
    <rect
       width="86"
       height="85"
       rx="6"
       ry="6"
       x="5"
       y="7"
       id="rect3745"
       style="opacity:0.9;fill:url(#ButtonShadow);fill-opacity:1;fill-rule:nonzero;stroke:none;filter:url(#filter3174)" />
  </g>
  <g
     id="layer1">
    <rect
       width="84"
       height="84"
       rx="6"
       ry="0"
       x="6"
       y="6"
       id="rect2419"
       style="fill:#e6e6e6;fill-opacity:1;fill-rule:nonzero;stroke:none" />
  </g>
  <g
     id="layer5" />
  <g
     transform="matrix(0.85814611,0,0,0.57257678,6.8089867,21.727657)"
     id="layer1-4"
     style="fill:#ff7f2a;fill-opacity:1">
    <rect
       width="84"
       height="84"
       rx="6"
       ry="0"
       x="6"
       y="6"
       id="rect2419-6"
       style="fill:#ff7f2a;fill-opacity:1;fill-rule:nonzero;stroke:none" />
  </g>
  <path
     inkscape:connector-curvature="0"
     style="fill:url(#linearGradient3191);fill-opacity:1;stroke:none"
     id="path3648"
     d="M 43.465145,60.950747 A 17.172954,17.177304 0 0 1 19.17892,36.658374 17.172954,17.177304 0 1 1 43.465145,60.950747 z" />
  <path
     inkscape:connector-curvature="0"
     style="fill:#666666;fill-opacity:1;stroke:#000000;stroke-width:1.29999995;stroke-miterlimit:4;stroke-dasharray:none"
     id="path3672"
     d="m 31.322033,65.838727 a 17.029849,17.034162 0 1 1 0,-34.068324 17.029849,17.034162 0 0 1 0,34.068324 z" />
  <path
     inkscape:connector-curvature="0"
     style="fill:#000000;fill-opacity:1;stroke:none"
     id="path3697"
     d="m 31.322033,64.264137 a 15.45566,15.459574 0 1 1 0,-30.919148 15.45566,15.459574 0 0 1 0,30.919148 z" />
  <path
     style="opacity:0.6;fill:url(#radialGradient3186);fill-opacity:1;stroke:none"
     id="path3727"
     inkscape:connector-curvature="0"
     d="m 31.322033,33.344989 c -3.955448,0 -7.911965,1.508266 -10.92987,4.526935 -6.03581,6.037339 -6.03581,15.827936 0,21.865273 6.03581,6.03734 15.82393,6.03734 21.85974,0 6.03581,-6.037337 6.03581,-15.827934 0,-21.865273 -3.017905,-3.018669 -6.974422,-4.526935 -10.92987,-4.526935 z m 0,1.431442 c 3.589203,0 7.171756,1.376233 9.910226,4.115396 5.476939,5.478326 5.476939,14.347143 0,19.82547 -5.476939,5.47833 -14.343513,5.47833 -19.820452,0 -5.476939,-5.478327 -5.476939,-14.347144 0,-19.82547 2.73847,-2.739163 6.321023,-4.115396 9.910226,-4.115396 z" />
  <path
     inkscape:connector-curvature="0"
     style="fill:#666666;fill-opacity:1;stroke:#1a1a1a;stroke-width:0.99999994;stroke-miterlimit:4;stroke-dasharray:none"
     id="path3254"
     d="m 31.322034,60.067157 a 11.259745,11.262596 0 1 1 0,-22.52519 11.259745,11.262596 0 0 1 0,22.52519 z" />
  <path
     inkscape:connector-curvature="0"
     style="fill:#000000;fill-opacity:1;stroke:none"
     id="path3757"
     d="m 39.336078,48.804562 a 8.0140454,8.016075 0 0 1 -16.02809,0 8.0140454,8.016075 0 1 1 16.02809,0 z" />
  <path
     sodipodi:type="arc"
     style="fill:#232323;fill-opacity:1;fill-rule:evenodd;stroke:#1e1e1e;stroke-width:0.19531414;stroke-miterlimit:4;stroke-opacity:1;stroke-dasharray:none"
     id="path3169"
     sodipodi:cx="45.559322"
     sodipodi:cy="44.338982"
     sodipodi:rx="14.237288"
     sodipodi:ry="14.237288"
     d="m 59.796611,44.338982 a 14.237288,14.237288 0 1 1 -28.474577,0 14.237288,14.237288 0 1 1 28.474577,0 z"
     transform="matrix(0.5129418,0,0,0.50710647,7.9513359,26.330012)" />
  <path
     inkscape:connector-curvature="0"
     style="fill:#000000;fill-opacity:1;stroke:none"
     id="path2907"
     d="m 39.336078,48.804562 a 8.0140454,8.016075 0 0 1 -16.02809,0 8.0140454,8.016075 0 1 1 16.02809,0 z" />
  <path
     inkscape:connector-curvature="0"
     style="fill:none;stroke:#d5d5d5;stroke-width:0.89886838;stroke-miterlimit:4;stroke-opacity:1;stroke-dasharray:none;filter:url(#filter3774)"
     id="path3705"
     transform="matrix(0,0.5563254,-0.55618455,0,56.905102,22.251315)"
     d="m 61.366765,45.997448 a 13.637059,13.637059 0 1 1 -27.274118,0 13.637059,13.637059 0 1 1 27.274118,0 z" />
  <path
     style="opacity:0.85;fill:#f9f9f9;fill-opacity:1;stroke:none"
     id="path3735"
     inkscape:connector-curvature="0"
     d="m 27.511784,48.446702 c 0.04054,-0.439338 0.163384,-0.851056 0.339881,-1.234619 L 25.222056,45.83432 c -0.345747,0.711761 -0.582842,1.501284 -0.661874,2.326094 l 2.951602,0.286288 z m 0.787093,-1.968233 c 0.613094,-0.79535 1.527036,-1.344965 2.575944,-1.467228 l -0.339882,-2.952349 c -2.059877,0.238815 -3.809029,1.394661 -4.883559,3.041814 l 2.647497,1.377763 z" />
  <g
     transform="matrix(0.09996132,0,0,0.02531716,27.285815,22.688529)"
     id="g3955"
     style="fill:#d4d4d4;fill-opacity:1;stroke:#414141;stroke-width:3.97563505;stroke-miterlimit:4;stroke-opacity:1;stroke-dasharray:none">
    <rect
       width="84"
       height="84"
       rx="6"
       ry="0"
       x="6"
       y="6"
       id="rect3957"
       style="fill:#d4d4d4;fill-opacity:1;fill-rule:nonzero;stroke:#414141;stroke-width:3.97563505;stroke-miterlimit:4;stroke-opacity:1;stroke-dasharray:none" />
  </g>
  <g
     style="fill:#ff7f2a;fill-opacity:1"
     id="g3951"
     transform="matrix(0.15086063,0,0,0.04375116,24.98778,23.545711)">
    <rect
       style="fill:#ff7f2a;fill-opacity:1;fill-rule:nonzero;stroke:none"
       id="rect3953"
       y="6"
       x="6"
       ry="0"
       rx="6"
       height="84"
       width="84" />
  </g>
  <path
     d="m 34.471931,50.388823 c -0.23451,0.373683 -0.529986,0.685549 -0.860622,0.948059 l 1.724251,2.41703 c 0.629813,-0.478898 1.197787,-1.07625 1.640661,-1.776481 z"
     inkscape:connector-curvature="0"
     id="path3134"
     style="opacity:0.85;fill:#f9f9f9;fill-opacity:1;stroke:none"
     sodipodi:nodetypes="ccccc" />
</svg>
