<?xml version="1.0" encoding="UTF-8" standalone="no"?>
<!-- Created with Inkscape (http://www.inkscape.org/) -->

<svg
   xmlns:dc="http://purl.org/dc/elements/1.1/"
   xmlns:cc="http://creativecommons.org/ns#"
   xmlns:rdf="http://www.w3.org/1999/02/22-rdf-syntax-ns#"
   xmlns:svg="http://www.w3.org/2000/svg"
   xmlns="http://www.w3.org/2000/svg"
   xmlns:xlink="http://www.w3.org/1999/xlink"
   xmlns:sodipodi="http://sodipodi.sourceforge.net/DTD/sodipodi-0.dtd"
   xmlns:inkscape="http://www.inkscape.org/namespaces/inkscape"
   version="1.0"
   width="96"
   height="96"
   id="svg2408"
   inkscape:version="0.48.4 r9939"
   sodipodi:docname="krusader-root.svg">
  <sodipodi:namedview
     pagecolor="#ffffff"
     bordercolor="#666666"
     borderopacity="1"
     objecttolerance="10"
     gridtolerance="10"
     guidetolerance="10"
     inkscape:pageopacity="0"
     inkscape:pageshadow="2"
     inkscape:window-width="1366"
     inkscape:window-height="707"
     id="namedview119"
     showgrid="false"
     inkscape:zoom="3.1583202"
     inkscape:cx="105.4987"
     inkscape:cy="58.239969"
     inkscape:window-x="-2"
     inkscape:window-y="-1"
     inkscape:window-maximized="1"
     inkscape:current-layer="svg2408"
     showguides="false"
     inkscape:guide-bbox="true">
    <sodipodi:guide
       orientation="0,1"
       position="69.633788,62.209597"
       id="guide3120" />
  </sodipodi:namedview>
  <defs
     id="defs2410">
    <linearGradient
       id="linearGradient3865">
      <stop
         id="stop3867"
         style="stop-color:#000000;stop-opacity:1"
         offset="0" />
      <stop
         id="stop3869"
         style="stop-color:#000000;stop-opacity:0"
         offset="1" />
    </linearGradient>
    <linearGradient
       id="linearGradient4040">
      <stop
         id="stop4042"
         style="stop-color:#656565;stop-opacity:1"
         offset="0" />
      <stop
         id="stop4044"
         style="stop-color:#b9b9b9;stop-opacity:1"
         offset="1" />
    </linearGradient>
    <linearGradient
       id="linearGradient3967">
      <stop
         id="stop3969"
         style="stop-color:#ffffff;stop-opacity:1"
         offset="0" />
      <stop
         id="stop3971"
         style="stop-color:#8e8e8e;stop-opacity:1"
         offset="0.75" />
      <stop
         id="stop3973"
         style="stop-color:#cacaca;stop-opacity:1"
         offset="1" />
    </linearGradient>
    <linearGradient
       id="linearGradient3905">
      <stop
         id="stop3907"
         style="stop-color:#ffffff;stop-opacity:1"
         offset="0" />
      <stop
         id="stop3909"
         style="stop-color:#ffffff;stop-opacity:0"
         offset="1" />
    </linearGradient>
    <linearGradient
       id="linearGradient3866">
      <stop
         id="stop3868"
         style="stop-color:#ffffff;stop-opacity:1"
         offset="0" />
      <stop
         id="stop3880"
         style="stop-color:#d2d2d2;stop-opacity:1"
         offset="0.16666667" />
      <stop
         id="stop3878"
         style="stop-color:#c8c8c8;stop-opacity:1"
         offset="0.33333334" />
      <stop
         id="stop3876"
         style="stop-color:#dcdcdc;stop-opacity:1"
         offset="0.66666669" />
      <stop
         id="stop3874"
         style="stop-color:#cfcfcf;stop-opacity:1"
         offset="0.83333331" />
      <stop
         id="stop3870"
         style="stop-color:#bdbdbd;stop-opacity:1"
         offset="1" />
    </linearGradient>
    <linearGradient
       id="linearGradient3850">
      <stop
         id="stop3852"
         style="stop-color:#000000;stop-opacity:1"
         offset="0" />
      <stop
         id="stop3854"
         style="stop-color:#000000;stop-opacity:0"
         offset="1" />
    </linearGradient>
    <linearGradient
       x1="45.447727"
       y1="92.539597"
       x2="45.447727"
       y2="7.0165396"
       id="ButtonShadow"
       gradientUnits="userSpaceOnUse"
       gradientTransform="scale(1.0058652,0.994169)">
      <stop
         id="stop3750"
         style="stop-color:#000000;stop-opacity:1"
         offset="0" />
      <stop
         id="stop3752"
         style="stop-color:#000000;stop-opacity:0.58823532"
         offset="1" />
    </linearGradient>
    <linearGradient
       id="linearGradient3737">
      <stop
         id="stop3739"
         style="stop-color:#ffffff;stop-opacity:1"
         offset="0" />
      <stop
         id="stop3741"
         style="stop-color:#ffffff;stop-opacity:0"
         offset="1" />
    </linearGradient>
    <linearGradient
       id="linearGradient3700">
      <stop
         id="stop3702"
         style="stop-color:#dcdcdc;stop-opacity:1"
         offset="0" />
      <stop
         id="stop3822"
         style="stop-color:#f0f0f0;stop-opacity:1"
         offset="0.30000001" />
      <stop
         id="stop3824"
         style="stop-color:#dcdcdc;stop-opacity:1"
         offset="0.60000002" />
      <stop
         id="stop3828"
         style="stop-color:#c8c8c8;stop-opacity:1"
         offset="0.80000001" />
      <stop
         id="stop3704"
         style="stop-color:#bebebe;stop-opacity:1"
         offset="1" />
    </linearGradient>
    <filter
       color-interpolation-filters="sRGB"
       id="filter3174">
      <feGaussianBlur
         id="feGaussianBlur3176"
         stdDeviation="1.71" />
    </filter>
    <linearGradient
       x1="36.357143"
       y1="6"
       x2="36.357143"
       y2="63.893143"
       id="linearGradient3188"
       xlink:href="#linearGradient3737"
       gradientUnits="userSpaceOnUse" />
    <filter
       x="-0.192"
       y="-0.192"
       width="1.3839999"
       height="1.3839999"
       color-interpolation-filters="sRGB"
       id="filter3794">
      <feGaussianBlur
         id="feGaussianBlur3796"
         stdDeviation="5.28" />
    </filter>
    <linearGradient
       x1="48"
       y1="20.220806"
       x2="48"
       y2="138.66119"
       id="linearGradient3613"
       xlink:href="#linearGradient3737"
       gradientUnits="userSpaceOnUse" />
    <radialGradient
       cx="48"
       cy="90.171875"
       r="42"
       fx="48"
       fy="90.171875"
       id="radialGradient3619"
       xlink:href="#linearGradient3737"
       gradientUnits="userSpaceOnUse"
       gradientTransform="matrix(1.1573129,0,0,0.99590774,-7.5510206,0.19713193)" />
    <clipPath
       id="clipPath3613">
      <rect
         width="84"
         height="84"
         rx="6"
         ry="6"
         x="6"
         y="6"
         id="rect3615"
         style="fill:#ffffff;fill-opacity:1;fill-rule:nonzero;stroke:none" />
    </clipPath>
    <linearGradient
       x1="24"
       y1="8"
       x2="70.188019"
       y2="88"
       id="linearGradient3617"
       xlink:href="#linearGradient3700"
       gradientUnits="userSpaceOnUse" />
    <linearGradient
       x1="45.447727"
       y1="92.539597"
       x2="45.447727"
       y2="7.0165396"
       id="ButtonShadow-0"
       gradientUnits="userSpaceOnUse"
       gradientTransform="matrix(1.0058652,0,0,0.994169,100,0)">
      <stop
         id="stop3750-8"
         style="stop-color:#000000;stop-opacity:1"
         offset="0" />
      <stop
         id="stop3752-5"
         style="stop-color:#000000;stop-opacity:0.58823532"
         offset="1" />
    </linearGradient>
    <linearGradient
       x1="32.251034"
       y1="6.1317081"
       x2="32.251034"
       y2="90.238609"
       id="linearGradient3780"
       xlink:href="#ButtonShadow-0"
       gradientUnits="userSpaceOnUse"
       gradientTransform="matrix(1.0238095,0,0,1.0119048,-1.1428571,-98.071429)" />
    <linearGradient
       x1="32.251034"
       y1="6.1317081"
       x2="32.251034"
       y2="90.238609"
       id="linearGradient3772"
       xlink:href="#ButtonShadow-0"
       gradientUnits="userSpaceOnUse"
       gradientTransform="matrix(1.0238095,0,0,1.0119048,-1.1428571,-98.071429)" />
    <linearGradient
       x1="32.251034"
       y1="6.1317081"
       x2="32.251034"
       y2="90.238609"
       id="linearGradient3725"
       xlink:href="#ButtonShadow-0"
       gradientUnits="userSpaceOnUse"
       gradientTransform="matrix(1.0238095,0,0,1.0119048,-1.1428571,-98.071429)" />
    <linearGradient
       x1="32.251034"
       y1="6.1317081"
       x2="32.251034"
       y2="90.238609"
       id="linearGradient3721"
       xlink:href="#ButtonShadow-0"
       gradientUnits="userSpaceOnUse"
       gradientTransform="translate(0,-97)" />
    <linearGradient
       x1="32.251034"
       y1="6.1317081"
       x2="32.251034"
       y2="90.238609"
       id="linearGradient3026"
       xlink:href="#ButtonShadow-0"
       gradientUnits="userSpaceOnUse"
       gradientTransform="matrix(1.0238095,0,0,1.0119048,-1.1428571,-98.071429)" />
    <linearGradient
       x1="24"
       y1="8"
       x2="72"
       y2="48"
       id="linearGradient3840"
       xlink:href="#linearGradient3700"
       gradientUnits="userSpaceOnUse" />
    <linearGradient
       x1="67"
       y1="44"
       x2="67"
       y2="-24"
       id="linearGradient3856"
       xlink:href="#linearGradient3850"
       gradientUnits="userSpaceOnUse" />
    <linearGradient
       x1="80"
       y1="40"
       x2="73.569221"
       y2="16"
       id="linearGradient3864"
       xlink:href="#linearGradient3850"
       gradientUnits="userSpaceOnUse" />
    <linearGradient
       x1="24"
       y1="40"
       x2="72"
       y2="88"
       id="linearGradient3872"
       xlink:href="#linearGradient3866"
       gradientUnits="userSpaceOnUse" />
    <linearGradient
       x1="67"
       y1="44"
       x2="67"
       y2="16"
       id="linearGradient3890"
       xlink:href="#linearGradient3850"
       gradientUnits="userSpaceOnUse" />
    <linearGradient
       x1="32"
       y1="16"
       x2="32"
       y2="32"
       id="linearGradient3911"
       xlink:href="#linearGradient3905"
       gradientUnits="userSpaceOnUse" />
    <linearGradient
       x1="67"
       y1="44"
       x2="67"
       y2="-40"
       id="linearGradient3915"
       xlink:href="#linearGradient3850"
       gradientUnits="userSpaceOnUse" />
    <linearGradient
       x1="67"
       y1="44"
       x2="67"
       y2="16"
       id="linearGradient3925"
       xlink:href="#linearGradient3850"
       gradientUnits="userSpaceOnUse"
       gradientTransform="translate(0,41)" />
    <linearGradient
       x1="32"
       y1="8"
       x2="32"
       y2="32"
       id="linearGradient3929"
       xlink:href="#linearGradient3905"
       gradientUnits="userSpaceOnUse"
       gradientTransform="translate(0,40)" />
    <linearGradient
       x1="80"
       y1="40"
       x2="71.425629"
       y2="8"
       id="linearGradient3931"
       xlink:href="#linearGradient3850"
       gradientUnits="userSpaceOnUse" />
    <linearGradient
       x1="48"
       y1="26"
       x2="48"
       y2="30"
       id="linearGradient3955"
       xlink:href="#linearGradient3967"
       gradientUnits="userSpaceOnUse"
       gradientTransform="translate(0,2)" />
    <linearGradient
       x1="50"
       y1="31"
       x2="50"
       y2="17"
       id="linearGradient4004"
       xlink:href="#linearGradient4040"
       gradientUnits="userSpaceOnUse" />
    <filter
       x="-0.11625"
       y="-0.39857143"
       width="1.2325"
       height="1.7971429"
       color-interpolation-filters="sRGB"
       id="filter4020">
      <feGaussianBlur
         id="feGaussianBlur4022"
         stdDeviation="1.1625" />
    </filter>
    <linearGradient
       x1="45"
       y1="30"
       x2="45"
       y2="18"
       id="linearGradient4058"
       xlink:href="#linearGradient3967"
       gradientUnits="userSpaceOnUse"
       gradientTransform="matrix(1,0,0,-1,0,45)" />
    <linearGradient
       x1="46"
       y1="26"
       x2="46"
       y2="32"
       id="linearGradient4060"
       xlink:href="#linearGradient4040"
       gradientUnits="userSpaceOnUse" />
    <filter
       x="-0.06469065"
       y="-0.18604138"
       width="1.1293813"
       height="1.3720828"
       color-interpolation-filters="sRGB"
       id="filter4078">
      <feGaussianBlur
         id="feGaussianBlur4080"
         stdDeviation="0.7025" />
    </filter>
    <linearGradient
       x1="46"
       y1="26"
       x2="46"
       y2="32"
       id="linearGradient4094"
       xlink:href="#linearGradient4040"
       gradientUnits="userSpaceOnUse" />
    <linearGradient
       x1="45"
       y1="30"
       x2="45"
       y2="18"
       id="linearGradient4096"
       xlink:href="#linearGradient3967"
       gradientUnits="userSpaceOnUse"
       gradientTransform="matrix(1,0,0,-1,0,45)" />
    <linearGradient
       x1="50"
       y1="31"
       x2="50"
       y2="17"
       id="linearGradient4098"
       xlink:href="#linearGradient4040"
       gradientUnits="userSpaceOnUse" />
    <linearGradient
       x1="48"
       y1="26"
       x2="48"
       y2="30"
       id="linearGradient4100"
       xlink:href="#linearGradient3967"
       gradientUnits="userSpaceOnUse"
       gradientTransform="translate(0,38)" />
    <linearGradient
       x1="48"
       y1="32"
       x2="48"
       y2="40"
       id="linearGradient3871"
       xlink:href="#linearGradient3865"
       gradientUnits="userSpaceOnUse" />
    <linearGradient
       x1="48"
       y1="32"
       x2="48"
       y2="40"
       id="linearGradient3875"
       xlink:href="#linearGradient3865"
       gradientUnits="userSpaceOnUse"
       gradientTransform="translate(0,36)" />
  </defs>
  <metadata
     id="metadata2413">
    <rdf:RDF>
      <cc:Work
         rdf:about="">
        <dc:format>image/svg+xml</dc:format>
        <dc:type
           rdf:resource="http://purl.org/dc/dcmitype/StillImage" />
        <dc:title></dc:title>
      </cc:Work>
    </rdf:RDF>
  </metadata>
  <g
     id="layer2"
     style="display:none">
    <rect
       width="86"
       height="85"
       rx="6"
       ry="6"
       x="5"
       y="7"
       id="rect3745"
       style="opacity:0.9;fill:url(#ButtonShadow);fill-opacity:1;fill-rule:nonzero;stroke:none;filter:url(#filter3174)" />
  </g>
  <rect
     style="fill:#da485c;fill-opacity:1;fill-rule:nonzero;stroke:none"
     id="rect2419"
     y="6"
     x="6"
     ry="0"
     rx="6"
     height="84"
     width="84" />
  <g
     id="layer5"
     style="display:none">
    <rect
       width="66"
       height="66"
       rx="12"
       ry="12"
       x="15"
       y="15"
       clip-path="url(#clipPath3613)"
       id="rect3171"
       style="opacity:0.1;fill:url(#linearGradient3613);fill-opacity:1;fill-rule:nonzero;stroke:#ffffff;stroke-width:0.5;stroke-linecap:round;stroke-linejoin:miter;stroke-miterlimit:4;stroke-opacity:1;stroke-dasharray:none;stroke-dashoffset:0;filter:url(#filter3794)" />
  </g>
  <g
     style="opacity:0.2;filter:url(#filter4078)"
     id="g4054"
     transform="translate(-20.736535,5.5120131)" />
  <g
     style="opacity:0.2;filter:url(#filter4078)"
     id="g4082"
     transform="translate(-20.736535,41.512013)" />
  <rect
     style="color:#000000;fill:#dfafb5;fill-opacity:1;fill-rule:evenodd;stroke:none;stroke-width:1.20000005;marker:none;visibility:visible;display:inline;overflow:visible;enable-background:accumulate"
     id="rect3135"
     width="38.583622"
     height="76.425247"
     x="8.9039125"
     y="9.434186"
     rx="3.5968344" />
  <rect
     rx="3.5968344"
     y="9.434186"
     x="48.903912"
     height="76.425247"
     width="38.583622"
     id="rect3905"
     style="color:#000000;fill:#dfafb5;fill-opacity:1;fill-rule:evenodd;stroke:none;stroke-width:1.20000005;marker:none;visibility:visible;display:inline;overflow:visible;enable-background:accumulate" />
  <path
     style="fill:#ffffff;stroke:#000000;stroke-width:1px;stroke-linecap:butt;stroke-linejoin:miter;stroke-opacity:1"
     d="m 56.515111,75.34787 -15.581847,-34.131664 32.647679,15.581847 -5.406634,5.38185 c 0,0 3.327571,2.407892 3.418124,4.926891 0.08821,2.453735 -2.079591,4.371596 -4.175037,4.644915 -2.844305,0.370997 -5.653965,-2.844306 -5.653965,-2.844306 z"
     id="path3916"
     inkscape:connector-curvature="0"
     sodipodi:nodetypes="ccccsscc" />
</svg>
