<?xml version="1.0" encoding="UTF-8" standalone="no"?>
<!-- Created with Inkscape (http://www.inkscape.org/) -->

<svg
   xmlns:dc="http://purl.org/dc/elements/1.1/"
   xmlns:cc="http://creativecommons.org/ns#"
   xmlns:rdf="http://www.w3.org/1999/02/22-rdf-syntax-ns#"
   xmlns:svg="http://www.w3.org/2000/svg"
   xmlns="http://www.w3.org/2000/svg"
   xmlns:xlink="http://www.w3.org/1999/xlink"
   xmlns:sodipodi="http://sodipodi.sourceforge.net/DTD/sodipodi-0.dtd"
   xmlns:inkscape="http://www.inkscape.org/namespaces/inkscape"
   version="1.0"
   width="96"
   height="96"
   id="svg2408"
   inkscape:version="0.48.4 r9939"
   sodipodi:docname="klettres.svg">
  <sodipodi:namedview
     pagecolor="#ffffff"
     bordercolor="#666666"
     borderopacity="1"
     objecttolerance="10"
     gridtolerance="10"
     guidetolerance="10"
     inkscape:pageopacity="0"
     inkscape:pageshadow="2"
     inkscape:window-width="618"
     inkscape:window-height="449"
     id="namedview65"
     showgrid="false"
     inkscape:zoom="3.6200058"
     inkscape:cx="77.327695"
     inkscape:cy="43.970899"
     inkscape:window-x="101"
     inkscape:window-y="0"
     inkscape:window-maximized="0"
     inkscape:current-layer="svg2408" />
  <defs
     id="defs2410">
    <linearGradient
       id="linearGradient4088">
      <stop
         id="stop4090"
         style="stop-color:#d5b742;stop-opacity:1"
         offset="0" />
      <stop
         id="stop4094"
         style="stop-color:#f5e6aa;stop-opacity:1"
         offset="0.34920636" />
      <stop
         id="stop4096"
         style="stop-color:#e0bf55;stop-opacity:1"
         offset="0.5714286" />
      <stop
         id="stop4092"
         style="stop-color:#8a6e24;stop-opacity:1"
         offset="1" />
    </linearGradient>
    <linearGradient
       x1="45.447727"
       y1="92.539597"
       x2="45.447727"
       y2="7.0165396"
       id="ButtonShadow"
       gradientUnits="userSpaceOnUse"
       gradientTransform="scale(1.0058652,0.994169)">
      <stop
         id="stop3750"
         style="stop-color:#000000;stop-opacity:1"
         offset="0" />
      <stop
         id="stop3752"
         style="stop-color:#000000;stop-opacity:0.58823532"
         offset="1" />
    </linearGradient>
    <linearGradient
       id="linearGradient3737">
      <stop
         id="stop3739"
         style="stop-color:#ffffff;stop-opacity:1"
         offset="0" />
      <stop
         id="stop3741"
         style="stop-color:#ffffff;stop-opacity:0"
         offset="1" />
    </linearGradient>
    <linearGradient
       id="linearGradient3700">
      <stop
         id="stop3702"
         style="stop-color:#4c6d37;stop-opacity:1"
         offset="0" />
      <stop
         id="stop3704"
         style="stop-color:#75ac54;stop-opacity:1"
         offset="1" />
    </linearGradient>
    <filter
       color-interpolation-filters="sRGB"
       id="filter3174">
      <feGaussianBlur
         id="feGaussianBlur3176"
         stdDeviation="1.71" />
    </filter>
    <linearGradient
       x1="36.357143"
       y1="6"
       x2="36.357143"
       y2="63.893143"
       id="linearGradient3188"
       xlink:href="#linearGradient3737"
       gradientUnits="userSpaceOnUse" />
    <filter
       x="-0.192"
       y="-0.192"
       width="1.3839999"
       height="1.3839999"
       color-interpolation-filters="sRGB"
       id="filter3794">
      <feGaussianBlur
         id="feGaussianBlur3796"
         stdDeviation="5.28" />
    </filter>
    <linearGradient
       x1="48"
       y1="20.220806"
       x2="48"
       y2="138.66119"
       id="linearGradient3613"
       xlink:href="#linearGradient3737"
       gradientUnits="userSpaceOnUse" />
    <radialGradient
       cx="48"
       cy="90.171875"
       r="42"
       fx="48"
       fy="90.171875"
       id="radialGradient3619"
       xlink:href="#linearGradient3737"
       gradientUnits="userSpaceOnUse"
       gradientTransform="matrix(1.1573129,0,0,0.99590774,-7.5510206,0.19713193)" />
    <clipPath
       id="clipPath3613">
      <rect
         width="84"
         height="84"
         rx="6"
         ry="6"
         x="6"
         y="6"
         id="rect3615"
         style="fill:#ffffff;fill-opacity:1;fill-rule:nonzero;stroke:none" />
    </clipPath>
    <linearGradient
       x1="48"
       y1="90"
       x2="48"
       y2="5.9877172"
       id="linearGradient3617"
       xlink:href="#linearGradient3700"
       gradientUnits="userSpaceOnUse" />
    <linearGradient
       x1="45.447727"
       y1="92.539597"
       x2="45.447727"
       y2="7.0165396"
       id="ButtonShadow-0"
       gradientUnits="userSpaceOnUse"
       gradientTransform="matrix(1.0058652,0,0,0.994169,100,0)">
      <stop
         id="stop3750-8"
         style="stop-color:#000000;stop-opacity:1"
         offset="0" />
      <stop
         id="stop3752-5"
         style="stop-color:#000000;stop-opacity:0.58823532"
         offset="1" />
    </linearGradient>
    <linearGradient
       x1="32.251034"
       y1="6.1317081"
       x2="32.251034"
       y2="90.238609"
       id="linearGradient3780"
       xlink:href="#ButtonShadow-0"
       gradientUnits="userSpaceOnUse"
       gradientTransform="matrix(1.0238095,0,0,1.0119048,-1.1428571,-98.071429)" />
    <linearGradient
       x1="32.251034"
       y1="6.1317081"
       x2="32.251034"
       y2="90.238609"
       id="linearGradient3772"
       xlink:href="#ButtonShadow-0"
       gradientUnits="userSpaceOnUse"
       gradientTransform="matrix(1.0238095,0,0,1.0119048,-1.1428571,-98.071429)" />
    <linearGradient
       x1="32.251034"
       y1="6.1317081"
       x2="32.251034"
       y2="90.238609"
       id="linearGradient3725"
       xlink:href="#ButtonShadow-0"
       gradientUnits="userSpaceOnUse"
       gradientTransform="matrix(1.0238095,0,0,1.0119048,-1.1428571,-98.071429)" />
    <linearGradient
       x1="32.251034"
       y1="6.1317081"
       x2="32.251034"
       y2="90.238609"
       id="linearGradient3721"
       xlink:href="#ButtonShadow-0"
       gradientUnits="userSpaceOnUse"
       gradientTransform="translate(0,-97)" />
    <linearGradient
       x1="32.251034"
       y1="6.1317081"
       x2="32.251034"
       y2="90.238609"
       id="linearGradient3026"
       xlink:href="#ButtonShadow-0"
       gradientUnits="userSpaceOnUse"
       gradientTransform="matrix(1.0238095,0,0,1.0119048,-1.1428571,-98.071429)" />
    <linearGradient
       id="linearGradient3737-4">
      <stop
         id="stop3739-4"
         style="stop-color:#fffec0;stop-opacity:1"
         offset="0" />
      <stop
         id="stop3741-3"
         style="stop-color:#ffffff;stop-opacity:0"
         offset="1" />
    </linearGradient>
    <linearGradient
       x1="48"
       y1="6"
       x2="48"
       y2="109.10714"
       id="linearGradient3146"
       xlink:href="#linearGradient3737-4"
       gradientUnits="userSpaceOnUse" />
    <linearGradient
       x1="37.875"
       y1="-62"
       x2="37.875"
       y2="8.8750048"
       id="linearGradient4053"
       xlink:href="#linearGradient4088"
       gradientUnits="userSpaceOnUse"
       gradientTransform="matrix(0.88888883,0,0,0.88888883,5.3333362,71.111107)" />
    <clipPath
       id="mask">
      <path
         inkscape:connector-curvature="0"
         d="m 47.5,-87.5 v 425 h -95 v -425 l -552,-552 v 1250 h 1199 v -1250 z"
         id="path6" />
    </clipPath>
    <linearGradient
       id="linearGradient3254-1">
      <stop
         offset="0"
         style="stop-color:#000000;stop-opacity:1"
         id="stop3256-4" />
      <stop
         offset="0.06588447"
         style="stop-color:#000000;stop-opacity:1"
         id="stop3266-1" />
      <stop
         offset="0.07"
         style="stop-color:#ad5f1b;stop-opacity:1"
         id="stop3264-9" />
      <stop
         offset="0.1913653"
         style="stop-color:#ad601a;stop-opacity:1"
         id="stop3268-9" />
      <stop
         offset="0.20983393"
         style="stop-color:#000000;stop-opacity:1"
         id="stop3262-9" />
      <stop
         offset="1"
         style="stop-color:#000000;stop-opacity:1"
         id="stop3258-1" />
    </linearGradient>
    <linearGradient
       inkscape:collect="always"
       xlink:href="#linearGradient3461-5"
       id="linearGradient3149"
       gradientUnits="userSpaceOnUse"
       gradientTransform="matrix(0.56541578,0,0,0.56541578,-70.844204,-94.864234)"
       x1="136"
       y1="106"
       x2="150"
       y2="106" />
    <linearGradient
       id="linearGradient3461-5">
      <stop
         offset="0"
         style="stop-color:#444542;stop-opacity:1"
         id="stop3463-6" />
      <stop
         offset="1"
         style="stop-color:#71746e;stop-opacity:1"
         id="stop3465-6" />
    </linearGradient>
    <path
       inkscape:connector-curvature="0"
       style="fill:#666666;fill-opacity:1;stroke:#1a1a1a;stroke-width:1;stroke-miterlimit:4;stroke-dasharray:none"
       id="path3742"
       d="m 48,67.670017 a 19.670017,19.670017 0 1 1 0,-39.340034 19.670017,19.670017 0 0 1 0,39.340034 z" />
    <filter
       color-interpolation-filters="sRGB"
       id="filter3774">
      <feGaussianBlur
         id="feGaussianBlur3776"
         stdDeviation="0.27274118" />
    </filter>
    <radialGradient
       inkscape:collect="always"
       xlink:href="#linearGradient3732"
       id="radialGradient3167"
       gradientUnits="userSpaceOnUse"
       gradientTransform="matrix(0.38387196,0,0,0.38385868,50.338319,51.527689)"
       cx="48"
       cy="48.000935"
       fx="48"
       fy="48.000935"
       r="27.001867" />
    <linearGradient
       id="linearGradient3732">
      <stop
         id="stop3734"
         style="stop-color:#000000;stop-opacity:0"
         offset="0" />
      <stop
         id="stop3740"
         style="stop-color:#000000;stop-opacity:0"
         offset="0.94999999" />
      <stop
         id="stop3736"
         style="stop-color:#000000;stop-opacity:1"
         offset="1" />
    </linearGradient>
    <linearGradient
       inkscape:collect="always"
       xlink:href="#linearGradient3719"
       id="linearGradient3179"
       gradientUnits="userSpaceOnUse"
       x1="16.162441"
       y1="44.48222"
       x2="76.771591"
       y2="44.48222"
       gradientTransform="matrix(0.26871036,0.26871036,-0.26871036,0.26871036,68.230837,45.513903)" />
    <linearGradient
       id="linearGradient3719">
      <stop
         id="stop3721"
         style="stop-color:#4b4b4b;stop-opacity:1"
         offset="0" />
      <stop
         id="stop3723"
         style="stop-color:#232323;stop-opacity:1"
         offset="0.37373093" />
      <stop
         id="stop3725"
         style="stop-color:#5c5c5c;stop-opacity:1"
         offset="1" />
    </linearGradient>
  </defs>
  <metadata
     id="metadata2413">
    <rdf:RDF>
      <cc:Work
         rdf:about="">
        <dc:format>image/svg+xml</dc:format>
        <dc:type
           rdf:resource="http://purl.org/dc/dcmitype/StillImage" />
        <dc:title></dc:title>
      </cc:Work>
    </rdf:RDF>
  </metadata>
  <g
     id="layer2"
     style="display:none">
    <rect
       width="86"
       height="85"
       rx="6"
       ry="6"
       x="5"
       y="7"
       id="rect3745"
       style="opacity:0.9;fill:url(#ButtonShadow);fill-opacity:1;fill-rule:nonzero;stroke:none;filter:url(#filter3174)" />
  </g>
  <g
     id="layer5" />
  <rect
     style="fill:none;fill-opacity:1;fill-rule:evenodd;stroke:none"
     id="rect4086"
     width="23.43848"
     height="11.133279"
     x="16.113956"
     y="13.965316"
     rx="6" />
  <rect
     style="fill:#7394dc;fill-opacity:1;fill-rule:nonzero;stroke:none"
     id="rect2419-3"
     y="6"
     x="6.0002313"
     ry="0"
     rx="6"
     height="84"
     width="84" />
  <rect
     style="fill:#ffffff;fill-opacity:1;fill-rule:evenodd;stroke:none"
     id="rect3043"
     width="50.552406"
     height="43.646339"
     x="17.403288"
     y="14.78466"
     rx="0"
     ry="0" />
  <rect
     style="fill:#d38d5f;fill-opacity:1;fill-rule:evenodd;stroke:none"
     id="rect3045"
     width="53.038589"
     height="5.801096"
     x="16.022074"
     y="11.745992" />
  <rect
     style="fill:#1a1a1a;fill-opacity:1;fill-rule:evenodd;stroke:none"
     id="rect3047"
     width="2.7624266"
     height="16.850801"
     x="41.22646"
     y="58.431" />
  <rect
     y="58.14492"
     x="57.89592"
     height="10.742262"
     width="1.6102651"
     id="rect3049"
     style="fill:#1a1a1a;fill-opacity:1;fill-rule:evenodd;stroke:none"
     transform="matrix(0.95494997,0.29676684,-0.24435899,0.96968484,0,0)" />
  <rect
     transform="matrix(-0.95494997,0.29676684,0.24435899,0.96968484,0,0)"
     style="fill:#1a1a1a;fill-opacity:1;fill-rule:evenodd;stroke:none"
     id="rect3051"
     width="1.6102651"
     height="10.742262"
     x="-24.79113"
     y="83.735733" />
  <g
     transform="matrix(0.38387196,0,0,0.38387196,50.338319,51.527053)"
     id="layer1"
     style="fill:#515151;fill-opacity:1">
    <rect
       width="84"
       height="84"
       rx="6"
       ry="0"
       x="6"
       y="6"
       id="rect2419"
       style="fill:#666666;fill-opacity:1;fill-rule:nonzero;stroke:none" />
  </g>
  <path
     inkscape:connector-curvature="0"
     style="fill:url(#linearGradient3179);fill-opacity:1;stroke:none"
     id="path3648"
     d="M 76.907326,78.09606 A 11.516159,11.516159 0 1 1 60.621019,61.809753 11.516159,11.516159 0 0 1 76.907326,78.09606 z" />
  <path
     inkscape:connector-curvature="0"
     style="fill:#666666;fill-opacity:1;stroke:#000000;stroke-width:0.49903354;stroke-miterlimit:4;stroke-dasharray:none"
     id="path3672"
     d="m 68.764172,81.373097 a 11.420191,11.420191 0 1 1 0,-22.840381 11.420191,11.420191 0 0 1 0,22.840381 z" />
  <path
     inkscape:connector-curvature="0"
     style="fill:#000000;fill-opacity:1;stroke:none"
     id="path3697"
     d="m 68.764173,80.317449 a 10.364543,10.364543 0 1 1 0,-20.729085 10.364543,10.364543 0 0 1 0,20.729085 z" />
  <path
     style="opacity:0.6;fill:url(#radialGradient3167);fill-opacity:1;stroke:none"
     id="path3727"
     inkscape:connector-curvature="0"
     d="m 68.764173,59.588364 c -2.652518,0 -5.305752,1.011185 -7.329556,3.034987 -4.047605,4.047607 -4.047605,10.611505 0,14.659111 4.047607,4.047606 10.611505,4.047606 14.659111,0 4.047605,-4.047606 4.047605,-10.611504 0,-14.659111 -2.023803,-2.023802 -4.677037,-3.034987 -7.329555,-3.034987 z m 0,0.95968 c 2.406914,0 4.809369,0.922666 6.645783,2.75908 3.672827,3.672827 3.672827,9.618739 0,13.291566 -3.672827,3.672827 -9.618739,3.672827 -13.291566,0 -3.672828,-3.672827 -3.672828,-9.618739 0,-13.291566 1.836413,-1.836414 4.238868,-2.75908 6.645783,-2.75908 z" />
  <path
     inkscape:connector-curvature="0"
     style="fill:#666666;fill-opacity:1;stroke:#1a1a1a;stroke-width:0.38387194;stroke-miterlimit:4;stroke-dasharray:none"
     id="path3164"
     d="m 68.764173,77.503675 a 7.5507683,7.5507683 0 1 1 0,-15.101536 7.5507683,7.5507683 0 0 1 0,15.101536 z" />
  <path
     inkscape:connector-curvature="0"
     style="fill:#000000;fill-opacity:1;stroke:none"
     id="path3757"
     d="m 74.13838,69.952907 a 5.3742075,5.3742075 0 0 1 -10.748415,0 5.3742075,5.3742075 0 1 1 10.748415,0 z" />
  <path
     sodipodi:type="arc"
     style="fill:#232323;fill-opacity:1;fill-rule:evenodd;stroke:#1e1e1e;stroke-width:0.11181818;stroke-miterlimit:4;stroke-opacity:1;stroke-dasharray:none"
     id="path3169"
     sodipodi:cx="45.559322"
     sodipodi:cy="44.338982"
     sodipodi:rx="14.237288"
     sodipodi:ry="14.237288"
     d="m 59.796611,44.338982 a 14.237288,14.237288 0 1 1 -28.474577,0 14.237288,14.237288 0 1 1 28.474577,0 z"
     transform="matrix(0.34397804,0,0,0.33997877,53.091817,54.885321)" />
  <path
     inkscape:connector-curvature="0"
     style="fill:#000000;fill-opacity:1;stroke:none"
     id="path2907"
     d="m 74.13838,69.952907 a 5.3742075,5.3742075 0 0 1 -10.748415,0 5.3742075,5.3742075 0 1 1 10.748415,0 z" />
  <path
     inkscape:connector-curvature="0"
     style="fill:none;stroke:#d5d5d5;stroke-width:0.514606;stroke-miterlimit:4;stroke-opacity:1;stroke-dasharray:none;filter:url(#filter3774)"
     id="path3705"
     transform="matrix(0,0.37297656,-0.37297656,0,85.92014,52.150845)"
     d="m 61.366765,45.997448 a 13.637059,13.637059 0 1 1 -27.274118,0 13.637059,13.637059 0 1 1 27.274118,0 z" />
  <path
     style="opacity:0.85;fill:#f9f9f9;fill-opacity:1;stroke:none"
     id="path3735"
     inkscape:connector-curvature="0"
     d="m 66.209025,69.712987 c 0.02719,-0.294545 0.109565,-0.570573 0.227924,-0.827724 l -1.763411,-0.923692 c -0.231858,0.477185 -0.390854,1.006503 -0.443853,1.55948 l 1.97934,0.191936 z m 0.527824,-1.31956 c 0.41114,-0.533225 1.024028,-0.901704 1.727424,-0.983672 l -0.227924,-1.97934 c -1.381351,0.160109 -2.554329,0.935021 -3.274908,2.03932 l 1.775408,0.923692 z" />
  <path
     inkscape:connector-curvature="0"
     d="m 56.298684,56.937805 a 0.95625267,0.95625267 0 0 1 -1.912504,0 0.95625267,0.95625267 0 1 1 1.912504,0 z"
     id="path3364"
     style="fill:#d40000;fill-opacity:1;fill-rule:nonzero;stroke:#000000;stroke-width:0.19193597;stroke-linecap:square;stroke-linejoin:miter;stroke-miterlimit:4;stroke-opacity:1;stroke-dasharray:none;stroke-dashoffset:0" />
  <g
     transform="matrix(0.06703391,0,0,0.01697335,54.873271,52.171249)"
     id="g3955"
     style="fill:#d4d4d4;fill-opacity:1;stroke:#414141;stroke-width:2.27606821;stroke-miterlimit:4;stroke-opacity:1;stroke-dasharray:none">
    <rect
       width="84"
       height="84"
       rx="6"
       ry="0"
       x="6"
       y="6"
       id="rect3957"
       style="fill:#d4d4d4;fill-opacity:1;fill-rule:nonzero;stroke:#414141;stroke-width:2.27606821;stroke-miterlimit:4;stroke-opacity:1;stroke-dasharray:none" />
  </g>
  <g
     style="fill:#515151;fill-opacity:1"
     id="g3951"
     transform="matrix(0.10116693,0,0,0.02933204,53.332212,52.745928)">
    <rect
       style="fill:#666666;fill-opacity:1;fill-rule:nonzero;stroke:none"
       id="rect3953"
       y="6"
       x="6"
       ry="0"
       rx="6"
       height="84"
       width="84" />
  </g>
  <text
     xml:space="preserve"
     style="font-size:6px;font-style:normal;font-variant:normal;font-weight:500;font-stretch:normal;line-height:125%;letter-spacing:0px;word-spacing:0px;fill:#7a7a7a;fill-opacity:1;stroke:none;font-family:Century Schoolbook L;-inkscape-font-specification:Century Schoolbook L Medium"
     id="text3959"
     sodipodi:linespacing="125%"
     transform="matrix(-0.38387196,0,0,-0.38387196,87.893652,87.888401)"><textPath
       xlink:href="#path3742"
       id="textPath3968"><tspan
   id="tspan3961">digikam</tspan></textPath></text>
  <path
     d="m 70.876489,71.01504 c -0.157261,0.250528 -0.355407,0.459612 -0.577132,0.635607 l 1.156281,1.620445 c 0.422352,-0.321066 0.803235,-0.721548 1.100226,-1.191003 z"
     inkscape:connector-curvature="0"
     id="path3134"
     style="opacity:0.85;fill:#f9f9f9;fill-opacity:1;stroke:none"
     sodipodi:nodetypes="ccccc" />
</svg>
