<?xml version="1.0" encoding="UTF-8" standalone="no"?>
<!-- Created with Inkscape (http://www.inkscape.org/) -->

<svg
   xmlns:dc="http://purl.org/dc/elements/1.1/"
   xmlns:cc="http://creativecommons.org/ns#"
   xmlns:rdf="http://www.w3.org/1999/02/22-rdf-syntax-ns#"
   xmlns:svg="http://www.w3.org/2000/svg"
   xmlns="http://www.w3.org/2000/svg"
   xmlns:xlink="http://www.w3.org/1999/xlink"
   xmlns:sodipodi="http://sodipodi.sourceforge.net/DTD/sodipodi-0.dtd"
   xmlns:inkscape="http://www.inkscape.org/namespaces/inkscape"
   version="1.0"
   width="96"
   height="96"
   id="svg2408"
   inkscape:version="0.48.4 r9939"
   sodipodi:docname="media-player-banshee.svg">
  <sodipodi:namedview
     pagecolor="#ffffff"
     bordercolor="#666666"
     borderopacity="1"
     objecttolerance="10"
     gridtolerance="10"
     guidetolerance="10"
     inkscape:pageopacity="0"
     inkscape:pageshadow="2"
     inkscape:window-width="640"
     inkscape:window-height="480"
     id="namedview101"
     showgrid="false"
     inkscape:zoom="6.444016"
     inkscape:cx="21.956946"
     inkscape:cy="64.153951"
     inkscape:current-layer="svg2408" />
  <defs
     id="defs2410">
    <linearGradient
       id="linearGradient3770">
      <stop
         id="stop3772"
         style="stop-color:#000000;stop-opacity:1"
         offset="0" />
      <stop
         id="stop3774"
         style="stop-color:#000000;stop-opacity:0"
         offset="1" />
    </linearGradient>
    <linearGradient
       x1="45.447727"
       y1="92.539597"
       x2="45.447727"
       y2="7.0165396"
       id="ButtonShadow"
       gradientUnits="userSpaceOnUse"
       gradientTransform="scale(1.0058652,0.994169)">
      <stop
         id="stop3750"
         style="stop-color:#000000;stop-opacity:1"
         offset="0" />
      <stop
         id="stop3752"
         style="stop-color:#000000;stop-opacity:0.58823532"
         offset="1" />
    </linearGradient>
    <linearGradient
       id="linearGradient3737">
      <stop
         id="stop3739"
         style="stop-color:#ffffff;stop-opacity:1"
         offset="0" />
      <stop
         id="stop3741"
         style="stop-color:#ffffff;stop-opacity:0"
         offset="1" />
    </linearGradient>
    <linearGradient
       x1="48"
       y1="90"
       x2="48"
       y2="5.9877172"
       id="linearGradient3706"
       xlink:href="#linearGradient3187"
       gradientUnits="userSpaceOnUse" />
    <filter
       color-interpolation-filters="sRGB"
       id="filter3174">
      <feGaussianBlur
         id="feGaussianBlur3176"
         stdDeviation="1.71" />
    </filter>
    <linearGradient
       x1="36.357143"
       y1="6"
       x2="36.357143"
       y2="63.893143"
       id="linearGradient3188"
       xlink:href="#linearGradient3737"
       gradientUnits="userSpaceOnUse" />
    <radialGradient
       cx="48"
       cy="90.171875"
       r="42"
       fx="48"
       fy="90.171875"
       id="radialGradient3619"
       xlink:href="#linearGradient3737"
       gradientUnits="userSpaceOnUse"
       gradientTransform="matrix(1.1573129,0,0,0.99590774,-7.5510206,0.19713193)" />
    <linearGradient
       id="linearGradient3187">
      <stop
         id="stop3189"
         style="stop-color:#e0880b;stop-opacity:1"
         offset="0" />
      <stop
         id="stop3191"
         style="stop-color:#f7ce50;stop-opacity:1"
         offset="1" />
    </linearGradient>
    <filter
       color-interpolation-filters="sRGB"
       id="filter3666">
      <feGaussianBlur
         id="feGaussianBlur3668"
         stdDeviation="1.83514" />
    </filter>
    <clipPath
       id="clipPath3672">
      <rect
         width="111.24031"
         height="111.20501"
         rx="7.9457364"
         ry="7.9432149"
         x="11.498101"
         y="11.194011"
         id="rect3674"
         style="fill:#ffffff;fill-opacity:1;fill-rule:nonzero;stroke:none" />
    </clipPath>
    <linearGradient
       id="linearGradient8005">
      <stop
         id="stop8007"
         style="stop-color:#2f70b4;stop-opacity:1"
         offset="0" />
      <stop
         id="stop8009"
         style="stop-color:#4588ce;stop-opacity:1"
         offset="1" />
    </linearGradient>
    <filter
       x="-0.037872378"
       y="-0.1443238"
       width="1.0757447"
       height="1.2886477"
       color-interpolation-filters="sRGB"
       id="filter8019">
      <feGaussianBlur
         id="feGaussianBlur8021"
         stdDeviation="0.37938072" />
    </filter>
    <linearGradient
       id="linearGradient8033">
      <stop
         id="stop8035"
         style="stop-color:#ffffff;stop-opacity:1"
         offset="0" />
      <stop
         id="stop8037"
         style="stop-color:#ffffff;stop-opacity:0"
         offset="1" />
    </linearGradient>
    <filter
       color-interpolation-filters="sRGB"
       id="filter8041">
      <feGaussianBlur
         id="feGaussianBlur8043"
         stdDeviation="0.78995058" />
    </filter>
    <filter
       color-interpolation-filters="sRGB"
       id="filter8047">
      <feGaussianBlur
         id="feGaussianBlur8049"
         stdDeviation="0.22026213" />
    </filter>
    <linearGradient
       id="linearGradient8053">
      <stop
         id="stop8055"
         style="stop-color:#ffffff;stop-opacity:1"
         offset="0" />
      <stop
         id="stop8057"
         style="stop-color:#ffffff;stop-opacity:0"
         offset="1" />
    </linearGradient>
    <linearGradient
       id="linearGradient7985">
      <stop
         id="stop7987"
         style="stop-color:#ffffff;stop-opacity:1"
         offset="0" />
      <stop
         id="stop7997"
         style="stop-color:#ffffff;stop-opacity:1"
         offset="0.1" />
      <stop
         id="stop7993"
         style="stop-color:#e6e6e6;stop-opacity:1"
         offset="0.30000001" />
      <stop
         id="stop7995"
         style="stop-color:#bebebe;stop-opacity:1"
         offset="0.80000001" />
      <stop
         id="stop7989"
         style="stop-color:#e6e6e6;stop-opacity:1"
         offset="1" />
    </linearGradient>
    <radialGradient
       cx="63.75"
       cy="57.679382"
       r="34"
       fx="63.75"
       fy="57.679382"
       id="radialGradient3777"
       xlink:href="#linearGradient7985"
       gradientUnits="userSpaceOnUse"
       gradientTransform="matrix(-1.5581724,1.4064304e-7,-1.2408086e-7,-1.3643811,163.0835,137.55769)" />
    <radialGradient
       cx="48.17165"
       cy="77.798073"
       r="15.495689"
       fx="48.17165"
       fy="77.798073"
       id="radialGradient3798"
       xlink:href="#linearGradient8033"
       gradientUnits="userSpaceOnUse"
       gradientTransform="matrix(1.6338787,1.7473377e-7,-3.0351881e-7,2.8381058,-30.534959,-134.76277)" />
    <radialGradient
       cx="76.367531"
       cy="78"
       r="2.767844"
       fx="76.367531"
       fy="78"
       id="radialGradient3800"
       xlink:href="#linearGradient8053"
       gradientUnits="userSpaceOnUse" />
    <radialGradient
       cx="76.367531"
       cy="78"
       r="2.767844"
       fx="76.367531"
       fy="78"
       id="radialGradient3802"
       xlink:href="#linearGradient8053"
       gradientUnits="userSpaceOnUse" />
    <linearGradient
       x1="46.80846"
       y1="16.687328"
       x2="65.76947"
       y2="87.928337"
       id="linearGradient3811"
       xlink:href="#linearGradient8005"
       gradientUnits="userSpaceOnUse"
       gradientTransform="matrix(0.76488859,0,0,0.76488859,1.7349463,1.5614309)" />
    <linearGradient
       id="linearGradient3737-6">
      <stop
         id="stop3739-1"
         style="stop-color:#ffffff;stop-opacity:1"
         offset="0" />
      <stop
         id="stop3741-5"
         style="stop-color:#ffffff;stop-opacity:0"
         offset="1" />
    </linearGradient>
    <clipPath
       id="clipPath3613">
      <rect
         width="84"
         height="84"
         rx="6"
         ry="6"
         x="6"
         y="6"
         id="rect3615"
         style="fill:#ffffff;fill-opacity:1;fill-rule:nonzero;stroke:none" />
    </clipPath>
    <filter
       x="-0.192"
       y="-0.192"
       width="1.3839999"
       height="1.3839999"
       color-interpolation-filters="sRGB"
       id="filter3794-9">
      <feGaussianBlur
         id="feGaussianBlur3796-4"
         stdDeviation="5.28" />
    </filter>
    <linearGradient
       x1="48"
       y1="20.220806"
       x2="48"
       y2="138.66119"
       id="linearGradient2908"
       xlink:href="#linearGradient3737-6"
       gradientUnits="userSpaceOnUse" />
    <linearGradient
       x1="45.447727"
       y1="92.539597"
       x2="45.447727"
       y2="7.0165396"
       id="ButtonShadow-0"
       gradientUnits="userSpaceOnUse"
       gradientTransform="matrix(1.0058652,0,0,0.994169,100,0)">
      <stop
         id="stop3750-8"
         style="stop-color:#000000;stop-opacity:1"
         offset="0" />
      <stop
         id="stop3752-5"
         style="stop-color:#000000;stop-opacity:0.58823532"
         offset="1" />
    </linearGradient>
    <linearGradient
       x1="32.251034"
       y1="6.1317081"
       x2="32.251034"
       y2="90.238609"
       id="linearGradient3780"
       xlink:href="#ButtonShadow-0"
       gradientUnits="userSpaceOnUse"
       gradientTransform="matrix(1.0238095,0,0,1.0119048,-1.1428571,-98.071429)" />
    <linearGradient
       x1="32.251034"
       y1="6.1317081"
       x2="32.251034"
       y2="90.238609"
       id="linearGradient3772"
       xlink:href="#ButtonShadow-0"
       gradientUnits="userSpaceOnUse"
       gradientTransform="matrix(1.0238095,0,0,1.0119048,-1.1428571,-98.071429)" />
    <linearGradient
       x1="32.251034"
       y1="6.1317081"
       x2="32.251034"
       y2="90.238609"
       id="linearGradient3725"
       xlink:href="#ButtonShadow-0"
       gradientUnits="userSpaceOnUse"
       gradientTransform="matrix(1.0238095,0,0,1.0119048,-1.1428571,-98.071429)" />
    <linearGradient
       x1="32.251034"
       y1="6.1317081"
       x2="32.251034"
       y2="90.238609"
       id="linearGradient3721"
       xlink:href="#ButtonShadow-0"
       gradientUnits="userSpaceOnUse"
       gradientTransform="translate(0,-97)" />
    <linearGradient
       x1="32.251034"
       y1="6.1317081"
       x2="32.251034"
       y2="90.238609"
       id="linearGradient3071"
       xlink:href="#ButtonShadow-0"
       gradientUnits="userSpaceOnUse"
       gradientTransform="matrix(1.0238095,0,0,1.0119048,-1.1428571,-98.071429)" />
    <linearGradient
       x1="48"
       y1="88"
       x2="48"
       y2="-16"
       id="linearGradient3776"
       xlink:href="#linearGradient3770"
       gradientUnits="userSpaceOnUse" />
    <linearGradient
       x1="48"
       y1="88"
       x2="48"
       y2="-16"
       id="linearGradient3778"
       xlink:href="#linearGradient3770"
       gradientUnits="userSpaceOnUse" />
    <linearGradient
       x1="48"
       y1="87"
       x2="48"
       y2="-17"
       id="linearGradient3781"
       xlink:href="#linearGradient3770"
       gradientUnits="userSpaceOnUse" />
    <linearGradient
       x1="48"
       y1="87"
       x2="48"
       y2="-17"
       id="linearGradient3783"
       xlink:href="#linearGradient3770"
       gradientUnits="userSpaceOnUse" />
  </defs>
  <metadata
     id="metadata2413">
    <rdf:RDF>
      <cc:Work
         rdf:about="">
        <dc:format>image/svg+xml</dc:format>
        <dc:type
           rdf:resource="http://purl.org/dc/dcmitype/StillImage" />
      </cc:Work>
    </rdf:RDF>
  </metadata>
  <g
     id="layer2"
     style="display:none">
    <rect
       width="86"
       height="85"
       rx="6"
       ry="6"
       x="5"
       y="7"
       id="rect3745"
       style="opacity:0.9;fill:url(#ButtonShadow);fill-opacity:1;fill-rule:nonzero;stroke:none;filter:url(#filter3174)" />
  </g>
  <g
     id="layer1"
     style="fill:#e79c21;fill-opacity:1">
    <rect
       width="84"
       height="84"
       rx="0"
       ry="6"
       x="6"
       y="6"
       id="rect2419"
       style="fill:#d8af2a;fill-opacity:1;fill-rule:nonzero;stroke:none" />
  </g>
  <g
     id="layer5" />
  <g
     id="layer3">
    <path
       d="m 45.5,15.25 -1.03125,0.03125 c -9.060092,0.333118 -13.299797,2.3496 -16.34375,5.09375 -3.043953,2.74415 -4.828585,5.9112 -9.6875,8.96875 l -2.78125,1.78125 3.28125,0.09375 c 5.223472,0.149853 8.375345,-1.461685 10.84375,-2.96875 2.179396,-1.330613 3.8059,-2.451874 6.1875,-2.625 l 0,15.625 c -6.168543,4.439736 -10.125,11.372288 -10.125,19.1875 0,13.405984 11.678112,24.28125 26.09375,24.28125 14.415638,0 26.09375,-10.875266 26.09375,-24.28125 0,-13.405984 -11.678112,-24.25 -26.09375,-24.25 -2.217873,0 -4.38146,0.234598 -6.4375,0.71875 l 0,-20.625 0,-1.03125 z"
       inkscape:connector-curvature="0"
       id="path3813"
       style="font-size:medium;font-style:normal;font-variant:normal;font-weight:normal;font-stretch:normal;text-indent:0;text-align:start;text-decoration:none;line-height:normal;letter-spacing:normal;word-spacing:normal;text-transform:none;direction:ltr;block-progression:tb;writing-mode:lr-tb;text-anchor:start;opacity:0.3;color:#000000;fill:url(#linearGradient3776);fill-opacity:1;fill-rule:evenodd;stroke:none;stroke-width:1.99999988;marker:none;visibility:visible;display:inline;overflow:visible;enable-background:accumulate;font-family:Abandoned Bitplane;-inkscape-font-specification:Abandoned Bitplane" />
    <path
       d="m 97.75,73.75 a 34,31.5 0 1 1 -68,0 34,31.5 0 1 1 68,0 z"
       transform="matrix(0.76770063,0,0,0.77059305,2.9898417,1.6187846)"
       id="path7975"
       style="fill:#e4e4e4;fill-opacity:1;fill-rule:nonzero;stroke:none;display:inline" />
    <g
       id="g3817">
      <path
         d="m 44.501337,14.276296 c -17.858239,0.656604 -15.4768,7.600079 -25.533915,13.92868 10.033404,0.287843 11.424275,-5.903756 17.989803,-5.641115 l 0,46.080716 C 46.89224,69.573156 71.259201,69.875512 68.503217,53.810533 66.391802,41.502832 44.501335,50.25872 44.501337,50.25872 l 0,-35.982424 z m 10.143928,38.118155 c 2.741551,0.01475 5.077896,0.606677 5.501398,3.342883 1.286413,8.31138 -15.784601,8.357208 -15.784602,8.357208 l 0,-9.657218 c 0,0 5.713952,-2.067459 10.283204,-2.042873 z"
         inkscape:connector-curvature="0"
         id="path8000"
         style="fill:url(#linearGradient3811);fill-opacity:1;fill-rule:evenodd;stroke:#28609b;stroke-width:1.99999988;stroke-linecap:butt;stroke-linejoin:miter;stroke-miterlimit:4;stroke-opacity:1;stroke-dasharray:none" />
    </g>
  </g>
</svg>
