<?xml version="1.0" encoding="UTF-8" standalone="no"?>
<!-- Created with Inkscape (http://www.inkscape.org/) -->

<svg
   xmlns:dc="http://purl.org/dc/elements/1.1/"
   xmlns:cc="http://creativecommons.org/ns#"
   xmlns:rdf="http://www.w3.org/1999/02/22-rdf-syntax-ns#"
   xmlns:svg="http://www.w3.org/2000/svg"
   xmlns="http://www.w3.org/2000/svg"
   xmlns:sodipodi="http://sodipodi.sourceforge.net/DTD/sodipodi-0.dtd"
   xmlns:inkscape="http://www.inkscape.org/namespaces/inkscape"
   width="96"
   height="96"
   id="svg2"
   version="1.1"
   inkscape:version="0.48.5 r10040"
   sodipodi:docname="myunity.svg">
  <defs
     id="defs4" />
  <sodipodi:namedview
     id="base"
     pagecolor="#ffffff"
     bordercolor="#666666"
     borderopacity="1.0"
     inkscape:pageopacity="0.0"
     inkscape:pageshadow="2"
     inkscape:zoom="2.8727941"
     inkscape:cx="64.7929"
     inkscape:cy="28.560593"
     inkscape:document-units="px"
     inkscape:current-layer="layer1"
     showgrid="false"
     inkscape:window-width="1366"
     inkscape:window-height="706"
     inkscape:window-x="-2"
     inkscape:window-y="-3"
     inkscape:window-maximized="1"
     showguides="false">
    <inkscape:grid
       type="xygrid"
       id="grid3850"
       units="cm"
       empspacing="5"
       visible="true"
       enabled="true"
       snapvisiblegridlinesonly="true" />
    <sodipodi:guide
       position="2.0000153,4.0000174"
       orientation="0,44.000008"
       id="guide4204" />
    <sodipodi:guide
       position="46.000023,44.000017"
       orientation="0,-44.000008"
       id="guide4208" />
    <sodipodi:guide
       position="9,39.000017"
       orientation="30,0"
       id="guide4212" />
    <sodipodi:guide
       position="9,9.0000174"
       orientation="0,30"
       id="guide4214" />
    <sodipodi:guide
       position="39,9.0000174"
       orientation="-30,0"
       id="guide4216" />
    <sodipodi:guide
       position="39,39.000017"
       orientation="0,-30"
       id="guide4218" />
    <sodipodi:guide
       position="15,33.000017"
       orientation="18,0"
       id="guide4222" />
    <sodipodi:guide
       position="15,15.000017"
       orientation="0,18"
       id="guide4224" />
    <sodipodi:guide
       position="33,15.000017"
       orientation="-18,0"
       id="guide4226" />
    <sodipodi:guide
       position="33,33.000017"
       orientation="0,-18"
       id="guide4228" />
    <sodipodi:guide
       position="35.000008,15.000017"
       orientation="11,0"
       id="guide4232" />
    <sodipodi:guide
       position="35.000008,4.0000174"
       orientation="0,11.000015"
       id="guide4234" />
    <sodipodi:guide
       position="46.000023,15.000017"
       orientation="0,-11.000015"
       id="guide4238" />
    <sodipodi:guide
       position="4,44.000017"
       orientation="40,0"
       id="guide4242" />
    <sodipodi:guide
       position="4,4.0000174"
       orientation="0,40"
       id="guide4244" />
    <sodipodi:guide
       position="44,4.0000174"
       orientation="-40,0"
       id="guide4246" />
    <sodipodi:guide
       position="44,44.000017"
       orientation="0,-40"
       id="guide4248" />
    <sodipodi:guide
       position="9,28.500017"
       orientation="9,0"
       id="guide4254" />
    <sodipodi:guide
       position="9,19.500017"
       orientation="0,30"
       id="guide4256" />
    <sodipodi:guide
       position="39,19.500017"
       orientation="-9,0"
       id="guide4258" />
    <sodipodi:guide
       position="39,28.500017"
       orientation="0,-30"
       id="guide4260" />
  </sodipodi:namedview>
  <metadata
     id="metadata7">
    <rdf:RDF>
      <cc:Work
         rdf:about="">
        <dc:format>image/svg+xml</dc:format>
        <dc:type
           rdf:resource="http://purl.org/dc/dcmitype/StillImage" />
        <dc:title />
      </cc:Work>
    </rdf:RDF>
  </metadata>
  <g
     inkscape:label="Capa 1"
     inkscape:groupmode="layer"
     id="layer1"
     transform="translate(0,-956.3622)">
    <g
       id="g4089"
       transform="matrix(2.1,0,0,2.1,-2.4,-1155.1984)">
      <rect
         style="fill:#34495e;fill-opacity:1;stroke:none"
         id="rect813"
         width="40"
         height="40"
         x="4"
         y="1008.3622" />
      <path
         id="rect4250"
         transform="translate(0,1004.3622)"
         d="M 13.5,19.5 C 11.007,19.5 9,21.507 9,24 c 0,2.493 2.007,4.5 4.5,4.5 l 17,0 c 0.255364,0 0.50061,-0.03569 0.744141,-0.07617 A 5.5,5.5 0 0 1 29,24 5.5,5.5 0 0 1 31.244141,19.576172 C 31.00061,19.53569 30.755364,19.5 30.5,19.5 l -17,0 z"
         style="fill:#9b59b6;fill-opacity:1;stroke:none"
         inkscape:connector-curvature="0" />
      <path
         inkscape:connector-curvature="0"
         id="path4093"
         d="m 34.5,1022.8622 a 5.5,5.5 0 0 0 -5.5,5.5 5.5,5.5 0 0 0 5.5,5.5 5.5,5.5 0 0 0 5.5,-5.5 5.5,5.5 0 0 0 -5.5,-5.5 z"
         style="fill:#ecf0f1;fill-opacity:1;stroke:none" />
    </g>
  </g>
</svg>
