<?xml version="1.0" encoding="UTF-8" standalone="no"?>
<!-- Created with Inkscape (http://www.inkscape.org/) -->

<svg
   xmlns:dc="http://purl.org/dc/elements/1.1/"
   xmlns:cc="http://creativecommons.org/ns#"
   xmlns:rdf="http://www.w3.org/1999/02/22-rdf-syntax-ns#"
   xmlns:svg="http://www.w3.org/2000/svg"
   xmlns="http://www.w3.org/2000/svg"
   xmlns:xlink="http://www.w3.org/1999/xlink"
   xmlns:sodipodi="http://sodipodi.sourceforge.net/DTD/sodipodi-0.dtd"
   xmlns:inkscape="http://www.inkscape.org/namespaces/inkscape"
   version="1.0"
   width="96"
   height="96"
   id="svg2408"
   inkscape:version="0.48.5 r10040"
   sodipodi:docname="dropbox.svg">
  <sodipodi:namedview
     pagecolor="#ffffff"
     bordercolor="#666666"
     borderopacity="1"
     objecttolerance="10"
     gridtolerance="10"
     guidetolerance="10"
     inkscape:pageopacity="0"
     inkscape:pageshadow="2"
     inkscape:window-width="1680"
     inkscape:window-height="988"
     id="namedview105"
     showgrid="false"
     inkscape:zoom="1.5117221"
     inkscape:cx="-80.743071"
     inkscape:cy="68.92453"
     inkscape:window-x="0"
     inkscape:window-y="-3"
     inkscape:window-maximized="1"
     inkscape:current-layer="svg2408" />
  <defs
     id="defs2410">
    <linearGradient
       id="linearGradient3853">
      <stop
         id="stop3855"
         style="stop-color:#000000;stop-opacity:1"
         offset="0" />
      <stop
         id="stop3857"
         style="stop-color:#313131;stop-opacity:1"
         offset="1" />
    </linearGradient>
    <linearGradient
       x1="45.447727"
       y1="92.539597"
       x2="45.447727"
       y2="7.0165396"
       id="ButtonShadow"
       gradientUnits="userSpaceOnUse"
       gradientTransform="scale(1.0058652,0.994169)">
      <stop
         id="stop3750"
         style="stop-color:#000000;stop-opacity:1"
         offset="0" />
      <stop
         id="stop3752"
         style="stop-color:#000000;stop-opacity:0.58823532"
         offset="1" />
    </linearGradient>
    <linearGradient
       id="linearGradient3737">
      <stop
         id="stop3739"
         style="stop-color:#ffffff;stop-opacity:1"
         offset="0" />
      <stop
         id="stop3741"
         style="stop-color:#ffffff;stop-opacity:0"
         offset="1" />
    </linearGradient>
    <linearGradient
       id="linearGradient3700">
      <stop
         id="stop3702"
         style="stop-color:#da8714;stop-opacity:1"
         offset="0" />
      <stop
         id="stop3704"
         style="stop-color:#f4d468;stop-opacity:1"
         offset="1" />
    </linearGradient>
    <filter
       color-interpolation-filters="sRGB"
       id="filter3174">
      <feGaussianBlur
         id="feGaussianBlur3176"
         stdDeviation="1.71" />
    </filter>
    <linearGradient
       x1="36.357143"
       y1="6"
       x2="36.357143"
       y2="63.893143"
       id="linearGradient3188"
       xlink:href="#linearGradient3737"
       gradientUnits="userSpaceOnUse" />
    <filter
       x="-0.192"
       y="-0.192"
       width="1.3839999"
       height="1.3839999"
       color-interpolation-filters="sRGB"
       id="filter3794">
      <feGaussianBlur
         id="feGaussianBlur3796"
         stdDeviation="5.28" />
    </filter>
    <linearGradient
       x1="48"
       y1="20.220806"
       x2="48"
       y2="138.66119"
       id="linearGradient3613"
       xlink:href="#linearGradient3737"
       gradientUnits="userSpaceOnUse" />
    <radialGradient
       cx="48"
       cy="90.171875"
       r="42"
       fx="48"
       fy="90.171875"
       id="radialGradient3619"
       xlink:href="#linearGradient3737"
       gradientUnits="userSpaceOnUse"
       gradientTransform="matrix(1.1573129,0,0,0.99590774,-7.5510206,0.19713193)" />
    <clipPath
       id="clipPath3613">
      <rect
         width="84"
         height="84"
         rx="6"
         ry="6"
         x="6"
         y="6"
         id="rect3615"
         style="fill:#ffffff;fill-opacity:1;fill-rule:nonzero;stroke:none" />
    </clipPath>
    <linearGradient
       x1="48"
       y1="90"
       x2="48"
       y2="5.9877172"
       id="linearGradient3617"
       xlink:href="#linearGradient3700"
       gradientUnits="userSpaceOnUse" />
    <linearGradient
       id="linearGradient5060">
      <stop
         id="stop5062"
         style="stop-color:#000000;stop-opacity:1"
         offset="0" />
      <stop
         id="stop5064"
         style="stop-color:#000000;stop-opacity:0"
         offset="1" />
    </linearGradient>
    <linearGradient
       id="linearGradient6954">
      <stop
         id="stop6960"
         style="stop-color:#f5f5f5;stop-opacity:1"
         offset="0" />
      <stop
         id="stop6962"
         style="stop-color:#d2d2d2;stop-opacity:1"
         offset="1" />
    </linearGradient>
    <linearGradient
       id="linearGradient3785">
      <stop
         id="stop3787"
         style="stop-color:#bdbdbd;stop-opacity:1"
         offset="0" />
      <stop
         id="stop3789"
         style="stop-color:#8c8c8c;stop-opacity:1"
         offset="1" />
    </linearGradient>
    <linearGradient
       id="linearGradient3341">
      <stop
         id="stop3343"
         style="stop-color:#ffffff;stop-opacity:1"
         offset="0" />
      <stop
         id="stop3345"
         style="stop-color:#ffffff;stop-opacity:0"
         offset="1" />
    </linearGradient>
    <linearGradient
       id="linearGradient2895">
      <stop
         id="stop2897"
         style="stop-color:#000000;stop-opacity:1"
         offset="0" />
      <stop
         id="stop2899"
         style="stop-color:#000000;stop-opacity:0"
         offset="1" />
    </linearGradient>
    <linearGradient
       x1="27.055927"
       y1="5.134068"
       x2="43.429096"
       y2="5.134068"
       id="linearGradient2949"
       xlink:href="#linearGradient2895"
       gradientUnits="userSpaceOnUse"
       gradientTransform="matrix(0.85509232,0,0,1.178723,-69.95703,42.805784)" />
    <radialGradient
       cx="30"
       cy="33.1875"
       r="4.6875"
       fx="30"
       fy="33.1875"
       id="radialGradient2952"
       xlink:href="#linearGradient5060"
       gradientUnits="userSpaceOnUse"
       gradientTransform="matrix(1.5279732,-7.0647448e-7,2.1308638e-7,0.46086628,-85.660631,57.562164)" />
    <linearGradient
       x1="38"
       y1="39"
       x2="43"
       y2="38.599998"
       id="linearGradient2955"
       xlink:href="#linearGradient5060"
       gradientUnits="userSpaceOnUse"
       gradientTransform="translate(-69.821429,42.857143)" />
    <linearGradient
       x1="22"
       y1="39"
       x2="17"
       y2="37.4375"
       id="linearGradient2958"
       xlink:href="#linearGradient5060"
       gradientUnits="userSpaceOnUse"
       gradientTransform="translate(-69.821429,42.857143)" />
    <radialGradient
       cx="26.375898"
       cy="12.31301"
       r="8"
       fx="26.375898"
       fy="12.31301"
       id="radialGradient2961"
       xlink:href="#linearGradient6954"
       gradientUnits="userSpaceOnUse"
       gradientTransform="matrix(1.640165,-0.1325824,0.12811381,1.5848844,-88.21778,37.629717)" />
    <linearGradient
       x1="30"
       y1="5"
       x2="30"
       y2="44.678879"
       id="linearGradient2963"
       xlink:href="#linearGradient3785"
       gradientUnits="userSpaceOnUse"
       gradientTransform="translate(-69.821429,42.857143)" />
    <linearGradient
       x1="24.786562"
       y1="53.869164"
       x2="24.87495"
       y2="83.5"
       id="linearGradient2966"
       xlink:href="#linearGradient3341"
       gradientUnits="userSpaceOnUse"
       gradientTransform="translate(-65.69638,3.357143)" />
    <radialGradient
       cx="24.999998"
       cy="28.659998"
       r="16"
       fx="24.999998"
       fy="28.659998"
       id="radialGradient2969"
       xlink:href="#linearGradient6954"
       gradientUnits="userSpaceOnUse"
       gradientTransform="matrix(1.3125,0,0,0.37326701,-77.633927,63.159311)" />
    <linearGradient
       x1="30"
       y1="25.084745"
       x2="30"
       y2="45"
       id="linearGradient2971"
       xlink:href="#linearGradient3785"
       gradientUnits="userSpaceOnUse"
       gradientTransform="translate(-69.821429,42.857143)" />
    <radialGradient
       cx="32"
       cy="41.5"
       r="21"
       fx="32"
       fy="41.5"
       id="radialGradient2974"
       xlink:href="#linearGradient5060"
       gradientUnits="userSpaceOnUse"
       gradientTransform="matrix(0.85714286,0,0,0.28571429,-67.25,72)" />
    <filter
       x="-0.20689654"
       y="-0.2857143"
       width="1.4137931"
       height="1.5714287"
       color-interpolation-filters="sRGB"
       id="filter3842">
      <feGaussianBlur
         id="feGaussianBlur3844"
         stdDeviation="5" />
    </filter>
    <clipPath
       id="clipPath3846">
      <path
         d="m 102,6 c -3.324,0 -6,2.676 -6,6 l 0,72 c 0,3.324 2.676,6 6,6 l 72,0 c 3.324,0 6,-2.676 6,-6 l 0,-72 c 0,-3.324 -2.676,-6 -6,-6 l -72,0 z m 36,21 c 4.27575,0 7.7501,3.22498 7.75,7.21875 -0.017,0.50192 -0.053,1.06898 -0.0937,1.65625 0.5842,0.43883 0.63569,1.74219 0.0625,3.09375 -0.20688,0.48783 -0.46974,0.90718 -0.75,1.25 -0.0907,0.424 -0.13328,0.75622 -0.25,1.25 -0.31758,0.95347 -1.58219,2.81614 -2.53125,4.28125 -0.0612,0.9744 -0.0577,1.9482 0.0625,2.9375 1.59781,1.39047 4.55784,2.451439 6.96875,3.46875 0.99952,-0.415702 1.91915,-0.840829 2.5625,-1.375 0.1571,-0.91653 0.1406,-1.7255 0.0625,-2.53125 -0.78289,-1.0445 -1.65985,-2.26031 -1.875,-2.90625 -0.0694,-0.31812 -0.0988,-0.53048 -0.15625,-0.8125 -0.008,-0.0088 -0.0232,-0.02225 -0.0312,-0.03125 -0.24058,-0.27087 -0.48169,-0.61965 -0.65625,-1.03125 -0.45269,-1.06743 -0.3825,-2.10425 0.125,-2.375 -0.0357,-0.42697 -0.0545,-0.81298 -0.0625,-1.15625 0,-2.99532 2.60569,-5.4375 5.8125,-5.4375 3.20682,0 5.8125,2.44217 5.8125,5.4375 -0.0127,0.37644 -0.0632,0.7783 -0.0937,1.21875 0.43815,0.32912 0.49239,1.29882 0.0625,2.3125 -0.15516,0.36587 -0.35231,0.68039 -0.5625,0.9375 -0.068,0.318 -0.1,0.56717 -0.1875,0.9375 -0.23818,0.7151 -1.1632,2.11991 -1.875,3.21875 -0.0459,0.7308 -0.0589,1.47678 0.0312,2.21875 2.22581,1.93697 8.02225,2.96722 8.03125,4.625 L 167,60.46875 c 0,1.01728 -1.51441,1.92514 -3.90625,2.5625 l -0.4375,1.4375 a 0.84317393,0.843822 0 0 1 -0.5,0.53125 c -0.10882,0.04212 -0.1705,0.13205 -0.46875,0.21875 C 160.11641,65.67522 157.68988,66 155,66 c -2.51238,0 -4.74599,-0.278913 -6.3125,-0.6875 l -0.46875,1.65625 a 1.1242319,1.125096 0 0 1 -0.65625,0.71875 c -0.1451,0.05616 -0.25859,0.16571 -0.65625,0.28125 C 144.81146,68.57738 141.58651,69 138,69 c -3.58651,0 -6.78021,-0.42262 -8.875,-1.03125 -0.39766,-0.11554 -0.51115,-0.22505 -0.65625,-0.28125 a 1.1242319,1.125096 0 0 1 -0.6875,-0.75 L 127.375,65.28125 C 125.80443,65.695778 123.53462,66 121,66 118.31012,66 115.91484,65.67522 114.34375,65.21875 114.0455,65.1321 113.98382,65.0421 113.875,65 a 0.84317393,0.843822 0 0 1 -0.53125,-0.5625 L 113,63.0625 c -2.45175,-0.63836 -4,-1.56194 -4,-2.59375 l 0.78125,-5.0625 c -0.009,-1.93697 5.74656,-2.75398 8,-4.625 0.1571,-0.91653 0.1406,-1.7255 0.0625,-2.53125 -0.78289,-1.0445 -1.65985,-2.26031 -1.875,-2.90625 -0.0695,-0.31812 -0.0988,-0.53048 -0.15625,-0.8125 -0.008,-0.0088 -0.0233,-0.02225 -0.0312,-0.03125 -0.24058,-0.27087 -0.48169,-0.61965 -0.65625,-1.03125 -0.45269,-1.06743 -0.3825,-2.10425 0.125,-2.375 -0.0357,-0.42697 -0.0545,-0.81298 -0.0625,-1.15625 0,-2.99532 2.60569,-5.4375 5.8125,-5.4375 3.20682,0 5.8125,2.44217 5.8125,5.4375 -0.0127,0.37644 -0.0631,0.7783 -0.0937,1.21875 0.43815,0.32912 0.49239,1.29882 0.0625,2.3125 -0.15516,0.36587 -0.35231,0.68039 -0.5625,0.9375 -0.068,0.318 -0.1,0.56717 -0.1875,0.9375 -0.23818,0.7151 -1.1632,2.11991 -1.875,3.21875 -0.0459,0.7308 -0.0589,1.47678 0.0312,2.21875 0.56995,0.49599 1.36884,0.938591 2.25,1.34375 2.44969,-1.03953 5.58983,-2.033128 7.28125,-3.4375 0.20939,-1.22203 0.19785,-2.26942 0.0937,-3.34375 -1.04386,-1.39267 -2.24438,-3.01374 -2.53125,-3.875 -0.0926,-0.42416 -0.14215,-0.71772 -0.21875,-1.09375 -0.0107,-0.0118 -0.0205,-0.01925 -0.0312,-0.03125 -0.32077,-0.36116 -0.64226,-0.82619 -0.875,-1.375 -0.60358,-1.42323 -0.52042,-2.82649 0.15625,-3.1875 -0.0476,-0.56929 -0.0521,-1.10481 -0.0625,-1.5625 C 130.25,30.22497 133.72425,27 138,27 z"
         inkscape:connector-curvature="0"
         id="path3849"
         style="fill:url(#linearGradient3851);fill-opacity:1;fill-rule:nonzero;stroke:none" />
    </clipPath>
    <linearGradient
       x1="48"
       y1="90"
       x2="48"
       y2="5.9877172"
       id="linearGradient3851"
       xlink:href="#linearGradient3700"
       gradientUnits="userSpaceOnUse"
       gradientTransform="translate(90,0)" />
    <linearGradient
       x1="48"
       y1="27"
       x2="48"
       y2="69"
       id="linearGradient3859"
       xlink:href="#linearGradient3853"
       gradientUnits="userSpaceOnUse" />
    <linearGradient
       x1="45.447727"
       y1="92.539597"
       x2="45.447727"
       y2="7.0165396"
       id="ButtonShadow-0"
       gradientUnits="userSpaceOnUse"
       gradientTransform="matrix(1.0058652,0,0,0.994169,100,0)">
      <stop
         id="stop3750-8"
         style="stop-color:#000000;stop-opacity:1"
         offset="0" />
      <stop
         id="stop3752-5"
         style="stop-color:#000000;stop-opacity:0.58823532"
         offset="1" />
    </linearGradient>
    <linearGradient
       x1="32.251034"
       y1="6.1317081"
       x2="32.251034"
       y2="90.238609"
       id="linearGradient3780"
       xlink:href="#ButtonShadow-0"
       gradientUnits="userSpaceOnUse"
       gradientTransform="matrix(1.0238095,0,0,1.0119048,-1.1428571,-98.071429)" />
    <linearGradient
       x1="32.251034"
       y1="6.1317081"
       x2="32.251034"
       y2="90.238609"
       id="linearGradient3772"
       xlink:href="#ButtonShadow-0"
       gradientUnits="userSpaceOnUse"
       gradientTransform="matrix(1.0238095,0,0,1.0119048,-1.1428571,-98.071429)" />
    <linearGradient
       x1="32.251034"
       y1="6.1317081"
       x2="32.251034"
       y2="90.238609"
       id="linearGradient3725"
       xlink:href="#ButtonShadow-0"
       gradientUnits="userSpaceOnUse"
       gradientTransform="matrix(1.0238095,0,0,1.0119048,-1.1428571,-98.071429)" />
    <linearGradient
       x1="32.251034"
       y1="6.1317081"
       x2="32.251034"
       y2="90.238609"
       id="linearGradient3721"
       xlink:href="#ButtonShadow-0"
       gradientUnits="userSpaceOnUse"
       gradientTransform="translate(0,-97)" />
    <linearGradient
       x1="32.251034"
       y1="6.1317081"
       x2="32.251034"
       y2="90.238609"
       id="linearGradient3059"
       xlink:href="#ButtonShadow-0"
       gradientUnits="userSpaceOnUse"
       gradientTransform="matrix(1.0238095,0,0,1.0119048,-1.1428571,-98.071429)" />
    <linearGradient
       inkscape:collect="always"
       xlink:href="#linearGradient4119"
       id="linearGradient3100"
       gradientUnits="userSpaceOnUse"
       gradientTransform="matrix(2.2663323,0,0,2.2663323,848.68189,-517.22286)"
       x1="-240.71428"
       y1="353.07648"
       x2="-240.71428"
       y2="455.25928" />
    <linearGradient
       inkscape:collect="always"
       id="linearGradient4119">
      <stop
         style="stop-color:#f76d0e;stop-opacity:1"
         offset="0"
         id="stop4121" />
      <stop
         style="stop-color:#ffa823;stop-opacity:1"
         offset="1"
         id="stop4123" />
    </linearGradient>
  </defs>
  <metadata
     id="metadata2413">
    <rdf:RDF>
      <cc:Work
         rdf:about="">
        <dc:format>image/svg+xml</dc:format>
        <dc:type
           rdf:resource="http://purl.org/dc/dcmitype/StillImage" />
        <dc:title></dc:title>
      </cc:Work>
    </rdf:RDF>
  </metadata>
  <g
     id="layer2"
     style="display:none">
    <rect
       width="86"
       height="85"
       rx="6"
       ry="6"
       x="5"
       y="7"
       id="rect3745"
       style="opacity:0.9;fill:url(#ButtonShadow);fill-opacity:1;fill-rule:nonzero;stroke:none;filter:url(#filter3174)" />
  </g>
  <g
     id="layer1">
    <rect
       width="84"
       height="84"
       rx="6"
       ry="0.036197715"
       x="6"
       y="6"
       id="rect2419"
       style="fill:#e19c2b;fill-opacity:1;fill-rule:nonzero;stroke:none" />
  </g>
  <g
     id="layer5" />
  <g
     transform="matrix(0.18852276,0,0,0.18852276,-19.499674,-35.568135)"
     id="g3908">
    <path
       inkscape:connector-curvature="0"
       id="path4212"
       d="m 291.95906,270.46987 -0.35412,0.0707 c -5.63691,0.80097 -9.56698,4.91446 -10.19849,10.55261 -0.005,0.0478 0.005,0.0936 0,0.14165 -2.0373,18.22652 4.82547,32.77948 10.69425,41.92715 -19.33335,17.07296 -34.29974,43.52135 -40.29822,74.15156 -4.31242,22.02072 -3.10966,42.44471 2.76209,59.27875 -3.18594,3.81768 -7.1714,8.87897 -11.33166,15.72268 -6.17369,10.15578 -13.20397,23.71474 -8.28628,38.03189 0.0113,0.0347 0.0589,0.0365 0.0707,0.0707 1.51627,4.33676 5.13109,6.76536 8.6404,7.57805 3.5098,0.8128 7.77991,0.25541 11.04837,-2.97456 0.0254,-0.0252 0.0458,-0.0453 0.0707,-0.0707 0.092,-0.0902 7.18085,-6.6368 18.83888,-12.88977 0.61373,0.9602 1.20787,1.96247 1.8414,2.90374 0.55269,0.82134 0.92493,1.24909 0.99152,1.34564 0.61227,0.88733 1.32007,1.91677 2.19551,3.1162 0.3363,0.46122 0.62981,0.9328 0.99152,1.41646 0.56882,0.7597 1.0334,1.29557 1.34563,1.69975 3.8745,5.02092 8.08564,9.81161 12.60648,14.30622 1.42905,1.41963 2.84703,2.82272 4.24937,4.10773 -0.37605,-0.34478 -0.19513,-0.20306 0.49576,0.42494 1.04072,0.94535 1.98195,1.73429 2.76209,2.40798 1.19857,1.03555 2.448,2.06274 3.75361,3.1162 1.22629,0.98932 2.4888,1.96899 3.82444,2.97456 3.92699,2.95716 7.96174,5.70355 12.11071,8.21546 1.32583,0.80257 2.68339,1.64155 4.17855,2.4788 4.33194,2.42797 8.86472,4.53319 13.45635,6.5157 -7.59906,2.40422 -13.72169,5.5321 -18.76806,9.70274 -0.12986,0.10742 -0.29624,0.17451 -0.42494,0.28329 l 0.0707,0.0707 c -6.39915,5.02881 -7.3727,13.69488 -2.05386,19.97205 2.97676,3.51311 6.99412,5.0884 11.04837,4.95761 0.21076,4.37735 2.38406,8.49258 6.79899,10.8359 6.92007,3.67295 14.71106,0.93917 17.98902,-6.01995 l 0.0707,0.0707 c 2.32479,-4.38288 4.8536,-7.72583 8.00299,-11.19001 1.29691,3.04513 3.52027,5.72987 6.94064,7.29475 7.39258,3.38221 15.3722,0.0988 18.48478,-7.29475 l 0.14164,0.0707 c 0.0678,-0.14754 0.14527,-0.34376 0.21236,-0.49576 0.009,-0.0181 -0.009,-0.0521 0,-0.0707 1.20313,-2.72348 2.30928,-6.0808 2.19551,-10.05685 -0.0691,-2.41761 -0.62993,-4.66704 -1.48728,-6.72818 2.64981,0.15502 5.2371,0.49576 7.93216,0.49576 11.01025,0 21.64372,-1.55377 31.94112,-3.89526 0.0113,0.029 0.0594,0.0422 0.0707,0.0707 -11.35661,5.7901 -19.0141,12.17118 -23.65484,20.32617 l -0.0707,0 c -4.05477,7.17383 -1.64964,15.70482 5.52418,19.75959 4.75837,2.68952 9.99326,2.27585 14.2354,-0.21236 1.0381,6.13263 5.84113,10.79146 12.60647,11.04837 7.99757,0.30371 13.95782,-5.7023 13.95211,-13.52717 l 0.14165,0 c 0.24463,-4.83119 1.10184,-8.47937 2.62045,-12.39401 2.42681,4.52345 6.98472,7.6346 12.74811,7.50723 8.46847,-0.1872 14.43514,-6.9956 13.88129,-15.29774 l 0.14165,0 c -0.002,-0.21621 -0.0623,-0.42163 -0.0707,-0.63741 -0.009,-0.0743 0.009,-0.13779 0,-0.21235 l -0.0707,0 c -0.3764,-7.68616 -4.09608,-15.02008 -11.40249,-18.98054 -5.26421,-2.8534 -10.55467,-3.37987 -15.65186,-3.47032 -0.58804,-0.43862 -1.21704,-1.03796 -1.48728,-1.48728 7.10593,-2.93381 13.95558,-6.33267 20.46782,-10.34014 20.72105,11.39841 35.93476,12.8337 46.60146,7.29476 11.05256,-5.73931 14.72606,-16.76762 16.85584,-22.52168 l 0.14165,-0.28329 0.0707,-0.28329 c 0.79088,-2.77413 1.67448,-5.55687 2.19553,-8.64039 0.52105,-3.08353 0.69232,-6.90713 -1.27483,-10.76508 -1.96714,-3.85796 -5.74237,-6.47378 -9.77356,-7.86134 -2.63706,-0.90769 -6.24765,-1.17596 -9.63192,-1.55811 5.8015,-8.98172 10.9977,-18.36633 14.73116,-28.54162 0.0159,-0.0437 0.0542,-0.0261 0.0707,-0.0707 0.0113,-0.0281 -0.0113,-0.0421 0,-0.0707 5.66223,-15.48632 8.85289,-32.26058 8.85289,-49.71766 0,-13.09766 -1.76262,-25.74787 -5.02845,-37.81942 l -0.0707,-0.14165 -0.0707,-0.49576 -0.14164,-0.28329 c -0.40978,-1.51432 -0.81459,-3.13108 -1.34564,-4.81596 -0.69744,-2.2094 -1.48288,-4.28971 -2.19551,-6.23241 -0.0342,-0.0936 -0.0401,-0.058 -0.0707,-0.14165 -0.29426,-0.80078 -0.43808,-1.22629 -0.42494,-1.20399 -0.62995,-1.6936 -1.30298,-3.39519 -2.05386,-5.17007 -0.41218,-0.97497 -0.44046,-1.012 -0.0707,-0.14164 -2.73059,-6.43326 -5.88578,-12.6254 -9.49027,-18.5556 -0.20601,-0.33911 -0.38493,-0.57229 -0.42493,-0.6374 -1.08349,-1.76337 -2.14964,-3.496 -3.32868,-5.2409 -0.32087,-0.47493 -0.66467,-0.94481 -0.99152,-1.41645 -2.29965,-3.31751 -4.75796,-6.54384 -7.36558,-9.70274 -0.81461,-0.98708 -1.47985,-1.75303 -1.98304,-2.33716 -0.0415,-0.048 -0.0338,-0.0276 -0.0707,-0.0707 -0.37136,-0.42995 -0.57855,-0.64824 -0.56658,-0.63741 -1.05804,-1.20968 -2.13491,-2.40941 -3.25785,-3.61197 -1.08501,-1.1619 -2.25444,-2.39572 -3.47033,-3.61196 -0.16702,-0.16703 -0.33285,-0.40638 -0.56658,-0.63741 -1.44365,-1.42743 -2.94546,-2.80033 -4.46184,-4.17855 -1.36343,-1.23923 -2.73222,-2.45297 -4.10773,-3.61197 -0.1464,-0.12329 -0.51591,-0.41147 -1.13316,-0.9207 -1.11538,-0.92047 -2.19445,-1.81059 -3.32868,-2.69127 -0.78295,-0.60771 -1.52422,-1.17987 -2.12469,-1.62892 -0.99514,-0.7442 -1.88885,-1.3191 -2.62044,-1.8414 -1.40751,-1.00487 -2.82415,-1.98664 -4.3202,-2.97456 -0.0687,-0.0453 -0.2621,-0.20102 -0.49576,-0.35411 -0.6409,-0.41977 -0.92299,-0.56806 -0.9207,-0.56659 -6.17387,-3.97446 -12.74372,-7.57297 -19.61794,-10.62343 -1.44181,-0.64006 -2.74099,-1.18461 -3.82443,-1.62892 -0.46578,-0.19083 -0.99728,-0.38757 -1.62893,-0.63741 -1.39984,-0.55396 -2.86122,-1.12746 -4.46184,-1.69975 -0.29594,-0.10584 -0.65336,-0.28241 -1.06234,-0.42494 -1.8659,-0.65089 -3.67216,-1.20831 -5.52419,-1.77057 l -0.0707,0 c -0.0487,-0.0159 -0.0233,0.0136 -0.0707,0 -1.89977,-0.57572 -3.8226,-1.1175 -5.80747,-1.62893 -1.64944,-0.42437 -3.41011,-0.87584 -5.2409,-1.27481 -1.26982,-0.27669 -1.49204,-0.33983 -0.56658,-0.14164 -3.93245,-0.84188 -7.87752,-1.46981 -11.89824,-1.98304 -3.63525,-0.46374 -7.28778,-0.80306 -10.97755,-0.99152 -0.22097,-0.0113 -0.65495,-0.0446 -1.27481,-0.0707 -2.01765,-0.0854 -4.1012,-0.14165 -6.23242,-0.14165 -2.57194,0 -5.05251,0.0918 -7.4364,0.21236 -18.01709,0.91299 -35.16262,5.19719 -50.85083,12.11071 -3.5586,1.57014 -7.10652,3.25957 -10.62343,5.17007 -0.44926,0.24402 -0.89543,0.52905 -1.34564,0.77905 -13.60359,-8.63103 -21.53016,-21.38851 -21.53016,-21.38851 l 0,-0.0707 -0.0707,0 c -2.20117,-3.71402 -5.90275,-5.61497 -10.12767,-5.66583 l 0,-0.21236 c -0.30194,-0.0159 -0.61864,-0.007 -0.9207,0 -0.11626,0.002 -0.23798,-0.007 -0.35411,0 l -0.35411,0 z m 69.54807,303.75936 0.0707,0.0707 c -0.0485,0.0977 -0.10901,0.1847 -0.14165,0.28329 0.0306,-0.14392 0.0639,-0.27593 0.0707,-0.35412 z"
       style="font-size:medium;font-style:normal;font-variant:normal;font-weight:normal;font-stretch:normal;text-indent:0;text-align:start;text-decoration:none;line-height:normal;letter-spacing:normal;word-spacing:normal;text-transform:none;direction:ltr;block-progression:tb;writing-mode:lr-tb;text-anchor:start;color:#000000;fill:#9b4f18;fill-opacity:1;stroke:none;stroke-width:7;marker:none;visibility:visible;display:inline;overflow:visible;enable-background:accumulate;font-family:Andale Mono;-inkscape-font-specification:Andale Mono" />
    <path
       transform="matrix(2.708135,0,0,2.708135,-96.208731,-805.19068)"
       d="m 232.33508,453.5585 c 0,27.89459 -22.61304,50.50763 -50.50763,50.50763 -27.89459,0 -50.50762,-22.61304 -50.50762,-50.50763 0,-27.89459 22.61303,-50.50762 50.50762,-50.50762 27.89459,0 50.50763,22.61303 50.50763,50.50762 z"
       sodipodi:ry="50.507626"
       sodipodi:rx="50.507626"
       sodipodi:cy="453.5585"
       sodipodi:cx="181.82745"
       id="path3220"
       style="fill:#9b4f18;fill-opacity:1;fill-rule:nonzero;stroke:none"
       sodipodi:type="arc" />
    <path
       inkscape:connector-curvature="0"
       id="path3222"
       d="m 404.39912,329.05794 c -13.04755,0.0651 -24.04905,4.58853 -30.84025,11.94341 8.09752,15.74161 11.17375,36.23292 6.46254,60.28981 -1.98914,10.15714 -4.92306,19.55904 -8.50763,28.3043 8.54339,-13.19688 22.06793,-20.93359 34.03059,-25.35936 a 3.9270002,3.9270002 0 0 1 2.53593,-0.0818 c 8.93064,2.67643 17.79685,3.34313 25.76838,2.37233 a 3.9270002,3.9270002 0 0 1 4.09019,2.37233 c 0,0 1.51858,3.49636 3.4358,6.70793 0.78422,1.31366 1.62875,2.32315 2.37231,3.19036 0.21553,-1.10345 0.42043,-2.27553 0.49084,-3.76299 0.18357,-3.88182 -0.16363,-7.85323 -0.16363,-7.85323 a 3.9270002,3.9270002 0 0 1 2.37233,-3.9266 c 1.33337,-0.5621 2.60612,-1.12734 3.6812,-1.71788 a 3.9270002,3.9270002 0 0 1 3.59937,-0.0818 c 0,0 6.92408,3.23226 14.15216,6.05351 3.61403,1.41061 7.32961,2.77172 10.06192,3.43578 0.37143,0.0902 0.48711,0.0981 0.81804,0.16363 -0.87583,-1.60019 -2.28605,-3.62314 -3.92661,-5.64448 -3.56253,-4.38955 -7.68959,-8.42587 -7.68959,-8.42587 a 3.9270002,3.9270002 0 0 1 3.35397,-6.62614 c 0,0 6.21063,0.92917 12.35246,1.30885 2.3646,0.14595 4.41713,0.0918 6.29893,0 -1.99163,-1.3476 -4.6931,-2.81841 -7.52599,-4.172 -6.10008,-2.91473 -12.27067,-5.23547 -12.27067,-5.23547 a 3.9270002,3.9270002 0 0 1 -0.89983,-6.87157 c 0,0 5.10362,-3.60956 9.89832,-7.60781 2.39735,-1.99913 4.72322,-4.07948 6.13533,-5.72629 0.21666,-0.25268 0.2402,-0.34881 0.409,-0.57264 -0.26106,-0.0619 -0.33621,-0.1115 -0.65443,-0.16363 -2.00438,-0.32755 -4.91991,-0.40837 -7.8532,-0.32721 -5.8666,0.1625 -11.69804,0.98164 -11.69804,0.98164 a 3.9270002,3.9270002 0 0 1 -3.9266,-2.04509 c -5.83957,-10.60444 -16.93938,-20.36937 -31.49465,-26.09559 -8.42339,-3.31384 -16.9482,-4.86598 -24.86851,-4.82645 z m -41.1476,117.3074 c -13.26454,21.94011 -32.48166,36.40645 -55.87234,39.02065 -5.88018,0.65719 -11.19548,2.07131 -16.27906,3.76299 21.42588,34.37811 59.28741,57.42664 102.82805,57.42664 7.36816,0 14.51969,-0.87603 21.51454,-2.12693 -3.40256,-3.16224 -5.83417,-7.24639 -6.87159,-11.94341 -19.57964,-9.48213 -35.83187,-23.65272 -44.66515,-42.70185 -6.23894,-13.45433 -5.64806,-28.8767 -0.65445,-43.43809 z"
       style="fill:#afc1c9;fill-opacity:1;stroke:none" />
    <path
       sodipodi:nodetypes="cccssscccccscscccccccscc"
       inkscape:connector-curvature="0"
       id="path3226"
       d="m 206.95229,497.80334 c 0,0 13.50373,28.11855 18.5435,25.74924 1.55225,-0.80645 1.17641,-3.75779 0.375,-6.59375 -0.26069,-0.0943 -0.51116,-0.19823 -0.75,-0.3125 -1.11943,-0.53559 -2.18102,-1.30565 -3.28125,-2.25 -2.20045,-1.88871 -4.54363,-4.46612 -6.75,-7.09375 -4.10602,-4.88999 -7.42456,-9.5688 -8.13725,-9.49924 z m 40.69975,-0.40701 c -0.54747,0.2928 -1.11033,0.4925 -1.65625,0.625 -1.42286,0.3453 -2.89308,0.3834 -4.28125,0.3125 -0.60725,-0.031 -0.59849,-0.0937 -1.15625,-0.15625 0.42239,0.90033 0.54648,0.96472 0.96875,2.0625 0.19075,0.4959 0.3599,0.99313 0.53125,1.5 2.73771,0.0667 5.46739,-0.38099 6.1875,-2.15625 0.26913,-0.66347 0.02,-1.39094 -0.59375,-2.1875 z m -17.15625,11.09375 c 0.38784,1.32995 0.7249,2.7305 0.75,4.125 0.0113,0.62881 -0.0458,1.273 -0.25,1.9375 3.4114,1.40744 6.98822,2.43633 8.3125,1.125 1.05701,-0.83712 1.00733,-2.77705 0.46875,-4.96875 -1.09015,0.31494 -2.23043,0.17425 -3.28125,-0.0312 -1.64453,-0.32161 -3.35397,-0.96584 -4.96875,-1.65625 -0.5504,-0.23533 -0.51493,-0.2891 -1.03125,-0.53125 z"
       style="fill:#41210f;fill-opacity:1;stroke:none"
       transform="matrix(2.2663323,0,0,2.2663323,-50.475913,-663.6621)" />
    <path
       inkscape:connector-curvature="0"
       id="path3228"
       d="m 463.05128,421.53448 a 4.9462523,4.9462523 0 0 0 -3.3995,8.0738 l -33.35758,26.27529 a 4.9649317,4.9649317 0 0 0 -8.00298,5.8783 c 0,0 8.69653,12.38209 18.69724,24.29225 5.00037,5.95509 10.31079,11.79635 15.29774,16.0768 2.49349,2.14021 4.8994,3.88542 7.4364,5.09925 2.53701,1.21382 5.66797,2.16799 8.92369,0.6374 a 4.9462523,4.9462523 0 0 0 0.21235,-0.0707 c 1.99669,-1.03734 3.32127,-2.93354 3.96609,-4.67431 0.64481,-1.74077 0.8084,-3.39975 0.77905,-5.02842 -0.0569,-3.1604 -0.82078,-6.33452 -1.69975,-9.34862 1.17015,0.54879 1.08976,0.67065 2.33715,1.20398 3.65963,1.5647 7.53379,3.02474 11.26084,3.75362 3.58298,0.7007 7.62313,1.13042 11.04837,-1.91222 l 0.0707,0.0707 c 0.10153,-0.0805 0.11626,-0.2008 0.21236,-0.28329 0.0397,-0.034 0.10289,-0.0365 0.14164,-0.0707 3.34148,-2.96468 3.41666,-7.20617 2.97456,-10.69426 -0.45968,-3.62676 -1.70063,-7.2691 -3.04538,-10.76508 -0.95701,-2.48793 -1.23823,-2.63386 -2.19551,-4.67431 1.26407,0.14165 1.24422,0.28386 2.62045,0.35412 3.14605,0.16068 6.47806,0.0743 9.70273,-0.70823 3.22468,-0.78268 6.97668,-2.58876 8.56957,-6.51571 1.32594,-3.26877 -0.0261,-6.48896 -1.5581,-8.64039 -1.53207,-2.15143 -3.52385,-3.9358 -5.8783,-5.73665 -4.70892,-3.60168 -10.91785,-7.14942 -17.20996,-10.41097 -12.5842,-6.52309 -25.49624,-11.82742 -25.49624,-11.82742 a 4.9462523,4.9462523 0 0 0 -2.40798,-0.35411 z"
       style="fill:#9b4f18;fill-opacity:1;stroke:none" />
    <path
       id="path3338"
       d="m 396.44598,289.12151 c -74.25995,0 -134.33628,60.07631 -134.33628,134.33628 0,32.503 11.53334,62.33462 30.72392,85.55213 -11.66324,-20.08253 -18.49191,-43.33064 -18.49191,-68.21146 0,-75.14767 60.98437,-136.20705 136.1351,-136.20705 34.0259,0 65.12311,12.57842 89.00587,33.2423 -24.64776,-29.58868 -61.49225,-48.7122 -103.0367,-48.7122 z"
       style="opacity:0.56875;fill:#fdb859;fill-opacity:1;fill-rule:nonzero;stroke:none"
       inkscape:connector-curvature="0" />
    <path
       id="path3230"
       d="m 293.35074,277.23286 a 4.0626087,4.0626087 0 0 0 -3.4698,3.63905 c -2.26304,19.80187 7.94137,35.57004 13.28678,42.5685 -20.14619,15.08883 -36.75313,42.44856 -42.99164,74.30444 -4.46082,22.77846 -2.64762,43.39444 3.97757,59.24046 -2.93234,3.31877 -8.40709,9.83511 -13.54065,18.27992 -5.84535,9.61564 -11.11387,21.04987 -7.53202,31.39742 a 4.0626087,4.0626087 0 0 0 6.68572,1.52334 c 0,0 22.02136,-21.60841 54.33194,-25.21952 36.07326,-4.03162 62.39943,-36.73584 71.59632,-83.69828 9.26517,-47.31089 -11.1562,-80.28734 -39.94499,-89.02994 -24.7789,-7.5249 -38.25241,-30.9743 -38.25241,-30.9743 a 4.0626087,4.0626087 0 0 0 -3.72367,-2.03109 4.0626087,4.0626087 0 0 0 -0.42315,0 z"
       style="fill:url(#linearGradient3100);fill-opacity:1;fill-rule:nonzero;stroke:none"
       inkscape:connector-curvature="0" />
    <path
       sodipodi:nodetypes="ccscccscc"
       inkscape:connector-curvature="0"
       id="path3232"
       d="m 293.94314,281.29506 c -2.39366,20.94465 11.27033,38.65329 14.72549,42.73774 -20.39955,13.58272 -38.11996,41.81868 -44.51498,74.47372 -4.56206,23.29541 -2.47325,44.32191 4.56999,59.4097 -4.36309,4.80869 -27.41847,31.26048 -21.83434,47.39237 0,0 22.85177,-22.61922 56.73643,-26.40626 33.88463,-3.78702 59.10449,-34.50444 68.09166,-80.39581 8.98716,-45.89137 -10.51554,-76.26682 -37.12402,-84.34733 -26.60849,-8.0805 -40.65023,-32.86413 -40.65023,-32.86413 z"
       style="opacity:0.26213594;fill:#eb9e46;fill-opacity:1;fill-rule:nonzero;stroke:none" />
    <path
       sodipodi:type="arc"
       style="fill:#884414;fill-opacity:1;fill-rule:nonzero;stroke:none"
       id="path3236"
       sodipodi:cx="208.09143"
       sodipodi:cy="446.73996"
       sodipodi:rx="8.0812206"
       sodipodi:ry="8.0812206"
       d="m 216.17265,446.73996 c 0,4.46313 -3.61808,8.08122 -8.08122,8.08122 -4.46313,0 -8.08122,-3.61809 -8.08122,-8.08122 0,-4.46314 3.61809,-8.08122 8.08122,-8.08122 4.46314,0 8.08122,3.61808 8.08122,8.08122 z"
       transform="matrix(3.4844157,1.3708101,-1.0073192,2.5604705,152.13354,-1056.2485)" />
    <path
       transform="matrix(2.5201246,0.99144663,-0.72854966,1.8518757,225.78009,-664.10936)"
       d="m 216.17265,446.73996 c 0,4.46313 -3.61808,8.08122 -8.08122,8.08122 -4.46313,0 -8.08122,-3.61809 -8.08122,-8.08122 0,-4.46314 3.61809,-8.08122 8.08122,-8.08122 4.46314,0 8.08122,3.61808 8.08122,8.08122 z"
       sodipodi:ry="8.0812206"
       sodipodi:rx="8.0812206"
       sodipodi:cy="446.73996"
       sodipodi:cx="208.09143"
       id="path3238"
       style="fill:#afc1c9;fill-opacity:1;fill-rule:nonzero;stroke:none"
       sodipodi:type="arc" />
    <path
       transform="matrix(2.7096296,0,-0.50656024,2.5866575,132.34973,-764.26271)"
       d="m 170.71578,449.51788 c 0,16.24839 -8.14069,29.4203 -18.18274,29.4203 -10.04206,0 -18.18275,-13.17191 -18.18275,-29.4203 0,-16.24838 8.14069,-29.4203 18.18275,-29.4203 10.04205,0 18.18274,13.17192 18.18274,29.4203 z"
       sodipodi:ry="29.420301"
       sodipodi:rx="18.182745"
       sodipodi:cy="449.51788"
       sodipodi:cx="152.53304"
       id="path3240"
       style="fill:#afc1c9;fill-opacity:1;fill-rule:nonzero;stroke:none"
       sodipodi:type="arc" />
    <path
       sodipodi:type="arc"
       style="fill:#616b75;fill-opacity:1;fill-rule:nonzero;stroke:none"
       id="path3242"
       sodipodi:cx="152.53304"
       sodipodi:cy="449.51788"
       sodipodi:rx="18.182745"
       sodipodi:ry="29.420301"
       d="m 170.71578,449.51788 c 0,16.24839 -8.14069,29.4203 -18.18274,29.4203 -10.04206,0 -18.18275,-13.17191 -18.18275,-29.4203 0,-16.24838 8.14069,-29.4203 18.18275,-29.4203 10.04205,0 18.18274,13.17192 18.18274,29.4203 z"
       transform="matrix(2.2721398,0,-0.42477232,2.1690224,164.80297,-575.44371)" />
    <path
       inkscape:connector-curvature="0"
       id="path3244"
       d="m 358.50723,399.44952 c 0.14346,-0.65991 0.33777,-1.28503 0.46807,-1.95029 0.79527,-4.06093 1.31764,-8.0286 1.56023,-11.85788 0.24266,-3.82929 0.19626,-7.55897 -0.078,-11.07774 -0.27446,-3.5188 -0.80435,-6.85614 -1.56024,-9.98558 -0.75593,-3.12946 -1.68472,-6.07613 -2.88647,-8.73739 -1.20176,-2.66126 -2.67864,-5.06292 -4.29066,-7.17713 -1.61204,-2.11424 -3.39619,-3.89454 -5.38286,-5.38284 -1.98666,-1.48834 -4.14933,-2.64898 -6.47504,-3.43256 -2.32569,-0.78361 -4.78201,-1.1702 -7.41116,-1.1702 -2.62913,0 -5.32466,0.38659 -7.95725,1.1702 -2.63262,0.78358 -5.23165,1.94422 -7.80126,3.43256 -2.56957,1.4883 -5.04907,3.2686 -7.48919,5.38284 -2.44007,2.11421 -4.855,4.51587 -7.0991,7.17713 -2.24412,2.66126 -4.33738,5.60793 -6.31899,8.73739 -1.28245,2.02522 -2.361,4.28088 -3.51055,6.47503 l 43.29685,35.57362 c 0,0 12.08239,-3.75092 22.93563,-7.17716 z"
       style="fill:#393f45;fill-opacity:1;stroke:none" />
    <path
       transform="matrix(0.83634375,0,-0.15635293,0.79838769,274.41273,50.248575)"
       d="m 170.71578,449.51788 c 0,16.24839 -8.14069,29.4203 -18.18274,29.4203 -10.04206,0 -18.18275,-13.17191 -18.18275,-29.4203 0,-16.24838 8.14069,-29.4203 18.18275,-29.4203 10.04205,0 18.18274,13.17192 18.18274,29.4203 z"
       sodipodi:ry="29.420301"
       sodipodi:rx="18.182745"
       sodipodi:cy="449.51788"
       sodipodi:cx="152.53304"
       id="path3246"
       style="fill:#393f45;fill-opacity:1;fill-rule:nonzero;stroke:none"
       sodipodi:type="arc" />
    <path
       inkscape:connector-curvature="0"
       id="path3248"
       d="m 436.79371,382.27625 c 1.79664,-0.7955 3.27803,-1.94265 4.24176,-3.43605 3.58622,-5.55721 -1.02434,-13.72709 -10.29991,-18.28706 -9.27558,-4.56 -19.68509,-3.75921 -23.27134,1.79799 -0.55409,0.85876 -0.85785,1.81058 -1.03354,2.77239 4.88891,-2.16467 12.2547,-1.75748 19.0376,1.57714 7.84231,3.85544 12.28668,10.31317 11.32543,15.57573 z"
       style="fill:#41210f;fill-opacity:1;fill-rule:nonzero;stroke:none" />
    <path
       sodipodi:type="arc"
       style="fill:#616b75;fill-opacity:1;fill-rule:nonzero;stroke:none"
       id="path3250"
       sodipodi:cx="152.53304"
       sodipodi:cy="449.51788"
       sodipodi:rx="18.182745"
       sodipodi:ry="29.420301"
       d="m 170.71578,449.51788 c 0,16.24839 -8.14069,29.4203 -18.18274,29.4203 -10.04206,0 -18.18275,-13.17191 -18.18275,-29.4203 0,-16.24838 8.14069,-29.4203 18.18275,-29.4203 10.04205,0 18.18274,13.17192 18.18274,29.4203 z"
       transform="matrix(0.67726052,0,-0.12661262,0.64652418,284.50658,116.88308)" />
    <path
       id="path3252"
       d="m 202.76506,279.71622 -9.03064,9.77605 57.82892,53.60374 c 2.23909,-3.99688 4.60711,-7.83863 7.12503,-11.51616 l -55.92331,-51.86363 z m -23.69494,77.0499 -3.31401,12.84161 59.40297,15.40981 c 1.05915,-4.34207 2.28156,-8.59264 3.64533,-12.75857 l -59.73429,-15.49285 z m 51.44946,67.52211 c -5.25442,1.28018 -11.2704,2.87647 -17.23276,4.55657 -13.11538,3.69632 -25.51738,7.5393 -25.51738,7.5393 l 3.89371,12.67596 c 0,0 12.26347,-3.81449 25.1863,-7.45628 5.03253,-1.41814 9.97882,-2.7688 14.49863,-3.89386 -0.52082,-4.35097 -0.76155,-8.83482 -0.82938,-13.42169 z"
       style="font-size:medium;font-style:normal;font-variant:normal;font-weight:normal;font-stretch:normal;text-indent:0;text-align:start;text-decoration:none;line-height:normal;letter-spacing:normal;word-spacing:normal;text-transform:none;direction:ltr;block-progression:tb;writing-mode:lr-tb;text-anchor:start;color:#000000;fill:#afc1c9;fill-opacity:1;stroke:none;stroke-width:5;marker:none;visibility:visible;display:inline;overflow:visible;enable-background:accumulate;font-family:Andale Mono;-inkscape-font-specification:Andale Mono"
       inkscape:connector-curvature="0" />
  </g>
</svg>
