<?xml version="1.0" encoding="UTF-8" standalone="no"?>
<!-- Created using Karbon, part of Calligra: http://www.calligra.org/karbon -->

<svg
   xmlns:dc="http://purl.org/dc/elements/1.1/"
   xmlns:cc="http://creativecommons.org/ns#"
   xmlns:rdf="http://www.w3.org/1999/02/22-rdf-syntax-ns#"
   xmlns:svg="http://www.w3.org/2000/svg"
   xmlns="http://www.w3.org/2000/svg"
   xmlns:sodipodi="http://sodipodi.sourceforge.net/DTD/sodipodi-0.dtd"
   xmlns:inkscape="http://www.inkscape.org/namespaces/inkscape"
   width="38.4pt"
   height="38.4pt"
   id="svg2"
   version="1.1"
   inkscape:version="0.48.5 r10040"
   sodipodi:docname="kipi-debianscreenshots.svg">
  <metadata
     id="metadata12">
    <rdf:RDF>
      <cc:Work
         rdf:about="">
        <dc:format>image/svg+xml</dc:format>
        <dc:type
           rdf:resource="http://purl.org/dc/dcmitype/StillImage" />
        <dc:title></dc:title>
      </cc:Work>
    </rdf:RDF>
  </metadata>
  <sodipodi:namedview
     pagecolor="#ffffff"
     bordercolor="#666666"
     borderopacity="1"
     objecttolerance="10"
     gridtolerance="10"
     guidetolerance="10"
     inkscape:pageopacity="0"
     inkscape:pageshadow="2"
     inkscape:window-width="1680"
     inkscape:window-height="988"
     id="namedview10"
     showgrid="false"
     inkscape:zoom="12.605094"
     inkscape:cx="10.331378"
     inkscape:cy="28.21242"
     inkscape:window-x="0"
     inkscape:window-y="-3"
     inkscape:window-maximized="1"
     inkscape:current-layer="svg2" />
  <defs
     id="defs4" />
  <g
     id="g3808"
     style="fill:#5599ff;fill-opacity:1">
    <rect
       y="0"
       x="0"
       style="fill:#5599ff;fill-rule:evenodd;stroke:none;fill-opacity:1"
       height="40.004005"
       width="40.004005"
       stroke-miterlimit="2.00000000000"
       transform="translate(4.00394,4.00394)"
       id="rect3810" />
    <path
       style="fill:#5599ff;fill-rule:evenodd;stroke:none;fill-opacity:1"
       d="M 4 4 L 4 44 L 44 44 L 44 4 L 4 4 z M 5.4375 5.4375 L 42.59375 5.4375 L 42.59375 42.59375 L 5.4375 42.59375 L 5.4375 5.4375 z "
       id="rect3812" />
  </g>
  <g
     style="fill:#ffffff;fill-opacity:1"
     id="g3038"
     transform="matrix(0.92860744,0,0,0.92860744,1.7138457,1.7138457)">
    <rect
       id="rect3040"
       transform="translate(4.00394,4.00394)"
       stroke-miterlimit="2.00000000000"
       width="40.004005"
       height="40.004005"
       style="fill:#ffffff;fill-opacity:1;fill-rule:evenodd;stroke:none"
       x="0"
       y="0" />
  </g>
  <g
     id="g3026"
     transform="translate(0.91153209,0.14187525)">
    <path
       inkscape:connector-curvature="0"
       id="path2999"
       d="m 11.866476,14.942788 c -5.1192994,6.07289 -5.7738942,14.601157 -0.203265,19.729839 5.942005,5.470595 15.360858,5.38668 22.134706,0.377627 8.416707,-6.116097 9.285386,-16.082544 3.378549,-21.890758 -8.14718,-7.7639673 -20.417264,-3.1954617 -24.211719,0.609446 -0.380296,0.381345 -0.756983,0.768985 -1.098271,1.173846 z m 3.129859,1.326849 c 0.29105,-0.345265 0.59606,-0.676261 0.920378,-1.001473 3.235919,-3.244836 13.697204,-7.1526846 20.645138,-0.531557 5.037365,4.95326 4.316677,13.453657 -2.861112,18.66948 -5.776753,4.271732 -13.810197,4.345127 -18.877552,-0.320209 -4.750646,-4.373751 -4.192602,-11.637267 0.173148,-16.816241 z"
       style="color:#000000;fill:#5599ff;fill-opacity:1;fill-rule:nonzero;stroke:none;stroke-width:2.5999999;marker:none;visibility:visible;display:inline;overflow:visible;enable-background:accumulate" />
    <g
       id="g3010">
      <rect
         style="color:#000000;fill:#d45500;fill-opacity:1;fill-rule:nonzero;stroke:none;stroke-width:2.5999999;marker:none;visibility:visible;display:inline;overflow:visible;enable-background:accumulate"
         id="rect3006"
         width="8.9571924"
         height="8.3081207"
         x="5.2000308"
         y="22.188026"
         ry="1.2332367" />
      <rect
         ry="1.0919248"
         y="22.664024"
         x="5.7132163"
         height="7.3561244"
         width="7.9308219"
         id="rect3008"
         style="color:#000000;fill:#ff7f2a;fill-opacity:1;fill-rule:nonzero;stroke:none;stroke-width:2.5999999;marker:none;visibility:visible;display:inline;overflow:visible;enable-background:accumulate" />
    </g>
    <g
       transform="matrix(0.66343759,0,0,0.66343759,28.247359,15.688395)"
       id="g3014">
      <rect
         ry="1.2332367"
         y="22.188026"
         x="5.2000308"
         height="8.3081207"
         width="8.9571924"
         id="rect3016"
         style="color:#000000;fill:#d45500;fill-opacity:1;fill-rule:nonzero;stroke:none;stroke-width:2.5999999;marker:none;visibility:visible;display:inline;overflow:visible;enable-background:accumulate" />
      <rect
         style="color:#000000;fill:#ff7f2a;fill-opacity:1;fill-rule:nonzero;stroke:none;stroke-width:2.5999999;marker:none;visibility:visible;display:inline;overflow:visible;enable-background:accumulate"
         id="rect3018"
         width="7.9308219"
         height="7.3561244"
         x="5.7132163"
         y="22.664024"
         ry="1.0919248" />
    </g>
    <g
       id="g3020"
       transform="matrix(0.51065597,0,0,0.51065597,32.978728,2.0217209)">
      <rect
         style="color:#000000;fill:#d45500;fill-opacity:1;fill-rule:nonzero;stroke:none;stroke-width:2.5999999;marker:none;visibility:visible;display:inline;overflow:visible;enable-background:accumulate"
         id="rect3022"
         width="8.9571924"
         height="8.3081207"
         x="5.2000308"
         y="22.188026"
         ry="1.2332367" />
      <rect
         ry="1.0919248"
         y="22.664024"
         x="5.7132163"
         height="7.3561244"
         width="7.9308219"
         id="rect3024"
         style="color:#000000;fill:#ff7f2a;fill-opacity:1;fill-rule:nonzero;stroke:none;stroke-width:2.5999999;marker:none;visibility:visible;display:inline;overflow:visible;enable-background:accumulate" />
    </g>
  </g>
</svg>
