<?xml version="1.0" encoding="UTF-8" standalone="no"?>
<!-- Created with Inkscape (http://www.inkscape.org/) -->

<svg
   xmlns:dc="http://purl.org/dc/elements/1.1/"
   xmlns:cc="http://creativecommons.org/ns#"
   xmlns:rdf="http://www.w3.org/1999/02/22-rdf-syntax-ns#"
   xmlns:svg="http://www.w3.org/2000/svg"
   xmlns="http://www.w3.org/2000/svg"
   xmlns:xlink="http://www.w3.org/1999/xlink"
   xmlns:sodipodi="http://sodipodi.sourceforge.net/DTD/sodipodi-0.dtd"
   xmlns:inkscape="http://www.inkscape.org/namespaces/inkscape"
   version="1.0"
   width="96"
   height="96"
   id="svg2408"
   inkscape:version="0.48.5 r10040"
   sodipodi:docname="azureus.svg">
  <sodipodi:namedview
     pagecolor="#ffffff"
     bordercolor="#666666"
     borderopacity="1"
     objecttolerance="10"
     gridtolerance="10"
     guidetolerance="10"
     inkscape:pageopacity="0"
     inkscape:pageshadow="2"
     inkscape:window-width="840"
     inkscape:window-height="985"
     id="namedview76"
     showgrid="false"
     inkscape:zoom="2.7055523"
     inkscape:cx="97.397372"
     inkscape:cy="111.3486"
     inkscape:window-x="840"
     inkscape:window-y="0"
     inkscape:window-maximized="0"
     inkscape:current-layer="svg2408" />
  <defs
     id="defs2410">
    <linearGradient
       id="linearGradient3687">
      <stop
         id="stop3689"
         style="stop-color:#ffffff;stop-opacity:1"
         offset="0" />
      <stop
         id="stop3691"
         style="stop-color:#ffffff;stop-opacity:0"
         offset="1" />
    </linearGradient>
    <linearGradient
       x1="58.650177"
       y1="122"
       x2="58.650177"
       y2="5.4252338"
       id="linearGradient3677"
       gradientUnits="userSpaceOnUse"
       gradientTransform="matrix(1.0172414,0,0,1.0172414,-1.1034483,-1.1034483)">
      <stop
         id="stop3679"
         style="stop-color:#2782e9;stop-opacity:1"
         offset="0" />
      <stop
         id="stop3681"
         style="stop-color:#193693;stop-opacity:1"
         offset="1" />
    </linearGradient>
    <linearGradient
       x1="45.447727"
       y1="92.539597"
       x2="45.447727"
       y2="7.0165396"
       id="ButtonShadow"
       gradientUnits="userSpaceOnUse"
       gradientTransform="scale(1.0058652,0.994169)">
      <stop
         id="stop3750"
         style="stop-color:#000000;stop-opacity:1"
         offset="0" />
      <stop
         id="stop3752"
         style="stop-color:#000000;stop-opacity:0.58823532"
         offset="1" />
    </linearGradient>
    <linearGradient
       id="linearGradient3737">
      <stop
         id="stop3739"
         style="stop-color:#ffffff;stop-opacity:1"
         offset="0" />
      <stop
         id="stop3741"
         style="stop-color:#ffffff;stop-opacity:0"
         offset="1" />
    </linearGradient>
    <filter
       color-interpolation-filters="sRGB"
       id="filter3174">
      <feGaussianBlur
         id="feGaussianBlur3176"
         stdDeviation="1.71" />
    </filter>
    <linearGradient
       x1="36.357143"
       y1="6"
       x2="36.357143"
       y2="63.893143"
       id="linearGradient3188"
       xlink:href="#linearGradient3737"
       gradientUnits="userSpaceOnUse" />
    <filter
       x="-0.192"
       y="-0.192"
       width="1.3839999"
       height="1.3839999"
       color-interpolation-filters="sRGB"
       id="filter3794">
      <feGaussianBlur
         id="feGaussianBlur3796"
         stdDeviation="5.28" />
    </filter>
    <linearGradient
       x1="48"
       y1="20.220806"
       x2="48"
       y2="138.66119"
       id="linearGradient3613"
       xlink:href="#linearGradient3737"
       gradientUnits="userSpaceOnUse" />
    <radialGradient
       cx="48"
       cy="90.171875"
       r="42"
       fx="48"
       fy="90.171875"
       id="radialGradient3619"
       xlink:href="#linearGradient3737"
       gradientUnits="userSpaceOnUse"
       gradientTransform="matrix(1.1573129,0,0,0.99590774,-7.5510206,0.19713193)" />
    <clipPath
       id="clipPath3613">
      <rect
         width="84"
         height="84"
         rx="6"
         ry="6"
         x="6"
         y="6"
         id="rect3615"
         style="fill:#ffffff;fill-opacity:1;fill-rule:nonzero;stroke:none" />
    </clipPath>
    <linearGradient
       x1="48"
       y1="90"
       x2="48"
       y2="5.9877172"
       id="linearGradient3617"
       xlink:href="#ButtonColor"
       gradientUnits="userSpaceOnUse" />
    <linearGradient
       x1="58.650177"
       y1="122"
       x2="58.650177"
       y2="5.4252338"
       id="ButtonColor"
       gradientUnits="userSpaceOnUse"
       gradientTransform="matrix(1.0172414,0,0,1.0172414,-1.1034483,-1.1034483)">
      <stop
         id="stop3189"
         style="stop-color:#183288;stop-opacity:1"
         offset="0" />
      <stop
         id="stop3191"
         style="stop-color:#5072e1;stop-opacity:1"
         offset="1" />
    </linearGradient>
    <linearGradient
       id="linearGradient3374">
      <stop
         id="stop3376"
         style="stop-color:#000000;stop-opacity:1"
         offset="0" />
      <stop
         id="stop3378"
         style="stop-color:#000000;stop-opacity:0"
         offset="1" />
    </linearGradient>
    <linearGradient
       id="linearGradient8650">
      <stop
         id="stop8652"
         style="stop-color:#ffffff;stop-opacity:1"
         offset="0" />
      <stop
         id="stop8654"
         style="stop-color:#ffffff;stop-opacity:0"
         offset="1" />
    </linearGradient>
    <linearGradient
       x1="48"
       y1="90"
       x2="48"
       y2="5.9877172"
       id="linearGradient3839"
       xlink:href="#ButtonColor"
       gradientUnits="userSpaceOnUse"
       gradientTransform="translate(0,-100)" />
    <linearGradient
       x1="48.800022"
       y1="16"
       x2="59.752357"
       y2="56.874668"
       id="linearGradient2943"
       xlink:href="#linearGradient3374"
       gradientUnits="userSpaceOnUse"
       gradientTransform="matrix(-0.67083322,0,0,-0.7083333,90.936318,93.33333)" />
    <linearGradient
       x1="48.800022"
       y1="16"
       x2="59.752357"
       y2="56.874668"
       id="linearGradient2947"
       xlink:href="#linearGradient8650"
       gradientUnits="userSpaceOnUse"
       gradientTransform="matrix(0.67083322,0,0,0.7083333,5.0666738,2.6666673)" />
    <radialGradient
       cx="48"
       cy="66.450142"
       r="23"
       fx="48"
       fy="66.450142"
       id="radialGradient3683"
       xlink:href="#linearGradient3677"
       gradientUnits="userSpaceOnUse"
       gradientTransform="matrix(1.3301229,-7.4935036e-8,9.5652174e-8,1.6978593,-15.845903,-37.548861)" />
    <linearGradient
       x1="35.102802"
       y1="6.8540382"
       x2="35.102802"
       y2="34.885773"
       id="linearGradient3703"
       xlink:href="#linearGradient3687"
       gradientUnits="userSpaceOnUse" />
    <linearGradient
       x1="62.339497"
       y1="48"
       x2="62.339497"
       y2="-6.5482373"
       id="linearGradient3725"
       xlink:href="#linearGradient3687"
       gradientUnits="userSpaceOnUse" />
    <linearGradient
       x1="45.447727"
       y1="92.539597"
       x2="45.447727"
       y2="7.0165396"
       id="ButtonShadow-0"
       gradientUnits="userSpaceOnUse"
       gradientTransform="matrix(1.0058652,0,0,0.994169,100,0)">
      <stop
         id="stop3750-8"
         style="stop-color:#000000;stop-opacity:1"
         offset="0" />
      <stop
         id="stop3752-5"
         style="stop-color:#000000;stop-opacity:0.58823532"
         offset="1" />
    </linearGradient>
    <linearGradient
       x1="32.251034"
       y1="6.1317081"
       x2="32.251034"
       y2="90.238609"
       id="linearGradient3780"
       xlink:href="#ButtonShadow-0"
       gradientUnits="userSpaceOnUse"
       gradientTransform="matrix(1.0238095,0,0,1.0119048,-1.1428571,-98.071429)" />
    <linearGradient
       x1="32.251034"
       y1="6.1317081"
       x2="32.251034"
       y2="90.238609"
       id="linearGradient3772"
       xlink:href="#ButtonShadow-0"
       gradientUnits="userSpaceOnUse"
       gradientTransform="matrix(1.0238095,0,0,1.0119048,-1.1428571,-98.071429)" />
    <linearGradient
       x1="32.251034"
       y1="6.1317081"
       x2="32.251034"
       y2="90.238609"
       id="linearGradient3725-0"
       xlink:href="#ButtonShadow-0"
       gradientUnits="userSpaceOnUse"
       gradientTransform="matrix(1.0238095,0,0,1.0119048,-1.1428571,-98.071429)" />
    <linearGradient
       x1="32.251034"
       y1="6.1317081"
       x2="32.251034"
       y2="90.238609"
       id="linearGradient3721"
       xlink:href="#ButtonShadow-0"
       gradientUnits="userSpaceOnUse"
       gradientTransform="translate(0,-97)" />
    <linearGradient
       x1="32.251034"
       y1="6.1317081"
       x2="32.251034"
       y2="90.238609"
       id="linearGradient3122"
       xlink:href="#ButtonShadow-0"
       gradientUnits="userSpaceOnUse"
       gradientTransform="matrix(1.0238095,0,0,1.0119048,-1.1428571,-98.071429)" />
  </defs>
  <metadata
     id="metadata2413">
    <rdf:RDF>
      <cc:Work
         rdf:about="">
        <dc:format>image/svg+xml</dc:format>
        <dc:type
           rdf:resource="http://purl.org/dc/dcmitype/StillImage" />
        <dc:title></dc:title>
      </cc:Work>
    </rdf:RDF>
  </metadata>
  <g
     id="layer2"
     style="display:none">
    <rect
       width="86"
       height="85"
       rx="6"
       ry="6"
       x="5"
       y="7"
       id="rect3745"
       style="opacity:0.9;fill:url(#ButtonShadow);fill-opacity:1;fill-rule:nonzero;stroke:none;filter:url(#filter3174)" />
  </g>
  <g
     id="layer1"
     transform="translate(0.18480515,0)"
     style="fill:#0088aa;fill-opacity:1">
    <rect
       width="84"
       height="84"
       rx="0"
       ry="0.27104032"
       x="6"
       y="6"
       id="rect2419"
       style="fill:#0088aa;fill-opacity:1;fill-rule:nonzero;stroke:none" />
  </g>
  <g
     id="layer5" />
  <path
     transform="matrix(0.82147299,0,0,0.82175264,-19.586257,12.388862)"
     sodipodi:type="arc"
     style="color:#000000;fill:#0088aa;fill-opacity:1;fill-rule:nonzero;stroke:#ffffff;stroke-width:1.21711833;stroke-miterlimit:4;stroke-opacity:1;stroke-dasharray:none;marker:none;visibility:visible;display:inline;overflow:visible;enable-background:accumulate"
     id="path3809"
     sodipodi:cx="50.729015"
     sodipodi:cy="49.891113"
     sodipodi:rx="16.17045"
     sodipodi:ry="15.80084"
     d="m 66.899466,49.891113 a 16.17045,15.80084 0 1 1 -32.340901,0 16.17045,15.80084 0 1 1 32.340901,0 z" />
  <path
     d="m 66.899466,49.891113 a 16.17045,15.80084 0 1 1 -32.340901,0 16.17045,15.80084 0 1 1 32.340901,0 z"
     sodipodi:ry="15.80084"
     sodipodi:rx="16.17045"
     sodipodi:cy="49.891113"
     sodipodi:cx="50.729015"
     id="path3815"
     style="color:#000000;fill:#0088aa;fill-opacity:1;fill-rule:nonzero;stroke:#ffffff;stroke-width:2.56538828;stroke-miterlimit:4;stroke-opacity:1;stroke-dasharray:none;marker:none;visibility:visible;display:inline;overflow:visible;enable-background:accumulate"
     sodipodi:type="arc"
     transform="matrix(0.38980454,0,0,0.38980454,14.506957,10.484375)" />
  <path
     d="m 66.899466,49.891113 a 16.17045,15.80084 0 1 1 -32.340901,0 16.17045,15.80084 0 1 1 32.340901,0 z"
     sodipodi:ry="15.80084"
     sodipodi:rx="16.17045"
     sodipodi:cy="49.891113"
     sodipodi:cx="50.729015"
     id="path3807"
     style="color:#000000;fill:#0088aa;fill-opacity:1;fill-rule:nonzero;stroke:#ffffff;stroke-width:1.12851985;stroke-miterlimit:4;stroke-opacity:1;stroke-dasharray:none;marker:none;visibility:visible;display:inline;overflow:visible;enable-background:accumulate"
     sodipodi:type="arc"
     transform="matrix(0.88352134,0,0,0.88871918,-8.2287473,0.93179493)" />
  <path
     transform="matrix(0.45782747,0,0,0.45782747,12.719467,37.39868)"
     sodipodi:type="arc"
     style="color:#000000;fill:#0088aa;fill-opacity:1;fill-rule:nonzero;stroke:#ffffff;stroke-width:2.18422892;stroke-miterlimit:4;stroke-opacity:1;stroke-dasharray:none;marker:none;visibility:visible;display:inline;overflow:visible;enable-background:accumulate"
     id="path3813"
     sodipodi:cx="50.729015"
     sodipodi:cy="49.891113"
     sodipodi:rx="16.17045"
     sodipodi:ry="15.80084"
     d="m 66.899466,49.891113 a 16.17045,15.80084 0 1 1 -32.340901,0 16.17045,15.80084 0 1 1 32.340901,0 z" />
  <path
     transform="matrix(0.73394098,0,0,0.73394098,25.694051,4.033723)"
     sodipodi:type="arc"
     style="color:#000000;fill:#0088aa;fill-opacity:1;fill-rule:nonzero;stroke:#ffffff;stroke-width:1.36250738;stroke-miterlimit:4;stroke-opacity:1;stroke-dasharray:none;marker:none;visibility:visible;display:inline;overflow:visible;enable-background:accumulate"
     id="path3817"
     sodipodi:cx="50.729015"
     sodipodi:cy="49.891113"
     sodipodi:rx="16.17045"
     sodipodi:ry="15.80084"
     d="m 66.899466,49.891113 a 16.17045,15.80084 0 1 1 -32.340901,0 16.17045,15.80084 0 1 1 32.340901,0 z" />
  <path
     d="m 66.899466,49.891113 a 16.17045,15.80084 0 1 1 -32.340901,0 16.17045,15.80084 0 1 1 32.340901,0 z"
     sodipodi:ry="15.80084"
     sodipodi:rx="16.17045"
     sodipodi:cy="49.891113"
     sodipodi:cx="50.729015"
     id="path3811"
     style="color:#000000;fill:#0088aa;fill-opacity:1;fill-rule:nonzero;stroke:#ffffff;stroke-width:1.09731703;stroke-miterlimit:4;stroke-opacity:1;stroke-dasharray:none;marker:none;visibility:visible;display:inline;overflow:visible;enable-background:accumulate"
     sodipodi:type="arc"
     transform="matrix(0.91131366,0,0,0.91131366,3.7597496,-11.098972)" />
  <path
     d="m 66.899466,49.891113 a 16.17045,15.80084 0 1 1 -32.340901,0 16.17045,15.80084 0 1 1 32.340901,0 z"
     sodipodi:ry="15.80084"
     sodipodi:rx="16.17045"
     sodipodi:cy="49.891113"
     sodipodi:cx="50.729015"
     id="path3821"
     style="color:#000000;fill:#0088aa;fill-opacity:1;fill-rule:nonzero;stroke:#ffffff;stroke-width:2.18422892;stroke-miterlimit:4;stroke-opacity:1;stroke-dasharray:none;marker:none;visibility:visible;display:inline;overflow:visible;enable-background:accumulate"
     sodipodi:type="arc"
     transform="matrix(0.45782747,0,0,0.45782747,58.551144,35.735434)" />
  <path
     transform="matrix(0.77828415,0,0,0.77828415,30.836772,13.648923)"
     sodipodi:type="arc"
     style="color:#000000;fill:#0088aa;fill-opacity:1;fill-rule:nonzero;stroke:#ffffff;stroke-width:1.28487777;stroke-miterlimit:4;stroke-opacity:1;stroke-dasharray:none;marker:none;visibility:visible;display:inline;overflow:visible;enable-background:accumulate"
     id="path3819"
     sodipodi:cx="50.729015"
     sodipodi:cy="49.891113"
     sodipodi:rx="16.17045"
     sodipodi:ry="15.80084"
     d="m 66.899466,49.891113 a 16.17045,15.80084 0 1 1 -32.340901,0 16.17045,15.80084 0 1 1 32.340901,0 z" />
  <path
     sodipodi:type="arc"
     style="color:#000000;fill:#0088aa;fill-opacity:1;fill-rule:nonzero;stroke:#ffffff;stroke-width:1.02584817;stroke-miterlimit:4;stroke-opacity:1;stroke-dasharray:none;marker:none;visibility:visible;display:inline;overflow:visible;enable-background:accumulate"
     id="path3037"
     sodipodi:cx="50.729015"
     sodipodi:cy="49.891113"
     sodipodi:rx="16.17045"
     sodipodi:ry="15.80084"
     d="m 66.899466,49.891113 a 16.17045,15.80084 0 1 1 -32.340901,0 16.17045,15.80084 0 1 1 32.340901,0 z"
     transform="matrix(0.97220767,0,0,0.97740551,1.8718903,0.75765376)" />
</svg>
