<?xml version="1.0" encoding="UTF-8" standalone="no"?>
<!-- Created with Inkscape (http://www.inkscape.org/) -->

<svg
   xmlns:dc="http://purl.org/dc/elements/1.1/"
   xmlns:cc="http://creativecommons.org/ns#"
   xmlns:rdf="http://www.w3.org/1999/02/22-rdf-syntax-ns#"
   xmlns:svg="http://www.w3.org/2000/svg"
   xmlns="http://www.w3.org/2000/svg"
   xmlns:xlink="http://www.w3.org/1999/xlink"
   xmlns:sodipodi="http://sodipodi.sourceforge.net/DTD/sodipodi-0.dtd"
   xmlns:inkscape="http://www.inkscape.org/namespaces/inkscape"
   version="1.0"
   width="96"
   height="96"
   id="svg2408"
   inkscape:version="0.48.4 r9939"
   sodipodi:docname="system_section.svg">
  <sodipodi:namedview
     pagecolor="#ffffff"
     bordercolor="#666666"
     borderopacity="1"
     objecttolerance="10"
     gridtolerance="10"
     guidetolerance="10"
     inkscape:pageopacity="0"
     inkscape:pageshadow="2"
     inkscape:window-width="1366"
     inkscape:window-height="707"
     id="namedview180"
     showgrid="false"
     inkscape:zoom="4.2076419"
     inkscape:cx="46.768848"
     inkscape:cy="42.694547"
     inkscape:window-x="-2"
     inkscape:window-y="-1"
     inkscape:window-maximized="1"
     inkscape:current-layer="svg2408"
     showguides="true"
     inkscape:guide-bbox="true">
    <sodipodi:guide
       orientation="0,1"
       position="41.353329,90.074205"
       id="guide3149" />
    <sodipodi:guide
       orientation="1,0"
       position="89.836542,33.748119"
       id="guide3151" />
    <sodipodi:guide
       orientation="0,1"
       position="66.070261,6.1792331"
       id="guide3153" />
    <sodipodi:guide
       orientation="1,0"
       position="5.7039075,46.344248"
       id="guide3155" />
  </sodipodi:namedview>
  <defs
     id="defs2410">
    <linearGradient
       id="linearGradient4132">
      <stop
         id="stop4134"
         style="stop-color:#7bb8f0;stop-opacity:1"
         offset="0" />
      <stop
         id="stop4136"
         style="stop-color:#b5d5f2;stop-opacity:0.1221374"
         offset="1" />
    </linearGradient>
    <linearGradient
       id="linearGradient4156">
      <stop
         id="stop4158"
         style="stop-color:#000000;stop-opacity:1"
         offset="0" />
      <stop
         id="stop4160"
         style="stop-color:#000000;stop-opacity:0"
         offset="1" />
    </linearGradient>
    <linearGradient
       x1="45.447727"
       y1="92.539597"
       x2="45.447727"
       y2="7.0165396"
       id="ButtonShadow"
       gradientUnits="userSpaceOnUse"
       gradientTransform="scale(1.0058652,0.994169)">
      <stop
         id="stop3750"
         style="stop-color:#000000;stop-opacity:1"
         offset="0" />
      <stop
         id="stop3752"
         style="stop-color:#000000;stop-opacity:0.58823532"
         offset="1" />
    </linearGradient>
    <filter
       color-interpolation-filters="sRGB"
       id="filter3174">
      <feGaussianBlur
         id="feGaussianBlur3176"
         stdDeviation="1.71" />
    </filter>
    <linearGradient
       id="linearGradient3737-6">
      <stop
         id="stop3739-73"
         style="stop-color:#ffffff;stop-opacity:1"
         offset="0" />
      <stop
         id="stop3741-6"
         style="stop-color:#ffffff;stop-opacity:0"
         offset="1" />
    </linearGradient>
    <clipPath
       id="clipPath3613">
      <rect
         width="84"
         height="84"
         rx="6"
         ry="6"
         x="6"
         y="6"
         id="rect3615"
         style="fill:#ffffff;fill-opacity:1;fill-rule:nonzero;stroke:none" />
    </clipPath>
    <linearGradient
       x1="48"
       y1="20.220806"
       x2="48"
       y2="138.66119"
       id="linearGradient2885"
       xlink:href="#linearGradient3737-6"
       gradientUnits="userSpaceOnUse" />
    <radialGradient
       cx="48"
       cy="41.752277"
       r="42"
       fx="48"
       fy="41.752277"
       id="radialGradient2977"
       xlink:href="#linearGradient3737-5"
       gradientUnits="userSpaceOnUse"
       gradientTransform="matrix(1.7146179,6.6254866e-8,-4.2857144e-8,1.1091053,-134.30166,-5.082394)" />
    <radialGradient
       cx="48"
       cy="90.171875"
       r="42"
       fx="48"
       fy="90.171875"
       id="radialGradient2855-1"
       xlink:href="#linearGradient3737-1-4"
       gradientUnits="userSpaceOnUse"
       gradientTransform="matrix(1.1573129,0,0,0.99590774,-7.551021,0.19713)" />
    <linearGradient
       id="linearGradient3737-1-4">
      <stop
         id="stop3739-7-1"
         style="stop-color:#ffffff;stop-opacity:1"
         offset="0" />
      <stop
         id="stop3741-2-0"
         style="stop-color:#ffffff;stop-opacity:0"
         offset="1" />
    </linearGradient>
    <linearGradient
       x1="36.357143"
       y1="6"
       x2="36.357143"
       y2="63.893143"
       id="linearGradient3188-9"
       xlink:href="#linearGradient3737-5"
       gradientUnits="userSpaceOnUse" />
    <linearGradient
       id="linearGradient3737-5">
      <stop
         id="stop3739-6"
         style="stop-color:#ffffff;stop-opacity:1"
         offset="0" />
      <stop
         id="stop3741-7"
         style="stop-color:#ffffff;stop-opacity:0"
         offset="1" />
    </linearGradient>
    <linearGradient
       id="linearGradient5226-7">
      <stop
         id="stop5228-2"
         style="stop-color:#227395;stop-opacity:1"
         offset="0" />
      <stop
         id="stop5230-4"
         style="stop-color:#44a2c9;stop-opacity:1"
         offset="1" />
    </linearGradient>
    <linearGradient
       id="linearGradient3424-7">
      <stop
         id="stop3426-4"
         style="stop-color:#ffffff;stop-opacity:1"
         offset="0" />
      <stop
         id="stop3432-0"
         style="stop-color:#ffffff;stop-opacity:1"
         offset="0.67213112" />
      <stop
         id="stop3428-2"
         style="stop-color:#ffffff;stop-opacity:0"
         offset="1" />
    </linearGradient>
    <filter
       color-interpolation-filters="sRGB"
       id="filter3434">
      <feGaussianBlur
         id="feGaussianBlur3436"
         stdDeviation="2.4779144" />
    </filter>
    <linearGradient
       id="linearGradient3700-1">
      <stop
         id="stop3702-4"
         style="stop-color:#2b91bc;stop-opacity:1"
         offset="0" />
      <stop
         id="stop3704-2"
         style="stop-color:#77bbd8;stop-opacity:1"
         offset="1" />
    </linearGradient>
    <filter
       x="-0.14399999"
       y="-0.14399999"
       width="1.288"
       height="1.288"
       color-interpolation-filters="sRGB"
       id="filter4123">
      <feGaussianBlur
         id="feGaussianBlur4125"
         stdDeviation="3.96" />
    </filter>
    <linearGradient
       x1="45.447727"
       y1="92.539597"
       x2="45.447727"
       y2="7.0165396"
       id="ButtonShadow-0"
       gradientUnits="userSpaceOnUse"
       gradientTransform="matrix(1.0058652,0,0,0.994169,100,0)">
      <stop
         id="stop3750-8"
         style="stop-color:#000000;stop-opacity:1"
         offset="0" />
      <stop
         id="stop3752-5"
         style="stop-color:#000000;stop-opacity:0.58823532"
         offset="1" />
    </linearGradient>
    <linearGradient
       x1="32.251034"
       y1="6.1317081"
       x2="32.251034"
       y2="90.238609"
       id="linearGradient3780"
       xlink:href="#ButtonShadow-0"
       gradientUnits="userSpaceOnUse"
       gradientTransform="matrix(1.0238095,0,0,1.0119048,-1.1428571,-98.071429)" />
    <linearGradient
       x1="32.251034"
       y1="6.1317081"
       x2="32.251034"
       y2="90.238609"
       id="linearGradient3772"
       xlink:href="#ButtonShadow-0"
       gradientUnits="userSpaceOnUse"
       gradientTransform="matrix(1.0238095,0,0,1.0119048,-1.1428571,-98.071429)" />
    <linearGradient
       x1="32.251034"
       y1="6.1317081"
       x2="32.251034"
       y2="90.238609"
       id="linearGradient3725"
       xlink:href="#ButtonShadow-0"
       gradientUnits="userSpaceOnUse"
       gradientTransform="matrix(1.0238095,0,0,1.0119048,-1.1428571,-98.071429)" />
    <linearGradient
       x1="32.251034"
       y1="6.1317081"
       x2="32.251034"
       y2="90.238609"
       id="linearGradient3721"
       xlink:href="#ButtonShadow-0"
       gradientUnits="userSpaceOnUse"
       gradientTransform="translate(0,-97)" />
    <linearGradient
       x1="32.251034"
       y1="6.1317081"
       x2="32.251034"
       y2="90.238609"
       id="linearGradient3071"
       xlink:href="#ButtonShadow-0"
       gradientUnits="userSpaceOnUse"
       gradientTransform="matrix(1.0238095,0,0,1.0119048,-1.1428571,-98.071429)" />
    <linearGradient
       x1="59"
       y1="40"
       x2="69"
       y2="40"
       id="linearGradient5974"
       xlink:href="#linearGradient5932-3"
       gradientUnits="userSpaceOnUse" />
    <linearGradient
       id="linearGradient5932-3">
      <stop
         id="stop5934-3"
         style="stop-color:#ff7c53;stop-opacity:1"
         offset="0" />
      <stop
         id="stop5940-1"
         style="stop-color:#f21919;stop-opacity:1"
         offset="0.5" />
      <stop
         id="stop5942-5"
         style="stop-color:#db1414;stop-opacity:1"
         offset="0.5" />
      <stop
         id="stop5936-2"
         style="stop-color:#9b1818;stop-opacity:1"
         offset="1" />
    </linearGradient>
    <linearGradient
       x1="59"
       y1="88"
       x2="69"
       y2="88"
       id="linearGradient5976"
       xlink:href="#linearGradient5944-6"
       gradientUnits="userSpaceOnUse" />
    <linearGradient
       id="linearGradient5944-6">
      <stop
         id="stop5946-9"
         style="stop-color:#f0f0f0;stop-opacity:1"
         offset="0" />
      <stop
         id="stop5952-4"
         style="stop-color:#e6e6e6;stop-opacity:1"
         offset="0.5" />
      <stop
         id="stop5954-4"
         style="stop-color:#d2d2d2;stop-opacity:1"
         offset="0.5" />
      <stop
         id="stop5948-6"
         style="stop-color:#bebebe;stop-opacity:1"
         offset="1" />
    </linearGradient>
    <radialGradient
       cx="63.335083"
       cy="63.279507"
       r="1.7404202"
       fx="63.335083"
       fy="63.279507"
       id="radialGradient5978"
       xlink:href="#linearGradient5960-0"
       gradientUnits="userSpaceOnUse"
       gradientTransform="matrix(0.644005,-1.4508695e-6,1.4508659e-6,0.6440034,22.699101,22.755712)" />
    <linearGradient
       id="linearGradient5960-0">
      <stop
         id="stop5962-7"
         style="stop-color:#c1c1c1;stop-opacity:1"
         offset="0" />
      <stop
         id="stop5964-4"
         style="stop-color:#3f3f3f;stop-opacity:1"
         offset="1" />
    </linearGradient>
    <linearGradient
       x1="49.427967"
       y1="83.552567"
       x2="49.427967"
       y2="-18.66704"
       id="linearGradient4162"
       xlink:href="#linearGradient4156"
       gradientUnits="userSpaceOnUse" />
    <radialGradient
       cx="63.98003"
       cy="61.948856"
       r="58.01997"
       fx="63.98003"
       fy="61.948856"
       id="radialGradient4197"
       xlink:href="#linearGradient5226-7"
       gradientUnits="userSpaceOnUse"
       gradientTransform="matrix(1.090012,0,0,0.8408658,-21.739001,104.49175)" />
    <radialGradient
       cx="48"
       cy="46.582424"
       r="42"
       fx="48"
       fy="46.582424"
       id="radialGradient4200"
       xlink:href="#linearGradient3424-7"
       gradientUnits="userSpaceOnUse"
       gradientTransform="matrix(1,0,0,0.9665987,3.0413897e-8,111.55591)" />
    <linearGradient
       x1="48"
       y1="90"
       x2="48"
       y2="5.9877172"
       id="linearGradient4203"
       xlink:href="#linearGradient3700-1"
       gradientUnits="userSpaceOnUse"
       gradientTransform="translate(0,110)" />
    <radialGradient
       cx="63.98003"
       cy="61.948856"
       r="58.01997"
       fx="63.98003"
       fy="61.948856"
       id="radialGradient5232-9"
       xlink:href="#linearGradient4132"
       gradientUnits="userSpaceOnUse"
       gradientTransform="matrix(1.090012,0,0,0.84044811,-21.739002,-5.4878171)" />
    <radialGradient
       cx="64"
       cy="64"
       r="37"
       fx="64"
       fy="64"
       id="radialGradient6260-3"
       xlink:href="#linearGradient6222-1"
       gradientUnits="userSpaceOnUse"
       gradientTransform="matrix(0.72972969,0,0,0.72972973,1.2972977,1.2972975)" />
    <linearGradient
       id="linearGradient6222-1">
      <stop
         id="stop6224-0"
         style="stop-color:#ffffff;stop-opacity:1"
         offset="0" />
      <stop
         id="stop6226-00"
         style="stop-color:#ffffff;stop-opacity:0.627451"
         offset="1" />
    </linearGradient>
    <linearGradient
       x1="59"
       y1="40"
       x2="69"
       y2="40"
       id="linearGradient5974-7"
       xlink:href="#linearGradient5932-3-2"
       gradientUnits="userSpaceOnUse" />
    <linearGradient
       id="linearGradient5932-3-2">
      <stop
         id="stop5934-3-2"
         style="stop-color:#ff7c53;stop-opacity:1"
         offset="0" />
      <stop
         id="stop5940-1-4"
         style="stop-color:#f21919;stop-opacity:1"
         offset="0.5" />
      <stop
         id="stop5942-5-4"
         style="stop-color:#db1414;stop-opacity:1"
         offset="0.5" />
      <stop
         id="stop5936-2-5"
         style="stop-color:#9b1818;stop-opacity:1"
         offset="1" />
    </linearGradient>
    <linearGradient
       x1="59"
       y1="88"
       x2="69"
       y2="88"
       id="linearGradient5976-3"
       xlink:href="#linearGradient5944-6-9"
       gradientUnits="userSpaceOnUse" />
    <linearGradient
       id="linearGradient5944-6-9">
      <stop
         id="stop5946-9-5"
         style="stop-color:#f0f0f0;stop-opacity:1"
         offset="0" />
      <stop
         id="stop5952-4-9"
         style="stop-color:#e6e6e6;stop-opacity:1"
         offset="0.5" />
      <stop
         id="stop5954-4-7"
         style="stop-color:#d2d2d2;stop-opacity:1"
         offset="0.5" />
      <stop
         id="stop5948-6-2"
         style="stop-color:#bebebe;stop-opacity:1"
         offset="1" />
    </linearGradient>
    <radialGradient
       cx="63.335083"
       cy="63.279507"
       r="1.7404202"
       fx="63.335083"
       fy="63.279507"
       id="radialGradient5978-1"
       xlink:href="#linearGradient5960-0-4"
       gradientUnits="userSpaceOnUse"
       gradientTransform="matrix(0.644005,-1.4508695e-6,1.4508659e-6,0.6440034,22.699101,22.755712)" />
    <linearGradient
       id="linearGradient5960-0-4">
      <stop
         id="stop5962-7-7"
         style="stop-color:#c1c1c1;stop-opacity:1"
         offset="0" />
      <stop
         id="stop5964-4-1"
         style="stop-color:#3f3f3f;stop-opacity:1"
         offset="1" />
    </linearGradient>
    <linearGradient
       id="linearGradient5932-3-2-4">
      <stop
         id="stop5934-3-2-9"
         style="stop-color:#ff7c53;stop-opacity:1"
         offset="0" />
      <stop
         id="stop5940-1-4-5"
         style="stop-color:#f21919;stop-opacity:1"
         offset="0.5" />
      <stop
         id="stop5942-5-4-7"
         style="stop-color:#db1414;stop-opacity:1"
         offset="0.5" />
      <stop
         id="stop5936-2-5-0"
         style="stop-color:#9b1818;stop-opacity:1"
         offset="1" />
    </linearGradient>
    <linearGradient
       id="linearGradient5944-6-9-3">
      <stop
         id="stop5946-9-5-0"
         style="stop-color:#f0f0f0;stop-opacity:1"
         offset="0" />
      <stop
         id="stop5952-4-9-7"
         style="stop-color:#e6e6e6;stop-opacity:1"
         offset="0.5" />
      <stop
         id="stop5954-4-7-2"
         style="stop-color:#d2d2d2;stop-opacity:1"
         offset="0.5" />
      <stop
         id="stop5948-6-2-1"
         style="stop-color:#bebebe;stop-opacity:1"
         offset="1" />
    </linearGradient>
    <linearGradient
       id="linearGradient5960-0-4-4">
      <stop
         id="stop5962-7-7-5"
         style="stop-color:#c1c1c1;stop-opacity:1"
         offset="0" />
      <stop
         id="stop5964-4-1-8"
         style="stop-color:#3f3f3f;stop-opacity:1"
         offset="1" />
    </linearGradient>
    <linearGradient
       x1="59"
       y1="40"
       x2="69"
       y2="40"
       id="linearGradient4578"
       xlink:href="#linearGradient5932-3-2-4"
       gradientUnits="userSpaceOnUse" />
    <linearGradient
       x1="59"
       y1="88"
       x2="69"
       y2="88"
       id="linearGradient4580"
       xlink:href="#linearGradient5944-6-9-3"
       gradientUnits="userSpaceOnUse" />
    <radialGradient
       cx="63.335083"
       cy="63.279507"
       r="1.7404202"
       fx="63.335083"
       fy="63.279507"
       id="radialGradient4582"
       xlink:href="#linearGradient5960-0-4-4"
       gradientUnits="userSpaceOnUse"
       gradientTransform="matrix(0.644005,-1.4508695e-6,1.4508659e-6,0.6440034,22.699101,22.755712)" />
    <linearGradient
       id="linearGradient3700-5-1">
      <stop
         id="stop3702-0-2"
         style="stop-color:#156ab9;stop-opacity:1"
         offset="0" />
      <stop
         id="stop3704-4-9"
         style="stop-color:#5ba1e4;stop-opacity:1"
         offset="1" />
    </linearGradient>
    <linearGradient
       x1="48"
       y1="90"
       x2="48"
       y2="5.9877172"
       id="linearGradient3345"
       xlink:href="#linearGradient3700-5-1"
       gradientUnits="userSpaceOnUse" />
    <radialGradient
       inkscape:collect="always"
       xlink:href="#linearGradient4132"
       id="radialGradient3152"
       gradientUnits="userSpaceOnUse"
       gradientTransform="matrix(1.090012,0,0,0.84044811,-21.739002,-5.4878171)"
       cx="63.98003"
       cy="61.948856"
       fx="63.98003"
       fy="61.948856"
       r="58.01997" />
    <radialGradient
       inkscape:collect="always"
       xlink:href="#linearGradient5226-7"
       id="radialGradient3155"
       gradientUnits="userSpaceOnUse"
       gradientTransform="matrix(1.090012,0,0,0.8408658,-21.739001,104.49175)"
       cx="63.98003"
       cy="61.948856"
       fx="63.98003"
       fy="61.948856"
       r="58.01997" />
    <radialGradient
       inkscape:collect="always"
       xlink:href="#linearGradient3737-5"
       id="radialGradient3159"
       gradientUnits="userSpaceOnUse"
       gradientTransform="matrix(1.7146179,6.6254866e-8,-4.2857144e-8,1.1091053,-134.30166,-5.082394)"
       cx="48"
       cy="41.752277"
       fx="48"
       fy="41.752277"
       r="42" />
  </defs>
  <metadata
     id="metadata2413">
    <rdf:RDF>
      <cc:Work
         rdf:about="">
        <dc:format>image/svg+xml</dc:format>
        <dc:type
           rdf:resource="http://purl.org/dc/dcmitype/StillImage" />
        <dc:title />
      </cc:Work>
    </rdf:RDF>
  </metadata>
  <g
     id="layer2"
     style="display:none">
    <rect
       width="86"
       height="85"
       rx="6"
       ry="6"
       x="5"
       y="7"
       id="rect3745"
       style="opacity:0.9;fill:url(#ButtonShadow);fill-opacity:1;fill-rule:nonzero;stroke:none;filter:url(#filter3174)" />
  </g>
  <path
     style="fill:url(#radialGradient4200);fill-opacity:1;stroke:none;display:inline;filter:url(#filter3434)"
     id="path4119"
     inkscape:connector-curvature="0"
     d="m 36.273888,116.0817 c 1.650116,2.21669 0.112581,5.91834 2.601472,5.88159 1.2119,1.71402 -2.415455,0.5113 0.203594,1.83235 1.506105,1.18657 -1.593388,1.86454 0.27179,2.92937 -2.149689,1.10967 0.348443,5.80399 1.945119,6.97885 2.627954,2.21316 1.162204,-4.68572 4.094495,-5.0446 1.593359,-1.8197 4.391847,-2.98781 6.379273,-4.81838 -1.942301,-0.15774 -3.076464,-1.36714 -1.237028,-2.1163 3.385456,3.47039 0.848905,-1.64353 -1.025128,-2.45324 1.813361,-0.57705 3.576977,-0.15449 3.325361,-1.65137 1.916325,-1.40252 -1.842255,-1.85535 -3.183935,-1.53827 -4.458342,0 -8.916678,0 -13.375013,0 z m -27.8018524,1.44778 c -2.4497603,0.69819 -2.6206434,6.55488 -0.1583506,3.30274 0.6043433,-1.33537 3.397078,-2.94467 0.1583506,-3.30274 z m 11.4464914,0.20359 c -1.412257,2.21534 0.204915,3.9915 1.379912,1.28943 0.831709,-1.12834 -0.617926,-1.24809 -1.379912,-1.28943 z m 3.528956,0.49768 c -2.72875,1.26521 -0.672602,4.21556 -0.605059,4.87173 2.87456,0.99483 4.473227,-0.65043 5.560693,2.16149 2.73516,1.57694 -0.05382,4.31706 -1.080544,5.03068 1.849342,-1.61119 5.404158,4.38048 4.472249,1.21492 -1.11178,-0.81208 2.985161,1.30456 0.859619,-1.33467 -1.956059,-3.15266 0.155272,-1.41141 0.979953,-0.67561 2.804888,-2.51609 -3.173595,-2.82021 -1.681217,-5.40958 -1.307758,-1.05958 -3.02289,-4.26949 -5.33868,-3.64206 -1.550241,2.00557 -0.214153,-4.36996 -2.488605,-1.17956 -0.117891,1.78341 -0.04285,4.04645 -0.705711,0.95682 -0.444071,-0.54087 0.764001,-1.7983 0.0273,-1.99416 z m -5.564894,0.0226 c -1.8316,0.61085 -1.733228,3.0865 0.518957,3.35191 0.771435,-0.87964 0.306491,-3.18534 -0.518957,-3.35191 z m -7.148401,0.79175 c -2.3790789,0.56388 -1.4079923,2.48286 -0.679573,3.02332 -2.9449177,0.73792 4.495691,0.94313 0.792681,1.41049 -3.0807906,1.23084 2.966663,2.68095 3.958766,1.22156 3.804391,0.93074 0.136908,-3.04654 -0.19704,-5.20253 -1.612752,-1.73148 -0.06366,3.99154 -1.521869,0.18441 -0.508786,1.13054 -2.126527,0.1666 -2.352965,-0.63725 z m 75.601127,0.24884 c -3.192449,1.24986 1.98418,5.96643 0.697641,1.67549 -0.128164,-0.51813 0.288199,-1.88711 -0.697641,-1.67549 z m -66.665626,1.9002 c -2.29408,2.15671 2.915989,3.9402 -0.658895,5.54691 -0.536018,-2.00294 -1.458273,1.0021 -3.503464,-0.61542 -3.515899,1.46447 -5.313868,-0.76283 -8.2575357,-2.28957 -1.7680291,-0.22016 -1.1037806,1.68053 -1.220883,3.46019 0,4.91831 0,9.83662 0,14.75492 1.7334888,1.82448 0.6763288,0.80498 0,0.30175 0.9514666,3.24165 -0.4195722,7.98024 3.3308509,9.86584 0.6375636,1.18303 3.3128828,6.22307 3.4362208,4.71504 -1.341215,-1.40506 -2.717353,-5.61739 -0.447896,-1.86302 2.032755,3.56879 4.774749,5.8835 8.780477,6.73276 2.190057,0.74522 3.991169,3.30696 5.917116,2.74332 1.089051,2.87197 -3.227416,5.62989 0.144912,8.3086 1.760515,2.7118 4.716185,4.4904 3.11596,8.29758 -1.119073,3.71826 -0.639926,7.76974 -1.607786,11.23409 -0.300394,2.10873 2.938037,7.46101 2.65747,3.17511 0.945569,-2.9784 0.92064,-6.25562 3.147579,-8.36483 3.047115,0.0241 0.582377,-3.27775 3.60701,-2.84642 1.845644,-2.42007 2.380233,-5.30712 5.49491,-6.26809 0.372042,-2.9376 5.178821,-7.43659 0.213139,-8.58032 -1.349609,-0.66545 -4.824504,-0.90473 -4.55895,-1.23308 0.538034,-2.91487 -4.493466,-3.7447 -6.634228,-4.93727 -2.810759,-1.99584 -7.034237,3.3156 -8.024515,-1.26102 -0.590876,-1.43995 -2.751326,-1.4633 -1.758429,-3.68521 -1.789388,1.78033 -5.289343,1.23924 -4.373033,-2.19892 1.39157,-2.89559 6.735639,-3.0326 7.64626,0.45029 -1.264352,-3.84121 2.443938,-6.83144 4.502527,-9.56422 0.419165,-1.3062 2.909742,-2.42843 2.052679,-0.69242 1.460154,-0.0527 3.673291,-2.68864 1.079407,-1.47202 -0.03668,-2.40389 -2.272976,-1.72027 -2.997994,-1.37893 1.34377,-2.13357 8.24499,-0.96713 5.355098,-4.45459 -2.239305,-0.90768 -2.053024,-6.20445 -4.317999,-3.25359 0.190595,-1.81815 -4.610012,-5.37715 -4.505255,-2.32832 0.585986,2.72813 0.107133,5.87087 -1.139926,7.65911 -0.260245,-3.99762 -7.075678,-3.11408 -6.199423,-7.37399 1.26944,-2.03029 2.752851,-4.83791 2.894179,-4.58534 2.275048,-0.86894 4.104591,-3.39651 1.46783,-5.05812 -0.140917,1.4482 -1.98303,4.43614 -1.72366,0.82232 -1.705794,2.02318 -1.316199,-3.21941 -2.913753,-3.76312 z m 54.450004,1.40253 c -3.995941,0.97784 -5.580067,4.79584 -7.556815,7.95817 -2.913853,1.31423 -2.802938,6.95832 0.452411,5.15567 0.87128,1.52228 -0.609505,3.92167 1.928313,1.93122 2.046994,-2.7099 0.357939,-7.09276 3.841419,-8.80152 0.253727,1.32865 -3.213334,6.28987 0.836994,5.47441 3.66156,0.13821 -2.661851,0.36497 -0.881001,2.70473 -1.850264,-1.09821 -0.888827,2.99933 -3.303976,2.04578 -2.092333,1.13854 -3.464338,-0.52862 -2.985033,-2.35496 -1.645958,0.96058 0.517696,3.67045 -2.339585,3.83331 -0.640044,2.27366 -5.903378,1.93097 -2.910208,4.24616 1.328901,3.44536 -4.95153,0.21599 -3.16853,4.35053 1.525447,4.08844 4.722394,-1.35472 6.019433,-2.40634 2.502474,-1.94188 6.210661,3.31108 3.958763,3.50633 2.525083,-0.33891 2.006191,-2.74125 -0.01696,-3.6713 -1.092676,-2.83493 3.459035,1.39032 3.206601,2.81168 1.605944,3.00835 0.944615,-3.08009 2.578854,-0.38456 -0.190808,2.84338 6.574181,0.66855 3.344389,4.29241 -2.776877,0.55952 -5.510134,-0.71614 -7.900831,0.10093 -2.22511,-0.0197 -2.113469,-2.39797 -2.923585,-2.99354 -2.830365,0.23004 -6.327933,0.20402 -8.222767,2.4914 -2.049016,2.81234 -5.00383,6.7438 -2.770526,10.33481 2.234877,5.32146 7.777183,0.27603 10.962975,3.41876 0.946936,1.31039 -0.820594,2.86804 1.296711,4.28743 0.796704,3.02353 -0.904488,5.89433 1.052264,8.78464 1.011837,2.7182 1.639779,6.78664 5.40576,4.30281 3.985771,-2.39945 2.924161,-6.8227 6.212939,-9.27265 -2.60227,-5.03806 3.183628,-7.2471 4.627218,-11.3371 -3.153943,0.46191 -5.963772,-2.68376 -6.725787,-5.84994 -1.324936,-1.53789 -0.983676,-3.8055 0.496326,-0.91647 2.034259,1.97191 2.078217,7.82306 5.841274,4.81302 1.720349,-0.71984 6.418604,-3.46572 2.675109,-4.71532 -2.413043,1.7484 -5.075252,-5.22426 -1.531819,-1.17997 C 88.196064,156.6505 90,157.3019 90,153.67705 c 0,-9.76613 0,-19.66458 0,-29.49687 -0.802399,0.82028 -2.863802,2.33524 -3.904284,1.32857 -1.790368,0.24941 -4.153886,3.73428 -3.59125,0.36554 -1.556235,-0.10309 -0.278581,3.02053 -2.416637,3.10789 -0.215289,1.60589 -2.159868,0.29738 -1.429431,1.82237 -1.500645,-1.06488 -2.770669,-4.42704 0.186146,-2.31673 4.391021,-1.31784 -2.895608,-4.29041 -3.458045,-5.00891 0.945455,-0.22661 -1.028609,-1.21224 -1.266806,-0.88224 z m -36.239676,0.88224 c -1.461507,1.2182 2.778528,1.44762 0,0 z m -19.522376,0.65603 c -1.634652,1.7105 2.603281,1.57244 0,0 z m 9.478418,1.69661 c -1.237867,2.02858 1.829027,0.74894 0,0 z m 27.100586,2.39788 c -1.449235,1.66908 -3.362051,-0.43926 -3.39323,0.99535 0.262642,0.43347 1.314671,3.52729 3.619439,1.24418 1.236985,-0.52171 0.749963,-1.83688 -0.226209,-2.23953 z m -30.855759,0.99535 c -2.748806,2.40147 4.668304,2.62274 0.582324,0.27542 l -0.582324,-0.27542 z m 36.262298,6.65072 c -1.979083,1.29104 0.949434,4.03281 -0.04308,5.32072 -1.240104,2.16147 4.608325,-0.15225 1.484614,-1.87676 -0.222564,-1.48161 -1.830018,-3.28935 -1.441539,-3.44396 z m -1.334668,2.60147 c -2.757392,0.77986 -0.625964,4.80624 0.350657,1.014 0.05497,-0.21986 0.12936,-1.02135 -0.350657,-1.014 z m -22.078603,2.91818 c -2.565224,1.74983 -0.39843,3.49644 1.481561,2.70912 -0.385959,-1.05576 -1.46417,-1.72096 -1.481561,-2.70912 z m 48.455298,2.9408 c 1.279946,0.64619 -2.345536,1.75008 -0.04983,2.88736 1.335978,1.57167 0.832312,4.94545 -1.339202,2.55764 0.403442,-2.66599 -2.943559,-4.65698 1.389033,-5.445 z m -6.582867,0.0226 c -0.173666,1.71279 3.69395,4.37514 -0.475048,3.50633 -2.204744,0.25873 -5.506966,-0.0674 -2.729423,-2.81568 0.87765,-0.52709 3.182055,1.8185 1.982912,-0.37395 0.42514,-0.0271 0.821079,-0.18767 1.221559,-0.3167 z m -12.735913,3.70992 c -1.608116,1.03642 1.111982,1.83112 0,0 z m -40.379417,9.65939 c -0.271103,0.90481 5.085991,1.82176 1.389301,0.37215 l -0.551068,-0.19405 -0.838233,-0.1781 z m 4.16236,1.28943 c -1.624915,1.65021 3.347807,0.49301 0,0 z m 54.336901,15.13379 c -3.530727,0.0911 -3.061331,9.20159 -0.600138,3.81083 0.233406,-1.16979 1.168903,-2.71377 0.600138,-3.81083 z" />
  <g
     id="layer4"
     style="display:none">
    <rect
       width="66"
       height="66"
       rx="12"
       ry="12"
       x="15"
       y="15"
       clip-path="url(#clipPath3613)"
       id="rect3171"
       style="opacity:0.15;fill:url(#linearGradient2885);fill-opacity:1;fill-rule:nonzero;stroke:#ffffff;stroke-width:0.5;stroke-linecap:round;stroke-linejoin:miter;stroke-miterlimit:4;stroke-opacity:1;stroke-dasharray:none;stroke-dashoffset:0;filter:url(#filter4123)" />
  </g>
  <g
     id="layer3"
     style="display:none">
    <path
       d="M 48,12.044841 43.154387,35.24322 c -0.595098,0.228698 -1.174871,0.480654 -1.726252,0.787413 l -10.539216,-5.269607 5.269609,10.539211 c -0.31514,0.562399 -0.583989,1.148397 -0.8177,1.756536 l -23.198374,4.845614 23.198374,4.845614 c 0.230621,0.600099 0.507744,1.170646 0.8177,1.726251 l -5.269609,10.53921 10.539216,-5.269605 c 0.555609,0.309967 1.126157,0.587078 1.726252,0.817698 L 48,83.759933 52.845613,60.561555 c 0.600095,-0.23062 1.170656,-0.507731 1.726252,-0.817698 l 10.539216,5.269605 -5.269609,-10.53921 c 0.309956,-0.555605 0.587079,-1.126152 0.8177,-1.726251 L 83.857546,47.902387 60.659172,43.056773 c -0.233711,-0.608139 -0.502547,-1.194137 -0.8177,-1.756536 L 65.111081,30.761026 54.571865,36.030633 C 54.020484,35.723874 53.440711,35.471918 52.845613,35.24322 L 48,12.044841 z m 0,27.044586 c 4.865524,-2e-6 8.812965,3.947441 8.812965,8.81296 0,4.865523 -3.947441,8.812962 -8.812965,8.812962 -4.865524,-2e-6 -8.812965,-3.947442 -8.812965,-8.812962 0,-4.865517 3.947441,-8.81296 8.812965,-8.81296 z"
       inkscape:connector-curvature="0"
       id="path6231"
       style="opacity:0.2;fill:url(#linearGradient4162);fill-opacity:1;fill-rule:nonzero;stroke:none;display:inline" />
    <path
       d="M 48,12.03125 43.15625,35.25 c -0.595098,0.228698 -1.167369,0.474491 -1.71875,0.78125 L 30.875,30.75 36.15625,41.3125 c -0.31514,0.562399 -0.578789,1.141861 -0.8125,1.75 l -23.1875,4.84375 23.1875,4.84375 c 0.230621,0.600099 0.502544,1.163145 0.8125,1.71875 L 30.875,65 41.4375,59.75 c 0.555609,0.309967 1.118655,0.58188 1.71875,0.8125 L 48,83.75 52.84375,60.5625 C 53.443845,60.33188 54.006904,60.059967 54.5625,59.75 L 65.125,65 59.84375,54.46875 c 0.309956,-0.555605 0.581879,-1.118651 0.8125,-1.71875 l 23.1875,-4.84375 -23.1875,-4.84375 c -0.233711,-0.608139 -0.497347,-1.187601 -0.8125,-1.75 L 65.125,30.75 54.5625,36.03125 C 54.011119,35.724491 53.438848,35.478698 52.84375,35.25 L 48,12.03125 z m 0,2.03125 4.4375,21.28125 a 0.41850037,0.41850037 0 0 0 0.25,0.28125 c 0.585235,0.224908 1.129377,0.488126 1.65625,0.78125 a 0.41850037,0.41850037 0 0 0 0.40625,0 l 9.4375,-4.71875 -4.71875,9.4375 a 0.41850037,0.41850037 0 0 0 0,0.40625 c 0.303882,0.542285 0.58466,1.094638 0.8125,1.6875 a 0.41850037,0.41850037 0 0 0 0.28125,0.25 l 21.25,4.4375 -21.25,4.4375 a 0.41850037,0.41850037 0 0 0 -0.28125,0.25 c -0.222551,0.579099 -0.510414,1.114752 -0.8125,1.65625 a 0.41850037,0.41850037 0 0 0 0,0.40625 L 64.1875,64.0625 54.75,59.375 a 0.41850037,0.41850037 0 0 0 -0.40625,0 c -0.541478,0.302091 -1.077149,0.589948 -1.65625,0.8125 a 0.41850037,0.41850037 0 0 0 -0.25,0.28125 l -4.4375,21.25 -4.4375,-21.25 a 0.41850037,0.41850037 0 0 0 -0.25,-0.28125 C 42.733401,59.964949 42.197746,59.677094 41.65625,59.375 a 0.41850037,0.41850037 0 0 0 -0.40625,0 l -9.4375,4.6875 4.71875,-9.40625 a 0.41850037,0.41850037 0 0 0 0,-0.40625 c -0.302086,-0.541498 -0.589949,-1.077151 -0.8125,-1.65625 a 0.41850037,0.41850037 0 0 0 -0.28125,-0.25 l -21.25,-4.4375 21.25,-4.4375 a 0.41850037,0.41850037 0 0 0 0.28125,-0.25 c 0.227838,-0.592857 0.508626,-1.145207 0.8125,-1.6875 a 0.41850037,0.41850037 0 0 0 0,-0.40625 L 31.8125,31.6875 41.25,36.40625 a 0.41850037,0.41850037 0 0 0 0.40625,0 c 0.526873,-0.293124 1.071015,-0.556342 1.65625,-0.78125 a 0.41850037,0.41850037 0 0 0 0.25,-0.28125 L 48,14.0625 z m 0,24.625 c -5.09183,0 -9.21875,4.126927 -9.21875,9.21875 0,5.091826 4.12692,9.218748 9.21875,9.21875 5.09183,0 9.21875,-4.126921 9.21875,-9.21875 0,-5.091825 -4.12692,-9.218752 -9.21875,-9.21875 z m 0,0.40625 c 4.865524,-2e-6 8.8125,3.946981 8.8125,8.8125 0,4.865523 -3.946976,8.8125 -8.8125,8.8125 -4.865524,-2e-6 -8.8125,-3.94698 -8.8125,-8.8125 0,-4.865517 3.946976,-8.8125 8.8125,-8.8125 z"
       inkscape:connector-curvature="0"
       id="path4186"
       style="opacity:0.05;fill:#000000;fill-opacity:1;fill-rule:nonzero;stroke:none;display:inline" />
    <path
       d="M 48,12.03125 43.15625,35.25 c -0.595098,0.228698 -1.167369,0.474491 -1.71875,0.78125 L 30.875,30.75 36.15625,41.3125 c -0.31514,0.562399 -0.578789,1.141861 -0.8125,1.75 l -23.1875,4.84375 23.1875,4.84375 c 0.230621,0.600099 0.502544,1.163145 0.8125,1.71875 L 30.875,65 41.4375,59.75 c 0.555609,0.309967 1.118655,0.58188 1.71875,0.8125 L 48,83.75 52.84375,60.5625 C 53.443845,60.33188 54.006904,60.059967 54.5625,59.75 L 65.125,65 59.84375,54.46875 c 0.309956,-0.555605 0.581879,-1.118651 0.8125,-1.71875 l 23.1875,-4.84375 -23.1875,-4.84375 c -0.233711,-0.608139 -0.497347,-1.187601 -0.8125,-1.75 L 65.125,30.75 54.5625,36.03125 C 54.011119,35.724491 53.438848,35.478698 52.84375,35.25 L 48,12.03125 z m 0,0.9375 4.65625,22.3125 a 0.19857869,0.19857869 0 0 0 0,0.03125 0.19857869,0.19857869 0 0 0 0.03125,0.0625 0.19857869,0.19857869 0 0 0 0.03125,0.03125 0.19857869,0.19857869 0 0 0 0.03125,0.03125 0.19857869,0.19857869 0 0 0 0.03125,0 c 0.590418,0.2269 1.147748,0.480961 1.6875,0.78125 a 0.19857869,0.19857869 0 0 0 0.03125,0 0.19857869,0.19857869 0 0 0 0.03125,0 0.19857869,0.19857869 0 0 0 0.03125,0 0.19857869,0.19857869 0 0 0 0.03125,0 0.19857869,0.19857869 0 0 0 0.03125,0 0.19857869,0.19857869 0 0 0 0.03125,0 l 10,-5 -5,10 a 0.19857869,0.19857869 0 0 0 0,0.03125 0.19857869,0.19857869 0 0 0 0,0.03125 0.19857869,0.19857869 0 0 0 0,0.03125 0.19857869,0.19857869 0 0 0 0,0.03125 0.19857869,0.19857869 0 0 0 0,0.03125 0.19857869,0.19857869 0 0 0 0,0.03125 c 0.309805,0.552855 0.581575,1.11786 0.8125,1.71875 a 0.19857869,0.19857869 0 0 0 0.03125,0.0625 0.19857869,0.19857869 0 0 0 0.03125,0.03125 0.19857869,0.19857869 0 0 0 0.03125,0.03125 0.19857869,0.19857869 0 0 0 0.03125,0 0.19857869,0.19857869 0 0 0 0.03125,0 L 82.90625,47.90625 60.625,52.5625 a 0.19857869,0.19857869 0 0 0 -0.03125,0 0.19857869,0.19857869 0 0 0 -0.0625,0.03125 A 0.19857869,0.19857869 0 0 0 60.5,52.625 a 0.19857869,0.19857869 0 0 0 -0.03125,0.03125 0.19857869,0.19857869 0 0 0 0,0.03125 c -0.226792,0.590134 -0.506278,1.138589 -0.8125,1.6875 a 0.19857869,0.19857869 0 0 0 0,0.03125 0.19857869,0.19857869 0 0 0 0,0.03125 0.19857869,0.19857869 0 0 0 0,0.03125 0.19857869,0.19857869 0 0 0 0,0.03125 0.19857869,0.19857869 0 0 0 0,0.03125 0.19857869,0.19857869 0 0 0 0,0.03125 l 5,9.96875 -10,-4.96875 a 0.19857869,0.19857869 0 0 0 -0.03125,0 0.19857869,0.19857869 0 0 0 -0.03125,0 0.19857869,0.19857869 0 0 0 -0.03125,0 0.19857869,0.19857869 0 0 0 -0.03125,0 0.19857869,0.19857869 0 0 0 -0.03125,0 0.19857869,0.19857869 0 0 0 -0.03125,0 c -0.548897,0.30623 -1.097367,0.585708 -1.6875,0.8125 a 0.19857869,0.19857869 0 0 0 -0.0625,0.03125 0.19857869,0.19857869 0 0 0 -0.03125,0.03125 0.19857869,0.19857869 0 0 0 -0.03125,0.03125 0.19857869,0.19857869 0 0 0 0,0.03125 0.19857869,0.19857869 0 0 0 0,0.03125 L 48,82.8125 43.34375,60.53125 a 0.19857869,0.19857869 0 0 0 0,-0.03125 A 0.19857869,0.19857869 0 0 0 43.3125,60.4375 0.19857869,0.19857869 0 0 0 43.28125,60.40625 0.19857869,0.19857869 0 0 0 43.25,60.375 a 0.19857869,0.19857869 0 0 0 -0.03125,0 c -0.590132,-0.226791 -1.138588,-0.506269 -1.6875,-0.8125 a 0.19857869,0.19857869 0 0 0 -0.03125,0 0.19857869,0.19857869 0 0 0 -0.03125,0 0.19857869,0.19857869 0 0 0 -0.03125,0 0.19857869,0.19857869 0 0 0 -0.03125,0 0.19857869,0.19857869 0 0 0 -0.03125,0 0.19857869,0.19857869 0 0 0 -0.03125,0 l -10,4.96875 5,-9.96875 a 0.19857869,0.19857869 0 0 0 0,-0.03125 0.19857869,0.19857869 0 0 0 0,-0.03125 0.19857869,0.19857869 0 0 0 0,-0.03125 0.19857869,0.19857869 0 0 0 0,-0.03125 0.19857869,0.19857869 0 0 0 0,-0.03125 0.19857869,0.19857869 0 0 0 0,-0.03125 c -0.306222,-0.548911 -0.585708,-1.097366 -0.8125,-1.6875 A 0.19857869,0.19857869 0 0 0 35.5,52.625 0.19857869,0.19857869 0 0 0 35.46875,52.59375 0.19857869,0.19857869 0 0 0 35.4375,52.5625 a 0.19857869,0.19857869 0 0 0 -0.03125,0 0.19857869,0.19857869 0 0 0 -0.03125,0 L 13.09375,47.90625 35.375,43.25 a 0.19857869,0.19857869 0 0 0 0.03125,0 0.19857869,0.19857869 0 0 0 0.0625,-0.03125 0.19857869,0.19857869 0 0 0 0.03125,-0.03125 0.19857869,0.19857869 0 0 0 0.03125,-0.03125 0.19857869,0.19857869 0 0 0 0,-0.03125 c 0.230924,-0.600888 0.502706,-1.165891 0.8125,-1.71875 a 0.19857869,0.19857869 0 0 0 0,-0.03125 0.19857869,0.19857869 0 0 0 0,-0.03125 0.19857869,0.19857869 0 0 0 0,-0.03125 0.19857869,0.19857869 0 0 0 0,-0.03125 0.19857869,0.19857869 0 0 0 0,-0.03125 0.19857869,0.19857869 0 0 0 0,-0.03125 l -5,-10 10,5 a 0.19857869,0.19857869 0 0 0 0.03125,0 0.19857869,0.19857869 0 0 0 0.03125,0 0.19857869,0.19857869 0 0 0 0.03125,0 0.19857869,0.19857869 0 0 0 0.03125,0 0.19857869,0.19857869 0 0 0 0.03125,0 0.19857869,0.19857869 0 0 0 0.03125,0 c 0.539752,-0.300289 1.097082,-0.55435 1.6875,-0.78125 a 0.19857869,0.19857869 0 0 0 0.0625,-0.03125 0.19857869,0.19857869 0 0 0 0.03125,-0.03125 0.19857869,0.19857869 0 0 0 0.03125,-0.03125 0.19857869,0.19857869 0 0 0 0,-0.03125 0.19857869,0.19857869 0 0 0 0,-0.03125 L 48,12.96875 z m 0,25.9375 c -4.972907,0 -9,4.027101 -9,9 0,4.972902 4.027094,8.999998 9,9 4.972906,0 9,-4.027095 9,-9 0,-4.972901 -4.027093,-9.000002 -9,-9 z m 0,0.1875 c 4.865524,-2e-6 8.8125,3.946981 8.8125,8.8125 0,4.865523 -3.946976,8.8125 -8.8125,8.8125 -4.865524,-2e-6 -8.8125,-3.94698 -8.8125,-8.8125 0,-4.865517 3.946976,-8.8125 8.8125,-8.8125 z"
       inkscape:connector-curvature="0"
       id="path4182"
       style="opacity:0.1;fill:#000000;fill-opacity:1;fill-rule:nonzero;stroke:none;display:inline" />
    <path
       d="m 153.01599,10.766739 c -0.51471,0 -1.04739,0.344944 -1.63524,1.034537 -0.27321,0.318749 -0.46156,0.637139 -0.65076,1.168027 -0.1892,0.530887 -0.37766,1.282402 -0.65075,2.486227 -0.11127,0.52293 -0.22801,1.051084 -0.35041,1.585179 -0.005,0.02589 -0.0651,0.215932 -0.10012,0.350408 -0.43816,-0.908198 -0.65409,-1.617146 -1.73535,-5.656585 -0.005,-0.0062 -0.0105,-0.01179 -0.0167,-0.01669 -0.004,-0.01205 -0.009,-0.02336 -0.0167,-0.03337 -0.01,-0.0076 -0.0213,-0.01322 -0.0334,-0.01669 -0.006,-4.54e-4 -0.0111,-4.54e-4 -0.0166,0 -0.011,-0.0019 -0.0224,-0.0019 -0.0334,0 -0.006,-4.54e-4 -0.0111,-4.54e-4 -0.0167,0 -0.006,0.0049 -0.0118,0.0105 -0.0166,0.01669 -0.006,0.0049 -0.0118,0.0105 -0.0167,0.01669 l -0.33372,0.317035 c -0.23103,-0.01896 -0.39584,-0.03337 -0.58402,-0.03337 -0.6807,0 -1.11839,0.126406 -1.53512,0.450525 -0.73237,0.572162 -1.23477,1.385409 -1.23477,2.052389 0,0.294731 0.062,0.613241 0.26698,1.034538 0.008,0.01357 0.0198,0.025 0.0334,0.03337 0.01,0.0076 0.0213,0.01321 0.0334,0.01669 0.006,4.54e-4 0.0111,4.54e-4 0.0167,0 0.011,0.0019 0.0224,0.0019 0.0334,0 0.006,4.54e-4 0.0111,4.54e-4 0.0167,0 0.006,-0.0049 0.0118,-0.0105 0.0167,-0.01669 l 0.78425,-0.517269 c 0.0136,-0.0084 0.025,-0.0198 0.0334,-0.03337 0.006,-0.0049 0.0118,-0.0105 0.0167,-0.01669 4.6e-4,-0.0056 4.6e-4,-0.01113 0,-0.01669 0.002,-0.01105 0.002,-0.02232 0,-0.03337 4.6e-4,-0.0056 4.6e-4,-0.01113 0,-0.01669 4.6e-4,-0.0056 4.6e-4,-0.01113 0,-0.01669 -0.27695,-0.587144 -0.36709,-0.827881 -0.36709,-1.084597 0,-0.295588 0.16844,-0.566384 0.45052,-0.717501 0.24902,-0.134887 0.48857,-0.166861 0.98448,-0.166861 0.1993,0 0.42923,0.0045 0.73419,0.01669 -0.50777,2.153237 -0.92214,3.536212 -1.26814,4.154837 -0.11155,0.196539 -0.22511,0.312787 -0.3671,0.38378 -0.14198,0.07099 -0.32928,0.100116 -0.61738,0.100116 -0.20625,0 -0.37279,-0.0167 -0.68413,-0.05006 -0.011,-0.0019 -0.0224,-0.0019 -0.0334,0 -0.006,-4.54e-4 -0.0111,-4.54e-4 -0.0167,0 -0.006,0.0049 -0.0118,0.0105 -0.0167,0.01669 -0.012,0.0035 -0.0233,0.0091 -0.0334,0.01669 l -0.53396,0.767561 c -0.008,0.01001 -0.0132,0.02132 -0.0167,0.03337 -4.4e-4,0.0056 -4.4e-4,0.01113 0,0.01669 -0.002,0.01105 -0.002,0.02232 0,0.03337 -4.4e-4,0.0056 -4.4e-4,0.01113 0,0.01669 0.005,0.0062 0.0105,0.01179 0.0167,0.01669 0.008,0.01357 0.0198,0.025 0.0334,0.03337 0.005,0.0062 0.0105,0.01179 0.0167,0.01669 0.011,0.0019 0.0223,0.0019 0.0334,0 0.3009,0.02229 0.45661,0.03337 0.61739,0.03337 0.48681,0 0.80964,-0.06055 1.11797,-0.250291 0.58361,-0.345406 1.15619,-1.168262 1.51843,-2.119134 0.15976,-0.429335 0.26739,-0.846487 0.61739,-2.252622 l 0.31703,1.318201 c 0.3238,1.384494 0.60125,2.220346 0.98448,2.986811 0.69073,1.404115 1.70448,2.102447 3.05356,2.102447 0.57933,10e-7 1.00519,-0.103925 1.51844,-0.400466 0.006,4.55e-4 0.0111,4.55e-4 0.0166,0 0.006,-0.0049 0.0118,-0.0105 0.0167,-0.01669 0.01,-0.01494 0.0156,-0.0322 0.0167,-0.05006 4.5e-4,-0.0056 4.5e-4,-0.01113 0,-0.01669 0.002,-0.01105 0.002,-0.02232 0,-0.03337 l -0.26698,-1.001165 c -0.005,-0.0062 -0.0105,-0.01179 -0.0167,-0.01669 -0.004,-0.01205 -0.009,-0.02336 -0.0166,-0.03337 -0.01,-0.0076 -0.0213,-0.01321 -0.0334,-0.01669 -0.006,-4.54e-4 -0.0111,-4.54e-4 -0.0167,0 -0.011,-0.0019 -0.0223,-0.0019 -0.0334,0 -0.006,-4.54e-4 -0.0112,-4.54e-4 -0.0167,0 -0.006,0.0049 -0.0118,0.0105 -0.0167,0.01669 -0.0136,0.0084 -0.025,0.0198 -0.0334,0.03337 -0.006,0.0049 -0.0118,0.0105 -0.0166,0.01669 -0.15516,0.365721 -0.23163,0.511128 -0.3671,0.667444 -0.18374,0.224573 -0.423,0.350407 -0.66744,0.350407 -0.64202,0 -1.26419,-0.495394 -1.81879,-1.53512 0.18467,-0.932695 0.29241,-1.381636 0.56733,-2.536286 0.47849,-1.936246 0.7327,-2.711555 1.0846,-3.437335 0.11224,-0.224488 0.2262,-0.376116 0.36709,-0.467211 0.14089,-0.09109 0.30666,-0.133488 0.55064,-0.133488 0.0829,0 0.13414,-0.0047 0.28367,0.01669 0.006,4.55e-4 0.0111,4.55e-4 0.0166,0 0.011,0.0019 0.0224,0.0019 0.0334,0 0.0196,-0.0058 0.0371,-0.01748 0.05,-0.03337 4.5e-4,-0.0056 4.5e-4,-0.01113 0,-0.01669 l 0.40047,-0.734187 c 0.006,-0.0049 0.0118,-0.0105 0.0167,-0.01669 4.5e-4,-0.0056 4.5e-4,-0.01113 0,-0.01669 0.002,-0.01105 0.002,-0.02232 0,-0.03337 4.5e-4,-0.0056 4.5e-4,-0.01113 0,-0.01669 -0.005,-0.0062 -0.0105,-0.01179 -0.0167,-0.01669 -0.008,-0.01357 -0.0198,-0.025 -0.0334,-0.03337 -0.005,-0.0062 -0.0105,-0.01179 -0.0166,-0.01669 -0.006,-4.54e-4 -0.0111,-4.54e-4 -0.0167,0 -0.12709,-0.01059 -0.24428,-0.03337 -0.35041,-0.03337 z"
       inkscape:connector-curvature="0"
       id="path6290"
       style="font-size:20.85853386px;font-style:italic;font-variant:normal;font-weight:bold;font-stretch:normal;text-align:start;line-height:100%;writing-mode:lr-tb;text-anchor:start;fill:#000000;fill-opacity:1;stroke:none;display:inline;font-family:URW Chancery L;-inkscape-font-specification:URW Chancery L Bold Italic" />
    <path
       d="m 110.23543,46.635954 c 0,1.057306 0.50675,2.3685 1.25171,3.239734 0.88544,1.011927 2.291,1.564644 3.8656,1.564644 0.80347,3e-6 1.4439,-0.17911 1.87757,-0.552228 0.43367,-0.373115 0.64427,-0.933228 0.64427,-1.638274 0,-1.153934 -0.5503,-2.408613 -1.4542,-3.35018 -0.88473,-0.910007 -2.18276,-1.398976 -3.68152,-1.398976 -0.79132,2e-6 -1.40885,0.187397 -1.84076,0.552228 -0.4319,0.364832 -0.66267,0.901537 -0.66267,1.583052 z m 0.69949,0.699488 c 0,-0.517247 0.20461,-0.902142 0.57063,-1.178085 0.36602,-0.275943 0.90566,-0.441783 1.60146,-0.441783 0.91206,4e-6 1.95489,0.263971 2.63229,0.644266 0.90605,0.512636 1.41738,1.307492 1.41738,2.172094 0,0.53583 -0.2062,0.94367 -0.58904,1.233308 -0.38284,0.289641 -0.95465,0.46019 -1.6935,0.46019 -1.1145,1e-6 -2.11052,-0.32219 -2.81636,-0.846749 -0.70585,-0.524557 -1.12286,-1.247767 -1.12286,-2.043241 z"
       inkscape:connector-curvature="0"
       id="path6288"
       style="font-size:20.85853386px;font-style:italic;font-variant:normal;font-weight:bold;font-stretch:normal;text-align:start;line-height:100%;writing-mode:lr-tb;text-anchor:start;fill:#000000;fill-opacity:1;stroke:none;display:inline;font-family:URW Chancery L;-inkscape-font-specification:URW Chancery L Bold Italic" />
    <path
       d="m 185.76301,48.666765 -0.25679,-0.825413 0,-0.03668 c -0.0176,-1.168039 -0.26703,-1.934042 -0.82541,-2.641322 -0.50179,-0.627235 -1.03545,-0.935468 -1.70586,-0.935468 -0.32979,0 -0.59183,0.04597 -1.02717,0.22011 -0.007,0.0054 -0.013,0.01154 -0.0184,0.01834 -0.0149,0.0092 -0.0275,0.02177 -0.0367,0.03668 -0.007,0.0054 -0.013,0.01154 -0.0184,0.01835 -5e-4,0.0061 -5e-4,0.01224 0,0.01834 -0.002,0.01214 -0.002,0.02454 0,0.03668 -5e-4,0.0061 -5e-4,0.01224 0,0.01835 0.006,0.0068 0.0115,0.01296 0.0184,0.01834 l 0.58696,0.898782 c 0.009,0.01492 0.0218,0.02748 0.0367,0.03668 0.006,0.0068 0.0115,0.01296 0.0184,0.01835 0.006,4.99e-4 0.0122,4.99e-4 0.0184,0 0.0122,0.002 0.0246,0.002 0.0367,0 0.006,4.99e-4 0.0122,4.99e-4 0.0184,0 0.38534,-0.108378 0.69787,-0.165083 0.99049,-0.165083 0.45068,0 0.73004,0.146291 0.93547,0.495247 0.19099,0.324418 0.29612,0.862464 0.33017,1.5958 l -2.58629,-0.641989 -0.0184,0 c -0.17301,-0.169926 -0.25483,-0.269799 -0.47691,-0.458562 -0.006,-5e-4 -0.0122,-5e-4 -0.0184,0 -0.006,-0.0068 -0.0115,-0.01296 -0.0184,-0.01834 -0.006,-5e-4 -0.0122,-5e-4 -0.0184,0 -0.0122,-0.002 -0.0246,-0.002 -0.0367,0 -0.006,-5e-4 -0.0122,-5e-4 -0.0184,0 -0.007,0.0054 -0.013,0.01154 -0.0184,0.01834 -0.0149,0.0092 -0.0275,0.02176 -0.0367,0.03668 -0.007,0.0054 -0.013,0.01154 -0.0184,0.01835 -0.002,0.01214 -0.002,0.02454 0,0.03668 l 0,0.183426 c -0.12235,-0.02938 -0.25254,-0.05972 -0.34851,-0.09171 -0.006,-4.99e-4 -0.0122,-4.99e-4 -0.0184,0 -0.94131,-0.232271 -1.45418,-0.390546 -1.74254,-0.58696 -0.28836,-0.196415 -0.37422,-0.420923 -0.49525,-0.917126 -0.001,-0.01963 -0.008,-0.0386 -0.0184,-0.05503 l -0.40354,-0.476906 c -0.011,-0.0083 -0.0234,-0.01453 -0.0367,-0.01834 -0.006,-0.0068 -0.0115,-0.01295 -0.0184,-0.01834 -0.0122,-0.002 -0.0246,-0.002 -0.0367,0 -0.006,-5e-4 -0.0122,-5e-4 -0.0184,0 -0.0196,0.0012 -0.0386,0.0075 -0.055,0.01834 -0.007,0.0054 -0.0129,0.01154 -0.0184,0.01834 -0.0108,0.01642 -0.0171,0.0354 -0.0184,0.05503 -5e-4,0.0061 -5e-4,0.01224 0,0.01835 -0.0122,0.343571 -0.0184,0.605976 -0.0184,0.697016 l -0.0184,1.100551 c 0,0.366047 -0.006,0.692673 -0.0184,0.972152 -0.049,1.481129 -0.055,1.49036 -0.055,2.017677 0,0.323327 0.0172,0.540831 0.11006,0.752043 0.0929,0.211212 0.24252,0.401287 0.49524,0.678673 0.2538,0.284749 0.45736,0.492936 0.64199,0.623645 0.18463,0.130711 0.36355,0.183426 0.53193,0.183426 0.0611,0 0.1746,0.0045 0.31183,-0.03668 0.007,-0.0054 0.013,-0.01154 0.0184,-0.01834 0.0149,-0.0092 0.0275,-0.02176 0.0367,-0.03668 0.007,-0.0054 0.0129,-0.01154 0.0184,-0.01834 0.002,-0.01214 0.002,-0.02454 0,-0.03668 5e-4,-0.0061 5e-4,-0.01224 0,-0.01834 5e-4,-0.0061 5e-4,-0.01224 0,-0.01834 l -0.34851,-0.935468 c -0.006,-0.02161 -0.0192,-0.04078 -0.0367,-0.05503 -0.011,-0.0083 -0.0234,-0.01453 -0.0367,-0.01834 -0.006,-5e-4 -0.0122,-5e-4 -0.0184,0 -0.0122,-0.002 -0.0246,-0.002 -0.0367,0 -0.25859,0.03695 -0.34248,0.05503 -0.44022,0.05503 -0.10971,0 -0.19217,-0.01492 -0.23845,-0.03668 -0.0463,-0.02176 -0.0617,-0.05315 -0.0917,-0.128397 -0.0599,-0.150482 -0.0917,-0.478324 -0.0917,-1.063867 l 0,-2.916459 c 0.86732,0.935253 1.09658,1.079327 2.56795,1.467401 0.0297,0.484059 0.0512,0.651272 0.0734,0.917126 0.0122,0.268889 0.0184,0.428016 0.0184,0.495248 -5e-4,0.0061 -5e-4,0.01224 0,0.01834 -7.1e-4,-0.0033 -0.001,0.05241 0,0.110055 0.001,0.05764 0.0119,0.142272 0.0184,0.22011 -5e-4,0.0061 -5e-4,0.01224 0,0.01834 0.006,0.0068 0.0115,0.01296 0.0184,0.01835 -5e-4,0.0061 -5e-4,0.01224 0,0.01834 0.1605,0.222221 0.19651,0.257896 0.36685,0.476905 0.006,0.0068 0.0115,0.01296 0.0184,0.01834 0.011,0.0083 0.0234,0.01453 0.0367,0.01834 0.006,5e-4 0.0122,5e-4 0.0184,0 0.0122,0.002 0.0246,0.002 0.0367,0 0.006,5e-4 0.0122,5e-4 0.0184,0 0.007,-0.0054 0.013,-0.01154 0.0184,-0.01834 0.0149,-0.0092 0.0275,-0.02176 0.0367,-0.03668 0.007,-0.0054 0.013,-0.01154 0.0184,-0.01835 0.002,-0.01214 0.002,-0.02454 0,-0.03668 l 0,-2.054362 2.5496,0.641988 0,0.293481 c 0.0244,0.513324 0.0367,0.911148 0.0367,0.972153 0,0.231614 -0.012,0.323776 -0.11007,0.421878 -0.0981,0.0981 -0.3133,0.202375 -0.71535,0.36685 -0.007,0.0054 -0.0129,0.01154 -0.0184,0.01834 -0.0149,0.0092 -0.0275,0.02177 -0.0367,0.03668 -0.007,0.0054 -0.0129,0.01154 -0.0184,0.01835 -5e-4,0.0061 -5e-4,0.01224 0,0.01834 -0.002,0.01214 -0.002,0.02454 0,0.03668 -5e-4,0.0061 -5e-4,0.01224 0,0.01835 0.004,0.01325 0.01,0.02568 0.0184,0.03668 0.006,4.99e-4 0.0122,4.99e-4 0.0184,0 l 0.82541,0.807071 c 0.006,0.0068 0.0115,0.01295 0.0184,0.01834 0.006,0.0068 0.0115,0.01296 0.0184,0.01835 0.0121,0.002 0.0246,0.002 0.0367,0 0.006,5e-4 0.0122,5e-4 0.0184,0 0.14624,-0.01994 0.27031,-0.05695 0.36685,-0.128398 0.0965,-0.07144 0.15984,-0.174681 0.20177,-0.293479 5e-4,-0.0061 5e-4,-0.01224 0,-0.01835 5e-4,-0.0061 5e-4,-0.01224 0,-0.01834 l -0.055,-2.476239 0.11006,0.03668 c 0.0122,0.002 0.0246,0.002 0.0367,0 0.006,5e-4 0.0122,5e-4 0.0184,0 0.0196,-0.0012 0.0386,-0.0075 0.055,-0.01835 0.0174,-0.01425 0.0303,-0.03342 0.0367,-0.05503 0.002,-0.01214 0.002,-0.02454 0,-0.03668 0.002,-0.01214 0.002,-0.02454 0,-0.03668 z"
       inkscape:connector-curvature="0"
       id="path6286"
       style="font-size:20.85853386px;font-style:italic;font-variant:normal;font-weight:bold;font-stretch:normal;text-align:start;line-height:100%;writing-mode:lr-tb;text-anchor:start;fill:#000000;fill-opacity:1;stroke:none;display:inline;font-family:URW Chancery L;-inkscape-font-specification:URW Chancery L Bold Italic" />
    <path
       d="m 146.59386,85.233259 c 0.60791,0 1.24378,-0.330163 1.72586,-0.796548 0.48208,-0.466392 0.81315,-1.071021 0.81315,-1.659491 0,-0.265355 -0.0665,-0.499636 -0.21574,-0.730174 -0.14925,-0.23053 -0.37107,-0.460718 -0.69698,-0.71358 -0.37336,-0.296491 -0.59841,-0.515276 -0.73017,-0.71358 -0.13177,-0.198297 -0.18255,-0.372077 -0.18255,-0.614004 0,-0.798911 0.78269,-1.526728 1.69268,-1.526728 0.44798,0 0.90233,0.191285 1.17823,0.497842 0.22059,0.2416 0.31089,0.448645 0.39828,0.92931 -4.5e-4,0.0057 -4.5e-4,0.0111 0,0.01659 0.005,0.0064 0.0105,0.01175 0.0166,0.01659 0.008,0.01353 0.0197,0.02484 0.0332,0.03317 0.005,0.0064 0.0105,0.01175 0.0166,0.01659 0.006,4.55e-4 0.011,4.55e-4 0.0166,0 0.011,0.0021 0.0222,0.0021 0.0332,0 0.006,4.55e-4 0.0111,4.55e-4 0.0166,0 0.012,-0.0036 0.0232,-0.009 0.0332,-0.01659 l 0.16595,-0.116162 c 0.008,-0.01 0.0132,-0.02121 0.0166,-0.03317 0.006,-0.005 0.0117,-0.01046 0.0166,-0.01659 l 0.49784,-1.161642 c 4.6e-4,-0.0057 4.6e-4,-0.01111 0,-0.01659 0.002,-0.01096 0.002,-0.02221 0,-0.03317 4.6e-4,-0.0057 4.6e-4,-0.01111 0,-0.01659 -0.005,-0.0064 -0.0105,-0.01174 -0.0166,-0.01659 4.5e-4,-0.0057 4.5e-4,-0.01111 0,-0.01659 -0.4046,-0.543316 -0.96642,-0.796547 -1.70928,-0.796547 -0.87534,0 -1.74211,0.356494 -2.38965,0.896116 -0.64755,0.539629 -1.07867,1.264243 -1.07867,2.007984 0,0.240219 0.058,0.437299 0.21573,0.647199 0.1578,0.209893 0.40143,0.440665 0.81315,0.763361 0.40266,0.314409 0.64021,0.511994 0.76337,0.680393 0.12315,0.168398 0.14935,0.30267 0.14935,0.531036 0,0.668968 -0.50655,1.244617 -1.09527,1.244617 -0.21774,0 -0.32277,-0.03595 -0.41487,-0.149357 -0.0921,-0.113435 -0.17238,-0.33165 -0.23232,-0.680392 4.4e-4,-0.0057 4.4e-4,-0.01111 0,-0.01659 -0.005,-0.0064 -0.0105,-0.01175 -0.0166,-0.01659 -0.008,-0.01353 -0.0197,-0.02484 -0.0332,-0.03317 -0.005,-0.0064 -0.0105,-0.01175 -0.0166,-0.01659 -0.006,-4.48e-4 -0.0111,-4.48e-4 -0.0166,0 -0.011,-0.0021 -0.0222,-0.0021 -0.0332,0 -0.006,-4.48e-4 -0.0111,-4.48e-4 -0.0166,0 -0.006,0.005 -0.0117,0.01046 -0.0166,0.01659 -0.006,-4.56e-4 -0.011,-4.56e-4 -0.0166,0 l -0.73017,0.514436 c -0.0158,0.01288 -0.0273,0.03025 -0.0332,0.04976 -0.002,0.01096 -0.002,0.02221 0,0.03317 -4.6e-4,0.0057 -4.6e-4,0.01111 0,0.01659 0.0349,0.32061 0.14653,0.573977 0.3319,0.746775 0.18535,0.172791 0.43569,0.248917 0.74676,0.248917 z"
       inkscape:connector-curvature="0"
       id="path6284"
       style="font-size:20.85853386px;font-style:italic;font-variant:normal;font-weight:bold;font-stretch:normal;text-align:start;line-height:100%;writing-mode:lr-tb;text-anchor:start;fill:#000000;fill-opacity:1;stroke:none;display:inline;font-family:URW Chancery L;-inkscape-font-specification:URW Chancery L Bold Italic" />
    <path
       d="m 30.875,31.75 5.03125,10.0625 c 0.08495,-0.16942 0.157332,-0.334624 0.25,-0.5 L 31.53125,32.09375 30.875,31.75 z m 34.25,0 -0.65625,0.34375 -4.625,9.21875 c 0.09267,0.165376 0.165053,0.33058 0.25,0.5 L 65.125,31.75 z M 48,39.09375 c -4.865524,0 -8.8125,3.946983 -8.8125,8.8125 0,0.167938 0.02197,0.334374 0.03125,0.5 0.25961,-4.632905 4.083665,-8.3125 8.78125,-8.3125 4.697585,-2e-6 8.52164,3.679593 8.78125,8.3125 0.0093,-0.165626 0.03125,-0.332061 0.03125,-0.5 0,-4.865519 -3.946976,-8.812502 -8.8125,-8.8125 z m -33.4375,9.3125 -2.40625,0.5 23.1875,4.84375 c 0.162806,0.423637 0.358154,0.819428 0.5625,1.21875 l 0.25,-0.5 C 35.846294,53.913145 35.574371,53.350099 35.34375,52.75 L 14.5625,48.40625 z m 66.875,0 L 60.65625,52.75 c -0.230621,0.600099 -0.502544,1.163145 -0.8125,1.71875 l 0.25,0.5 c 0.204346,-0.399322 0.399694,-0.795113 0.5625,-1.21875 l 23.1875,-4.84375 -2.40625,-0.5 z M 41.4375,59.75 31.53125,64.65625 30.875,66 41.4375,60.75 c 0.555609,0.309967 1.118655,0.58188 1.71875,0.8125 L 48,84.75 52.84375,61.5625 C 53.443845,61.33188 54.006904,61.059967 54.5625,60.75 L 65.125,66 64.46875,64.65625 54.5625,59.75 c -0.555596,0.309967 -1.118655,0.58188 -1.71875,0.8125 L 48,83.75 43.15625,60.5625 C 42.556155,60.33188 41.993109,60.059967 41.4375,59.75 z"
       inkscape:connector-curvature="0"
       id="path4164"
       style="opacity:0.2;fill:#ffffff;fill-opacity:1;fill-rule:nonzero;stroke:none;display:inline" />
    <path
       d="M 48,12.03125 43.15625,35.25 c -0.595098,0.228698 -1.167369,0.474491 -1.71875,0.78125 L 30.875,30.75 l 0.65625,1.34375 9.90625,4.9375 C 41.988881,36.724491 42.561152,36.478698 43.15625,36.25 L 48,13.03125 52.84375,36.25 c 0.595098,0.228698 1.167369,0.474491 1.71875,0.78125 L 64.46875,32.09375 65.125,30.75 54.5625,36.03125 C 54.011119,35.724491 53.438848,35.478698 52.84375,35.25 L 48,12.03125 z M 35.90625,41.8125 c -0.203934,0.406732 -0.397513,0.820687 -0.5625,1.25 l -23.1875,4.84375 2.40625,0.5 20.78125,-4.34375 c 0.233711,-0.608139 0.49736,-1.187601 0.8125,-1.75 l -0.25,-0.5 z m 24.1875,0 -0.25,0.5 c 0.315153,0.562399 0.578789,1.141861 0.8125,1.75 l 20.78125,4.34375 2.40625,-0.5 -23.1875,-4.84375 c -0.164987,-0.429313 -0.358565,-0.843268 -0.5625,-1.25 z m -20.875,6.59375 c -0.0093,0.165626 -0.03125,0.332062 -0.03125,0.5 0,4.86552 3.946976,8.812498 8.8125,8.8125 4.865524,0 8.8125,-3.946977 8.8125,-8.8125 0,-0.167938 -0.02197,-0.334374 -0.03125,-0.5 -0.25961,4.63291 -4.083665,8.3125 -8.78125,8.3125 -4.697585,-2e-6 -8.52164,-3.679592 -8.78125,-8.3125 z m -3.3125,6.5625 L 30.875,65 l 0.65625,-0.34375 4.625,-9.1875 c -0.09114,-0.163378 -0.164882,-0.333667 -0.25,-0.5 z m 24.1875,0 c -0.08512,0.166333 -0.158856,0.336622 -0.25,0.5 l 4.625,9.1875 L 65.125,65 60.09375,54.96875 z"
       inkscape:connector-curvature="0"
       id="path4173"
       style="opacity:0.2;fill:#000000;fill-opacity:1;fill-rule:nonzero;stroke:none;display:inline" />
    <g
       id="g4209">
      <path
         d="M 68.34375,11.65625 A 0.80733087,0.80733087 0 0 0 68.25,11.6875 c -0.843306,0.361316 -1.378601,1.048268 -1.78125,1.65625 -0.402649,0.607982 -0.718653,1.167755 -1.0625,1.53125 a 0.80733087,0.80733087 0 0 0 -0.0625,0.09375 c -7.418887,10.271752 -14.948352,20.50627 -22.3125,30.8125 a 0.80733087,0.80733087 0 0 0 -0.09375,0.125 C 37.382228,58.382645 31.774731,70.900479 26.25,83.375 a 0.80733087,0.80733087 0 0 0 -0.03125,0.0625 c -0.333625,1.075595 0.358404,2.081964 1.1875,2.46875 0.414548,0.193393 0.861067,0.286834 1.34375,0.1875 0.469172,-0.09655 0.949634,-0.389049 1.25,-0.84375 0.0035,-0.0053 -0.0035,-0.02589 0,-0.03125 l 0.03125,0 C 38.039395,74.124806 46.141208,63.064533 54.09375,51.9375 a 0.80733087,0.80733087 0 0 0 0.09375,-0.125 C 59.75565,39.312292 65.357444,26.792103 70.90625,14.28125 a 0.80733087,0.80733087 0 0 0 0.0625,-0.1875 c 0.2153,-1.449647 -1.106756,-2.68708 -2.53125,-2.4375 a 0.80733087,0.80733087 0 0 0 -0.09375,0 z"
         id="path4154"
         style="opacity:0.05;fill:#000000;fill-opacity:1;fill-rule:evenodd;stroke:none" />
      <path
         d="m 68.5625,12.4375 c -1.232542,0.528085 -1.676923,2.053895 -2.572494,3.000641 C 58.56835,25.713727 51.047294,35.949864 43.6875,46.25 38.13153,58.727963 32.5236,71.215533 27,83.6875 c -0.41935,1.35197 1.593841,2.290799 2.34375,1.09375 8.018809,-11.109091 16.136592,-22.179008 24.09375,-33.3125 5.568715,-12.501477 11.170858,-24.991208 16.71875,-37.5 0.138103,-0.92987 -0.676692,-1.691924 -1.59375,-1.53125 z"
         inkscape:connector-curvature="0"
         id="path4148"
         style="opacity:0.07999998;fill:#000000;fill-opacity:1;fill-rule:evenodd;stroke:none" />
      <path
         d="m 68.78125,13.125 a 0.61862622,0.61862622 0 0 0 -0.4375,0.25 l -23.9375,33 a 0.61862622,0.61862622 0 0 0 -0.0625,0.125 l -16.625,37.25 a 0.61862622,0.61862622 0 0 0 1.0625,0.625 l 23.9375,-33.03125 a 0.61862622,0.61862622 0 0 0 0.0625,-0.125 L 69.40625,14 a 0.61862622,0.61862622 0 0 0 -0.625,-0.875 z"
         id="path4144"
         style="opacity:0.12000002;fill:#000000;fill-opacity:1;fill-rule:evenodd;stroke:none" />
      <path
         d="m 68.84375,13.75 -23.9375,33 L 28.28125,84 52.21875,50.96875 68.84375,13.75 z"
         inkscape:connector-curvature="0"
         id="path4113"
         style="opacity:0.3;fill:#000000;fill-opacity:1;fill-rule:evenodd;stroke:none" />
      <g
         transform="matrix(0.73161185,0.4223963,-0.4223963,0.73161185,28.776714,-25.98914)"
         id="g5968"
         style="display:inline">
        <g
           id="g5928">
          <path
             d="m 69,64 -10,0 5,-48 5,48 z"
             inkscape:connector-curvature="0"
             id="path5923"
             style="fill:url(#linearGradient5974);fill-opacity:1;fill-rule:evenodd;stroke:none" />
          <path
             d="m 69,63.999997 -10,0 L 64,112 69,63.999997 z"
             inkscape:connector-curvature="0"
             id="path5926"
             style="fill:url(#linearGradient5976);fill-opacity:1;fill-rule:evenodd;stroke:none" />
        </g>
        <path
           d="m 65.503089,63.920891 a 1.7404202,1.7404202 0 1 1 -3.480841,0 1.7404202,1.7404202 0 1 1 3.480841,0 z"
           transform="matrix(1.1491478,0,0,1.1491478,-9.2727304,-9.454551)"
           id="path5958"
           style="fill:url(#radialGradient5978);fill-opacity:1;fill-rule:evenodd;stroke:none" />
      </g>
    </g>
  </g>
  <g
     id="layer6"
     style="display:none">
    <path
       d="M 47.999999,21 44.35135,38.467907 c -0.448096,0.172203 -0.884654,0.361922 -1.299832,0.592904 l -7.935815,-3.967905 3.967908,7.93581 C 38.846307,43.45219 38.643879,43.893435 38.4679,44.351351 L 21,48 38.4679,51.648649 c 0.173653,0.451861 0.38232,0.881472 0.615711,1.299831 l -3.967908,7.935811 7.935815,-3.967905 c 0.418352,0.233398 0.847973,0.442059 1.299832,0.615709 L 47.999999,75 51.648647,57.532095 c 0.451859,-0.17365 0.88148,-0.382311 1.299832,-0.615709 l 7.935815,3.967905 -3.967908,-7.935811 c 0.233391,-0.418359 0.442058,-0.84797 0.615711,-1.299831 L 75,48 57.532097,44.351351 C 57.356118,43.893435 57.15369,43.45219 56.916386,43.028716 l 3.967908,-7.93581 -7.935815,3.967905 C 52.533301,38.829829 52.096743,38.64011 51.648647,38.467907 L 47.999999,21 z m 0,20.36402 c 3.66364,0 6.635982,2.972344 6.635982,6.63598 0,3.66364 -2.972342,6.63598 -6.635982,6.63598 -3.663641,-1e-6 -6.635983,-2.972343 -6.635983,-6.63598 0,-3.663634 2.972342,-6.63598 6.635983,-6.63598 z"
       inkscape:connector-curvature="0"
       id="path6231-8"
       style="fill:url(#radialGradient6260-3);fill-opacity:1;fill-rule:nonzero;stroke:none;display:inline" />
    <path
       d="m 52.53862,10.835584 c -0.51471,0 -1.04739,0.344774 -1.63524,1.034025 -0.27321,0.318589 -0.46156,0.636822 -0.65076,1.167445 -0.1892,0.530625 -0.37766,1.281765 -0.65075,2.484993 -0.11127,0.52267 -0.22801,1.050562 -0.35041,1.584392 -0.005,0.02588 -0.0651,0.215824 -0.10012,0.350233 -0.43816,-0.907747 -0.65409,-1.616343 -1.73535,-5.653775 -0.005,-0.0062 -0.0105,-0.01178 -0.0167,-0.01668 -0.004,-0.01204 -0.009,-0.02335 -0.0167,-0.03335 -0.01,-0.0076 -0.0213,-0.01321 -0.0334,-0.01668 -0.006,-4.54e-4 -0.0111,-4.54e-4 -0.0166,0 -0.011,-0.0019 -0.0224,-0.0019 -0.0334,0 -0.006,-4.54e-4 -0.0111,-4.54e-4 -0.0167,0 -0.006,0.0049 -0.0118,0.0105 -0.0166,0.01668 -0.006,0.0049 -0.0118,0.01049 -0.0167,0.01668 l -0.33372,0.316879 c -0.23103,-0.01895 -0.39584,-0.03335 -0.58402,-0.03335 -0.6807,0 -1.11839,0.126343 -1.53512,0.450301 -0.73237,0.571878 -1.23477,1.384721 -1.23477,2.05137 0,0.294585 0.062,0.612935 0.26698,1.034023 0.008,0.01356 0.0198,0.02499 0.0334,0.03335 0.01,0.0076 0.0213,0.0132 0.0334,0.01668 0.006,4.55e-4 0.0111,4.55e-4 0.0167,0 0.011,0.0019 0.0224,0.0019 0.0334,0 0.006,4.55e-4 0.0111,4.55e-4 0.0167,0 0.006,-0.0049 0.0118,-0.01049 0.0167,-0.01668 l 0.78425,-0.517012 c 0.0136,-0.0084 0.025,-0.01979 0.0334,-0.03335 0.006,-0.0049 0.0118,-0.0105 0.0167,-0.01668 4.6e-4,-0.0056 4.6e-4,-0.01112 0,-0.01668 0.002,-0.01104 0.002,-0.02231 0,-0.03335 4.6e-4,-0.0056 4.6e-4,-0.01112 0,-0.01668 4.6e-4,-0.0056 4.6e-4,-0.01112 0,-0.01668 -0.27695,-0.586852 -0.36709,-0.82747 -0.36709,-1.084057 0,-0.295442 0.16844,-0.566103 0.45052,-0.717146 0.24902,-0.134819 0.48857,-0.166778 0.98448,-0.166778 0.1993,0 0.42923,0.0045 0.73419,0.01668 -0.50777,2.152167 -0.92214,3.534455 -1.26814,4.152773 -0.11155,0.196441 -0.22511,0.312631 -0.3671,0.383589 -0.14198,0.07095 -0.32928,0.100067 -0.61738,0.100067 -0.20625,0 -0.37279,-0.01669 -0.68413,-0.05004 -0.011,-0.0019 -0.0224,-0.0019 -0.0334,0 -0.006,-4.54e-4 -0.0111,-4.54e-4 -0.0167,0 -0.006,0.0049 -0.0118,0.0105 -0.0167,0.01668 -0.012,0.0035 -0.0234,0.0091 -0.0334,0.01668 l -0.53396,0.76718 c -0.008,0.01 -0.0132,0.02131 -0.0167,0.03335 -4.4e-4,0.0056 -4.4e-4,0.01112 0,0.01668 -0.002,0.01104 -0.002,0.02232 0,0.03335 -4.4e-4,0.0056 -4.4e-4,0.01112 0,0.01668 0.005,0.0062 0.0105,0.01178 0.0167,0.01668 0.008,0.01356 0.0198,0.02499 0.0334,0.03335 0.005,0.0062 0.0105,0.01178 0.0167,0.01668 0.011,0.0019 0.0223,0.0019 0.0334,0 0.3009,0.02228 0.45661,0.03335 0.61739,0.03335 0.48681,0 0.80964,-0.06052 1.11797,-0.250166 0.58361,-0.345234 1.15619,-1.167682 1.51843,-2.118082 0.15976,-0.429122 0.26739,-0.846067 0.61739,-2.251503 l 0.31703,1.317546 c 0.3238,1.383807 0.60125,2.219244 0.98448,2.985327 0.69073,1.403418 1.70448,2.101404 3.05356,2.101404 0.57933,0 1.00519,-0.103875 1.51844,-0.400268 0.006,4.54e-4 0.0111,4.54e-4 0.0166,0 0.006,-0.0049 0.0118,-0.0105 0.0167,-0.01668 0.01,-0.01493 0.0156,-0.03218 0.0167,-0.05003 4.5e-4,-0.0056 4.5e-4,-0.01112 0,-0.01668 0.002,-0.01104 0.002,-0.02231 0,-0.03335 l -0.26698,-1.000668 c -0.005,-0.0062 -0.0105,-0.01178 -0.0167,-0.01668 -0.004,-0.01204 -0.009,-0.02335 -0.0166,-0.03335 -0.01,-0.0076 -0.0213,-0.0132 -0.0334,-0.01668 -0.006,-4.55e-4 -0.0111,-4.55e-4 -0.0167,0 -0.011,-0.0019 -0.0223,-0.0019 -0.0334,0 -0.006,-4.55e-4 -0.0112,-4.55e-4 -0.0167,0 -0.006,0.0049 -0.0118,0.0105 -0.0167,0.01668 -0.0136,0.0084 -0.025,0.01979 -0.0334,0.03335 -0.006,0.0049 -0.0118,0.01049 -0.0166,0.01668 -0.15516,0.365539 -0.23163,0.510875 -0.3671,0.667112 -0.18374,0.224462 -0.423,0.350234 -0.66744,0.350234 -0.64202,0 -1.26419,-0.495149 -1.81879,-1.534357 0.18467,-0.932233 0.29241,-1.380951 0.56733,-2.535026 0.47849,-1.935285 0.7327,-2.710209 1.0846,-3.435627 0.11224,-0.224377 0.2262,-0.375931 0.36709,-0.466979 0.14089,-0.09106 0.30666,-0.133423 0.55064,-0.133423 0.0829,0 0.13414,-0.0047 0.28367,0.01668 0.006,4.54e-4 0.0111,4.54e-4 0.0166,0 0.011,0.0019 0.0224,0.0019 0.0334,0 0.0196,-0.0058 0.0371,-0.01747 0.05,-0.03335 4.5e-4,-0.0056 4.5e-4,-0.01112 0,-0.01668 l 0.40047,-0.733824 c 0.006,-0.0049 0.0118,-0.01049 0.0167,-0.01668 4.5e-4,-0.0056 4.5e-4,-0.01113 0,-0.01668 0.002,-0.01104 0.002,-0.02231 0,-0.03335 4.5e-4,-0.0056 4.5e-4,-0.01112 0,-0.01668 -0.005,-0.0062 -0.0105,-0.01178 -0.0167,-0.01668 -0.008,-0.01356 -0.0198,-0.02499 -0.0334,-0.03335 -0.005,-0.0062 -0.0105,-0.01179 -0.0166,-0.01668 -0.006,-4.54e-4 -0.0111,-4.54e-4 -0.0167,0 -0.12709,-0.01058 -0.24428,-0.03335 -0.35041,-0.03335 z"
       inkscape:connector-curvature="0"
       id="path6290-9"
       style="font-size:20.85853386px;font-style:italic;font-variant:normal;font-weight:bold;font-stretch:normal;text-align:start;line-height:100%;writing-mode:lr-tb;text-anchor:start;fill:#ffffff;fill-opacity:1;stroke:none;display:inline;font-family:URW Chancery L;-inkscape-font-specification:URW Chancery L Bold Italic" />
    <path
       d="m 9.75806,46.68698 c 0,1.056781 0.506747,2.367323 1.251715,3.238125 0.885435,1.011425 2.290995,1.563866 3.865592,1.563866 0.803477,4e-6 1.443904,-0.179021 1.877573,-0.551952 0.433667,-0.372931 0.644265,-0.932766 0.644265,-1.63746 0,-1.153361 -0.550292,-2.407418 -1.454199,-3.348516 -0.884728,-0.909555 -2.182754,-1.398281 -3.681516,-1.398281 -0.791315,10e-7 -1.408849,0.187304 -1.840758,0.551953 -0.431907,0.36465 -0.662672,0.901089 -0.662672,1.582265 z m 0.699488,0.699141 c 0,-0.51699 0.204612,-0.901693 0.570634,-1.1775 0.366023,-0.275806 0.905653,-0.441563 1.60146,-0.441563 0.912056,3e-6 1.954885,0.263839 2.632283,0.643945 0.906054,0.512383 1.417387,1.306843 1.417387,2.171016 0,0.535564 -0.206208,0.9432 -0.589045,1.232694 -0.382837,0.289498 -0.954647,0.459962 -1.693497,0.459962 -1.114496,2e-6 -2.110513,-0.32203 -2.81636,-0.846328 -0.705847,-0.524297 -1.122862,-1.247148 -1.122862,-2.042226 z"
       inkscape:connector-curvature="0"
       id="path6288-1"
       style="font-size:20.85853386px;font-style:italic;font-variant:normal;font-weight:bold;font-stretch:normal;text-align:start;line-height:100%;writing-mode:lr-tb;text-anchor:start;fill:#ffffff;fill-opacity:1;stroke:none;display:inline;font-family:URW Chancery L;-inkscape-font-specification:URW Chancery L Bold Italic" />
    <path
       d="m 85.28564,48.716783 -0.25679,-0.825003 0,-0.03666 c -0.0176,-1.167457 -0.26703,-1.933081 -0.82541,-2.640008 -0.50179,-0.626924 -1.03545,-0.935004 -1.70586,-0.935004 -0.32979,0 -0.59183,0.04595 -1.02717,0.22 -0.007,0.0054 -0.013,0.01153 -0.0184,0.01833 -0.0149,0.0092 -0.0275,0.02176 -0.0367,0.03666 -0.007,0.0054 -0.013,0.01153 -0.0184,0.01833 -5e-4,0.0061 -5e-4,0.01223 0,0.01833 -0.002,0.01213 -0.002,0.02453 0,0.03666 -5e-4,0.0061 -5e-4,0.01223 0,0.01833 0.006,0.0068 0.0115,0.01295 0.0184,0.01834 l 0.58696,0.898337 c 0.009,0.01491 0.0218,0.02747 0.0367,0.03666 0.006,0.0068 0.0115,0.01295 0.0184,0.01833 0.006,5e-4 0.0122,5e-4 0.0184,0 0.0122,0.002 0.0246,0.002 0.0367,0 0.006,5e-4 0.0122,5e-4 0.0184,0 0.38534,-0.108324 0.69787,-0.165001 0.99049,-0.165001 0.45068,0 0.73004,0.14622 0.93547,0.495002 0.19099,0.324257 0.29612,0.862035 0.33017,1.595006 l -2.58629,-0.641669 -0.0184,0 c -0.17301,-0.169842 -0.25483,-0.269665 -0.47691,-0.458335 -0.006,-5e-4 -0.0122,-5e-4 -0.0184,0 -0.006,-0.0068 -0.0115,-0.01295 -0.0184,-0.01833 -0.006,-4.98e-4 -0.0122,-4.98e-4 -0.0184,0 -0.0122,-0.002 -0.0246,-0.002 -0.0367,0 -0.006,-4.98e-4 -0.0122,-4.98e-4 -0.0184,0 -0.007,0.0054 -0.013,0.01154 -0.0184,0.01833 -0.0149,0.0092 -0.0275,0.02175 -0.0367,0.03666 -0.007,0.0054 -0.013,0.01153 -0.0184,0.01833 -0.002,0.01213 -0.002,0.02453 0,0.03666 l 0,0.183333 c -0.12235,-0.02937 -0.25254,-0.05969 -0.34851,-0.09166 -0.006,-4.99e-4 -0.0122,-4.99e-4 -0.0184,0 -0.94131,-0.232156 -1.45418,-0.390352 -1.74254,-0.586668 -0.28836,-0.196318 -0.37422,-0.420714 -0.49525,-0.91667 -0.001,-0.01962 -0.008,-0.03859 -0.0184,-0.055 l -0.40354,-0.476669 c -0.011,-0.0083 -0.0234,-0.01452 -0.0367,-0.01833 -0.006,-0.0068 -0.0115,-0.01295 -0.0184,-0.01834 -0.0122,-0.002 -0.0246,-0.002 -0.0367,0 -0.006,-5e-4 -0.0122,-5e-4 -0.0184,0 -0.0196,0.0012 -0.0386,0.0075 -0.055,0.01834 -0.007,0.0054 -0.0129,0.01153 -0.0184,0.01833 -0.0108,0.01641 -0.0171,0.03538 -0.0184,0.055 -5e-4,0.0061 -5e-4,0.01223 0,0.01833 -0.0122,0.343399 -0.0184,0.605675 -0.0184,0.696669 l -0.0184,1.100004 c 0,0.365866 -0.006,0.692329 -0.0184,0.97167 -0.049,1.480392 -0.055,1.48962 -0.055,2.016675 0,0.323166 0.0172,0.540561 0.11006,0.751669 0.0929,0.211107 0.24252,0.401088 0.49524,0.678336 0.2538,0.284607 0.45736,0.49269 0.64199,0.623335 0.18463,0.130645 0.36355,0.183334 0.53193,0.183334 0.0611,10e-7 0.1746,0.0045 0.31183,-0.03666 0.007,-0.0054 0.013,-0.01153 0.0184,-0.01834 0.0149,-0.0092 0.0275,-0.02175 0.0367,-0.03666 0.007,-0.0054 0.0129,-0.01154 0.0184,-0.01833 0.002,-0.01213 0.002,-0.02453 0,-0.03666 5e-4,-0.0061 5e-4,-0.01223 0,-0.01834 5e-4,-0.0061 5e-4,-0.01223 0,-0.01833 L 79.5988,50.568433 c -0.006,-0.0216 -0.0192,-0.04076 -0.0367,-0.055 -0.011,-0.0083 -0.0234,-0.01452 -0.0367,-0.01833 -0.006,-4.99e-4 -0.0122,-4.99e-4 -0.0184,0 -0.0122,-0.002 -0.0246,-0.002 -0.0367,0 -0.25859,0.03693 -0.34248,0.055 -0.44022,0.055 -0.10971,0 -0.19217,-0.01491 -0.23845,-0.03666 -0.0463,-0.02175 -0.0617,-0.05312 -0.0917,-0.128334 -0.0599,-0.150406 -0.0917,-0.478085 -0.0917,-1.063337 l 0,-2.915011 c 0.86732,0.934789 1.09658,1.078791 2.56795,1.466672 0.0297,0.483818 0.0512,0.650948 0.0734,0.91667 0.0122,0.268755 0.0184,0.427803 0.0184,0.495002 -5e-4,0.0061 -5e-4,0.01223 0,0.01834 -7.1e-4,-0.0033 -10e-4,0.05238 0,0.11 0.001,0.05761 0.0119,0.142202 0.0184,0.220001 -5e-4,0.0061 -5e-4,0.01223 0,0.01834 0.006,0.0068 0.0115,0.01295 0.0184,0.01833 -5e-4,0.0061 -5e-4,0.01223 0,0.01834 0.1605,0.222111 0.19651,0.257769 0.36685,0.476668 0.006,0.0068 0.0115,0.01295 0.0184,0.01834 0.011,0.0083 0.0234,0.01452 0.0367,0.01833 0.006,4.99e-4 0.0122,4.99e-4 0.0184,0 0.0122,0.002 0.0246,0.002 0.0367,0 0.006,4.99e-4 0.0122,4.99e-4 0.0184,0 0.007,-0.0054 0.013,-0.01153 0.0184,-0.01833 0.0149,-0.0092 0.0275,-0.02175 0.0367,-0.03666 0.007,-0.0054 0.013,-0.01153 0.0184,-0.01834 0.002,-0.01213 0.002,-0.02453 0,-0.03666 l 0,-2.053341 2.5496,0.641669 0,0.293335 c 0.0244,0.513069 0.0367,0.910695 0.0367,0.97167 0,0.2315 -0.012,0.323616 -0.11007,0.421668 -0.0981,0.09805 -0.3133,0.202275 -0.71535,0.366668 -0.007,0.0054 -0.0129,0.01153 -0.0184,0.01833 -0.0149,0.0092 -0.0275,0.02176 -0.0367,0.03666 -0.007,0.0054 -0.0129,0.01153 -0.0184,0.01833 -5e-4,0.0061 -5e-4,0.01223 0,0.01834 -0.002,0.01213 -0.002,0.02453 0,0.03666 -5e-4,0.0061 -5e-4,0.01223 0,0.01833 0.004,0.01324 0.01,0.02567 0.0184,0.03666 0.006,4.98e-4 0.0122,4.98e-4 0.0184,0 l 0.82541,0.80667 c 0.006,0.0068 0.0115,0.01295 0.0184,0.01834 0.006,0.0068 0.0115,0.01295 0.0184,0.01833 0.0121,0.002 0.0246,0.002 0.0367,0 0.006,4.99e-4 0.0122,4.99e-4 0.0184,0 0.14624,-0.01993 0.27031,-0.05692 0.36685,-0.128334 0.0965,-0.07141 0.15984,-0.174595 0.20177,-0.293334 5e-4,-0.0061 5e-4,-0.01223 0,-0.01833 5e-4,-0.0061 5e-4,-0.01223 0,-0.01833 l -0.055,-2.475009 0.11006,0.03666 c 0.0122,0.002 0.0246,0.002 0.0367,0 0.006,4.99e-4 0.0122,4.99e-4 0.0184,0 0.0196,-0.0012 0.0386,-0.0075 0.055,-0.01834 0.0174,-0.01424 0.0303,-0.0334 0.0367,-0.055 0.002,-0.01214 0.002,-0.02453 0,-0.03666 0.002,-0.01213 0.002,-0.02453 0,-0.03666 z"
       inkscape:connector-curvature="0"
       id="path6286-3"
       style="font-size:20.85853386px;font-style:italic;font-variant:normal;font-weight:bold;font-stretch:normal;text-align:start;line-height:100%;writing-mode:lr-tb;text-anchor:start;fill:#ffffff;fill-opacity:1;stroke:none;display:inline;font-family:URW Chancery L;-inkscape-font-specification:URW Chancery L Bold Italic" />
    <path
       d="m 46.11649,85.265109 c 0.60791,0 1.24378,-0.329999 1.72586,-0.796152 0.48208,-0.46616 0.81315,-1.070489 0.81315,-1.658666 0,-0.265224 -0.0665,-0.499388 -0.21574,-0.729812 -0.14925,-0.230415 -0.37107,-0.460489 -0.69698,-0.713225 -0.37336,-0.296344 -0.59841,-0.51502 -0.73017,-0.713226 -0.13177,-0.198198 -0.18255,-0.371892 -0.18255,-0.613699 0,-0.798514 0.78269,-1.525969 1.69268,-1.525969 0.44798,0 0.90233,0.19119 1.17823,0.497594 0.22059,0.24148 0.31089,0.448423 0.39828,0.928849 -4.5e-4,0.0057 -4.5e-4,0.01109 0,0.01658 0.005,0.0064 0.0105,0.01174 0.0166,0.01658 0.008,0.01352 0.0197,0.02483 0.0332,0.03315 0.005,0.0064 0.0105,0.01174 0.0166,0.01658 0.006,4.54e-4 0.011,4.54e-4 0.0166,0 0.011,0.0021 0.0222,0.0021 0.0332,0 0.006,4.54e-4 0.0111,4.54e-4 0.0166,0 0.012,-0.0036 0.0232,-0.009 0.0332,-0.01658 l 0.16595,-0.116104 c 0.008,-0.01 0.0132,-0.0212 0.0166,-0.03315 0.006,-0.005 0.0117,-0.01045 0.0166,-0.01658 l 0.49784,-1.161065 c 4.6e-4,-0.0057 4.6e-4,-0.0111 0,-0.01658 0.002,-0.01095 0.002,-0.0222 0,-0.03315 4.6e-4,-0.0057 4.6e-4,-0.0111 0,-0.01658 -0.005,-0.0064 -0.0105,-0.01173 -0.0166,-0.01658 4.5e-4,-0.0057 4.5e-4,-0.01111 0,-0.01658 -0.4046,-0.543046 -0.96642,-0.796152 -1.70928,-0.796152 -0.87534,0 -1.74211,0.356317 -2.38965,0.895671 -0.64755,0.539361 -1.07867,1.263615 -1.07867,2.006987 0,0.240099 0.058,0.437082 0.21573,0.646877 0.1578,0.209789 0.40143,0.440446 0.81315,0.762982 0.40266,0.314253 0.64021,0.51174 0.76337,0.680055 0.12315,0.168314 0.14935,0.30252 0.14935,0.530772 0,0.668636 -0.50655,1.243999 -1.09527,1.243999 -0.21774,0 -0.32277,-0.03593 -0.41487,-0.149283 -0.0921,-0.113379 -0.17238,-0.331485 -0.23232,-0.680054 4.4e-4,-0.0057 4.4e-4,-0.0111 0,-0.01658 -0.005,-0.0064 -0.0105,-0.01174 -0.0166,-0.01658 -0.008,-0.01352 -0.0197,-0.02483 -0.0332,-0.03315 -0.005,-0.0064 -0.0105,-0.01174 -0.0166,-0.01658 -0.006,-4.47e-4 -0.0111,-4.47e-4 -0.0166,0 -0.011,-0.0021 -0.0222,-0.0021 -0.0332,0 -0.006,-4.47e-4 -0.0111,-4.47e-4 -0.0166,0 -0.006,0.005 -0.0117,0.01045 -0.0166,0.01658 -0.006,-4.56e-4 -0.011,-4.56e-4 -0.0166,0 l -0.73017,0.51418 c -0.0158,0.01287 -0.0273,0.03024 -0.0332,0.04974 -0.002,0.01095 -0.002,0.0222 0,0.03315 -4.6e-4,0.0057 -4.6e-4,0.01111 0,0.01658 0.0349,0.320451 0.14653,0.573692 0.3319,0.746404 0.18535,0.172705 0.43569,0.248793 0.74676,0.248793 z"
       inkscape:connector-curvature="0"
       id="path6284-3"
       style="font-size:20.85853386px;font-style:italic;font-variant:normal;font-weight:bold;font-stretch:normal;text-align:start;line-height:100%;writing-mode:lr-tb;text-anchor:start;fill:#ffffff;fill-opacity:1;stroke:none;display:inline;font-family:URW Chancery L;-inkscape-font-specification:URW Chancery L Bold Italic" />
    <g
       transform="matrix(0.91204467,0,0,0.91204467,3.7044598,4.3714188)"
       id="g4209-3"
       style="display:inline">
      <path
         d="M 68.34375,11.65625 A 0.80733087,0.80733087 0 0 0 68.25,11.6875 c -0.843306,0.361316 -1.378601,1.048268 -1.78125,1.65625 -0.402649,0.607982 -0.718653,1.167755 -1.0625,1.53125 a 0.80733087,0.80733087 0 0 0 -0.0625,0.09375 c -7.418887,10.271752 -14.948352,20.50627 -22.3125,30.8125 a 0.80733087,0.80733087 0 0 0 -0.09375,0.125 C 37.382228,58.382645 31.774731,70.900479 26.25,83.375 a 0.80733087,0.80733087 0 0 0 -0.03125,0.0625 c -0.333625,1.075595 0.358404,2.081964 1.1875,2.46875 0.414548,0.193393 0.861067,0.286834 1.34375,0.1875 0.469172,-0.09655 0.949634,-0.389049 1.25,-0.84375 0.0035,-0.0053 -0.0035,-0.02589 0,-0.03125 l 0.03125,0 C 38.039395,74.124806 46.141208,63.064533 54.09375,51.9375 a 0.80733087,0.80733087 0 0 0 0.09375,-0.125 C 59.75565,39.312292 65.357444,26.792103 70.90625,14.28125 a 0.80733087,0.80733087 0 0 0 0.0625,-0.1875 c 0.2153,-1.449647 -1.106756,-2.68708 -2.53125,-2.4375 a 0.80733087,0.80733087 0 0 0 -0.09375,0 z"
         id="path4154-1"
         style="opacity:0.05;fill:#000000;fill-opacity:1;fill-rule:evenodd;stroke:none" />
      <path
         d="m 68.5625,12.4375 c -1.232542,0.528085 -1.676923,2.053895 -2.572494,3.000641 C 58.56835,25.713727 51.047294,35.949864 43.6875,46.25 38.13153,58.727963 32.5236,71.215533 27,83.6875 c -0.41935,1.35197 1.593841,2.290799 2.34375,1.09375 8.018809,-11.109091 16.136592,-22.179008 24.09375,-33.3125 5.568715,-12.501477 11.170858,-24.991208 16.71875,-37.5 0.138103,-0.92987 -0.676692,-1.691924 -1.59375,-1.53125 z"
         inkscape:connector-curvature="0"
         id="path4148-3"
         style="opacity:0.07999998;fill:#000000;fill-opacity:1;fill-rule:evenodd;stroke:none" />
      <path
         d="m 68.78125,13.125 a 0.61862622,0.61862622 0 0 0 -0.4375,0.25 l -23.9375,33 a 0.61862622,0.61862622 0 0 0 -0.0625,0.125 l -16.625,37.25 a 0.61862622,0.61862622 0 0 0 1.0625,0.625 l 23.9375,-33.03125 a 0.61862622,0.61862622 0 0 0 0.0625,-0.125 L 69.40625,14 a 0.61862622,0.61862622 0 0 0 -0.625,-0.875 z"
         id="path4144-8"
         style="opacity:0.12000002;fill:#000000;fill-opacity:1;fill-rule:evenodd;stroke:none" />
      <path
         d="m 68.84375,13.75 -23.9375,33 L 28.28125,84 52.21875,50.96875 68.84375,13.75 z"
         inkscape:connector-curvature="0"
         id="path4113-2"
         style="opacity:0.3;fill:#000000;fill-opacity:1;fill-rule:evenodd;stroke:none" />
      <g
         transform="matrix(0.73161185,0.4223963,-0.4223963,0.73161185,28.776714,-25.98914)"
         id="g5968-5"
         style="display:inline">
        <g
           id="g5928-7">
          <path
             d="m 69,64 -10,0 5,-48 5,48 z"
             inkscape:connector-curvature="0"
             id="path5923-0"
             style="fill:url(#linearGradient5974-7);fill-opacity:1;fill-rule:evenodd;stroke:none" />
          <path
             d="m 69,63.999997 -10,0 L 64,112 69,63.999997 z"
             inkscape:connector-curvature="0"
             id="path5926-8"
             style="fill:url(#linearGradient5976-3);fill-opacity:1;fill-rule:evenodd;stroke:none" />
        </g>
        <path
           d="m 65.503089,63.920891 a 1.7404202,1.7404202 0 1 1 -3.480841,0 1.7404202,1.7404202 0 1 1 3.480841,0 z"
           transform="matrix(1.1491478,0,0,1.1491478,-9.2727304,-9.454551)"
           id="path5958-8"
           style="fill:url(#radialGradient5978-1);fill-opacity:1;fill-rule:evenodd;stroke:none" />
      </g>
    </g>
  </g>
  <g
     id="layer7">
    <g
       transform="matrix(0.70710678,0.70710678,-0.70710678,0.70710678,48.020021,-19.873366)"
       id="g4572">
      <g
         transform="matrix(0.98983765,0,0,0.77048859,-15.350324,-1.2826605)"
         id="g5928-7-4" />
    </g>
  </g>
  <path
     id="path3157"
     d="m 72.372651,21.592185 0,18.988602 -8.881827,0 0,12.434556 8.881827,0 0,21.867798 7.105459,0 0,-21.867798 8.881827,0 0,-12.434556 -8.881827,0 0,-18.988602 z"
     style="fill:#1a1a1a;fill-rule:evenodd;stroke:none"
     inkscape:connector-curvature="0"
     sodipodi:nodetypes="ccccccccccccc" />
  <path
     sodipodi:nodetypes="ccccccccccccc"
     inkscape:connector-curvature="0"
     style="fill:#1a1a1a;fill-rule:evenodd;stroke:none"
     d="m 44.372651,74.883141 0,-7.105461 -8.881827,0 0,-12.434556 8.881827,0 0,-33.750939 7.105459,0 0,33.750939 8.881827,0 0,12.434556 -8.881827,0 0,7.105461 z"
     id="path3146" />
  <path
     id="path3148"
     d="m 16.372651,21.592185 0,7.105461 -8.881827,0 0,12.434556 8.881827,0 0,33.750939 7.105459,0 0,-33.750939 8.881827,0 0,-12.434556 -8.881827,0 0,-7.105461 z"
     style="fill:#1a1a1a;fill-rule:evenodd;stroke:none"
     inkscape:connector-curvature="0"
     sodipodi:nodetypes="ccccccccccccc" />
</svg>
