<?xml version="1.0" encoding="UTF-8" standalone="no"?>
<!-- Created with Inkscape (http://www.inkscape.org/) -->

<svg
   xmlns:dc="http://purl.org/dc/elements/1.1/"
   xmlns:cc="http://creativecommons.org/ns#"
   xmlns:rdf="http://www.w3.org/1999/02/22-rdf-syntax-ns#"
   xmlns:svg="http://www.w3.org/2000/svg"
   xmlns="http://www.w3.org/2000/svg"
   xmlns:sodipodi="http://sodipodi.sourceforge.net/DTD/sodipodi-0.dtd"
   xmlns:inkscape="http://www.inkscape.org/namespaces/inkscape"
   width="96"
   height="96"
   id="svg5453"
   version="1.1"
   inkscape:version="0.48.5 r10040"
   sodipodi:docname="pokerth.svg">
  <defs
     id="defs5455" />
  <sodipodi:namedview
     id="base"
     pagecolor="#ffffff"
     bordercolor="#666666"
     borderopacity="1.0"
     inkscape:pageopacity="0"
     inkscape:pageshadow="2"
     inkscape:zoom="4.6459546"
     inkscape:cx="-7.9905814"
     inkscape:cy="51.111546"
     inkscape:document-units="px"
     inkscape:current-layer="layer1"
     showgrid="false"
     fit-margin-top="0"
     fit-margin-left="0"
     fit-margin-right="0"
     fit-margin-bottom="0"
     inkscape:window-width="1680"
     inkscape:window-height="991"
     inkscape:window-x="-2"
     inkscape:window-y="-3"
     inkscape:window-maximized="1"
     showguides="false">
    <sodipodi:guide
       position="15.000012,33.000026"
       orientation="18,0"
       id="guide4078" />
    <sodipodi:guide
       position="15.000012,15.000026"
       orientation="0,18"
       id="guide4080" />
    <sodipodi:guide
       position="33.000012,15.000026"
       orientation="-18,0"
       id="guide4082" />
    <sodipodi:guide
       position="33.000012,33.000026"
       orientation="0,-18"
       id="guide4084" />
    <sodipodi:guide
       position="9.0000117,38.999996"
       orientation="29.999969,0"
       id="guide4086" />
    <sodipodi:guide
       position="9.0000117,9.0000264"
       orientation="0,30"
       id="guide4088" />
    <sodipodi:guide
       position="39.000012,9.0000264"
       orientation="-29.999969,0"
       id="guide4090" />
    <sodipodi:guide
       position="39.000012,38.999996"
       orientation="0,-30"
       id="guide4092" />
    <sodipodi:guide
       position="4.0000117,43.999996"
       orientation="39.999969,0"
       id="guide4094" />
    <sodipodi:guide
       position="4.0000117,4.0000264"
       orientation="0,40"
       id="guide4096" />
    <sodipodi:guide
       position="44.000012,4.0000264"
       orientation="-39.999969,0"
       id="guide4098" />
    <sodipodi:guide
       position="44.000012,43.999996"
       orientation="0,-40"
       id="guide4100" />
  </sodipodi:namedview>
  <metadata
     id="metadata5458">
    <rdf:RDF>
      <cc:Work
         rdf:about="">
        <dc:format>image/svg+xml</dc:format>
        <dc:type
           rdf:resource="http://purl.org/dc/dcmitype/StillImage" />
        <dc:title />
      </cc:Work>
    </rdf:RDF>
  </metadata>
  <g
     inkscape:label="Capa 1"
     inkscape:groupmode="layer"
     id="layer1"
     transform="translate(-384.57143,-451.798)">
    <rect
       style="fill:#e74c3c;fill-opacity:1;stroke:none"
       id="rect4102"
       width="84"
       height="84"
       x="390.57144"
       y="457.798" />
    <g
       id="g3014"
       transform="matrix(0.98382749,0,0,0.98382749,6.9337839,8.0824833)">
      <rect
         y="492.10059"
         x="390.57144"
         height="15.394846"
         width="5.5778427"
         id="rect3001"
         style="color:#000000;fill:#ffffff;fill-opacity:1;fill-rule:nonzero;stroke:none;stroke-width:3.79999995;marker:none;visibility:visible;display:inline;overflow:visible;enable-background:accumulate" />
      <rect
         style="color:#000000;fill:#ffffff;fill-opacity:1;fill-rule:nonzero;stroke:none;stroke-width:3.79999995;marker:none;visibility:visible;display:inline;overflow:visible;enable-background:accumulate"
         id="rect3003"
         width="5.5778427"
         height="15.394846"
         x="390.57144"
         y="512.10059" />
      <rect
         style="color:#000000;fill:#ffffff;fill-opacity:1;fill-rule:nonzero;stroke:none;stroke-width:3.79999995;marker:none;visibility:visible;display:inline;overflow:visible;enable-background:accumulate"
         id="rect3005"
         width="5.5778427"
         height="15.394846"
         x="390.57144"
         y="472.10059" />
      <path
         inkscape:connector-curvature="0"
         id="rect3007"
         transform="translate(384.57143,451.798)"
         d="m 6,5.9375 0,9.75 5.5625,0 0,-9.75 -5.5625,0 z"
         style="color:#000000;fill:#ffffff;fill-opacity:1;fill-rule:nonzero;stroke:none;stroke-width:3.79999995;marker:none;visibility:visible;display:inline;overflow:visible;enable-background:accumulate" />
      <path
         inkscape:connector-curvature="0"
         style="color:#000000;fill:#ffffff;fill-opacity:1;fill-rule:nonzero;stroke:none;stroke-width:3.79999995;marker:none;visibility:visible;display:inline;overflow:visible;enable-background:accumulate"
         d="m 390.57144,532.048 0,9.75 5.5625,0 0,-9.75 -5.5625,0 z"
         id="path3012" />
    </g>
    <g
       id="g3021"
       transform="matrix(0,0.98382749,-0.98382749,0,924.22446,74.160342)">
      <rect
         style="color:#000000;fill:#ffffff;fill-opacity:1;fill-rule:nonzero;stroke:none;stroke-width:3.79999995;marker:none;visibility:visible;display:inline;overflow:visible;enable-background:accumulate"
         id="rect3023"
         width="5.5778427"
         height="15.394846"
         x="390.57144"
         y="492.10059" />
      <rect
         y="512.10059"
         x="390.57144"
         height="15.394846"
         width="5.5778427"
         id="rect3025"
         style="color:#000000;fill:#ffffff;fill-opacity:1;fill-rule:nonzero;stroke:none;stroke-width:3.79999995;marker:none;visibility:visible;display:inline;overflow:visible;enable-background:accumulate" />
      <rect
         y="472.10059"
         x="390.57144"
         height="15.394846"
         width="5.5778427"
         id="rect3027"
         style="color:#000000;fill:#ffffff;fill-opacity:1;fill-rule:nonzero;stroke:none;stroke-width:3.79999995;marker:none;visibility:visible;display:inline;overflow:visible;enable-background:accumulate" />
      <path
         style="color:#000000;fill:#ffffff;fill-opacity:1;fill-rule:nonzero;stroke:none;stroke-width:3.79999995;marker:none;visibility:visible;display:inline;overflow:visible;enable-background:accumulate"
         d="m 6,5.9375 0,9.75 5.5625,0 0,-9.75 -5.5625,0 z"
         transform="translate(384.57143,451.798)"
         id="path3029"
         inkscape:connector-curvature="0" />
      <path
         id="path3031"
         d="m 390.57144,532.048 0,9.75 5.5625,0 0,-9.75 -5.5625,0 z"
         style="color:#000000;fill:#ffffff;fill-opacity:1;fill-rule:nonzero;stroke:none;stroke-width:3.79999995;marker:none;visibility:visible;display:inline;overflow:visible;enable-background:accumulate"
         inkscape:connector-curvature="0" />
    </g>
    <g
       transform="matrix(0,0.98382749,-0.98382749,0,924.22446,151.37569)"
       id="g3047">
      <rect
         y="492.10059"
         x="390.57144"
         height="15.394846"
         width="5.5778427"
         id="rect3049"
         style="color:#000000;fill:#ffffff;fill-opacity:1;fill-rule:nonzero;stroke:none;stroke-width:3.79999995;marker:none;visibility:visible;display:inline;overflow:visible;enable-background:accumulate" />
      <rect
         style="color:#000000;fill:#ffffff;fill-opacity:1;fill-rule:nonzero;stroke:none;stroke-width:3.79999995;marker:none;visibility:visible;display:inline;overflow:visible;enable-background:accumulate"
         id="rect3051"
         width="5.5778427"
         height="15.394846"
         x="390.57144"
         y="512.10059" />
      <rect
         style="color:#000000;fill:#ffffff;fill-opacity:1;fill-rule:nonzero;stroke:none;stroke-width:3.79999995;marker:none;visibility:visible;display:inline;overflow:visible;enable-background:accumulate"
         id="rect3053"
         width="5.5778427"
         height="15.394846"
         x="390.57144"
         y="472.10059" />
      <path
         inkscape:connector-curvature="0"
         id="path3055"
         transform="translate(384.57143,451.798)"
         d="m 6,5.9375 0,9.75 5.5625,0 0,-9.75 -5.5625,0 z"
         style="color:#000000;fill:#ffffff;fill-opacity:1;fill-rule:nonzero;stroke:none;stroke-width:3.79999995;marker:none;visibility:visible;display:inline;overflow:visible;enable-background:accumulate" />
      <path
         inkscape:connector-curvature="0"
         style="color:#000000;fill:#ffffff;fill-opacity:1;fill-rule:nonzero;stroke:none;stroke-width:3.79999995;marker:none;visibility:visible;display:inline;overflow:visible;enable-background:accumulate"
         d="m 390.57144,532.048 0,9.75 5.5625,0 0,-9.75 -5.5625,0 z"
         id="path3057" />
    </g>
    <g
       id="g3059"
       transform="matrix(0.98382749,0,0,0.98382749,84.149136,8.0824897)">
      <rect
         style="color:#000000;fill:#ffffff;fill-opacity:1;fill-rule:nonzero;stroke:none;stroke-width:3.79999995;marker:none;visibility:visible;display:inline;overflow:visible;enable-background:accumulate"
         id="rect3061"
         width="5.5778427"
         height="15.394846"
         x="390.57144"
         y="492.10059" />
      <rect
         y="512.10059"
         x="390.57144"
         height="15.394846"
         width="5.5778427"
         id="rect3063"
         style="color:#000000;fill:#ffffff;fill-opacity:1;fill-rule:nonzero;stroke:none;stroke-width:3.79999995;marker:none;visibility:visible;display:inline;overflow:visible;enable-background:accumulate" />
      <rect
         y="472.10059"
         x="390.57144"
         height="15.394846"
         width="5.5778427"
         id="rect3065"
         style="color:#000000;fill:#ffffff;fill-opacity:1;fill-rule:nonzero;stroke:none;stroke-width:3.79999995;marker:none;visibility:visible;display:inline;overflow:visible;enable-background:accumulate" />
      <path
         style="color:#000000;fill:#ffffff;fill-opacity:1;fill-rule:nonzero;stroke:none;stroke-width:3.79999995;marker:none;visibility:visible;display:inline;overflow:visible;enable-background:accumulate"
         d="m 6,5.9375 0,9.75 5.5625,0 0,-9.75 -5.5625,0 z"
         transform="translate(384.57143,451.798)"
         id="path3067"
         inkscape:connector-curvature="0" />
      <path
         id="path3069"
         d="m 390.57144,532.048 0,9.75 5.5625,0 0,-9.75 -5.5625,0 z"
         style="color:#000000;fill:#ffffff;fill-opacity:1;fill-rule:nonzero;stroke:none;stroke-width:3.79999995;marker:none;visibility:visible;display:inline;overflow:visible;enable-background:accumulate"
         inkscape:connector-curvature="0" />
    </g>
    <rect
       y="465.27527"
       x="398.55853"
       height="69.045479"
       width="68.025856"
       id="rect3091"
       style="fill:#ffd42a;fill-opacity:1;stroke:none" />
    <rect
       style="fill:#e74c3c;fill-opacity:1;stroke:none"
       id="rect3093"
       width="62.927723"
       height="62.927723"
       x="401.1076"
       y="468.33417" />
    <text
       xml:space="preserve"
       style="font-size:55.44350433px;font-style:normal;font-variant:normal;font-stretch:normal;line-height:125%;letter-spacing:0px;word-spacing:0px;fill:#000000;fill-opacity:1;stroke:none;font-family:URW Gothic L;-inkscape-font-specification:URW Gothic L Book"
       x="553.98224"
       y="382.1864"
       id="text3071"
       sodipodi:linespacing="125%"
       transform="scale(0.72757799,1.3744231)"><tspan
         sodipodi:role="line"
         id="tspan3073"
         x="553.98224"
         y="382.1864"
         style="font-style:normal;font-variant:normal;font-weight:bold;font-stretch:normal;fill:#ffffff;font-family:Plantagenet Cherokee;-inkscape-font-specification:Plantagenet Cherokee Bold">TH</tspan></text>
    <path
       sodipodi:type="arc"
       style="color:#000000;fill:#ffffff;fill-opacity:1;fill-rule:nonzero;stroke:none;stroke-width:3.79999995;marker:none;visibility:visible;display:inline;overflow:visible;enable-background:accumulate"
       id="path3075"
       sodipodi:cx="46.987782"
       sodipodi:cy="52.156067"
       sodipodi:rx="30.333883"
       sodipodi:ry="9.3465748"
       d="m 77.321665,52.156067 a 30.333883,9.3465748 0 1 1 -60.667767,0 30.333883,9.3465748 0 1 1 60.667767,0 z"
       transform="matrix(0.93276711,0,0,1.1023611,388.74277,442.30318)" />
    <path
       transform="matrix(0.80361474,0,0,0.9497265,394.81136,450.264)"
       d="m 77.321665,52.156067 a 30.333883,9.3465748 0 1 1 -60.667767,0 30.333883,9.3465748 0 1 1 60.667767,0 z"
       sodipodi:ry="9.3465748"
       sodipodi:rx="30.333883"
       sodipodi:cy="52.156067"
       sodipodi:cx="46.987782"
       id="path3077"
       style="color:#000000;fill:#e74c3c;fill-opacity:1;fill-rule:nonzero;stroke:none;stroke-width:3.79999995;marker:none;visibility:visible;display:inline;overflow:visible;enable-background:accumulate"
       sodipodi:type="arc" />
    <text
       xml:space="preserve"
       style="font-size:12.37853432px;font-style:normal;font-variant:normal;font-stretch:normal;line-height:125%;letter-spacing:0px;word-spacing:0px;fill:#ffffff;fill-opacity:1;stroke:none;font-family:URW Gothic L;-inkscape-font-specification:URW Gothic L Book"
       x="407.367"
       y="510.38882"
       id="text3079"
       sodipodi:linespacing="125%"
       transform="scale(1.0120388,0.9881044)"><tspan
         sodipodi:role="line"
         id="tspan3081"
         x="407.367"
         y="510.38882">POKER</tspan></text>
  </g>
</svg>
