<?xml version="1.0" encoding="UTF-8" standalone="no"?>
<!-- Created with Inkscape (http://www.inkscape.org/) -->

<svg
   xmlns:dc="http://purl.org/dc/elements/1.1/"
   xmlns:cc="http://creativecommons.org/ns#"
   xmlns:rdf="http://www.w3.org/1999/02/22-rdf-syntax-ns#"
   xmlns:svg="http://www.w3.org/2000/svg"
   xmlns="http://www.w3.org/2000/svg"
   xmlns:xlink="http://www.w3.org/1999/xlink"
   xmlns:sodipodi="http://sodipodi.sourceforge.net/DTD/sodipodi-0.dtd"
   xmlns:inkscape="http://www.inkscape.org/namespaces/inkscape"
   version="1.0"
   width="96"
   height="96"
   id="svg2408"
   inkscape:version="0.48.4 r9939"
   sodipodi:docname="kppp.svg">
  <sodipodi:namedview
     pagecolor="#ffffff"
     bordercolor="#666666"
     borderopacity="1"
     objecttolerance="10"
     gridtolerance="10"
     guidetolerance="10"
     inkscape:pageopacity="0"
     inkscape:pageshadow="2"
     inkscape:window-width="1680"
     inkscape:window-height="991"
     id="namedview106"
     showgrid="false"
     inkscape:zoom="6.5665206"
     inkscape:cx="51.521425"
     inkscape:cy="58.324376"
     inkscape:window-x="0"
     inkscape:window-y="-3"
     inkscape:window-maximized="1"
     inkscape:current-layer="svg2408" />
  <defs
     id="defs2410">
    <linearGradient
       id="linearGradient4236">
      <stop
         id="stop4238"
         style="stop-color:#ffdf39;stop-opacity:1"
         offset="0" />
      <stop
         id="stop4240"
         style="stop-color:#eb9c00;stop-opacity:0"
         offset="1" />
    </linearGradient>
    <linearGradient
       id="linearGradient4192">
      <stop
         id="stop4194"
         style="stop-color:#ffffff;stop-opacity:1"
         offset="0" />
      <stop
         id="stop4196"
         style="stop-color:#ffffff;stop-opacity:0"
         offset="1" />
    </linearGradient>
    <linearGradient
       id="linearGradient4176">
      <stop
         id="stop4178"
         style="stop-color:#000000;stop-opacity:1"
         offset="0" />
      <stop
         id="stop4180"
         style="stop-color:#393939;stop-opacity:1"
         offset="1" />
    </linearGradient>
    <linearGradient
       id="linearGradient4156">
      <stop
         id="stop4158"
         style="stop-color:#c6c6c6;stop-opacity:1"
         offset="0" />
      <stop
         id="stop4160"
         style="stop-color:#e7e7e7;stop-opacity:1"
         offset="1" />
    </linearGradient>
    <linearGradient
       x1="45.447727"
       y1="92.539597"
       x2="45.447727"
       y2="7.0165396"
       id="ButtonShadow"
       gradientUnits="userSpaceOnUse"
       gradientTransform="scale(1.0058652,0.994169)">
      <stop
         id="stop3750"
         style="stop-color:#000000;stop-opacity:1"
         offset="0" />
      <stop
         id="stop3752"
         style="stop-color:#000000;stop-opacity:0.58823532"
         offset="1" />
    </linearGradient>
    <linearGradient
       id="linearGradient3737">
      <stop
         id="stop3739"
         style="stop-color:#ffffff;stop-opacity:1"
         offset="0" />
      <stop
         id="stop3741"
         style="stop-color:#ffffff;stop-opacity:0"
         offset="1" />
    </linearGradient>
    <linearGradient
       x1="48"
       y1="90"
       x2="48"
       y2="5.9877172"
       id="linearGradient3706"
       xlink:href="#linearGradient4156"
       gradientUnits="userSpaceOnUse" />
    <filter
       color-interpolation-filters="sRGB"
       id="filter3174">
      <feGaussianBlur
         id="feGaussianBlur3176"
         stdDeviation="1.71" />
    </filter>
    <linearGradient
       x1="36.357143"
       y1="6"
       x2="36.357143"
       y2="63.893143"
       id="linearGradient3188"
       xlink:href="#linearGradient3737"
       gradientUnits="userSpaceOnUse" />
    <linearGradient
       id="linearGradient3737-1">
      <stop
         id="stop3739-7"
         style="stop-color:#ffffff;stop-opacity:1"
         offset="0" />
      <stop
         id="stop3741-2"
         style="stop-color:#ffffff;stop-opacity:0"
         offset="1" />
    </linearGradient>
    <radialGradient
       cx="48"
       cy="90.171875"
       r="42"
       fx="48"
       fy="90.171875"
       id="radialGradient2855"
       xlink:href="#linearGradient3737-1"
       gradientUnits="userSpaceOnUse"
       gradientTransform="matrix(1.1573129,0,0,0.99590774,-7.551021,0.1971319)" />
    <linearGradient
       id="linearGradient3737-6">
      <stop
         id="stop3739-73"
         style="stop-color:#ffffff;stop-opacity:1"
         offset="0" />
      <stop
         id="stop3741-6"
         style="stop-color:#ffffff;stop-opacity:0"
         offset="1" />
    </linearGradient>
    <clipPath
       id="clipPath3613">
      <rect
         width="84"
         height="84"
         rx="6"
         ry="6"
         x="6"
         y="6"
         id="rect3615"
         style="fill:#ffffff;fill-opacity:1;fill-rule:nonzero;stroke:none" />
    </clipPath>
    <filter
       x="-0.192"
       y="-0.192"
       width="1.3839999"
       height="1.3839999"
       color-interpolation-filters="sRGB"
       id="filter3794">
      <feGaussianBlur
         id="feGaussianBlur3796"
         stdDeviation="5.28" />
    </filter>
    <linearGradient
       x1="48"
       y1="20.220806"
       x2="48"
       y2="138.66119"
       id="linearGradient2885"
       xlink:href="#linearGradient3737-6"
       gradientUnits="userSpaceOnUse" />
    <linearGradient
       x1="48"
       y1="24"
       x2="48"
       y2="72"
       id="linearGradient4182"
       xlink:href="#linearGradient4176"
       gradientUnits="userSpaceOnUse"
       gradientTransform="translate(-0.18082568,6.69055)" />
    <linearGradient
       x1="53"
       y1="74"
       x2="53"
       y2="32.987808"
       id="linearGradient4198"
       xlink:href="#linearGradient4192"
       gradientUnits="userSpaceOnUse"
       gradientTransform="translate(-0.18082568,6.69055)" />
    <linearGradient
       x1="48"
       y1="72"
       x2="48"
       y2="24"
       id="linearGradient4222"
       xlink:href="#linearGradient4192"
       gradientUnits="userSpaceOnUse" />
    <radialGradient
       cx="48"
       cy="70"
       r="16"
       fx="48"
       fy="70"
       id="radialGradient4232"
       xlink:href="#linearGradient4192"
       gradientUnits="userSpaceOnUse"
       gradientTransform="matrix(1.1875,0,0,0.5625,-9,27)" />
    <linearGradient
       x1="33"
       y1="68"
       x2="33"
       y2="61"
       id="linearGradient4242"
       xlink:href="#linearGradient4236"
       gradientUnits="userSpaceOnUse"
       gradientTransform="matrix(0.5,0,0,1,17.819174,7.4138527)" />
    <linearGradient
       x1="33"
       y1="68"
       x2="33"
       y2="61"
       id="linearGradient4298"
       xlink:href="#linearGradient4236"
       gradientUnits="userSpaceOnUse"
       gradientTransform="translate(0,40)" />
    <linearGradient
       x1="33"
       y1="68"
       x2="33"
       y2="61"
       id="linearGradient4300"
       xlink:href="#linearGradient4236"
       gradientUnits="userSpaceOnUse"
       gradientTransform="translate(4,40)" />
    <linearGradient
       x1="33"
       y1="68"
       x2="33"
       y2="61"
       id="linearGradient4302"
       xlink:href="#linearGradient4236"
       gradientUnits="userSpaceOnUse"
       gradientTransform="translate(8,40)" />
    <linearGradient
       x1="33"
       y1="68"
       x2="33"
       y2="61"
       id="linearGradient4304"
       xlink:href="#linearGradient4236"
       gradientUnits="userSpaceOnUse"
       gradientTransform="translate(12,40)" />
    <linearGradient
       x1="33"
       y1="68"
       x2="33"
       y2="61"
       id="linearGradient4306"
       xlink:href="#linearGradient4236"
       gradientUnits="userSpaceOnUse"
       gradientTransform="translate(16,40)" />
    <linearGradient
       x1="33"
       y1="68"
       x2="33"
       y2="61"
       id="linearGradient4308"
       xlink:href="#linearGradient4236"
       gradientUnits="userSpaceOnUse"
       gradientTransform="translate(20,40)" />
    <linearGradient
       x1="33"
       y1="68"
       x2="33"
       y2="61"
       id="linearGradient4310"
       xlink:href="#linearGradient4236"
       gradientUnits="userSpaceOnUse"
       gradientTransform="translate(24,40)" />
    <linearGradient
       x1="33"
       y1="68"
       x2="33"
       y2="61"
       id="linearGradient4312"
       xlink:href="#linearGradient4236"
       gradientUnits="userSpaceOnUse"
       gradientTransform="translate(28,40)" />
    <linearGradient
       x1="33"
       y1="68"
       x2="33"
       y2="61"
       id="linearGradient4316"
       xlink:href="#linearGradient4236"
       gradientUnits="userSpaceOnUse"
       gradientTransform="matrix(0.5,0,0,1,21.819174,7.4138527)" />
    <linearGradient
       x1="33"
       y1="68"
       x2="33"
       y2="61"
       id="linearGradient4320"
       xlink:href="#linearGradient4236"
       gradientUnits="userSpaceOnUse"
       gradientTransform="matrix(0.5,0,0,1,25.819174,7.4138527)" />
    <linearGradient
       x1="33"
       y1="68"
       x2="33"
       y2="61"
       id="linearGradient4324"
       xlink:href="#linearGradient4236"
       gradientUnits="userSpaceOnUse"
       gradientTransform="matrix(0.5,0,0,1,29.819174,7.4138527)" />
    <linearGradient
       x1="33"
       y1="68"
       x2="33"
       y2="61"
       id="linearGradient4328"
       xlink:href="#linearGradient4236"
       gradientUnits="userSpaceOnUse"
       gradientTransform="matrix(0.5,0,0,1,33.819174,7.4138527)" />
    <linearGradient
       x1="33"
       y1="68"
       x2="33"
       y2="61"
       id="linearGradient4332"
       xlink:href="#linearGradient4236"
       gradientUnits="userSpaceOnUse"
       gradientTransform="matrix(0.5,0,0,1,37.819174,7.4138527)" />
    <linearGradient
       x1="33"
       y1="68"
       x2="33"
       y2="61"
       id="linearGradient4336"
       xlink:href="#linearGradient4236"
       gradientUnits="userSpaceOnUse"
       gradientTransform="matrix(0.5,0,0,1,41.819174,7.4138527)" />
    <linearGradient
       x1="33"
       y1="68"
       x2="33"
       y2="61"
       id="linearGradient4340"
       xlink:href="#linearGradient4236"
       gradientUnits="userSpaceOnUse"
       gradientTransform="matrix(0.5,0,0,1,45.819174,7.4138527)" />
    <linearGradient
       x1="45.447727"
       y1="92.539597"
       x2="45.447727"
       y2="7.0165396"
       id="ButtonShadow-0"
       gradientUnits="userSpaceOnUse"
       gradientTransform="matrix(1.0058652,0,0,0.994169,100,0)">
      <stop
         id="stop3750-8"
         style="stop-color:#000000;stop-opacity:1"
         offset="0" />
      <stop
         id="stop3752-5"
         style="stop-color:#000000;stop-opacity:0.58823532"
         offset="1" />
    </linearGradient>
    <linearGradient
       x1="32.251034"
       y1="6.1317081"
       x2="32.251034"
       y2="90.238609"
       id="linearGradient3780"
       xlink:href="#ButtonShadow-0"
       gradientUnits="userSpaceOnUse"
       gradientTransform="matrix(1.0238095,0,0,1.0119048,-1.1428571,-98.071429)" />
    <linearGradient
       x1="32.251034"
       y1="6.1317081"
       x2="32.251034"
       y2="90.238609"
       id="linearGradient3772"
       xlink:href="#ButtonShadow-0"
       gradientUnits="userSpaceOnUse"
       gradientTransform="matrix(1.0238095,0,0,1.0119048,-1.1428571,-98.071429)" />
    <linearGradient
       x1="32.251034"
       y1="6.1317081"
       x2="32.251034"
       y2="90.238609"
       id="linearGradient3725"
       xlink:href="#ButtonShadow-0"
       gradientUnits="userSpaceOnUse"
       gradientTransform="matrix(1.0238095,0,0,1.0119048,-1.1428571,-98.071429)" />
    <linearGradient
       x1="32.251034"
       y1="6.1317081"
       x2="32.251034"
       y2="90.238609"
       id="linearGradient3721"
       xlink:href="#ButtonShadow-0"
       gradientUnits="userSpaceOnUse"
       gradientTransform="translate(0,-97)" />
    <linearGradient
       x1="32.251034"
       y1="6.1317081"
       x2="32.251034"
       y2="90.238609"
       id="linearGradient3122"
       xlink:href="#ButtonShadow-0"
       gradientUnits="userSpaceOnUse"
       gradientTransform="matrix(1.0238095,0,0,1.0119048,-1.1428571,-98.071429)" />
  </defs>
  <metadata
     id="metadata2413">
    <rdf:RDF>
      <cc:Work
         rdf:about="">
        <dc:format>image/svg+xml</dc:format>
        <dc:type
           rdf:resource="http://purl.org/dc/dcmitype/StillImage" />
        <dc:title />
      </cc:Work>
    </rdf:RDF>
  </metadata>
  <g
     id="layer2"
     style="display:none">
    <rect
       width="86"
       height="85"
       rx="6"
       ry="6"
       x="5"
       y="7"
       id="rect3745"
       style="opacity:0.9;fill:url(#ButtonShadow);fill-opacity:1;fill-rule:nonzero;stroke:none;filter:url(#filter3174)" />
  </g>
  <g
     id="layer1">
    <rect
       width="84"
       height="84"
       rx="6"
       ry="0"
       x="6"
       y="6"
       id="rect2419"
       style="fill:#dcdcdc;fill-opacity:1;fill-rule:nonzero;stroke:none" />
  </g>
  <g
     id="layer4">
    <rect
       width="66"
       height="66"
       rx="12"
       ry="12"
       x="15"
       y="15"
       clip-path="url(#clipPath3613)"
       id="rect3171"
       style="opacity:0.14999999999999999;fill:#dfdfdf;fill-opacity:1;fill-rule:nonzero;stroke:#ffffff;stroke-width:0.50000000000000000;stroke-linecap:round;stroke-linejoin:miter;stroke-miterlimit:4;stroke-opacity:1;stroke-dasharray:none;stroke-dashoffset:0;filter:url(#filter3794)" />
  </g>
  <rect
     style="opacity:0.85460989;fill:none;stroke:#a4a4a4;stroke-width:0.80000001;stroke-miterlimit:4;stroke-opacity:1;stroke-dasharray:none"
     id="rect3079"
     width="2.8378057"
     height="16.463108"
     x="45.898369"
     y="25.550037" />
  <g
     id="layer3"
     transform="matrix(0.91208902,0,0,0.80033537,4.4574902,18.414622)">
    <path
       d="m 39.631674,28.7218 a 1.9843903,1.9843903 0 0 0 -1.78125,1.96875 l 0,2.03125 -2.03125,0 a 1.9843903,1.9843903 0 0 0 -1.96875,1.96875 l 0,2.03125 -7.03125,0 c -2.726921,0 -4.96875,2.241829 -4.96875,4.96875 l 0,34 c 0,2.726921 2.241829,4.96875 4.96875,4.96875 l 42,0 c 2.726921,0 4.96875,-2.241829 4.96875,-4.96875 l 0,-34 c 0,-2.726921 -2.241829,-4.96875 -4.96875,-4.96875 l -7.03125,0 0,-2.03125 a 1.9843903,1.9843903 0 0 0 -1.96875,-1.96875 l -2.03125,0 0,-2.03125 a 1.9843903,1.9843903 0 0 0 -1.96875,-1.96875 l -16,0 a 1.9843903,1.9843903 0 0 0 -0.1875,0 z"
       id="path4188"
       style="opacity:0.8;color:#000000;fill:url(#linearGradient4198);fill-opacity:1;fill-rule:nonzero;stroke:none;stroke-width:1;marker:none;visibility:visible;display:inline;overflow:visible;enable-background:accumulate"
       inkscape:connector-curvature="0" />
    <path
       d="m 39.819174,30.69055 0,4 -4,0 0,4 -9,0 c -1.662,0 -3,1.338 -3,3 l 0,34 c 0,1.662 1.338,3 3,3 l 42,0 c 1.662,0 3,-1.338 3,-3 l 0,-34 c 0,-1.662 -1.338,-3 -3,-3 l -9,0 0,-4 -4,0 0,-4 -16,0 z"
       inkscape:connector-curvature="0"
       id="rect4162"
       style="color:#000000;fill:#030303;fill-opacity:1;fill-rule:nonzero;stroke:none;stroke-width:1;marker:none;visibility:visible;display:inline;overflow:visible;enable-background:accumulate" />
    <path
       d="m 39.638349,30.052201 0,1 16,0 0,-1 -16,0 z m -4,4 0,1 4,0 0,-1 -4,0 z m 20,0 0,1 4,0 0,-1 -4,0 z m -29,4 c -1.662,0 -3,1.338 -3,3 l 0,1 c 0,-1.662 1.338,-3 3,-3 l 9,0 0,-1 -9,0 z m 33,0 0,1 9,0 c 1.662,0 3,1.338 3,3 l 0,-1 c 0,-1.662 -1.338,-3 -3,-3 l -9,0 z"
       inkscape:connector-curvature="0"
       id="path4276"
       style="opacity:0.3;color:#000000;fill:#000000;fill-opacity:1;fill-rule:nonzero;stroke:none;stroke-width:1;marker:none;visibility:visible;display:inline;overflow:visible;enable-background:accumulate" />
  </g>
  <path
     sodipodi:type="arc"
     style="opacity:0.85460989;fill:#0074df;fill-opacity:1;fill-rule:evenodd;stroke:#002957;stroke-width:0.77949631;stroke-miterlimit:4;stroke-opacity:1;stroke-dasharray:none"
     id="path3076"
     sodipodi:cx="21.518255"
     sodipodi:cy="15.532575"
     sodipodi:rx="7.0522013"
     sodipodi:ry="7.233027"
     d="m 28.570457,15.532575 a 7.0522013,7.233027 0 1 1 -14.104403,0 7.0522013,7.233027 0 1 1 14.104403,0 z"
     transform="matrix(0.9517746,0,0,0.99060736,2.7080791,2.3576968)" />
  <path
     transform="matrix(0.9517746,0,0,0.99060736,26.702316,2.4668558)"
     d="m 28.570457,15.532575 a 7.0522013,7.233027 0 1 1 -14.104403,0 7.0522013,7.233027 0 1 1 14.104403,0 z"
     sodipodi:ry="7.233027"
     sodipodi:rx="7.0522013"
     sodipodi:cy="15.532575"
     sodipodi:cx="21.518255"
     id="path3846"
     style="opacity:0.85460989;fill:#0074df;fill-opacity:1;fill-rule:evenodd;stroke:#002957;stroke-width:0.77949631;stroke-miterlimit:4;stroke-opacity:1;stroke-dasharray:none"
     sodipodi:type="arc" />
  <path
     sodipodi:type="arc"
     style="opacity:0.85460989;fill:#0074df;fill-opacity:1;fill-rule:evenodd;stroke:#002957;stroke-width:0.77949631;stroke-miterlimit:4;stroke-opacity:1;stroke-dasharray:none"
     id="path3848"
     sodipodi:cx="21.518255"
     sodipodi:cy="15.532575"
     sodipodi:rx="7.0522013"
     sodipodi:ry="7.233027"
     d="m 28.570457,15.532575 a 7.0522013,7.233027 0 1 1 -14.104403,0 7.0522013,7.233027 0 1 1 14.104403,0 z"
     transform="matrix(0.9517746,0,0,0.99060736,50.222311,2.601806)" />
  <rect
     style="opacity:0.85460988999999998;fill:#030303;fill-opacity:1;fill-rule:evenodd;stroke:none;stroke-width:0.80000000999999998;stroke-miterlimit:4;stroke-opacity:1;stroke-dasharray:none"
     id="rect3849"
     width="2.3507338"
     height="4.1589904"
     x="46.291374"
     y="28.009546" />
  <rect
     ry="0"
     y="26.020462"
     x="21.518257"
     height="1.9890825"
     width="50.679844"
     id="rect3852"
     style="opacity:0.9;fill:#9c9c9c;fill-opacity:1;fill-rule:evenodd;stroke:none" />
  <rect
     y="25.249971"
     x="46.060734"
     height="18.048536"
     width="2.6419249"
     id="rect3860"
     style="opacity:0.85460989;fill:#030303;fill-opacity:1;fill-rule:evenodd;stroke:none" />
  <rect
     y="25.211449"
     x="46.291374"
     height="18.692949"
     width="1.9023223"
     id="rect3851"
     style="opacity:0.85460989;fill:#030303;fill-opacity:1;fill-rule:evenodd;stroke:none" />
  <rect
     style="opacity:0.9;fill:#000000;fill-opacity:1;fill-rule:evenodd;stroke:none"
     id="rect3082"
     width="50.631187"
     height="3.9997356"
     x="21.518257"
     y="27.225973"
     ry="0" />
  <rect
     y="25.249971"
     x="21.518257"
     height="2.9549525"
     width="2.3507338"
     id="rect3856"
     style="opacity:0.85460989;fill:#030303;fill-opacity:1;fill-rule:evenodd;stroke:none" />
  <rect
     style="opacity:0.85460989;fill:#030303;fill-opacity:1;fill-rule:evenodd;stroke:none"
     id="rect3858"
     width="2.3507338"
     height="4.6315494"
     x="46.060734"
     y="25.244488" />
  <rect
     style="opacity:0.85460989;fill:#030303;fill-opacity:1;fill-rule:evenodd;stroke:none"
     id="rect3862"
     width="2.3507338"
     height="4.8367767"
     x="21.518257"
     y="25.039259" />
  <rect
     y="25.449663"
     x="69.822533"
     height="2.8994391"
     width="2.3507338"
     id="rect3864"
     style="opacity:0.85460989;fill:#030303;fill-opacity:1;fill-rule:evenodd;stroke:none" />
  <rect
     style="opacity:0.85460989;fill:#030303;fill-opacity:1;fill-rule:evenodd;stroke:none"
     id="rect3868"
     width="2.3507338"
     height="4.6315494"
     x="69.822533"
     y="25.361015" />
  <rect
     style="fill:#ffcc00;fill-opacity:1;fill-rule:evenodd;stroke:none"
     id="rect3084"
     width="3.1072183"
     height="10.102764"
     x="35.266968"
     y="67.434288" />
  <rect
     y="67.434288"
     x="40.618534"
     height="10.102764"
     width="3.1072183"
     id="rect3854"
     style="fill:#ffcc00;fill-opacity:1;fill-rule:evenodd;stroke:none" />
  <rect
     style="fill:#ffcc00;fill-opacity:1;fill-rule:evenodd;stroke:none"
     id="rect3856-3"
     width="3.1072183"
     height="10.102764"
     x="45.9701"
     y="67.434288" />
  <rect
     y="67.434288"
     x="51.321663"
     height="10.102764"
     width="3.1072183"
     id="rect3858-9"
     style="fill:#ffcc00;fill-opacity:1;fill-rule:evenodd;stroke:none" />
  <rect
     style="fill:#ffcc00;fill-opacity:1;fill-rule:evenodd;stroke:none"
     id="rect3860-0"
     width="3.1072183"
     height="10.102764"
     x="56.673229"
     y="67.434288" />
</svg>
