<?xml version="1.0" encoding="UTF-8" standalone="no"?>
<!-- Created with Inkscape (http://www.inkscape.org/) -->

<svg
   xmlns:dc="http://purl.org/dc/elements/1.1/"
   xmlns:cc="http://creativecommons.org/ns#"
   xmlns:rdf="http://www.w3.org/1999/02/22-rdf-syntax-ns#"
   xmlns:svg="http://www.w3.org/2000/svg"
   xmlns="http://www.w3.org/2000/svg"
   xmlns:xlink="http://www.w3.org/1999/xlink"
   xmlns:sodipodi="http://sodipodi.sourceforge.net/DTD/sodipodi-0.dtd"
   xmlns:inkscape="http://www.inkscape.org/namespaces/inkscape"
   version="1.0"
   width="96"
   height="96"
   id="svg2408"
   inkscape:version="0.48.4 r9939"
   sodipodi:docname="preferences-web-browser-identification.svg">
  <sodipodi:namedview
     pagecolor="#ffffff"
     bordercolor="#666666"
     borderopacity="1"
     objecttolerance="10"
     gridtolerance="10"
     guidetolerance="10"
     inkscape:pageopacity="0"
     inkscape:pageshadow="2"
     inkscape:window-width="618"
     inkscape:window-height="449"
     id="namedview62"
     showgrid="false"
     inkscape:zoom="3.3474369"
     inkscape:cx="58.781818"
     inkscape:cy="47.162871"
     inkscape:window-x="151"
     inkscape:window-y="84"
     inkscape:window-maximized="0"
     inkscape:current-layer="svg2408" />
  <defs
     id="defs2410">
    <linearGradient
       id="ButtonColor">
      <stop
         id="stop3189"
         style="stop-color:#1d5282;stop-opacity:1"
         offset="0" />
      <stop
         id="stop3191"
         style="stop-color:#568ec2;stop-opacity:1"
         offset="1" />
    </linearGradient>
    <linearGradient
       x1="45.447727"
       y1="92.539597"
       x2="45.447727"
       y2="7.0165396"
       id="ButtonShadow"
       gradientUnits="userSpaceOnUse"
       gradientTransform="scale(1.0058652,0.994169)">
      <stop
         id="stop3750"
         style="stop-color:#000000;stop-opacity:1"
         offset="0" />
      <stop
         id="stop3752"
         style="stop-color:#000000;stop-opacity:0.58823532"
         offset="1" />
    </linearGradient>
    <linearGradient
       id="linearGradient3737">
      <stop
         id="stop3739"
         style="stop-color:#ffffff;stop-opacity:1"
         offset="0" />
      <stop
         id="stop3741"
         style="stop-color:#ffffff;stop-opacity:0"
         offset="1" />
    </linearGradient>
    <linearGradient
       x1="48"
       y1="90"
       x2="48"
       y2="5.9877172"
       id="linearGradient3706"
       xlink:href="#ButtonColor"
       gradientUnits="userSpaceOnUse" />
    <filter
       color-interpolation-filters="sRGB"
       id="filter3218">
      <feGaussianBlur
         id="feGaussianBlur3220"
         stdDeviation="1.71" />
    </filter>
    <linearGradient
       x1="124.39286"
       y1="6"
       x2="124.39286"
       y2="63.606895"
       id="linearGradient3230"
       xlink:href="#linearGradient3737"
       gradientUnits="userSpaceOnUse"
       gradientTransform="translate(-100,0)" />
    <linearGradient
       id="linearGradient3737-6">
      <stop
         id="stop3739-6"
         style="stop-color:#ffffff;stop-opacity:1"
         offset="0" />
      <stop
         id="stop3741-4"
         style="stop-color:#ffffff;stop-opacity:0"
         offset="1" />
    </linearGradient>
    <radialGradient
       cx="48"
       cy="90.171875"
       r="42"
       fx="48"
       fy="90.171875"
       id="radialGradient2874"
       xlink:href="#linearGradient3737-6"
       gradientUnits="userSpaceOnUse"
       gradientTransform="matrix(1.1573129,0,0,0.99590774,-7.551021,0.1971319)" />
    <linearGradient
       id="linearGradient3737-2">
      <stop
         id="stop3739-5"
         style="stop-color:#ffffff;stop-opacity:1"
         offset="0" />
      <stop
         id="stop3741-8"
         style="stop-color:#ffffff;stop-opacity:0"
         offset="1" />
    </linearGradient>
    <clipPath
       id="clipPath3613">
      <rect
         width="84"
         height="84"
         rx="6"
         ry="6"
         x="6"
         y="6"
         id="rect3615"
         style="fill:#ffffff;fill-opacity:1;fill-rule:nonzero;stroke:none" />
    </clipPath>
    <filter
       x="-0.192"
       y="-0.192"
       width="1.3839999"
       height="1.3839999"
       color-interpolation-filters="sRGB"
       id="filter3794">
      <feGaussianBlur
         id="feGaussianBlur3796"
         stdDeviation="5.28" />
    </filter>
    <linearGradient
       x1="48"
       y1="20.220806"
       x2="48"
       y2="138.66119"
       id="linearGradient2908"
       xlink:href="#linearGradient3737-2"
       gradientUnits="userSpaceOnUse" />
    <linearGradient
       x1="45.447727"
       y1="92.539597"
       x2="45.447727"
       y2="7.0165396"
       id="ButtonShadow-0"
       gradientUnits="userSpaceOnUse"
       gradientTransform="matrix(1.0058652,0,0,0.994169,100,0)">
      <stop
         id="stop3750-8"
         style="stop-color:#000000;stop-opacity:1"
         offset="0" />
      <stop
         id="stop3752-5"
         style="stop-color:#000000;stop-opacity:0.58823532"
         offset="1" />
    </linearGradient>
    <linearGradient
       x1="32.251034"
       y1="6.1317081"
       x2="32.251034"
       y2="90.238609"
       id="linearGradient3780"
       xlink:href="#ButtonShadow-0"
       gradientUnits="userSpaceOnUse"
       gradientTransform="matrix(1.0238095,0,0,1.0119048,-1.1428571,-98.071429)" />
    <linearGradient
       x1="32.251034"
       y1="6.1317081"
       x2="32.251034"
       y2="90.238609"
       id="linearGradient3772"
       xlink:href="#ButtonShadow-0"
       gradientUnits="userSpaceOnUse"
       gradientTransform="matrix(1.0238095,0,0,1.0119048,-1.1428571,-98.071429)" />
    <linearGradient
       x1="32.251034"
       y1="6.1317081"
       x2="32.251034"
       y2="90.238609"
       id="linearGradient3725"
       xlink:href="#ButtonShadow-0"
       gradientUnits="userSpaceOnUse"
       gradientTransform="matrix(1.0238095,0,0,1.0119048,-1.1428571,-98.071429)" />
    <linearGradient
       x1="32.251034"
       y1="6.1317081"
       x2="32.251034"
       y2="90.238609"
       id="linearGradient3721"
       xlink:href="#ButtonShadow-0"
       gradientUnits="userSpaceOnUse"
       gradientTransform="translate(0,-97)" />
    <linearGradient
       x1="32.251034"
       y1="6.1317081"
       x2="32.251034"
       y2="90.238609"
       id="linearGradient3071"
       xlink:href="#ButtonShadow-0"
       gradientUnits="userSpaceOnUse"
       gradientTransform="matrix(1.0238095,0,0,1.0119048,-1.1428571,-98.071429)" />
    <radialGradient
       inkscape:collect="always"
       xlink:href="#linearGradient4132"
       id="radialGradient3152"
       gradientUnits="userSpaceOnUse"
       gradientTransform="matrix(1.090012,0,0,0.84044811,-22.037756,-5.285582)"
       cx="63.98003"
       cy="61.948856"
       fx="63.98003"
       fy="61.948856"
       r="58.01997" />
    <linearGradient
       id="linearGradient4132">
      <stop
         id="stop4134"
         style="stop-color:#7bb8f0;stop-opacity:1"
         offset="0" />
      <stop
         id="stop4136"
         style="stop-color:#b5d5f2;stop-opacity:0.1221374"
         offset="1" />
    </linearGradient>
  </defs>
  <metadata
     id="metadata2413">
    <rdf:RDF>
      <cc:Work
         rdf:about="">
        <dc:format>image/svg+xml</dc:format>
        <dc:type
           rdf:resource="http://purl.org/dc/dcmitype/StillImage" />
        <dc:title></dc:title>
      </cc:Work>
    </rdf:RDF>
  </metadata>
  <rect
     style="fill:#3080ca;fill-opacity:1;fill-rule:nonzero;stroke:none;display:inline"
     id="rect2419-8"
     y="6"
     x="6"
     ry="0"
     rx="6"
     height="84"
     width="84" />
  <g
     id="layer2"
     style="display:none">
    <rect
       width="86"
       height="85"
       rx="7"
       ry="7"
       x="5"
       y="7"
       id="rect3745"
       style="opacity:0.9;fill:url(#ButtonShadow);fill-opacity:1;fill-rule:nonzero;stroke:none;filter:url(#filter3218)" />
  </g>
  <g
     id="layer3" />
  <path
     style="opacity:0.8;fill:url(#radialGradient3152);fill-opacity:1;stroke:none;display:inline"
     id="path3522-9"
     inkscape:connector-curvature="0"
     d="m 35.975126,6.298612 c 1.65012,2.2155912 0.11259,5.915398 2.60148,5.878671 1.2119,1.713164 -2.41545,0.511042 0.2036,1.831432 1.5061,1.185988 -1.5934,1.863613 0.27178,2.927919 -2.14968,1.109114 0.34844,5.801103 1.94512,6.97538 2.62795,2.212061 1.1622,-4.683394 4.0945,-5.04209 1.59336,-1.818795 4.39184,-2.986327 6.37927,-4.815989 -1.9423,-0.15766 -3.07647,-1.366454 -1.23702,-2.115252 3.38545,3.468671 0.8489,-1.642711 -1.02514,-2.452023 1.81336,-0.5767594 3.57698,-0.154404 3.32537,-1.6505493 1.91632,-1.4018192 -1.84226,-1.8544226 -3.18394,-1.5374987 -4.45834,0 -8.91667,0 -13.37502,0 z M 8.1732808,7.7456699 c -2.44976,0.6978482 -2.620642,6.5516231 -0.15835,3.3011001 0.604343,-1.334705 3.3970772,-2.943211 0.15835,-3.3011001 z M 19.619775,7.949162 c -1.41226,2.214241 0.204911,3.989518 1.379911,1.288786 0.83171,-1.1277826 -0.617931,-1.2474651 -1.379911,-1.288786 z m 3.528951,0.4974263 c -2.728751,1.2645837 -0.6726,4.2134717 -0.60506,4.8693197 2.87457,0.994334 4.47323,-0.650114 5.56069,2.160413 2.73516,1.576152 -0.0538,4.314918 -1.08054,5.028176 1.84934,-1.610389 5.40416,4.378304 4.47226,1.214321 -1.11179,-0.811673 2.98515,1.303915 0.85962,-1.334006 -1.95607,-3.151091 0.15527,-1.410713 0.97995,-0.675273 2.80488,-2.514847 -3.1736,-2.818813 -1.68123,-5.40689 -1.30775,-1.059057 -3.02289,-4.267374 -5.33867,-3.640254 -1.55024,2.004567 -0.21415,-4.3677909 -2.48861,-1.178979 -0.11789,1.782531 -0.0429,4.044447 -0.70571,0.956351 -0.44407,-0.540606 0.764,-1.7974072 0.0273,-1.9931787 z m -5.56489,0.022612 c -1.831602,0.6105493 -1.733229,3.0849727 0.518956,3.3502467 0.771434,-0.879196 0.306494,-3.1837569 -0.518956,-3.3502468 z M 10.435433,9.26056 c -2.3790782,0.563598 -1.4079922,2.481632 -0.679572,3.02182 -2.9449182,0.737557 4.49569,0.942657 0.79268,1.409793 -3.0807902,1.230224 2.966663,2.67961 3.958767,1.220954 3.804388,0.930273 0.136908,-3.045031 -0.197041,-5.199948 -1.612752,-1.7306215 -0.06365,3.989551 -1.521868,0.184316 -0.508787,1.129983 -2.126528,0.166515 -2.352966,-0.636935 z m 75.601119,0.248712 c -3.19244,1.249243 1.98418,5.963472 0.69765,1.674664 -0.12817,-0.517868 0.28819,-1.886169 -0.69765,-1.674664 z m -66.665616,1.899263 c -2.294083,2.155636 2.91599,3.938244 -0.658894,5.54415 -0.53602,-2.001942 -1.458276,1.001608 -3.503467,-0.615111 -3.515899,1.46374 -5.313868,-0.762449 -8.2575342,-2.288432 -1.768029,-0.220055 -1.103781,1.679698 -1.220884,3.458474 0,4.915862 0,9.831727 0,14.74759 1.733489,1.823574 0.676329,0.804576 0,0.301602 0.951467,3.240031 -0.419572,7.976266 3.330851,9.860928 0.637563,1.182446 3.3128822,6.219986 3.4362202,4.712704 -1.341214,-1.404368 -2.717353,-5.614596 -0.447896,-1.862098 2.032756,3.567022 4.774753,5.880584 8.780474,6.729415 2.19006,0.744855 3.99117,3.305322 5.91712,2.741963 1.08905,2.870539 -3.22741,5.627088 0.14491,8.30447 1.76052,2.71045 4.71618,4.488168 3.11596,8.29345 -1.11907,3.716413 -0.63993,7.765882 -1.60779,11.228513 -0.30039,2.107681 2.93804,7.457302 2.65747,3.173531 0.94557,-2.976918 0.92064,-6.252508 3.14759,-8.360679 3.04711,0.02412 0.58237,-3.276114 3.607,-2.844995 1.84565,-2.418872 2.38023,-5.304486 5.49491,-6.264978 0.37205,-2.936144 5.17882,-7.4329 0.21314,-8.576056 -1.34961,-0.665119 -4.8245,-0.904282 -4.55894,-1.232465 0.53803,-2.913429 -4.49347,-3.742841 -6.63424,-4.934817 -2.81075,-1.994856 -7.03423,3.313948 -8.02451,-1.260398 -0.59088,-1.439233 -2.75133,-1.462574 -1.75843,-3.683379 -1.78939,1.779441 -5.28934,1.238624 -4.373028,-2.197824 1.391566,-2.894156 6.735638,-3.031092 7.646258,0.450058 -1.26435,-3.839294 2.44394,-6.828036 4.50253,-9.559465 0.41916,-1.305551 2.90974,-2.427219 2.05268,-0.692077 1.46015,-0.05266 3.67328,-2.687302 1.07941,-1.471281 -0.0367,-2.402702 -2.27298,-1.719417 -2.998,-1.378249 1.34377,-2.132514 8.24498,-0.966646 5.35509,-4.452373 -2.2393,-0.907229 -2.05302,-6.201368 -4.318,-3.251981 0.1906,-1.817243 -4.61001,-5.374474 -4.50525,-2.327163 0.58599,2.726773 0.10714,5.867952 -1.13992,7.655308 -0.26025,-3.995633 -7.075686,-3.112538 -6.199431,-7.370332 1.269451,-2.029282 2.752851,-4.835506 2.894181,-4.583059 2.27505,-0.868509 4.10459,-3.394824 1.46783,-5.055609 -0.14092,1.447483 -1.98303,4.433935 -1.72366,0.821917 -1.705794,2.022175 -1.3162,-3.217808 -2.91375,-3.761252 z m 54.449996,1.401837 c -3.995936,0.977352 -5.580066,4.793453 -7.556806,7.954209 -2.91386,1.313584 -2.80294,6.954861 0.45241,5.153113 0.87128,1.52152 -0.60951,3.919724 1.92831,1.930256 2.047,-2.708555 0.35794,-7.089232 3.841416,-8.797142 0.25374,1.32799 -3.213336,6.286746 0.83699,5.471685 3.66156,0.13814 -2.661846,0.364788 -0.88099,2.703385 -1.850266,-1.097665 -0.88884,2.997843 -3.303986,2.044772 -2.09232,1.137967 -3.46433,-0.528366 -2.98503,-2.353789 -1.64596,0.960095 0.5177,3.668626 -2.33958,3.831405 -0.64005,2.272529 -5.90338,1.930002 -2.9102,4.244049 1.3289,3.443647 -4.95154,0.215879 -3.16854,4.348369 1.52545,4.086407 4.7224,-1.354049 6.01943,-2.405153 2.50248,-1.940907 6.21066,3.309444 3.95877,3.504593 2.52508,-0.338743 2.00619,-2.739888 -0.0169,-3.669477 -1.09268,-2.833524 3.45903,1.389634 3.2066,2.810286 1.605946,3.006852 0.944616,-3.078557 2.578846,-0.384373 -0.1908,2.841965 6.57418,0.668223 3.34439,4.290282 -2.77688,0.559235 -5.51013,-0.715787 -7.900826,0.100876 -2.22511,-0.01969 -2.11347,-2.396773 -2.92358,-2.992055 -2.83037,0.229926 -6.32794,0.203926 -8.22277,2.490166 -2.04902,2.810946 -5.00383,6.740445 -2.77053,10.329674 2.23487,5.318818 7.77718,0.27589 10.96298,3.417068 0.94693,1.309731 -0.8206,2.86661 1.2967,4.285291 0.79672,3.022035 -0.90448,5.891404 1.05227,8.780282 1.01184,2.716843 1.63978,6.783262 5.405756,4.300665 3.98577,-2.398255 2.92416,-6.819304 6.21294,-9.268036 -2.60227,-5.035562 3.18363,-7.243505 4.62722,-11.33147 -3.15395,0.461678 -5.96377,-2.682428 -6.72579,-5.847035 -1.32494,-1.53712 -0.98368,-3.80361 0.49633,-0.916013 2.03426,1.970926 2.07821,7.819175 5.84127,4.810628 1.72035,-0.719477 6.4186,-3.464001 2.67511,-4.712977 -2.41304,1.747528 -5.07525,-5.221667 -1.53182,-1.179385 2.57602,1.092759 4.37996,1.743838 4.37996,-1.879216 0,-9.761273 0,-19.654809 0,-29.482214 -0.8024,0.819872 -2.8638,2.334082 -3.90428,1.32791 -1.79037,0.249281 -4.15389,3.732429 -3.59125,0.365356 -1.55624,-0.103042 -0.27858,3.019034 -2.41664,3.106347 -0.21529,1.605089 -2.15987,0.29723 -1.42943,1.821464 -1.50065,-1.064346 -2.77067,-4.424842 0.18614,-2.315577 4.39103,-1.31719 -2.8956,-4.288275 -3.45804,-5.006418 0.94545,-0.226501 -1.02861,-1.211646 -1.26681,-0.881801 z m -36.239676,0.881801 c -1.4615,1.217596 2.77854,1.446893 0,0 z M 18.058885,14.34787 c -1.634647,1.709655 2.603281,1.571667 0,0 z m 9.478421,1.69577 c -1.23786,2.027571 1.82903,0.748571 0,0 z m 27.10058,2.39669 c -1.44923,1.668248 -3.36205,-0.439045 -3.39323,0.994852 0.26265,0.433258 1.31467,3.52554 3.61945,1.243565 1.23698,-0.521451 0.74995,-1.835967 -0.22622,-2.238417 z m -30.85575,0.994852 c -2.74881,2.400285 4.6683,2.621438 0.58232,0.275289 l -0.58232,-0.27529 z m 36.2623,6.647418 c -1.97909,1.2904 0.94943,4.030804 -0.0431,5.318079 -1.2401,2.160392 4.60832,-0.152179 1.48461,-1.875826 -0.22257,-1.48088 -1.83002,-3.287723 -1.44154,-3.442253 z m -1.33468,2.600181 c -2.75739,0.779471 -0.62595,4.803849 0.35067,1.013493 0.0549,-0.219748 0.12936,-1.020842 -0.35067,-1.013493 z m -22.0786,2.916726 c -2.56522,1.748962 -0.39843,3.494707 1.48156,2.707775 -0.38596,-1.055239 -1.46417,-1.720102 -1.48156,-2.707775 z m 48.455296,2.939335 c 1.27995,0.645878 -2.34554,1.749213 -0.0498,2.885924 1.33598,1.570889 0.83231,4.942999 -1.3392,2.556372 0.40344,-2.664667 -2.94356,-4.654664 1.38903,-5.442296 z m -6.58287,0.02261 c -0.17366,1.711943 3.69395,4.372967 -0.47504,3.504593 -2.20475,0.258597 -5.50697,-0.06736 -2.72943,-2.814283 0.87765,-0.526822 3.18206,1.817596 1.98292,-0.373765 0.42513,-0.02712 0.82107,-0.18758 1.22155,-0.316545 z m -12.735906,3.708083 c -1.60811,1.035898 1.11199,1.830212 0,0 z m -40.37941,9.654585 c -0.27111,0.904354 5.08598,1.82085 1.38929,0.371963 l -0.55107,-0.193949 -0.83822,-0.178014 z m 4.16235,1.288785 c -1.62491,1.649392 3.34782,0.492772 0,0 z m 54.336896,15.126272 c -3.53072,0.09109 -3.06133,9.197024 -0.60013,3.808943 0.2334,-1.169216 1.1689,-2.712425 0.60013,-3.808943 z" />
  <g
     id="g3971"
     transform="matrix(0.76527884,0,0,0.55545234,-12.352415,30.109766)">
    <g
       id="layer1-4"
       transform="translate(41.919545,16.035245)">
      <rect
         style="fill:#cccccc;fill-opacity:1;fill-rule:nonzero;stroke:none"
         id="rect2419-5"
         y="6"
         x="6"
         ry="0"
         rx="6"
         height="84"
         width="84" />
    </g>
    <g
       id="layer5"
       transform="translate(41.919545,16.035245)" />
    <rect
       rx="6"
       y="23.862684"
       x="48.82859"
       height="42.112267"
       width="41.454262"
       id="rect3080"
       style="opacity:0.9;fill:#ffffff;fill-opacity:1;fill-rule:evenodd;stroke:none" />
    <path
       style="fill:#1a1a1a;fill-opacity:1;stroke:none;display:inline;enable-background:new"
       id="path3798-9"
       inkscape:connector-curvature="0"
       d="m 68.752553,26.941812 c -4.992394,0 -9.036172,4.003501 -9.036172,8.930057 0.01212,0.564585 0.01563,1.195057 0.07116,1.897319 -0.790083,0.445319 -0.89448,2.19078 -0.189735,3.946425 0.271754,0.67698 0.645292,1.224137 1.01983,1.669642 0.01248,0.0149 0.03486,0.0361 0.04744,0.0506 0.0894,0.463857 0.152766,0.817547 0.260886,1.340774 0.334945,1.062418 1.72209,3.063317 2.940905,4.781246 0.121546,1.325261 0.125962,2.641344 -0.118585,4.148805 -3.508167,3.077345 -12.488583,4.454045 -12.475135,7.639875 l -0.16602,1.214276 35.290872,0 -0.16602,-1.214285 C 86.217669,58.619901 77.19828,56.8925 73.733128,53.706671 c -0.140299,-1.220349 -0.166287,-2.415576 -0.09487,-3.617558 1.10813,-1.8073 2.570098,-4.136338 2.940905,-5.312494 0.136281,-0.60911 0.202478,-1.020128 0.30832,-1.543153 0.327231,-0.422888 0.635972,-0.916098 0.87753,-1.517857 0.66926,-1.667237 0.587239,-3.278617 -0.09487,-3.819937 0.04767,-0.724434 0.09866,-1.40466 0.118585,-2.023808 6e-6,-4.926546 -4.043779,-8.930047 -9.036173,-8.930047 z" />
    <g
       style="fill:#ffffff;fill-opacity:1"
       id="g23"
       transform="matrix(1.7176984,0,0,1.4333175,72.925058,9.2992787)">
      <text
         transform="scale(0.87572745,1.1419078)"
         id="text25"
         xml:space="preserve"
         x="13.651586"
         y="20.141726"
         font-size="12px"
         font-weight="bold"
         line-height="125%"
         style="font-size:10.50872612px;font-weight:bold;line-height:125%;letter-spacing:0px;word-spacing:0px;fill:#1a1a1a;fill-opacity:1;font-family:TheMixPlain"
         sodipodi:linespacing="125%"><tspan
           style="font-size:3.82390046px;fill:#1a1a1a;fill-opacity:1"
           id="tspan27"
           x="13.651586"
           y="20.141726"></tspan></text>
      <text
         transform="scale(0.87572745,1.1419078)"
         xml:space="preserve"
         x="13.651586"
         y="20.141726"
         font-size="12px"
         font-weight="bold"
         line-height="125%"
         style="font-size:10.50872612px;font-weight:bold;line-height:125%;letter-spacing:0px;word-spacing:0px;fill:#1a1a1a;fill-opacity:1;font-family:TheMixPlain"
         sodipodi:linespacing="125%"
         id="text4022"><tspan
           style="font-size:3.82390046px;fill:#1a1a1a;fill-opacity:1"
           x="13.651586"
           y="20.141726"
           id="tspan4024">address</tspan></text>
      <path
         id="path29"
         d="m 12,26.5 h 4"
         inkscape:connector-curvature="0"
         style="fill:#ffffff;fill-opacity:1;stroke:#f9f9f9;stroke-width:1.13801479px;stroke-opacity:1" />
      <path
         id="path31"
         d="m 17,26.5 h 1"
         inkscape:connector-curvature="0"
         style="fill:#ffffff;fill-opacity:1;stroke:#f9f9f9;stroke-width:1.13801479px;stroke-opacity:1" />
      <path
         id="path33"
         d="m 19,26.5 h 5"
         inkscape:connector-curvature="0"
         style="fill:#ffffff;fill-opacity:1;stroke:#f9f9f9;stroke-width:1.13801479px;stroke-opacity:1" />
      <path
         id="path35"
         d="m 25,26.5 h 2"
         inkscape:connector-curvature="0"
         style="fill:#ffffff;fill-opacity:1;stroke:#f9f9f9;stroke-width:1.13801479px;stroke-opacity:1" />
      <path
         id="path37"
         d="m 28.34629,26.5 h 1.086573"
         inkscape:connector-curvature="0"
         style="fill:#ffffff;fill-opacity:1;stroke:#f9f9f9;stroke-width:1.13801467px;stroke-opacity:1" />
      <path
         id="path39"
         d="M 30.581768,26.5 H 32.72721"
         inkscape:connector-curvature="0"
         style="fill:#ffffff;fill-opacity:1;stroke:#f9f9f9;stroke-width:1.13801479px;stroke-opacity:1" />
      <path
         id="path41"
         d="m 12,28.5 h 1"
         inkscape:connector-curvature="0"
         style="fill:#ffffff;fill-opacity:1;stroke:#f9f9f9;stroke-width:1.13801479px;stroke-opacity:1" />
      <path
         id="path43"
         d="m 14,28.5 h 4"
         inkscape:connector-curvature="0"
         style="fill:#ffffff;fill-opacity:1;stroke:#f9f9f9;stroke-width:1.13801479px;stroke-opacity:1" />
      <path
         id="path45"
         d="m 19,28.5 h 3"
         inkscape:connector-curvature="0"
         style="fill:#ffffff;fill-opacity:1;stroke:#f9f9f9;stroke-width:1.13801479px;stroke-opacity:1" />
      <path
         id="path47"
         d="m 23,28.5 h 2"
         inkscape:connector-curvature="0"
         style="fill:#ffffff;fill-opacity:1;stroke:#f9f9f9;stroke-width:1.13801479px;stroke-opacity:1" />
      <path
         id="path49"
         d="m 26.173145,28.5 h 3.259718"
         inkscape:connector-curvature="0"
         style="fill:#ffffff;fill-opacity:1;stroke:#f9f9f9;stroke-width:1.13801467px;stroke-opacity:1" />
      <path
         id="path51"
         d="M 30.581768,28.5 H 32.72721"
         inkscape:connector-curvature="0"
         style="fill:#ffffff;fill-opacity:1;stroke:#f9f9f9;stroke-width:1.13801479px;stroke-opacity:1" />
      <path
         id="path53"
         d="m 12,30.5 h 3"
         inkscape:connector-curvature="0"
         style="fill:#ffffff;fill-opacity:1;stroke:#f9f9f9;stroke-width:1.13801479px;stroke-opacity:1" />
      <path
         id="path55"
         d="m 16,30.5 h 2"
         inkscape:connector-curvature="0"
         style="fill:#ffffff;fill-opacity:1;stroke:#f9f9f9;stroke-width:1.13801479px;stroke-opacity:1" />
      <path
         id="path57"
         d="m 19,30.5 h 7"
         inkscape:connector-curvature="0"
         style="fill:#ffffff;fill-opacity:1;stroke:#f9f9f9;stroke-width:1.13801479px;stroke-opacity:1" />
      <path
         id="path59"
         d="M 27.259717,30.5 H 28.34629"
         inkscape:connector-curvature="0"
         style="fill:#ffffff;fill-opacity:1;stroke:#f9f9f9;stroke-width:1.13801467px;stroke-opacity:1" />
      <path
         id="path61"
         d="M 29.509047,30.5 H 32.72721"
         inkscape:connector-curvature="0"
         style="fill:#ffffff;fill-opacity:1;stroke:#f9f9f9;stroke-width:1.13801479px;stroke-opacity:1" />
      <path
         id="path63"
         d="m 12,32.5 h 4"
         inkscape:connector-curvature="0"
         style="fill:#ffffff;fill-opacity:1;stroke:#f9f9f9;stroke-width:1.13801479px;stroke-opacity:1" />
      <path
         id="path65"
         d="m 17,32.5 h 2"
         inkscape:connector-curvature="0"
         style="fill:#ffffff;fill-opacity:1;stroke:#f9f9f9;stroke-width:1.13801479px;stroke-opacity:1" />
      <path
         id="path67"
         d="m 20,32.5 h 1"
         inkscape:connector-curvature="0"
         style="fill:#ffffff;fill-opacity:1;stroke:#f9f9f9;stroke-width:1.13801479px;stroke-opacity:1" />
      <path
         id="path69"
         d="m 22,32.5 h 1"
         inkscape:connector-curvature="0"
         style="fill:#ffffff;fill-opacity:1;stroke:#f9f9f9;stroke-width:1.13801479px;stroke-opacity:1" />
      <path
         id="path71"
         d="M 23.999999,32.5 H 28.34629"
         inkscape:connector-curvature="0"
         style="fill:#ffffff;fill-opacity:1;stroke:#f9f9f9;stroke-width:1.13801467px;stroke-opacity:1" />
      <path
         id="path73"
         d="M 29.509047,32.5 H 32.72721"
         inkscape:connector-curvature="0"
         style="fill:#ffffff;fill-opacity:1;stroke:#f9f9f9;stroke-width:1.13801479px;stroke-opacity:1" />
      <path
         id="path75"
         d="m 12,34.5 h 3"
         inkscape:connector-curvature="0"
         style="fill:#ffffff;fill-opacity:1;stroke:#f9f9f9;stroke-width:1.13801479px;stroke-opacity:1" />
      <path
         id="path77"
         d="m 16,34.5 h 1"
         inkscape:connector-curvature="0"
         style="fill:#ffffff;fill-opacity:1;stroke:#f9f9f9;stroke-width:1.13801479px;stroke-opacity:1" />
      <path
         id="path79"
         d="m 18,34.5 h 2"
         inkscape:connector-curvature="0"
         style="fill:#ffffff;fill-opacity:1;stroke:#f9f9f9;stroke-width:1.13801479px;stroke-opacity:1" />
      <path
         id="path81"
         d="m 21,34.5 h 6"
         inkscape:connector-curvature="0"
         style="fill:#ffffff;fill-opacity:1;stroke:#f9f9f9;stroke-width:1.13801479px;stroke-opacity:1" />
      <path
         id="path83"
         d="m 28.34629,34.5 h 2.173146"
         inkscape:connector-curvature="0"
         style="fill:#ffffff;fill-opacity:1;stroke:#f9f9f9;stroke-width:1.13801467px;stroke-opacity:1" />
      <path
         id="path85"
         d="M 31.654489,34.5 H 32.72721"
         inkscape:connector-curvature="0"
         style="fill:#ffffff;fill-opacity:1;stroke:#f9f9f9;stroke-width:1.13801479px;stroke-opacity:1" />
      <path
         id="path87"
         d="m 12,36.5 h 2"
         inkscape:connector-curvature="0"
         style="fill:#ffffff;fill-opacity:1;stroke:#f9f9f9;stroke-width:1.13801479px;stroke-opacity:1" />
      <path
         id="path89"
         d="m 15,36.5 h 6"
         inkscape:connector-curvature="0"
         style="fill:#ffffff;fill-opacity:1;stroke:#f9f9f9;stroke-width:1.13801479px;stroke-opacity:1" />
      <path
         id="path91"
         d="m 21.999999,36.5 h 5.363606 5.363605"
         inkscape:connector-curvature="0"
         style="fill:#ffffff;fill-opacity:1;stroke:#f9f9f9;stroke-width:1.13801479px;stroke-opacity:1" />
      <path
         id="path93"
         d="m 12,38.5 h 3"
         inkscape:connector-curvature="0"
         style="fill:#ffffff;fill-opacity:1;stroke:#f9f9f9;stroke-width:1.13801479px;stroke-opacity:1" />
      <path
         id="path95"
         d="m 16,38.5 h 4"
         inkscape:connector-curvature="0"
         style="fill:#ffffff;fill-opacity:1;stroke:#f9f9f9;stroke-width:1.13801479px;stroke-opacity:1" />
    </g>
    <rect
       rx="0"
       y="71.593979"
       x="49.945789"
       height="3.6190231"
       width="79.94751"
       id="rect3929"
       style="opacity:0.9;fill:#1a1a1a;fill-opacity:1;fill-rule:evenodd;stroke:none" />
    <g
       transform="translate(40.932539,24.918301)"
       id="g3944">
      <rect
         style="opacity:0.9;fill:#1a1a1a;fill-opacity:1;fill-rule:evenodd;stroke:none"
         id="rect3931"
         width="2.6320167"
         height="19.411123"
         x="10.528067"
         y="61.125778" />
      <rect
         y="61.125778"
         x="16.528067"
         height="19.411123"
         width="2.6320167"
         id="rect3933"
         style="opacity:0.9;fill:#1a1a1a;fill-opacity:1;fill-rule:evenodd;stroke:none" />
      <rect
         style="opacity:0.9;fill:#1a1a1a;fill-opacity:1;fill-rule:evenodd;stroke:none"
         id="rect3938"
         width="2.6320167"
         height="19.411123"
         x="22.528067"
         y="61.125778" />
      <rect
         y="61.125778"
         x="28.528067"
         height="19.411123"
         width="2.6320167"
         id="rect3940"
         style="opacity:0.9;fill:#1a1a1a;fill-opacity:1;fill-rule:evenodd;stroke:none" />
      <rect
         style="opacity:0.9;fill:#1a1a1a;fill-opacity:1;fill-rule:evenodd;stroke:none"
         id="rect3942"
         width="2.6320167"
         height="19.411123"
         x="34.528069"
         y="61.125778" />
    </g>
  </g>
</svg>
