<?xml version="1.0" encoding="UTF-8" standalone="no"?>
<!-- Created with Inkscape (http://www.inkscape.org/) -->

<svg
   xmlns:dc="http://purl.org/dc/elements/1.1/"
   xmlns:cc="http://creativecommons.org/ns#"
   xmlns:rdf="http://www.w3.org/1999/02/22-rdf-syntax-ns#"
   xmlns:svg="http://www.w3.org/2000/svg"
   xmlns="http://www.w3.org/2000/svg"
   xmlns:xlink="http://www.w3.org/1999/xlink"
   xmlns:sodipodi="http://sodipodi.sourceforge.net/DTD/sodipodi-0.dtd"
   xmlns:inkscape="http://www.inkscape.org/namespaces/inkscape"
   version="1.0"
   width="96"
   height="96"
   id="svg2408"
   inkscape:version="0.48.4 r9939"
   sodipodi:docname="preferences-desktop-user.svg">
  <sodipodi:namedview
     pagecolor="#ffffff"
     bordercolor="#666666"
     borderopacity="1"
     objecttolerance="10"
     gridtolerance="10"
     guidetolerance="10"
     inkscape:pageopacity="0"
     inkscape:pageshadow="2"
     inkscape:window-width="1680"
     inkscape:window-height="991"
     id="namedview87"
     showgrid="false"
     inkscape:zoom="7.1561403"
     inkscape:cx="46.325686"
     inkscape:cy="44.810957"
     inkscape:window-x="0"
     inkscape:window-y="-3"
     inkscape:window-maximized="1"
     inkscape:current-layer="svg2408" />
  <defs
     id="defs2410">
    <linearGradient
       x1="45.447727"
       y1="92.539597"
       x2="45.447727"
       y2="7.0165396"
       id="ButtonShadow"
       gradientUnits="userSpaceOnUse"
       gradientTransform="scale(1.0058652,0.994169)">
      <stop
         id="stop3750"
         style="stop-color:#000000;stop-opacity:1"
         offset="0" />
      <stop
         id="stop3752"
         style="stop-color:#000000;stop-opacity:0.58823532"
         offset="1" />
    </linearGradient>
    <linearGradient
       id="linearGradient3737">
      <stop
         id="stop3739"
         style="stop-color:#ffffff;stop-opacity:1"
         offset="0" />
      <stop
         id="stop3741"
         style="stop-color:#ffffff;stop-opacity:0"
         offset="1" />
    </linearGradient>
    <filter
       color-interpolation-filters="sRGB"
       id="filter3174">
      <feGaussianBlur
         id="feGaussianBlur3176"
         stdDeviation="1.71" />
    </filter>
    <linearGradient
       x1="36.357143"
       y1="6"
       x2="36.357143"
       y2="63.893143"
       id="linearGradient3188"
       xlink:href="#linearGradient3737"
       gradientUnits="userSpaceOnUse" />
    <filter
       x="-0.192"
       y="-0.192"
       width="1.3839999"
       height="1.3839999"
       color-interpolation-filters="sRGB"
       id="filter3794">
      <feGaussianBlur
         id="feGaussianBlur3796"
         stdDeviation="5.28" />
    </filter>
    <linearGradient
       x1="48"
       y1="20.220806"
       x2="48"
       y2="138.66119"
       id="linearGradient3613"
       xlink:href="#linearGradient3737"
       gradientUnits="userSpaceOnUse" />
    <radialGradient
       cx="48"
       cy="90.171875"
       r="42"
       fx="48"
       fy="90.171875"
       id="radialGradient3619"
       xlink:href="#linearGradient3737"
       gradientUnits="userSpaceOnUse"
       gradientTransform="matrix(1.1573129,0,0,0.99590774,-7.5510206,0.19713193)" />
    <clipPath
       id="clipPath3613">
      <rect
         width="84"
         height="84"
         rx="6"
         ry="6"
         x="6"
         y="6"
         id="rect3615"
         style="fill:#ffffff;fill-opacity:1;fill-rule:nonzero;stroke:none" />
    </clipPath>
    <linearGradient
       x1="48"
       y1="90"
       x2="48"
       y2="5.9877172"
       id="linearGradient3617"
       xlink:href="#ButtonColor"
       gradientUnits="userSpaceOnUse" />
    <linearGradient
       x1="10.31979"
       y1="21"
       x2="10.31979"
       y2="0.99929649"
       id="ButtonColor"
       gradientUnits="userSpaceOnUse">
      <stop
         id="stop3189"
         style="stop-color:#2764bf;stop-opacity:1"
         offset="0" />
      <stop
         id="stop3191"
         style="stop-color:#71a1e8;stop-opacity:1"
         offset="1" />
    </linearGradient>
    <linearGradient
       id="linearGradient6746">
      <stop
         id="stop6748"
         style="stop-color:#19407c;stop-opacity:1"
         offset="0" />
      <stop
         id="stop6750"
         style="stop-color:#4f87dc;stop-opacity:0.50588238"
         offset="0.28121248" />
      <stop
         id="stop6752"
         style="stop-color:#2156a4;stop-opacity:1"
         offset="0.45118788" />
      <stop
         id="stop6754"
         style="stop-color:#1b4789;stop-opacity:1"
         offset="0.58596319" />
      <stop
         id="stop6756"
         style="stop-color:#1f5bb4;stop-opacity:1"
         offset="0.76171201" />
      <stop
         id="stop6758"
         style="stop-color:#9abaeb;stop-opacity:0.98039216"
         offset="1" />
    </linearGradient>
    <linearGradient
       x1="50.420731"
       y1="111.18644"
       x2="68.841461"
       y2="9.1256237"
       id="linearGradient3664"
       xlink:href="#linearGradient6746"
       gradientUnits="userSpaceOnUse"
       gradientTransform="matrix(0,0.72413795,-0.72413794,0,94.34483,1.655173)" />
    <linearGradient
       x1="45.447727"
       y1="92.539597"
       x2="45.447727"
       y2="7.0165396"
       id="ButtonShadow-0"
       gradientUnits="userSpaceOnUse"
       gradientTransform="matrix(1.0058652,0,0,0.994169,100,0)">
      <stop
         id="stop3750-8"
         style="stop-color:#000000;stop-opacity:1"
         offset="0" />
      <stop
         id="stop3752-5"
         style="stop-color:#000000;stop-opacity:0.58823532"
         offset="1" />
    </linearGradient>
    <linearGradient
       x1="32.251034"
       y1="6.1317081"
       x2="32.251034"
       y2="90.238609"
       id="linearGradient3780"
       xlink:href="#ButtonShadow-0"
       gradientUnits="userSpaceOnUse"
       gradientTransform="matrix(1.0238095,0,0,1.0119048,-1.1428571,-98.071429)" />
    <linearGradient
       x1="32.251034"
       y1="6.1317081"
       x2="32.251034"
       y2="90.238609"
       id="linearGradient3772"
       xlink:href="#ButtonShadow-0"
       gradientUnits="userSpaceOnUse"
       gradientTransform="matrix(1.0238095,0,0,1.0119048,-1.1428571,-98.071429)" />
    <linearGradient
       x1="32.251034"
       y1="6.1317081"
       x2="32.251034"
       y2="90.238609"
       id="linearGradient3725"
       xlink:href="#ButtonShadow-0"
       gradientUnits="userSpaceOnUse"
       gradientTransform="matrix(1.0238095,0,0,1.0119048,-1.1428571,-98.071429)" />
    <linearGradient
       x1="32.251034"
       y1="6.1317081"
       x2="32.251034"
       y2="90.238609"
       id="linearGradient3721"
       xlink:href="#ButtonShadow-0"
       gradientUnits="userSpaceOnUse"
       gradientTransform="translate(0,-97)" />
    <linearGradient
       x1="32.251034"
       y1="6.1317081"
       x2="32.251034"
       y2="90.238609"
       id="linearGradient3122"
       xlink:href="#ButtonShadow-0"
       gradientUnits="userSpaceOnUse"
       gradientTransform="matrix(1.0238095,0,0,1.0119048,-1.1428571,-98.071429)" />
    <linearGradient
       inkscape:collect="always"
       xlink:href="#ButtonColor"
       id="linearGradient3033"
       gradientUnits="userSpaceOnUse"
       x1="48"
       y1="90"
       x2="48"
       y2="5.9877172" />
    <linearGradient
       inkscape:collect="always"
       xlink:href="#ButtonColor"
       id="linearGradient3040"
       gradientUnits="userSpaceOnUse"
       x1="48"
       y1="90"
       x2="48"
       y2="5.9877172"
       gradientTransform="translate(-0.46110355,0)" />
  </defs>
  <metadata
     id="metadata2413">
    <rdf:RDF>
      <cc:Work
         rdf:about="">
        <dc:format>image/svg+xml</dc:format>
        <dc:type
           rdf:resource="http://purl.org/dc/dcmitype/StillImage" />
        <dc:title />
      </cc:Work>
    </rdf:RDF>
  </metadata>
  <g
     id="layer2"
     style="display:none">
    <rect
       width="86"
       height="85"
       rx="6"
       ry="6"
       x="5"
       y="7"
       id="rect3745"
       style="opacity:0.9;fill:url(#ButtonShadow);fill-opacity:1;fill-rule:nonzero;stroke:none;filter:url(#filter3174)" />
  </g>
  <rect
     style="fill:#c339bb;fill-opacity:1;fill-rule:evenodd;stroke:none"
     id="rect3028"
     width="84.123558"
     height="84.123558"
     x="5.8690858"
     y="5.8676138"
     ry="0" />
  <g
     id="g3808"
     transform="matrix(0.92267018,0,0,0.92267018,146.06685,0.627426)">
    <g
       id="g3672"
       transform="matrix(0.20238095,0,0,0.20238095,-197.85714,-7.2142874)" />
    <g
       id="g3704"
       transform="matrix(0.20238095,0,0,0.20238095,-197.85714,-7.2142874)" />
  </g>
  <g
     id="layer5" />
  <g
     id="g3042"
     transform="translate(-0.4158795,0.415871)">
    <path
       d="m 48.415872,17.97592 c -8.39901,0 -15.202106,6.655798 -15.202106,14.846169 0.02041,0.93862 0.02629,1.986778 0.119712,3.154283 -1.329207,0.740341 -1.504839,3.64216 -0.319205,6.56091 0.457189,1.125476 1.085616,2.03512 1.715724,2.77577 0.021,0.02477 0.05865,0.06001 0.0798,0.08412 0.150407,0.77116 0.257008,1.359166 0.438905,2.229028 0.563499,1.766264 2.897179,5.092747 4.947664,7.948794 0.204486,2.20324 0.211915,4.391221 -0.199501,6.897366 -5.901997,5.116071 -21.010305,7.404826 -20.987682,12.70125 l -0.279305,2.018728 59.372003,0 -0.279304,-2.018741 C 77.79851,70.640563 62.62463,67.768769 56.794992,62.472345 c -0.236035,-2.028823 -0.279757,-4.015882 -0.159599,-6.014168 1.864273,-3.004628 4.323833,-6.876641 4.947665,-8.831994 0.229273,-1.012642 0.34064,-1.695958 0.518706,-2.565484 0.55052,-0.703047 1.069933,-1.523006 1.47632,-2.523428 1.125939,-2.771772 0.987951,-5.450682 -0.159602,-6.350623 0.0802,-1.204368 0.16598,-2.335241 0.199504,-3.36457 10e-6,-8.190357 -6.803098,-14.846155 -15.202109,-14.846155 z"
       inkscape:connector-curvature="0"
       id="path3835"
       style="opacity:0.2;fill:#000000;fill-opacity:1;stroke:none;display:inline;enable-background:new" />
    <path
       style="fill:#ffffff;fill-opacity:1;stroke:none;display:inline;enable-background:new"
       id="path3798-9"
       inkscape:connector-curvature="0"
       d="m 47.999994,17.97592 c -8.105477,0 -14.670815,6.552144 -14.670815,14.614962 0.01969,0.924003 0.02537,1.955837 0.115528,3.10516 -1.282753,0.728811 -1.452247,3.585439 -0.308049,6.458734 0.441211,1.107948 1.047675,2.003426 1.655762,2.732541 0.02026,0.02438 0.0566,0.05908 0.07701,0.08281 0.14515,0.75915 0.248026,1.337999 0.423566,2.194314 0.543806,1.738757 2.795926,5.013435 4.774751,7.825004 0.197339,2.168928 0.204508,4.322834 -0.192529,6.78995 -5.695732,5.036395 -20.276026,7.289506 -20.254193,12.503447 l -0.269544,1.987289 57.297037,0 -0.269543,-1.987302 C 76.355745,69.82039 61.712174,66.99332 56.086274,61.77938 c -0.227785,-1.997227 -0.269979,-3.953341 -0.154021,-5.920507 1.799119,-2.957835 4.172722,-6.769547 4.774751,-8.694448 0.221261,-0.996872 0.328736,-1.669546 0.500578,-2.525531 0.53128,-0.692098 1.032541,-1.499287 1.424725,-2.484129 1.086589,-2.728606 0.953423,-5.365796 -0.154024,-6.251722 0.07739,-1.185612 0.160179,-2.298873 0.192531,-3.312172 1e-5,-8.062804 -6.565339,-14.614948 -14.670816,-14.614948 z" />
  </g>
</svg>
