<?xml version="1.0" encoding="UTF-8" standalone="no"?>
<!-- Created using Karbon, part of Calligra: http://www.calligra.org/karbon -->

<svg
   xmlns:dc="http://purl.org/dc/elements/1.1/"
   xmlns:cc="http://creativecommons.org/ns#"
   xmlns:rdf="http://www.w3.org/1999/02/22-rdf-syntax-ns#"
   xmlns:svg="http://www.w3.org/2000/svg"
   xmlns="http://www.w3.org/2000/svg"
   xmlns:sodipodi="http://sodipodi.sourceforge.net/DTD/sodipodi-0.dtd"
   xmlns:inkscape="http://www.inkscape.org/namespaces/inkscape"
   width="38.4pt"
   height="38.4pt"
   id="svg2"
   version="1.1"
   inkscape:version="0.48.4 r9939"
   sodipodi:docname="kipi-ogl.svg">
  <metadata
     id="metadata12">
    <rdf:RDF>
      <cc:Work
         rdf:about="">
        <dc:format>image/svg+xml</dc:format>
        <dc:type
           rdf:resource="http://purl.org/dc/dcmitype/StillImage" />
        <dc:title></dc:title>
      </cc:Work>
    </rdf:RDF>
  </metadata>
  <sodipodi:namedview
     pagecolor="#ffffff"
     bordercolor="#666666"
     borderopacity="1"
     objecttolerance="10"
     gridtolerance="10"
     guidetolerance="10"
     inkscape:pageopacity="0"
     inkscape:pageshadow="2"
     inkscape:window-width="959"
     inkscape:window-height="757"
     id="namedview10"
     showgrid="false"
     inkscape:zoom="7.8245242"
     inkscape:cx="10.579044"
     inkscape:cy="34.356675"
     inkscape:window-x="591"
     inkscape:window-y="86"
     inkscape:window-maximized="0"
     inkscape:current-layer="svg2" />
  <defs
     id="defs4" />
  <g
     id="g3808"
     style="fill:#b3b3b3">
    <rect
       y="0"
       x="0"
       style="fill:#b3b3b3;fill-rule:evenodd;stroke:none"
       height="40.004005"
       width="40.004005"
       stroke-miterlimit="2.00000000000"
       transform="translate(4.00394,4.00394)"
       id="rect3810" />
    <rect
       y="0"
       x="0"
       id="rect3812"
       transform="translate(4.00394,4.00394)"
       stroke-miterlimit="2.00000000000"
       width="40.004005"
       height="40.004005"
       style="fill:#b3b3b3;fill-rule:evenodd;stroke:none" />
  </g>
  <path
     sodipodi:type="arc"
     style="color:#000000;fill:#ffffff;fill-opacity:1;fill-rule:nonzero;stroke:none;stroke-width:1.676;marker:none;visibility:visible;display:inline;overflow:visible;enable-background:accumulate"
     id="path3756"
     sodipodi:cx="22.940693"
     sodipodi:cy="23.078358"
     sodipodi:rx="13.483248"
     sodipodi:ry="13.483248"
     d="m 36.423941,23.078358 a 13.483248,13.483248 0 1 1 -26.9664959,0 13.483248,13.483248 0 1 1 26.9664959,0 z"
     transform="matrix(1.1469194,0,0,1.1469194,-2.3111257,-2.4690162)" />
  <path
     style="fill:#ffffff;fill-opacity:1;stroke:none"
     d="M 34.21875 30.125 L 31.28125 33.71875 L 34.46875 36.625 L 32.09375 37.25 L 29.71875 35.625 L 28.59375 36.96875 C 28.59375 36.96875 32.105944 42.276199 40.90625 39.46875 C 40.90625 39.46875 33.681236 35.27622 34.21875 30.125 z "
     id="path3758" />
  <text
     xml:space="preserve"
     style="font-size:18px;font-style:normal;font-variant:normal;font-weight:normal;font-stretch:normal;line-height:125%;letter-spacing:0px;word-spacing:0px;fill:#000000;fill-opacity:1;stroke:none;font-family:DejaVu Sans;-inkscape-font-specification:DejaVu Sans"
     x="17.636854"
     y="24.548096"
     id="text3760"
     sodipodi:linespacing="125%"><tspan
       sodipodi:role="line"
       id="tspan3762"></tspan></text>
  <text
     xml:space="preserve"
     style="font-size:30.83603477px;font-style:normal;font-variant:normal;font-weight:normal;font-stretch:normal;line-height:125%;letter-spacing:0px;word-spacing:0px;fill:#000000;fill-opacity:1;stroke:none;font-family:DejaVu Sans;-inkscape-font-specification:DejaVu Sans"
     x="12.128803"
     y="34.96315"
     id="text3767"
     sodipodi:linespacing="125%"
     transform="scale(0.98910052,1.0110196)"><tspan
       sodipodi:role="line"
       id="tspan3769"
       x="12.128803"
       y="34.96315">O</tspan></text>
  <path
     style="fill:#000000;fill-opacity:1;stroke:none"
     d="m 27.415214,34.046331 4.674424,3.20148 2.386354,-0.632495 -5.013235,-4.5389 z"
     id="path3771"
     inkscape:connector-curvature="0"
     sodipodi:nodetypes="ccccc" />
</svg>
