<?xml version="1.0" encoding="UTF-8" standalone="no"?>
<!-- Created with Inkscape (http://www.inkscape.org/) -->

<svg
   xmlns:dc="http://purl.org/dc/elements/1.1/"
   xmlns:cc="http://creativecommons.org/ns#"
   xmlns:rdf="http://www.w3.org/1999/02/22-rdf-syntax-ns#"
   xmlns:svg="http://www.w3.org/2000/svg"
   xmlns="http://www.w3.org/2000/svg"
   xmlns:sodipodi="http://sodipodi.sourceforge.net/DTD/sodipodi-0.dtd"
   xmlns:inkscape="http://www.inkscape.org/namespaces/inkscape"
   width="96"
   height="96"
   id="svg2"
   version="1.1"
   inkscape:version="0.48.5 r10040"
   sodipodi:docname="myunity.svg">
  <defs
     id="defs4" />
  <sodipodi:namedview
     id="base"
     pagecolor="#ffffff"
     bordercolor="#666666"
     borderopacity="1.0"
     inkscape:pageopacity="0.0"
     inkscape:pageshadow="2"
     inkscape:zoom="4.7939752"
     inkscape:cx="74.683079"
     inkscape:cy="75.689633"
     inkscape:document-units="px"
     inkscape:current-layer="layer1"
     showgrid="false"
     inkscape:window-width="1680"
     inkscape:window-height="988"
     inkscape:window-x="0"
     inkscape:window-y="-3"
     inkscape:window-maximized="1"
     showguides="false">
    <inkscape:grid
       type="xygrid"
       id="grid3850"
       units="cm"
       empspacing="5"
       visible="true"
       enabled="true"
       snapvisiblegridlinesonly="true" />
    <sodipodi:guide
       position="2.0000153,4.0000174"
       orientation="0,44.000008"
       id="guide4204" />
    <sodipodi:guide
       position="46.000023,44.000017"
       orientation="0,-44.000008"
       id="guide4208" />
    <sodipodi:guide
       position="9,39.000017"
       orientation="30,0"
       id="guide4212" />
    <sodipodi:guide
       position="9,9.0000174"
       orientation="0,30"
       id="guide4214" />
    <sodipodi:guide
       position="39,9.0000174"
       orientation="-30,0"
       id="guide4216" />
    <sodipodi:guide
       position="39,39.000017"
       orientation="0,-30"
       id="guide4218" />
    <sodipodi:guide
       position="15,33.000017"
       orientation="18,0"
       id="guide4222" />
    <sodipodi:guide
       position="15,15.000017"
       orientation="0,18"
       id="guide4224" />
    <sodipodi:guide
       position="33,15.000017"
       orientation="-18,0"
       id="guide4226" />
    <sodipodi:guide
       position="33,33.000017"
       orientation="0,-18"
       id="guide4228" />
    <sodipodi:guide
       position="35.000008,15.000017"
       orientation="11,0"
       id="guide4232" />
    <sodipodi:guide
       position="35.000008,4.0000174"
       orientation="0,11.000015"
       id="guide4234" />
    <sodipodi:guide
       position="46.000023,15.000017"
       orientation="0,-11.000015"
       id="guide4238" />
    <sodipodi:guide
       position="4,44.000017"
       orientation="40,0"
       id="guide4242" />
    <sodipodi:guide
       position="4,4.0000174"
       orientation="0,40"
       id="guide4244" />
    <sodipodi:guide
       position="44,4.0000174"
       orientation="-40,0"
       id="guide4246" />
    <sodipodi:guide
       position="44,44.000017"
       orientation="0,-40"
       id="guide4248" />
    <sodipodi:guide
       position="9,28.500017"
       orientation="9,0"
       id="guide4254" />
    <sodipodi:guide
       position="9,19.500017"
       orientation="0,30"
       id="guide4256" />
    <sodipodi:guide
       position="39,19.500017"
       orientation="-9,0"
       id="guide4258" />
    <sodipodi:guide
       position="39,28.500017"
       orientation="0,-30"
       id="guide4260" />
  </sodipodi:namedview>
  <metadata
     id="metadata7">
    <rdf:RDF>
      <cc:Work
         rdf:about="">
        <dc:format>image/svg+xml</dc:format>
        <dc:type
           rdf:resource="http://purl.org/dc/dcmitype/StillImage" />
        <dc:title></dc:title>
      </cc:Work>
    </rdf:RDF>
  </metadata>
  <g
     inkscape:label="Capa 1"
     inkscape:groupmode="layer"
     id="layer1"
     transform="translate(0,-956.3622)">
    <rect
       y="962.36218"
       x="6"
       height="84"
       width="84"
       id="rect813"
       style="fill:#34495e;fill-opacity:1;stroke:none" />
    <g
       id="g3022"
       transform="matrix(1.1854209,0,0,1.0945639,-13.565347,-89.899699)">
      <path
         sodipodi:nodetypes="cccc"
         inkscape:connector-curvature="0"
         id="path3013"
         d="m 52.390606,1000.4715 -33.079644,15.4105 48.502816,-9.4628 z"
         inkscape:transform-center-y="-4.1270085"
         inkscape:transform-center-x="-2.5114632"
         style="color:#000000;fill:#5fbcd3;fill-opacity:1;fill-rule:nonzero;stroke:none;stroke-width:2.5999999;marker:none;visibility:visible;display:inline;overflow:visible;enable-background:accumulate" />
      <path
         style="color:#000000;fill:#5fbcd3;fill-opacity:1;fill-rule:nonzero;stroke:none;stroke-width:2.5999999;marker:none;visibility:visible;display:inline;overflow:visible;enable-background:accumulate"
         inkscape:transform-center-x="2.495448"
         inkscape:transform-center-y="3.7023265"
         d="M 52.438835,1000.8863 84.559902,983.56618 36.941065,995.7 z"
         id="path3016"
         inkscape:connector-curvature="0"
         sodipodi:nodetypes="cccc" />
    </g>
  </g>
</svg>
