<?xml version="1.0" encoding="UTF-8" standalone="no"?>
<!-- Created with Inkscape (http://www.inkscape.org/) -->

<svg
   xmlns:dc="http://purl.org/dc/elements/1.1/"
   xmlns:cc="http://creativecommons.org/ns#"
   xmlns:rdf="http://www.w3.org/1999/02/22-rdf-syntax-ns#"
   xmlns:svg="http://www.w3.org/2000/svg"
   xmlns="http://www.w3.org/2000/svg"
   xmlns:xlink="http://www.w3.org/1999/xlink"
   xmlns:sodipodi="http://sodipodi.sourceforge.net/DTD/sodipodi-0.dtd"
   xmlns:inkscape="http://www.inkscape.org/namespaces/inkscape"
   version="1.0"
   width="96"
   height="96"
   id="svg2408"
   style="display:inline;enable-background:new"
   inkscape:version="0.48.4 r9939"
   sodipodi:docname="kipi-dngconverter.svg">
  <sodipodi:namedview
     pagecolor="#ffffff"
     bordercolor="#666666"
     borderopacity="1"
     objecttolerance="10"
     gridtolerance="10"
     guidetolerance="10"
     inkscape:pageopacity="0"
     inkscape:pageshadow="2"
     inkscape:window-width="1366"
     inkscape:window-height="709"
     id="namedview90"
     showgrid="false"
     inkscape:zoom="3.7117603"
     inkscape:cx="-6.8924308"
     inkscape:cy="61.626386"
     inkscape:window-x="0"
     inkscape:window-y="-3"
     inkscape:window-maximized="1"
     inkscape:current-layer="svg2408" />
  <defs
     id="defs2410">
    <linearGradient
       id="linearGradient3687">
      <stop
         id="stop3689"
         style="stop-color:#ffffff;stop-opacity:1"
         offset="0" />
      <stop
         id="stop3691"
         style="stop-color:#ffffff;stop-opacity:0"
         offset="1" />
    </linearGradient>
    <linearGradient
       id="linearGradient3487">
      <stop
         id="stop3489"
         style="stop-color:#7cb7f2;stop-opacity:1"
         offset="0" />
      <stop
         id="stop3491"
         style="stop-color:#deecfc;stop-opacity:0"
         offset="1" />
    </linearGradient>
    <linearGradient
       id="linearGradient3175">
      <stop
         id="stop3177"
         style="stop-color:#4490e6;stop-opacity:1"
         offset="0" />
      <stop
         id="stop3179"
         style="stop-color:#103d8f;stop-opacity:1"
         offset="1" />
    </linearGradient>
    <radialGradient
       cx="56.065952"
       cy="-15.871236"
       r="35.9375"
       fx="56.065952"
       fy="-15.871236"
       id="radialGradient3465"
       xlink:href="#linearGradient3175"
       gradientUnits="userSpaceOnUse"
       gradientTransform="matrix(0.00225966,0.925477,-1.3844339,0,25.901984,-30.21143)" />
    <linearGradient
       x1="58.650177"
       y1="122"
       x2="58.650177"
       y2="5.4252338"
       id="ButtonColor"
       gradientUnits="userSpaceOnUse"
       gradientTransform="matrix(1.0172414,0,0,1.0172414,-1.1034483,-1.1034483)">
      <stop
         id="stop3792"
         style="stop-color:#2fc044;stop-opacity:1"
         offset="0" />
      <stop
         id="stop3794"
         style="stop-color:#246d2f;stop-opacity:1"
         offset="1" />
    </linearGradient>
    <linearGradient
       id="linearGradient3465">
      <stop
         id="stop3467"
         style="stop-color:#919191;stop-opacity:1"
         offset="0" />
      <stop
         id="stop3469"
         style="stop-color:#fdfdfd;stop-opacity:1"
         offset="1" />
    </linearGradient>
    <linearGradient
       id="linearGradient3187">
      <stop
         id="stop3189"
         style="stop-color:#b4b4b4;stop-opacity:1"
         offset="0" />
      <stop
         id="stop3191"
         style="stop-color:#e6e6e6;stop-opacity:1"
         offset="1" />
    </linearGradient>
    <linearGradient
       x1="45.447727"
       y1="92.539597"
       x2="45.447727"
       y2="7.0165396"
       id="ButtonShadow"
       gradientUnits="userSpaceOnUse"
       gradientTransform="scale(1.0058652,0.994169)">
      <stop
         id="stop3750"
         style="stop-color:#000000;stop-opacity:1"
         offset="0" />
      <stop
         id="stop3752"
         style="stop-color:#000000;stop-opacity:0.58823532"
         offset="1" />
    </linearGradient>
    <linearGradient
       id="linearGradient3737">
      <stop
         id="stop3739"
         style="stop-color:#ffffff;stop-opacity:1"
         offset="0" />
      <stop
         id="stop3741"
         style="stop-color:#ffffff;stop-opacity:0"
         offset="1" />
    </linearGradient>
    <filter
       color-interpolation-filters="sRGB"
       id="filter3174">
      <feGaussianBlur
         id="feGaussianBlur3176"
         stdDeviation="1.71" />
    </filter>
    <linearGradient
       x1="36.357143"
       y1="6"
       x2="36.357143"
       y2="63.893143"
       id="linearGradient3188"
       xlink:href="#linearGradient3737"
       gradientUnits="userSpaceOnUse" />
    <linearGradient
       x1="43.17857"
       y1="13"
       x2="43.17857"
       y2="83.294571"
       id="linearGradient3436"
       xlink:href="#linearGradient3465"
       gradientUnits="userSpaceOnUse"
       gradientTransform="matrix(1.0294118,0,0,1.0294118,-1.4117647,-1.4117647)" />
    <radialGradient
       cx="47.098362"
       cy="80.842926"
       r="38.957481"
       fx="47.098362"
       fy="80.842926"
       id="radialGradient3366"
       xlink:href="#ButtonColor"
       gradientUnits="userSpaceOnUse"
       gradientTransform="matrix(1.3112996,-5.281739e-8,4.5811678e-8,1.1373685,-14.661706,-10.847943)" />
    <linearGradient
       x1="48"
       y1="90"
       x2="48"
       y2="5.9877172"
       id="linearGradient3466"
       xlink:href="#linearGradient3187"
       gradientUnits="userSpaceOnUse" />
    <filter
       color-interpolation-filters="sRGB"
       id="filter5085">
      <feGaussianBlur
         id="feGaussianBlur5087"
         stdDeviation="0.525" />
    </filter>
    <linearGradient
       x1="76.45089"
       y1="8.0625"
       x2="76.45089"
       y2="72.765785"
       id="linearGradient3693"
       xlink:href="#linearGradient3687"
       gradientUnits="userSpaceOnUse" />
    <linearGradient
       x1="65.15625"
       y1="16.125"
       x2="65.15625"
       y2="69.687508"
       id="linearGradient3701"
       xlink:href="#linearGradient3487"
       gradientUnits="userSpaceOnUse" />
    <linearGradient
       x1="65.15625"
       y1="16.125"
       x2="65.15625"
       y2="69.687508"
       id="linearGradient2675"
       xlink:href="#linearGradient3737"
       gradientUnits="userSpaceOnUse" />
    <linearGradient
       id="linearGradient3737-1">
      <stop
         id="stop3739-7"
         style="stop-color:#ffffff;stop-opacity:1"
         offset="0" />
      <stop
         id="stop3741-2"
         style="stop-color:#ffffff;stop-opacity:0"
         offset="1" />
    </linearGradient>
    <radialGradient
       cx="48"
       cy="90.171875"
       r="42"
       fx="48"
       fy="90.171875"
       id="radialGradient2893"
       xlink:href="#linearGradient3737-1"
       gradientUnits="userSpaceOnUse"
       gradientTransform="matrix(1.1573129,0,0,0.99590774,-7.551021,0.1971319)" />
    <linearGradient
       id="linearGradient3737-6">
      <stop
         id="stop3739-1"
         style="stop-color:#ffffff;stop-opacity:1"
         offset="0" />
      <stop
         id="stop3741-5"
         style="stop-color:#ffffff;stop-opacity:0"
         offset="1" />
    </linearGradient>
    <clipPath
       id="clipPath3613">
      <rect
         width="84"
         height="84"
         rx="6"
         ry="6"
         x="6"
         y="6"
         id="rect3615"
         style="fill:#ffffff;fill-opacity:1;fill-rule:nonzero;stroke:none" />
    </clipPath>
    <filter
       x="-0.192"
       y="-0.192"
       width="1.3839999"
       height="1.3839999"
       color-interpolation-filters="sRGB"
       id="filter3794">
      <feGaussianBlur
         id="feGaussianBlur3796"
         stdDeviation="5.28" />
    </filter>
    <linearGradient
       x1="48"
       y1="20.220806"
       x2="48"
       y2="138.66119"
       id="linearGradient2908"
       xlink:href="#linearGradient3737-6"
       gradientUnits="userSpaceOnUse" />
    <filter
       x="-0.26470587"
       y="-0.34615383"
       width="1.5294118"
       height="1.6923077"
       color-interpolation-filters="sRGB"
       id="filter3970">
      <feGaussianBlur
         id="feGaussianBlur3972"
         stdDeviation="3.9705883" />
    </filter>
    <linearGradient
       x1="45.447727"
       y1="92.539597"
       x2="45.447727"
       y2="7.0165396"
       id="ButtonShadow-0"
       gradientUnits="userSpaceOnUse"
       gradientTransform="matrix(1.0058652,0,0,0.994169,100,0)">
      <stop
         id="stop3750-8"
         style="stop-color:#000000;stop-opacity:1"
         offset="0" />
      <stop
         id="stop3752-5"
         style="stop-color:#000000;stop-opacity:0.58823532"
         offset="1" />
    </linearGradient>
    <linearGradient
       x1="32.251034"
       y1="6.1317081"
       x2="32.251034"
       y2="90.238609"
       id="linearGradient3780"
       xlink:href="#ButtonShadow-0"
       gradientUnits="userSpaceOnUse"
       gradientTransform="matrix(1.0238095,0,0,1.0119048,-1.1428571,-98.071429)" />
    <linearGradient
       x1="32.251034"
       y1="6.1317081"
       x2="32.251034"
       y2="90.238609"
       id="linearGradient3772"
       xlink:href="#ButtonShadow-0"
       gradientUnits="userSpaceOnUse"
       gradientTransform="matrix(1.0238095,0,0,1.0119048,-1.1428571,-98.071429)" />
    <linearGradient
       x1="32.251034"
       y1="6.1317081"
       x2="32.251034"
       y2="90.238609"
       id="linearGradient3725"
       xlink:href="#ButtonShadow-0"
       gradientUnits="userSpaceOnUse"
       gradientTransform="matrix(1.0238095,0,0,1.0119048,-1.1428571,-98.071429)" />
    <linearGradient
       x1="32.251034"
       y1="6.1317081"
       x2="32.251034"
       y2="90.238609"
       id="linearGradient3721"
       xlink:href="#ButtonShadow-0"
       gradientUnits="userSpaceOnUse"
       gradientTransform="translate(0,-97)" />
    <linearGradient
       x1="32.251034"
       y1="6.1317081"
       x2="32.251034"
       y2="90.238609"
       id="linearGradient3059"
       xlink:href="#ButtonShadow-0"
       gradientUnits="userSpaceOnUse"
       gradientTransform="matrix(1.0238095,0,0,1.0119048,-1.1428571,-98.071429)" />
  </defs>
  <metadata
     id="metadata2413">
    <rdf:RDF>
      <cc:Work
         rdf:about="">
        <dc:format>image/svg+xml</dc:format>
        <dc:type
           rdf:resource="http://purl.org/dc/dcmitype/StillImage" />
        <dc:title></dc:title>
      </cc:Work>
    </rdf:RDF>
  </metadata>
  <g
     id="layer2"
     style="display:none">
    <rect
       width="86"
       height="85"
       rx="6"
       ry="6"
       x="5"
       y="7"
       id="rect3745"
       style="opacity:0.9;fill:url(#ButtonShadow);fill-opacity:1;fill-rule:nonzero;stroke:none;filter:url(#filter3174)" />
  </g>
  <g
     id="layer3"
     style="display:inline"
     transform="matrix(1.0715198,0,0,1.061509,-2.6254721,-1.4364662)">
    <rect
       width="77.914963"
       height="78.516495"
       rx="5.8527675"
       ry="0"
       x="8.1408806"
       y="8.2544327"
       id="rect3461"
       style="fill:#005353;fill-opacity:1;stroke:none" />
    <path
       d="m 12.0625,12.0625 0,53.875 71.875,0 0,-53.875 -71.875,0 z"
       transform="matrix(-1.0008688,0,0,-1.3339699,96.010447,99.965928)"
       id="path3215"
       style="fill:none;stroke:none"
       inkscape:connector-curvature="0" />
    <rect
       width="68"
       height="68"
       rx="3"
       ry="3"
       x="14"
       y="14"
       id="rect3469"
       style="fill:#005353;stroke:none;filter:url(#filter5085);fill-opacity:1" />
  </g>
  <g
     id="layer1"
     style="display:inline" />
  <g
     id="layer5"
     style="display:inline" />
  <path
     inkscape:connector-curvature="0"
     id="path3069"
     d="m 49.075948,17.391856 c -7.748887,5.19e-4 -15.450411,3.583338 -20.925645,9.734234 -3.346211,3.759142 -5.808716,8.458479 -7.237272,13.524103 l 6.456895,0 c 3.734567,-9.45708 12.392343,-16.612479 21.706022,-16.613099 6.961869,-4.59e-4 13.560345,4.000004 18.012245,9.967856 l -9.121734,0 0,6.645243 12.832861,0 7.884691,0 0,-6.645243 0,-16.613094 -5.919299,0 0,13.39431 C 71.9197,29.498212 71.01735,28.259252 70.007381,27.12609 64.525155,20.975161 56.824833,17.39134 49.075948,17.391856 z m -29.584936,43.194045 0,6.645236 0,16.613095 5.919298,0 0,-13.374838 c 0.840438,1.280841 1.73658,2.513364 2.739993,3.640601 5.475234,6.150902 13.176758,9.733725 20.925645,9.734237 7.748885,5.13e-4 15.449207,-3.583302 20.931433,-9.734237 3.35141,-3.760198 5.816841,-8.458684 7.24883,-13.524094 l -6.456891,0 C 67.059227,70.046128 58.39126,77.199614 49.075948,77.198994 42.115355,77.198535 35.527688,73.19819 31.081046,67.231137 l 9.127511,0 0,-6.645236 -19.295526,0 -1.422019,0 z"
     style="opacity:0.3;fill:#000000;fill-opacity:1;fill-rule:evenodd;stroke:none" />
  <path
     style="fill:#ffffff;fill-opacity:1;fill-rule:evenodd;stroke:none"
     d="m 49.075948,17.391856 c -7.748887,5e-4 -15.450411,3.453248 -20.925645,9.380841 -3.346211,3.622669 -5.808716,8.151401 -7.237272,13.033122 l 6.456895,0 c 3.734567,-9.113749 12.392343,-16.009377 21.706022,-16.009975 6.961869,-4.42e-4 13.560345,3.854787 18.012245,9.605982 l -9.121734,0 0,6.403993 12.832861,0 7.884691,0 0,-6.403993 0,-16.00997 -5.919299,0 0,12.908041 C 71.9197,29.058701 71.01735,27.86472 70.007381,26.772697 64.525155,20.845072 56.824833,17.391359 49.075948,17.391856 z m -29.584936,41.625922 0,6.403986 0,16.009971 5.919298,0 0,-12.889276 c 0.840438,1.234341 1.73658,2.422118 2.739993,3.508432 5.475234,5.927599 13.176758,9.38035 20.925645,9.380844 7.748885,4.94e-4 15.449207,-3.453214 20.931433,-9.380844 3.35141,-3.623687 5.816841,-8.151599 7.24883,-13.033113 l -6.456891,0 C 67.059227,68.134559 58.39126,75.028344 49.075948,75.027746 42.115355,75.027304 35.527688,71.172188 31.081046,65.421764 l 9.127511,0 0,-6.403986 -19.295526,0 -1.422019,0 z"
     id="folderGlyph-8"
     inkscape:connector-curvature="0" />
  <text
     transform="scale(1.0520911,0.950488)"
     sodipodi:linespacing="125%"
     id="text3053"
     y="59.15522"
     x="21.011387"
     style="font-size:26.01571655000000050px;font-style:normal;font-variant:normal;font-weight:normal;font-stretch:normal;line-height:125%;letter-spacing:0px;word-spacing:0px;fill:#000000;fill-opacity:1;stroke:none;font-family:Droid Sans Japanese;-inkscape-font-specification:Droid Sans Japanese;opacity:0.3"
     xml:space="preserve"><tspan
       y="59.15522"
       x="21.011387"
       id="tspan3055"
       sodipodi:role="line">raw</tspan></text>
  <text
     xml:space="preserve"
     style="font-size:25.00899124px;font-style:normal;font-variant:normal;font-weight:normal;font-stretch:normal;line-height:125%;letter-spacing:0px;word-spacing:0px;fill:#ffffff;fill-opacity:1;stroke:none;font-family:Droid Sans Japanese;-inkscape-font-specification:Droid Sans Japanese"
     x="20.198313"
     y="60.386139"
     id="text3057"
     sodipodi:linespacing="125%"
     transform="scale(1.0944426,0.91370711)"><tspan
       sodipodi:role="line"
       id="tspan3059"
       x="20.198313"
       y="60.386139">raw</tspan></text>
</svg>
