<?xml version="1.0" encoding="UTF-8" standalone="no"?>
<!-- Created with Inkscape (http://www.inkscape.org/) -->

<svg
   xmlns:dc="http://purl.org/dc/elements/1.1/"
   xmlns:cc="http://creativecommons.org/ns#"
   xmlns:rdf="http://www.w3.org/1999/02/22-rdf-syntax-ns#"
   xmlns:svg="http://www.w3.org/2000/svg"
   xmlns="http://www.w3.org/2000/svg"
   xmlns:sodipodi="http://sodipodi.sourceforge.net/DTD/sodipodi-0.dtd"
   xmlns:inkscape="http://www.inkscape.org/namespaces/inkscape"
   width="96"
   height="96"
   id="svg2"
   version="1.1"
   inkscape:version="0.48.5 r10040"
   viewBox="0 0 27.093332 27.093336"
   sodipodi:docname="rstudio.svg">
  <defs
     id="defs4" />
  <sodipodi:namedview
     id="base"
     pagecolor="#ffffff"
     bordercolor="#666666"
     borderopacity="1.0"
     inkscape:pageopacity="0"
     inkscape:pageshadow="2"
     inkscape:zoom="1.9224466"
     inkscape:cx="-56.051374"
     inkscape:cy="-95.955919"
     inkscape:document-units="px"
     inkscape:current-layer="layer1"
     showgrid="false"
     inkscape:showpageshadow="false"
     borderlayer="true"
     units="px"
     fit-margin-top="0"
     fit-margin-left="0"
     fit-margin-right="0"
     fit-margin-bottom="0"
     showguides="false"
     inkscape:window-width="1680"
     inkscape:window-height="991"
     inkscape:window-x="-2"
     inkscape:window-y="-3"
     inkscape:window-maximized="1">
    <sodipodi:guide
       position="-6.6748425e-06,47.999999"
       orientation="47.999977,0"
       id="guide4120" />
    <sodipodi:guide
       position="-6.6748425e-06,2.2810037e-05"
       orientation="0,48.000004"
       id="guide4122" />
    <sodipodi:guide
       position="47.999997,2.2810037e-05"
       orientation="-47.999977,0"
       id="guide4124" />
    <sodipodi:guide
       position="47.999997,47.999999"
       orientation="0,-48.000004"
       id="guide4126" />
    <sodipodi:guide
       position="3.9999733,44.000154"
       orientation="39.999962,0"
       id="guide4138" />
    <sodipodi:guide
       position="3.9999733,4.0001921"
       orientation="0,40.000003"
       id="guide4140" />
    <sodipodi:guide
       position="43.999976,4.0001921"
       orientation="-39.999962,0"
       id="guide4142" />
    <sodipodi:guide
       position="43.999976,44.000154"
       orientation="0,-40.000003"
       id="guide4144" />
    <sodipodi:guide
       position="6.9999922,47.999999"
       orientation="39.999962,0"
       id="guide4148" />
    <sodipodi:guide
       position="6.9999922,8.0000369"
       orientation="0,34.000006"
       id="guide4150" />
    <sodipodi:guide
       position="40.999998,8.0000369"
       orientation="-39.999962,0"
       id="guide4152" />
    <sodipodi:guide
       position="40.999998,47.999999"
       orientation="0,-34.000006"
       id="guide4154" />
    <sodipodi:guide
       position="14.999993,32.999986"
       orientation="17.999951,0"
       id="guide4158" />
    <sodipodi:guide
       position="14.999993,15.000036"
       orientation="0,17.999998"
       id="guide4160" />
    <sodipodi:guide
       position="32.999991,15.000036"
       orientation="-17.999951,0"
       id="guide4162" />
    <sodipodi:guide
       position="32.999991,32.999986"
       orientation="0,-17.999998"
       id="guide4164" />
    <sodipodi:guide
       position="1.9999969,44.000046"
       orientation="39.999962,0"
       id="guide3279" />
    <sodipodi:guide
       position="1.9999969,4.0000839"
       orientation="0,44.000003"
       id="guide3281" />
    <sodipodi:guide
       position="46,4.0000839"
       orientation="-39.999962,0"
       id="guide3283" />
    <sodipodi:guide
       position="46,44.000046"
       orientation="0,-44.000003"
       id="guide3285" />
  </sodipodi:namedview>
  <metadata
     id="metadata7">
    <rdf:RDF>
      <cc:Work
         rdf:about="">
        <dc:format>image/svg+xml</dc:format>
        <dc:type
           rdf:resource="http://purl.org/dc/dcmitype/StillImage" />
        <dc:title />
      </cc:Work>
    </rdf:RDF>
  </metadata>
  <g
     inkscape:label="Capa 1"
     inkscape:groupmode="layer"
     id="layer1"
     transform="translate(38.119153,-384.29827)">
    <rect
       style="color:#000000;fill:#2980b9;fill-opacity:1;fill-rule:nonzero;stroke:none;stroke-width:0.20000000000000001;marker:none;visibility:visible;display:inline;overflow:visible;enable-background:accumulate"
       id="rect3005"
       width="23.706694"
       height="23.706696"
       x="-36.425835"
       y="385.99158" />
    <g
       style="font-size:11.28888988px;font-style:normal;font-variant:normal;font-weight:normal;font-stretch:normal;line-height:125%;letter-spacing:0px;word-spacing:0px;fill:#ecf0f1;fill-opacity:1;stroke:none;font-family:Iceberg;-inkscape-font-specification:Iceberg"
       id="text3772"
       transform="matrix(1.2326411,0,0,1.2326411,14.900707,-101.45932)">
      <path
         d="m -30.22906,409.13382 -1.736328,-3.40651 c -0.106573,0.0147 -0.216816,0.0257 -0.330729,0.0331 -0.110247,0.007 -0.224165,0.011 -0.341754,0.011 -0.13597,0 -0.275611,-0.006 -0.418924,-0.0165 -0.139644,-0.011 -0.284797,-0.0257 -0.43546,-0.0441 l 0,2.80018 1.245747,0.39687 0,0.226 -3.274219,0 0,-0.226 1.014236,-0.39687 0,-6.88468 -1.014236,-0.39688 0,-0.226 3.103342,0 c 0.477716,1e-5 0.902151,0.0551 1.273308,0.16537 0.371146,0.10657 0.683501,0.25908 0.937066,0.45751 0.257227,0.19844 0.45199,0.4373 0.584288,0.71658 0.132285,0.27561 0.198431,0.58245 0.198437,0.92053 -6e-6,0.4961 -0.128623,0.93707 -0.38585,1.32291 -0.253565,0.38218 -0.630229,0.67433 -1.129992,0.87644 l 1.604037,3.1309 0.810286,0.31419 0,0.226 -1.703255,0 m -2.028472,-7.55165 -1.234723,0 0,3.54431 c 0.150663,0.0184 0.292141,0.0331 0.424436,0.0441 0.135963,0.007 0.268255,0.011 0.396875,0.011 1.418456,0 2.127686,-0.61001 2.127691,-1.83004 -5e-6,-0.59163 -0.146996,-1.03444 -0.440972,-1.32843 -0.293986,-0.29397 -0.718422,-0.44096 -1.273307,-0.44097"
         style="fill:#ecf0f1;fill-opacity:1;font-family:Amethysta;-inkscape-font-specification:Amethysta"
         id="path3777"
         inkscape:connector-curvature="0" />
    </g>
  </g>
</svg>
