<?xml version="1.0" encoding="UTF-8" standalone="no"?>
<!-- Created with Inkscape (http://www.inkscape.org/) -->

<svg
   xmlns:dc="http://purl.org/dc/elements/1.1/"
   xmlns:cc="http://creativecommons.org/ns#"
   xmlns:rdf="http://www.w3.org/1999/02/22-rdf-syntax-ns#"
   xmlns:svg="http://www.w3.org/2000/svg"
   xmlns="http://www.w3.org/2000/svg"
   xmlns:xlink="http://www.w3.org/1999/xlink"
   xmlns:sodipodi="http://sodipodi.sourceforge.net/DTD/sodipodi-0.dtd"
   xmlns:inkscape="http://www.inkscape.org/namespaces/inkscape"
   width="96"
   height="96"
   id="svg2"
   version="1.1"
   inkscape:version="0.48.5 r10040"
   viewBox="0 0 27.093332 27.093336"
   sodipodi:docname="snes9x.svg">
  <defs
     id="defs4">
    <marker
       inkscape:stockid="Arrow1Lend"
       orient="auto"
       refY="0"
       refX="0"
       id="Arrow1Lend"
       style="overflow:visible">
      <path
         id="path3795"
         d="M 0,0 5,-5 -12.5,0 5,5 0,0 z"
         style="fill-rule:evenodd;stroke:#000000;stroke-width:1pt"
         transform="matrix(-0.8,0,0,-0.8,-10,0)"
         inkscape:connector-curvature="0" />
    </marker>
    <marker
       inkscape:stockid="Arrow2Mstart"
       orient="auto"
       refY="0"
       refX="0"
       id="Arrow2Mstart"
       style="overflow:visible">
      <path
         id="path3816"
         style="fill-rule:evenodd;stroke-width:0.625;stroke-linejoin:round"
         d="M 8.7185878,4.0337352 -2.2072895,0.01601326 8.7185884,-4.0017078 c -1.7454984,2.3720609 -1.7354408,5.6174519 -6e-7,8.035443 z"
         transform="scale(0.6,0.6)"
         inkscape:connector-curvature="0" />
    </marker>
    <marker
       inkscape:stockid="Arrow1Lstart"
       orient="auto"
       refY="0"
       refX="0"
       id="Arrow1Lstart"
       style="overflow:visible">
      <path
         id="path3792"
         d="M 0,0 5,-5 -12.5,0 5,5 0,0 z"
         style="fill-rule:evenodd;stroke:#000000;stroke-width:1pt"
         transform="matrix(0.8,0,0,0.8,10,0)"
         inkscape:connector-curvature="0" />
    </marker>
    <linearGradient
       inkscape:collect="always"
       id="linearGradient3801">
      <stop
         style="stop-color:#000000;stop-opacity:1;"
         offset="0"
         id="stop3803" />
      <stop
         style="stop-color:#000000;stop-opacity:0;"
         offset="1"
         id="stop3805" />
    </linearGradient>
    <inkscape:perspective
       sodipodi:type="inkscape:persp3d"
       inkscape:vp_x="0 : 24 : 1"
       inkscape:vp_y="0 : 1000 : 0"
       inkscape:vp_z="48 : 24 : 1"
       inkscape:persp3d-origin="24 : 16 : 1"
       id="perspective4139" />
    <linearGradient
       inkscape:collect="always"
       xlink:href="#linearGradient3801"
       id="linearGradient3807"
       x1="-32.097721"
       y1="408.18811"
       x2="-30.588081"
       y2="408.18811"
       gradientUnits="userSpaceOnUse" />
  </defs>
  <sodipodi:namedview
     id="base"
     pagecolor="#ffffff"
     bordercolor="#666666"
     borderopacity="1.0"
     inkscape:pageopacity="0"
     inkscape:pageshadow="2"
     inkscape:zoom="2.8284271"
     inkscape:cx="41.226095"
     inkscape:cy="-10.191175"
     inkscape:document-units="px"
     inkscape:current-layer="layer1"
     showgrid="true"
     inkscape:showpageshadow="false"
     borderlayer="true"
     units="px"
     fit-margin-top="0"
     fit-margin-left="0"
     fit-margin-right="0"
     fit-margin-bottom="0"
     showguides="false"
     inkscape:window-width="1680"
     inkscape:window-height="991"
     inkscape:window-x="-2"
     inkscape:window-y="-3"
     inkscape:window-maximized="1"
     inkscape:snap-to-guides="false"
     inkscape:snap-grids="false"
     inkscape:guide-bbox="true">
    <sodipodi:guide
       position="-6.6748425e-06,47.999999"
       orientation="47.999977,0"
       id="guide4120" />
    <sodipodi:guide
       position="-6.6748425e-06,2.2810037e-05"
       orientation="0,48.000004"
       id="guide4122" />
    <sodipodi:guide
       position="47.999997,2.2810037e-05"
       orientation="-47.999977,0"
       id="guide4124" />
    <sodipodi:guide
       position="47.999997,47.999999"
       orientation="0,-48.000004"
       id="guide4126" />
    <sodipodi:guide
       position="3.9999733,44.000154"
       orientation="39.999962,0"
       id="guide4138" />
    <sodipodi:guide
       position="3.9999733,4.0001921"
       orientation="0,40.000003"
       id="guide4140" />
    <sodipodi:guide
       position="43.999976,4.0001921"
       orientation="-39.999962,0"
       id="guide4142" />
    <sodipodi:guide
       position="43.999976,44.000154"
       orientation="0,-40.000003"
       id="guide4144" />
    <sodipodi:guide
       position="6.9999922,47.999999"
       orientation="39.999962,0"
       id="guide4148" />
    <sodipodi:guide
       position="6.9999922,8.0000369"
       orientation="0,34.000006"
       id="guide4150" />
    <sodipodi:guide
       position="40.999998,8.0000369"
       orientation="-39.999962,0"
       id="guide4152" />
    <sodipodi:guide
       position="40.999998,47.999999"
       orientation="0,-34.000006"
       id="guide4154" />
    <sodipodi:guide
       position="14.999993,32.999986"
       orientation="17.999951,0"
       id="guide4158" />
    <sodipodi:guide
       position="14.999993,15.000036"
       orientation="0,17.999998"
       id="guide4160" />
    <sodipodi:guide
       position="32.999991,15.000036"
       orientation="-17.999951,0"
       id="guide4162" />
    <sodipodi:guide
       position="32.999991,32.999986"
       orientation="0,-17.999998"
       id="guide4164" />
    <sodipodi:guide
       position="1.9999969,44.000046"
       orientation="39.999962,0"
       id="guide3279" />
    <sodipodi:guide
       position="1.9999969,4.0000839"
       orientation="0,44.000003"
       id="guide3281" />
    <sodipodi:guide
       position="46,4.0000839"
       orientation="-39.999962,0"
       id="guide3283" />
    <sodipodi:guide
       position="46,44.000046"
       orientation="0,-44.000003"
       id="guide3285" />
    <sodipodi:guide
       orientation="1,0"
       position="33.922014,36.072001"
       id="guide4163" />
    <inkscape:grid
       type="xygrid"
       id="grid4165"
       empspacing="5"
       visible="true"
       enabled="true"
       snapvisiblegridlinesonly="true"
       spacingx="3px"
       spacingy="3px" />
    <sodipodi:guide
       orientation="0,1"
       position="26.849507,10.886923"
       id="guide3795" />
    <sodipodi:guide
       orientation="0,1"
       position="17.213108,23.907095"
       id="guide3797" />
    <sodipodi:guide
       orientation="0,1"
       position="26.334585,36.853707"
       id="guide3799" />
  </sodipodi:namedview>
  <metadata
     id="metadata7">
    <rdf:RDF>
      <cc:Work
         rdf:about="">
        <dc:format>image/svg+xml</dc:format>
        <dc:type
           rdf:resource="http://purl.org/dc/dcmitype/StillImage" />
        <dc:title />
      </cc:Work>
    </rdf:RDF>
  </metadata>
  <g
     inkscape:label="Capa 1"
     inkscape:groupmode="layer"
     id="layer1"
     transform="translate(38.119153,-384.29827)">
    <rect
       style="color:#000000;fill:#34495e;fill-opacity:1;fill-rule:nonzero;stroke:none;stroke-width:0.2;marker:none;visibility:visible;display:inline;overflow:visible;enable-background:accumulate"
       id="rect3036"
       width="23.706694"
       height="23.706696"
       x="-36.425835"
       y="385.99158"
       ry="0" />
    <g
       id="g3840"
       transform="matrix(1.5811766,0,0,1.5811766,14.280954,-231.21817)">
      <path
         transform="matrix(0.33976465,0,0,0.35164541,-32.742195,393.02713)"
         d="m 29.920905,24.045198 c 0,3.145215 -2.630644,5.694916 -5.875707,5.694916 -3.245062,0 -5.875706,-2.549701 -5.875706,-5.694916 0,-3.145214 2.630644,-5.694915 5.875706,-5.694915 3.245063,0 5.875707,2.549701 5.875707,5.694915 z"
         sodipodi:ry="5.6949153"
         sodipodi:rx="5.8757062"
         sodipodi:cy="24.045198"
         sodipodi:cx="24.045198"
         id="path4167"
         style="fill:#34495e;fill-opacity:1;stroke:#2c3e50;stroke-width:0.18370976;stroke-linejoin:miter;stroke-miterlimit:0.40000001;stroke-opacity:1;stroke-dasharray:none;stroke-dashoffset:0;marker-start:none;marker-mid:none"
         sodipodi:type="arc" />
      <use
         height="13.546668"
         width="13.546666"
         transform="translate(0,-7.2751467)"
         id="use4169"
         xlink:href="#path4167"
         y="0"
         x="0" />
      <use
         height="13.546668"
         width="13.546666"
         transform="translate(3.6375735,-3.6375735)"
         id="use4171"
         xlink:href="#path4167"
         y="0"
         x="0" />
      <use
         height="13.546668"
         width="13.546666"
         transform="translate(-3.6375735,-3.6375735)"
         id="use4173"
         xlink:href="#path4167"
         y="0"
         x="0" />
      <path
         sodipodi:type="arc"
         style="fill:#2980b9;fill-opacity:1;stroke:none"
         id="path4177"
         sodipodi:cx="24.045198"
         sodipodi:cy="24.045198"
         sodipodi:rx="5.8757062"
         sodipodi:ry="5.6949153"
         d="m 29.920905,24.045198 c 0,3.145215 -2.630644,5.694916 -5.875707,5.694916 -3.245062,0 -5.875706,-2.549701 -5.875706,-5.694916 0,-3.145214 2.630644,-5.694915 5.875706,-5.694915 3.245063,0 5.875707,2.549701 5.875707,5.694915 z"
         transform="matrix(0.27200385,0,0,0.28435875,-31.112873,394.64505)" />
      <use
         height="13.546668"
         width="13.546666"
         transform="translate(0,-7.2751467)"
         id="use4179"
         xlink:href="#path4177"
         y="0"
         x="0" />
      <use
         height="13.546668"
         width="13.546666"
         transform="translate(-3.6375735,3.6375735)"
         id="use4181"
         xlink:href="#use4179"
         y="0"
         x="0" />
      <use
         height="13.546668"
         width="13.546666"
         transform="translate(7.2751467,0)"
         id="use4183"
         xlink:href="#use4181"
         y="0"
         x="0" />
    </g>
  </g>
</svg>
