<?xml version="1.0" encoding="UTF-8" standalone="no"?>
<!-- Created with Inkscape (http://www.inkscape.org/) -->

<svg
   xmlns:dc="http://purl.org/dc/elements/1.1/"
   xmlns:cc="http://creativecommons.org/ns#"
   xmlns:rdf="http://www.w3.org/1999/02/22-rdf-syntax-ns#"
   xmlns:svg="http://www.w3.org/2000/svg"
   xmlns="http://www.w3.org/2000/svg"
   xmlns:xlink="http://www.w3.org/1999/xlink"
   xmlns:sodipodi="http://sodipodi.sourceforge.net/DTD/sodipodi-0.dtd"
   xmlns:inkscape="http://www.inkscape.org/namespaces/inkscape"
   version="1.0"
   width="96"
   height="96"
   id="svg2408"
   inkscape:version="0.48.4 r9939"
   sodipodi:docname="trojita.svg">
  <sodipodi:namedview
     pagecolor="#ffffff"
     bordercolor="#666666"
     borderopacity="1"
     objecttolerance="10"
     gridtolerance="10"
     guidetolerance="10"
     inkscape:pageopacity="0"
     inkscape:pageshadow="2"
     inkscape:window-width="1680"
     inkscape:window-height="991"
     id="namedview130"
     showgrid="false"
     inkscape:zoom="7.1614137"
     inkscape:cx="24.572046"
     inkscape:cy="42.943378"
     inkscape:window-x="0"
     inkscape:window-y="-3"
     inkscape:window-maximized="1"
     inkscape:current-layer="svg2408" />
  <defs
     id="defs2410">
    <linearGradient
       id="linearGradient3731">
      <stop
         id="stop3733"
         style="stop-color:#4d4d4d;stop-opacity:1"
         offset="0" />
      <stop
         id="stop3735"
         style="stop-color:#878787;stop-opacity:1"
         offset="1" />
    </linearGradient>
    <linearGradient
       id="linearGradient3693">
      <stop
         id="stop3695"
         style="stop-color:#8d8d8d;stop-opacity:1"
         offset="0" />
      <stop
         id="stop3697"
         style="stop-color:#ffffff;stop-opacity:1"
         offset="0.25843728" />
      <stop
         id="stop3699"
         style="stop-color:#686868;stop-opacity:1"
         offset="0.54385865" />
      <stop
         id="stop3711"
         style="stop-color:#b1b1b1;stop-opacity:1"
         offset="1" />
    </linearGradient>
    <linearGradient
       id="linearGradient5463">
      <stop
         id="stop5465"
         style="stop-color:#d40000;stop-opacity:1"
         offset="0" />
      <stop
         id="stop5471"
         style="stop-color:#ff8c67;stop-opacity:1"
         offset="0.33869192" />
      <stop
         id="stop5473"
         style="stop-color:#d40000;stop-opacity:1"
         offset="0.60884869" />
      <stop
         id="stop5467"
         style="stop-color:#6e0000;stop-opacity:1"
         offset="1" />
    </linearGradient>
    <linearGradient
       id="linearGradient5433">
      <stop
         id="stop5435"
         style="stop-color:#8d8d8d;stop-opacity:1"
         offset="0" />
      <stop
         id="stop5441"
         style="stop-color:#ffffff;stop-opacity:1"
         offset="0.32500392" />
      <stop
         id="stop5443"
         style="stop-color:#686868;stop-opacity:1"
         offset="0.5802148" />
      <stop
         id="stop5437"
         style="stop-color:#b3b3b3;stop-opacity:1"
         offset="1" />
    </linearGradient>
    <linearGradient
       id="linearGradient5420">
      <stop
         id="stop5422"
         style="stop-color:#525252;stop-opacity:1"
         offset="0" />
      <stop
         id="stop5498"
         style="stop-color:#cecece;stop-opacity:1"
         offset="0.21238038" />
      <stop
         id="stop5424"
         style="stop-color:#fdfdfd;stop-opacity:1"
         offset="0.60427487" />
      <stop
         id="stop5428"
         style="stop-color:#7c7c7c;stop-opacity:1"
         offset="0.74339777" />
      <stop
         id="stop5426"
         style="stop-color:#040404;stop-opacity:1"
         offset="1" />
    </linearGradient>
    <linearGradient
       id="linearGradient5274">
      <stop
         id="stop5276"
         style="stop-color:#000000;stop-opacity:1"
         offset="0" />
      <stop
         id="stop5278"
         style="stop-color:#000000;stop-opacity:0"
         offset="1" />
    </linearGradient>
    <linearGradient
       id="linearGradient5134">
      <stop
         id="stop5136"
         style="stop-color:#5a5a5a;stop-opacity:1"
         offset="0" />
      <stop
         id="stop5138"
         style="stop-color:#909090;stop-opacity:1"
         offset="1" />
    </linearGradient>
    <linearGradient
       id="linearGradient3619">
      <stop
         id="stop3621"
         style="stop-color:#d2d2d2;stop-opacity:1"
         offset="0" />
      <stop
         id="stop3623"
         style="stop-color:#f0f0f0;stop-opacity:1"
         offset="1" />
    </linearGradient>
    <linearGradient
       x1="45.447727"
       y1="92.539597"
       x2="45.447727"
       y2="7.0165396"
       id="ButtonShadow"
       gradientUnits="userSpaceOnUse"
       gradientTransform="scale(1.0058652,0.994169)">
      <stop
         id="stop3750"
         style="stop-color:#000000;stop-opacity:1"
         offset="0" />
      <stop
         id="stop3752"
         style="stop-color:#000000;stop-opacity:0.58823532"
         offset="1" />
    </linearGradient>
    <linearGradient
       id="linearGradient3737">
      <stop
         id="stop3739"
         style="stop-color:#ffffff;stop-opacity:1"
         offset="0" />
      <stop
         id="stop3741"
         style="stop-color:#ffffff;stop-opacity:0"
         offset="1" />
    </linearGradient>
    <filter
       color-interpolation-filters="sRGB"
       id="filter3174">
      <feGaussianBlur
         id="feGaussianBlur3176"
         stdDeviation="1.71" />
    </filter>
    <linearGradient
       x1="36.357143"
       y1="6"
       x2="36.357143"
       y2="63.893143"
       id="linearGradient3188"
       xlink:href="#linearGradient3737"
       gradientUnits="userSpaceOnUse" />
    <filter
       x="-0.192"
       y="-0.192"
       width="1.3839999"
       height="1.3839999"
       color-interpolation-filters="sRGB"
       id="filter3794">
      <feGaussianBlur
         id="feGaussianBlur3796"
         stdDeviation="5.28" />
    </filter>
    <linearGradient
       x1="48"
       y1="20.220806"
       x2="48"
       y2="138.66119"
       id="linearGradient3613"
       xlink:href="#linearGradient3737"
       gradientUnits="userSpaceOnUse" />
    <radialGradient
       cx="48"
       cy="90.171875"
       r="42"
       fx="48"
       fy="90.171875"
       id="radialGradient3619"
       xlink:href="#linearGradient3737"
       gradientUnits="userSpaceOnUse"
       gradientTransform="matrix(1.1573129,0,0,0.99590774,-7.5510206,0.19713193)" />
    <clipPath
       id="clipPath3613">
      <rect
         width="84"
         height="84"
         rx="6"
         ry="6"
         x="6"
         y="6"
         id="rect3615"
         style="fill:#ffffff;fill-opacity:1;fill-rule:nonzero;stroke:none" />
    </clipPath>
    <linearGradient
       x1="47.753529"
       y1="90.218231"
       x2="47.753529"
       y2="6.3465385"
       id="linearGradient5239"
       xlink:href="#linearGradient5134"
       gradientUnits="userSpaceOnUse" />
    <clipPath
       id="clipPath5288">
      <rect
         width="84"
         height="84"
         rx="6"
         ry="6"
         x="16"
         y="6"
         id="rect5290"
         style="fill:#ffffff;fill-opacity:1;fill-rule:nonzero;stroke:none" />
    </clipPath>
    <filter
       x="-0.12"
       y="-0.12"
       width="1.24"
       height="1.24"
       color-interpolation-filters="sRGB"
       id="filter5300">
      <feGaussianBlur
         id="feGaussianBlur5302"
         stdDeviation="4.2" />
    </filter>
    <linearGradient
       x1="49.978714"
       y1="82.681816"
       x2="49.978714"
       y2="-5.7324624"
       id="linearGradient5313"
       xlink:href="#linearGradient3737"
       gradientUnits="userSpaceOnUse" />
    <linearGradient
       x1="47.753529"
       y1="90.218231"
       x2="47.753529"
       y2="6.3465385"
       id="linearGradient5317"
       xlink:href="#linearGradient3619"
       gradientUnits="userSpaceOnUse"
       gradientTransform="translate(0,100)" />
    <linearGradient
       x1="47.753529"
       y1="90.218231"
       x2="47.753529"
       y2="6.3465385"
       id="linearGradient5321"
       xlink:href="#linearGradient3619"
       gradientUnits="userSpaceOnUse" />
    <linearGradient
       x1="48.961185"
       y1="78.065437"
       x2="48.961185"
       y2="18.06966"
       id="linearGradient5356"
       xlink:href="#linearGradient3737"
       gradientUnits="userSpaceOnUse" />
    <linearGradient
       x1="50.252888"
       y1="20.248539"
       x2="50.252888"
       y2="75.615822"
       id="linearGradient5371"
       xlink:href="#linearGradient5420"
       gradientUnits="userSpaceOnUse" />
    <linearGradient
       x1="46.79694"
       y1="31.65823"
       x2="46.79694"
       y2="42.515114"
       id="linearGradient5439"
       xlink:href="#linearGradient3693"
       gradientUnits="userSpaceOnUse"
       gradientTransform="matrix(0.86666667,0,0,1.3636363,6.4,-6.4545428)" />
    <linearGradient
       x1="34.15395"
       y1="33.945866"
       x2="34.15395"
       y2="46.010723"
       id="linearGradient5469"
       xlink:href="#linearGradient5463"
       gradientUnits="userSpaceOnUse"
       gradientTransform="matrix(0.97916667,0,0,1,1.4895833,3)" />
    <linearGradient
       x1="55.619888"
       y1="35.701611"
       x2="39.929382"
       y2="35.701611"
       id="linearGradient5488"
       xlink:href="#linearGradient5274"
       gradientUnits="userSpaceOnUse"
       gradientTransform="matrix(0.13333333,0,0,1.0909091,33.6,2.6363637)" />
    <linearGradient
       x1="55.619888"
       y1="35.701611"
       x2="39.929382"
       y2="35.701611"
       id="linearGradient5492"
       xlink:href="#linearGradient5274"
       gradientUnits="userSpaceOnUse"
       gradientTransform="matrix(-0.13333333,0,0,1.0909091,62.35643,2.6363637)" />
    <linearGradient
       x1="46.79694"
       y1="31.771585"
       x2="46.79694"
       y2="36.256687"
       id="linearGradient5502"
       xlink:href="#linearGradient5433"
       gradientUnits="userSpaceOnUse"
       gradientTransform="matrix(0.86666667,0,0,1.7454545,-14.6,-14.981815)" />
    <clipPath
       id="clipPath5560">
      <path
         d="M 12,6 C 8.676,6 6,8.676 6,12 l 0,72 c 0,3.324 2.676,6 6,6 l 72,0 c 3.324,0 6,-2.676 6,-6 L 90,12 C 90,8.676 87.324,6 84,6 L 12,6 z m 7.5,9 57,0 c 2.493,0 4.5,2.007 4.5,4.5 l 0,57 c 0,2.493 -2.007,4.5 -4.5,4.5 l -57,0 C 17.007,81 15,78.993 15,76.5 l 0,-57 C 15,17.007 17.007,15 19.5,15 z"
         inkscape:connector-curvature="0"
         id="path5562"
         style="fill:#ffffff;fill-opacity:1;fill-rule:nonzero;stroke:none" />
    </clipPath>
    <linearGradient
       x1="50.498287"
       y1="42.38448"
       x2="50.498287"
       y2="53.953835"
       id="linearGradient3738"
       xlink:href="#linearGradient3731"
       gradientUnits="userSpaceOnUse"
       gradientTransform="matrix(1,0,0,0.88235294,0,4.2941175)" />
    <clipPath
       id="clipPath3750">
      <rect
         width="84"
         height="84"
         rx="6"
         ry="6"
         x="6"
         y="6"
         id="rect3752"
         style="fill:#ffffff;fill-opacity:1;fill-rule:nonzero;stroke:none" />
    </clipPath>
    <filter
       x="-0.28603512"
       y="-0.20228001"
       width="1.5720702"
       height="1.40456"
       color-interpolation-filters="sRGB"
       id="filter3766">
      <feGaussianBlur
         id="feGaussianBlur3768"
         stdDeviation="7.6983673" />
    </filter>
    <filter
       x="-0.28534135"
       y="-0.20178936"
       width="1.5706826"
       height="1.4035788"
       color-interpolation-filters="sRGB"
       id="filter3772">
      <feGaussianBlur
         id="feGaussianBlur3774"
         stdDeviation="7.6796946" />
    </filter>
    <linearGradient
       x1="45.447727"
       y1="92.539597"
       x2="45.447727"
       y2="7.0165396"
       id="ButtonShadow-0"
       gradientUnits="userSpaceOnUse"
       gradientTransform="matrix(1.0058652,0,0,0.994169,100,0)">
      <stop
         id="stop3750-8"
         style="stop-color:#000000;stop-opacity:1"
         offset="0" />
      <stop
         id="stop3752-5"
         style="stop-color:#000000;stop-opacity:0.58823532"
         offset="1" />
    </linearGradient>
    <linearGradient
       x1="32.251034"
       y1="6.1317081"
       x2="32.251034"
       y2="90.238609"
       id="linearGradient3780"
       xlink:href="#ButtonShadow-0"
       gradientUnits="userSpaceOnUse"
       gradientTransform="matrix(1.0238095,0,0,1.0119048,-1.1428571,-98.071429)" />
    <linearGradient
       x1="32.251034"
       y1="6.1317081"
       x2="32.251034"
       y2="90.238609"
       id="linearGradient3772"
       xlink:href="#ButtonShadow-0"
       gradientUnits="userSpaceOnUse"
       gradientTransform="matrix(1.0238095,0,0,1.0119048,-1.1428571,-98.071429)" />
    <linearGradient
       x1="32.251034"
       y1="6.1317081"
       x2="32.251034"
       y2="90.238609"
       id="linearGradient3725"
       xlink:href="#ButtonShadow-0"
       gradientUnits="userSpaceOnUse"
       gradientTransform="matrix(1.0238095,0,0,1.0119048,-1.1428571,-98.071429)" />
    <linearGradient
       x1="32.251034"
       y1="6.1317081"
       x2="32.251034"
       y2="90.238609"
       id="linearGradient3721"
       xlink:href="#ButtonShadow-0"
       gradientUnits="userSpaceOnUse"
       gradientTransform="translate(0,-97)" />
    <linearGradient
       x1="32.251034"
       y1="6.1317081"
       x2="32.251034"
       y2="90.238609"
       id="linearGradient3071"
       xlink:href="#ButtonShadow-0"
       gradientUnits="userSpaceOnUse"
       gradientTransform="matrix(1.0238095,0,0,1.0119048,-1.1428571,-98.071429)" />
    <filter
       color-interpolation-filters="sRGB"
       id="filter3775">
      <feGaussianBlur
         id="feGaussianBlur3777"
         stdDeviation="0.4875" />
    </filter>
    <linearGradient
       inkscape:collect="always"
       xlink:href="#linearGradient3619"
       id="linearGradient3092"
       gradientUnits="userSpaceOnUse"
       gradientTransform="translate(0,100)"
       x1="47.753529"
       y1="90.218231"
       x2="47.753529"
       y2="6.3465385" />
  </defs>
  <metadata
     id="metadata2413">
    <rdf:RDF>
      <cc:Work
         rdf:about="">
        <dc:format>image/svg+xml</dc:format>
        <dc:type
           rdf:resource="http://purl.org/dc/dcmitype/StillImage" />
        <dc:title />
      </cc:Work>
    </rdf:RDF>
  </metadata>
  <g
     id="layer2"
     style="display:none">
    <rect
       width="86"
       height="85"
       rx="6"
       ry="6"
       x="5"
       y="7"
       id="rect3745"
       style="opacity:0.9;fill:url(#ButtonShadow);fill-opacity:1;fill-rule:nonzero;stroke:none;filter:url(#filter3174)" />
  </g>
  <path
     style="opacity:0.7;fill:#000000;fill-opacity:1;fill-rule:nonzero;stroke:none;filter:url(#filter5300)"
     id="path5282"
     clip-path="url(#clipPath5288)"
     transform="translate(-10,0)"
     inkscape:connector-curvature="0"
     d="m 22,6 c -3.324,0 -6,2.676 -6,6 l 0,72 c 0,3.324 2.676,6 6,6 l 72,0 c 3.324,0 6,-2.676 6,-6 l 0,-72 C 100,8.676 97.324,6 94,6 L 22,6 z m 8,10 56,0 c 2.216,0 4,1.784 4,4 l 0,56 c 0,2.216 -1.784,4 -4,4 l -56,0 c -2.216,0 -4,-1.784 -4,-4 l 0,-56 c 0,-2.216 1.784,-4 4,-4 z" />
  <rect
     style="fill:#cadbe2;fill-opacity:1;fill-rule:evenodd;stroke:none"
     id="rect3083"
     width="83.921982"
     height="84.201256"
     x="6.0044012"
     y="5.9339843" />
  <g
     id="g3089"
     style="fill:none;fill-opacity:1;stroke:#098ed9;stroke-opacity:1">
    <path
       inkscape:connector-curvature="0"
       style="fill:none;fill-opacity:1;fill-rule:nonzero;stroke:#098ed9;stroke-opacity:1"
       id="path3093"
       d="m 7.6489334,12.521059 c -0.3156851,0 -0.3854455,0.05992 -0.3854455,0.331071 l 0,69.34445 c 0,0.271152 0.069756,0.331072 0.3854455,0.331072 l 80.7332896,0 c 0.315685,0 0.385446,-0.05992 0.385446,-0.331072 l 0,-69.34445 c 0,-0.271152 -0.06975,-0.331071 -0.385446,-0.331071 l -80.7332896,0 z" />
  </g>
  <g
     id="layer3"
     style="display:inline" />
  <g
     id="layer5"
     style="display:none">
    <rect
       width="66"
       height="66"
       rx="12"
       ry="12"
       x="15"
       y="15"
       clip-path="url(#clipPath3613)"
       id="rect3171"
       style="opacity:0.1;fill:url(#linearGradient3613);fill-opacity:1;fill-rule:nonzero;stroke:#ffffff;stroke-width:0.5;stroke-linecap:round;stroke-linejoin:miter;stroke-miterlimit:4;stroke-opacity:1;stroke-dasharray:none;stroke-dashoffset:0;filter:url(#filter3794)" />
  </g>
  <g
     id="g3861">
    <g
       transform="matrix(1.6294268,0,0,1.0809727,-29.261346,-9.0933275)"
       style="display:inline"
       id="layer4" />
    <g
       transform="matrix(1.1572175,0,0,1.1836628,-6.8351469,-9.929167)"
       id="layer6" />
  </g>
  <path
     d="m 7.0802915,12.514817 81.6020315,0 L 47.881307,47.01606 7.0802915,12.514817 z"
     id="rect3219"
     style="fill:#ecf0f1;fill-opacity:0.8;stroke:#098ed9;stroke-width:0.36319295;stroke-linecap:butt;stroke-linejoin:bevel;stroke-miterlimit:4;stroke-opacity:1;stroke-dashoffset:0"
     inkscape:connector-curvature="0" />
  <path
     inkscape:connector-curvature="0"
     style="fill:#ecf0f1;fill-opacity:0.8;stroke:#098ed9;stroke-width:0.36319295;stroke-linecap:butt;stroke-linejoin:bevel;stroke-miterlimit:4;stroke-opacity:1;stroke-dashoffset:0"
     id="path3104"
     d="m 7.2709958,82.9948 81.6020312,0 L 48.072011,48.315446 7.2709958,82.9948 z" />
  <path
     inkscape:connector-curvature="0"
     style="fill:#ecf0f1;fill-opacity:0.8;stroke:#098ed9;stroke-width:0.36319295;stroke-linecap:butt;stroke-linejoin:bevel;stroke-miterlimit:4;stroke-opacity:1;stroke-dashoffset:0"
     id="path3885"
     d="m 7.0802915,12.514817 81.6020315,0 -40.913166,34.276944 z"
     sodipodi:nodetypes="cccc" />
  <path
     d="m 7.2709958,82.9948 81.6020312,0 -41.025315,-35.015803 z"
     id="path3887"
     style="fill:#ecf0f1;fill-opacity:0.8;stroke:#098ed9;stroke-width:0.36319295;stroke-linecap:butt;stroke-linejoin:bevel;stroke-miterlimit:4;stroke-opacity:1;stroke-dashoffset:0"
     inkscape:connector-curvature="0"
     sodipodi:nodetypes="cccc" />
  <path
     inkscape:connector-curvature="0"
     d="m 76.549909,19.539425 c -5.307987,0.35566 -7.730831,-0.50041 -12.596396,5.804449 -2.775654,4.477961 -5.466813,12.467166 -8.450682,15.777985 1.449174,0.984679 4.675236,-1.064321 5.944253,-2.479653 3.570049,-4.348889 10.672245,-13.732223 11.356353,-6.597998 0.376766,3.929119 -3.885263,9.800385 -7.392855,15.304932 -1.314073,2.119988 -3.956406,6.267258 -5.165377,8.217686 1.700979,0 4.472845,-0.863501 6.344662,-2.264992 3.649993,-2.732876 15.349461,-5.081979 13.693021,2.93503 -0.790693,3.826868 -5.971363,9.297439 -8.509393,11.197745 -6.518468,4.880607 -12.617874,12.881568 -21.91146,-2.111768 5.678521,22.485929 15.448024,18.378229 23.71498,12.002481 4.395524,-3.653393 8.757651,-9.620693 11.725155,-19.630612 1.073984,-3.967942 0.636826,-10.841899 -1.10527,-12.600433 -1.826431,-2.162307 -3.873705,-1.743958 -5.816817,-2.138482 -1.363934,-0.185794 -2.786147,-0.05649 -4.114939,0.135339 1.950828,-3.936176 3.755822,-8.906257 4.70895,-15.181681 0.245534,-4.015233 -0.898299,-8.58538 -2.424185,-8.370037 z"
     id="path2385"
     style="fill:#098ed9;fill-opacity:1;stroke:none" />
</svg>
