<?xml version="1.0" encoding="UTF-8" standalone="no"?>
<!-- Created with Inkscape (http://www.inkscape.org/) -->

<svg
   xmlns:dc="http://purl.org/dc/elements/1.1/"
   xmlns:cc="http://creativecommons.org/ns#"
   xmlns:rdf="http://www.w3.org/1999/02/22-rdf-syntax-ns#"
   xmlns:svg="http://www.w3.org/2000/svg"
   xmlns="http://www.w3.org/2000/svg"
   xmlns:sodipodi="http://sodipodi.sourceforge.net/DTD/sodipodi-0.dtd"
   xmlns:inkscape="http://www.inkscape.org/namespaces/inkscape"
   width="96"
   height="96"
   id="svg865"
   version="1.1"
   inkscape:version="0.48.4 r9939"
   sodipodi:docname="vokoscreen.svg">
  <defs
     id="defs867">
    <linearGradient
       id="linearGradient3732">
      <stop
         id="stop3734"
         style="stop-color:#000000;stop-opacity:0"
         offset="0" />
      <stop
         id="stop3740"
         style="stop-color:#000000;stop-opacity:0"
         offset="0.94999999" />
      <stop
         id="stop3736"
         style="stop-color:#000000;stop-opacity:1"
         offset="1" />
    </linearGradient>
    <filter
       color-interpolation-filters="sRGB"
       id="filter3774">
      <feGaussianBlur
         id="feGaussianBlur3776"
         stdDeviation="0.27274118" />
    </filter>
  </defs>
  <sodipodi:namedview
     id="base"
     pagecolor="#ffffff"
     bordercolor="#666666"
     borderopacity="1.0"
     inkscape:pageopacity="0.0"
     inkscape:pageshadow="2"
     inkscape:zoom="4.4367453"
     inkscape:cx="5.2147152"
     inkscape:cy="39.637983"
     inkscape:document-units="px"
     inkscape:current-layer="folderLayer"
     showgrid="false"
     inkscape:window-width="1680"
     inkscape:window-height="991"
     inkscape:window-x="-2"
     inkscape:window-y="-3"
     inkscape:window-maximized="1"
     borderlayer="true"
     inkscape:showpageshadow="false"
     showguides="false"
     inkscape:guide-bbox="true">
    <sodipodi:guide
       position="0,39.000017"
       orientation="30,0"
       id="guide4110" />
    <sodipodi:guide
       position="30,39.000017"
       orientation="0,-30"
       id="guide4116" />
    <sodipodi:guide
       position="30,9.0000174"
       orientation="0,18"
       id="guide4120" />
    <sodipodi:guide
       position="48,9.0000174"
       orientation="-30,0"
       id="guide4122" />
    <sodipodi:guide
       position="48,39.000017"
       orientation="0,-18"
       id="guide4124" />
    <sodipodi:guide
       position="4,41.000017"
       orientation="34,0"
       id="guide4164" />
    <sodipodi:guide
       position="22,41.000017"
       orientation="0,-18"
       id="guide4170" />
    <sodipodi:guide
       position="6,37.0002"
       orientation="27.999817,0"
       id="guide4174" />
    <sodipodi:guide
       position="6,9.0003836"
       orientation="0,35.999992"
       id="guide4176" />
    <sodipodi:guide
       position="41.999992,9.0003836"
       orientation="-27.999817,0"
       id="guide4178" />
    <sodipodi:guide
       position="41.999992,37.0002"
       orientation="0,-35.999992"
       id="guide4180" />
    <sodipodi:guide
       position="14,31.000017"
       orientation="20,0"
       id="guide4221" />
    <sodipodi:guide
       position="34,11.000017"
       orientation="-20,0"
       id="guide4225" />
    <sodipodi:guide
       position="34,31.000017"
       orientation="0,-20"
       id="guide4227" />
    <sodipodi:guide
       position="14,31.000017"
       orientation="11,0"
       id="guide4412" />
    <sodipodi:guide
       position="14,20.000017"
       orientation="6.123234e-17,1"
       id="guide4414" />
    <sodipodi:guide
       position="25,20.000017"
       orientation="-11,0"
       id="guide4416" />
    <sodipodi:guide
       position="25,31.000017"
       orientation="0,-11"
       id="guide4418" />
    <sodipodi:guide
       position="25,20.000017"
       orientation="9,0"
       id="guide4420" />
    <sodipodi:guide
       position="25,11.000017"
       orientation="0,9"
       id="guide4422" />
    <sodipodi:guide
       position="34,11.000017"
       orientation="-9,0"
       id="guide4424" />
    <sodipodi:guide
       position="34,20.000017"
       orientation="0,-9"
       id="guide4426" />
    <sodipodi:guide
       position="23.000001,35.000017"
       orientation="-1.9999999,0"
       id="guide4068" />
    <sodipodi:guide
       position="23.000001,37.000017"
       orientation="0,2"
       id="guide4070" />
    <sodipodi:guide
       position="25,37.000017"
       orientation="1.9999999,0"
       id="guide4072" />
    <sodipodi:guide
       position="25,35.000017"
       orientation="0,-2"
       id="guide4074" />
    <sodipodi:guide
       orientation="0,1"
       position="-5.0900019,45.012788"
       id="guide3049" />
    <sodipodi:guide
       orientation="0,1"
       position="14,5.0286766"
       id="guide3051" />
    <sodipodi:guide
       orientation="1,0"
       position="18.481902,18.990154"
       id="guide3071" />
    <sodipodi:guide
       orientation="0,1"
       position="38.343944,6.3672171"
       id="guide5272" />
  </sodipodi:namedview>
  <metadata
     id="metadata870">
    <rdf:RDF>
      <cc:Work
         rdf:about="">
        <dc:format>image/svg+xml</dc:format>
        <dc:type
           rdf:resource="http://purl.org/dc/dcmitype/StillImage" />
        <dc:title></dc:title>
      </cc:Work>
    </rdf:RDF>
  </metadata>
  <g
     inkscape:groupmode="layer"
     id="folderLayer"
     inkscape:label="folder"
     transform="translate(0,48)">
    <rect
       style="fill:#4280f3;fill-opacity:1;stroke:none"
       id="rect907"
       width="84.101807"
       height="83.992958"
       x="5.9490952"
       y="-42.050903" />
    <rect
       style="color:#000000;fill:#ffffff;fill-opacity:1;fill-rule:nonzero;stroke:none;stroke-width:2;marker:none;visibility:visible;display:inline;overflow:visible;enable-background:accumulate"
       id="rect3044"
       width="63.789333"
       height="50.401077"
       x="-71.841331"
       y="-25.200539"
       ry="3.030858"
       transform="scale(-1,1)" />
    <path
       style="color:#000000;fill:#ffffff;fill-opacity:1;fill-rule:nonzero;stroke:none;stroke-width:2;marker:none;visibility:visible;display:inline;overflow:visible;enable-background:accumulate"
       d="m 85.702403,-15.165791 -7.616759,1.903699 c -2.332208,0.582901 -4.339257,1.935307 -4.339257,4.3392555 l 0,16.9625474 c 0,2.4039481 1.975065,3.9038651 4.339257,4.3392561 l 7.236019,1.332589 c 2.364191,0.435391 2.625927,-3.267897 2.625927,-5.6718451 l 0,-16.9625474 c 0,-2.4039485 0.08702,-6.8258565 -2.245187,-6.2429545 z"
       id="rect3102"
       inkscape:connector-curvature="0"
       sodipodi:nodetypes="sssssssss" />
    <rect
       ry="2.1832809"
       y="-9.9172115"
       x="-74.725716"
       height="18.733446"
       width="7.5088172"
       id="rect3104"
       style="color:#000000;fill:#ffffff;fill-opacity:1;fill-rule:nonzero;stroke:none;stroke-width:2;marker:none;visibility:visible;display:inline;overflow:visible;enable-background:accumulate"
       transform="scale(-1,1)" />
    <g
       style="fill:#4280f3;fill-opacity:1"
       id="g3952"
       transform="matrix(1.9366739,0,0,1.9121536,16.706578,-23.233914)">
      <path
         style="fill:#4280f3;fill-opacity:1"
         id="polygon3"
         d="m 16.974359,2.0011754 c -0.441215,0.029429 -0.815745,0.61772 -0.412447,1.0373658 2.359896,2.4548838 3.530095,5.5625838 3.568291,8.9613468 -0.03799,3.398761 -1.208395,6.506062 -3.568291,8.961345 -0.53773,0.559328 0.31096,1.416669 0.84989,0.85614 2.579268,-2.683454 3.876651,-6.102764 3.918246,-9.817485 C 21.288448,8.2851659 19.99107,4.8654564 17.411802,2.1824021 17.27712,2.0422202 17.121431,1.991364 16.974359,2.0011754 z M 14.79339,4.0696593 c -0.440466,0.028657 -0.820494,0.61622 -0.418696,1.0373657 1.822165,1.9115543 2.706201,4.2574019 2.743396,6.892863 -0.03719,2.63546 -0.921231,4.981508 -2.743396,6.892862 -0.535732,0.561727 0.313159,1.413018 0.84989,0.84989 2.041138,-2.140724 3.058007,-4.790133 3.099601,-7.742752 C 18.282595,9.0474679 17.265722,6.3978593 15.224584,4.2571345 15.090402,4.1164031 14.940211,4.0601069 14.79339,4.0696593 z m -4.299447,2.01224 -3.41206,3.4120609 -4.4119314,0 0,5.0118538 4.4119314,0 3.41206,3.412061 0,-11.8359757 z m 2.118478,0.062495 c -0.438797,0.027276 -0.817045,0.6072714 -0.418697,1.0311172 1.297234,1.3804219 1.884658,2.9372215 1.912255,4.8243785 -0.0276,1.887557 -0.615021,3.443557 -1.912255,4.824379 -0.531131,0.565127 0.317359,1.417018 0.849891,0.84989 1.513206,-1.609992 2.236462,-3.468553 2.268458,-5.674269 C 15.280073,9.7945742 14.557021,7.9358134 13.043615,6.325621 12.910482,6.1839393 12.758686,6.1353021 12.612421,6.1443945 z"
         inkscape:connector-curvature="0" />
    </g>
  </g>
</svg>
